{
    "count": 200,
    "next": "https:\/\/cryptopanic.com\/api\/v1\/posts\/?auth_token=01c356e89ffc1b8eba2127c81fc8c66ee0eace75&kind=news&currencies=ARDR&page=2",
    "previous": null,
    "results": [
        {
            "kind": "news",
            "domain": "@ArdorPlatform",
            "source": {
                "title": "Ardor Twitter",
                "region": "en",
                "domain": "twitter.com",
                "path": "@ardorplatform"
            },
            "title": "RT @Jelurida:  Our Weekly Wins are here!  \n\n#Ardor #Ignis #Nxt #blockchain #crypto\n\nWatch the video thanks to @madfox1234 and read the fu\u2026",
            "published_at": "2023-07-03T08:05:08Z",
            "slug": "RT-Jelurida-Our-Weekly-Wins-are-here-Ardor-Ignis-Nxt-blockchain-crypto-Watch-the-video-thanks-to-madfox1234-and-read-the-fu",
            "currencies": [
                {
                    "code": "ARDR",
                    "title": "Ardor",
                    "slug": "ardor",
                    "url": "https:\/\/cryptopanic.com\/news\/ardor\/"
                }
            ],
            "id": 18707349,
            "url": "https:\/\/cryptopanic.com\/news\/18707349\/RT-Jelurida-Our-Weekly-Wins-are-here-Ardor-Ignis-Nxt-blockchain-crypto-Watch-the-video-thanks-to-madfox1234-and-read-the-fu",
            "created_at": "2023-07-03T08:05:08Z",
            "votes": {
                "negative": 0,
                "positive": 0,
                "important": 0,
                "liked": 0,
                "disliked": 0,
                "lol": 0,
                "toxic": 0,
                "saved": 0,
                "comments": 0
            }
        },
        {
            "kind": "news",
            "domain": "@ArdorPlatform",
            "source": {
                "title": "Ardor Twitter",
                "region": "en",
                "domain": "twitter.com",
                "path": "@ardorplatform"
            },
            "title": " Exciting news!  \nThe #VesselChain project on #Ardor #blockchain has been presented at B-Blue @barcelonactiva, th\u2026",
            "published_at": "2023-06-20T10:31:50Z",
            "slug": "Exciting-news-The-VesselChain-project-on-Ardor-blockchain-has-been-presented-at-B-Blue-barcelonactiva-th",
            "currencies": [
                {
                    "code": "ARDR",
                    "title": "Ardor",
                    "slug": "ardor",
                    "url": "https:\/\/cryptopanic.com\/news\/ardor\/"
                }
            ],
            "id": 18618451,
            "url": "https:\/\/cryptopanic.com\/news\/18618451\/Exciting-news-The-VesselChain-project-on-Ardor-blockchain-has-been-presented-at-B-Blue-barcelonactiva-th",
            "created_at": "2023-06-20T10:31:50Z",
            "votes": {
                "negative": 0,
                "positive": 0,
                "important": 0,
                "liked": 0,
                "disliked": 0,
                "lol": 0,
                "toxic": 0,
                "saved": 0,
                "comments": 0
            }
        },
        {
            "kind": "news",
            "domain": "@ArdorPlatform",
            "source": {
                "title": "Ardor Twitter",
                "region": "en",
                "domain": "twitter.com",
                "path": "@ardorplatform"
            },
            "title": "RT @Jelurida:  Our Weekly Wins are here!  \n\n#Ardor #Ignis #Nxt #blockchain #crypto\n\nWatch the video thanks to @madfox1234 and read the fu\u2026",
            "published_at": "2023-06-20T05:42:17Z",
            "slug": "RT-Jelurida-Our-Weekly-Wins-are-here-Ardor-Ignis-Nxt-blockchain-crypto-Watch-the-video-thanks-to-madfox1234-and-read-the-fu",
            "currencies": [
                {
                    "code": "ARDR",
                    "title": "Ardor",
                    "slug": "ardor",
                    "url": "https:\/\/cryptopanic.com\/news\/ardor\/"
                }
            ],
            "id": 18610454,
            "url": "https:\/\/cryptopanic.com\/news\/18610454\/RT-Jelurida-Our-Weekly-Wins-are-here-Ardor-Ignis-Nxt-blockchain-crypto-Watch-the-video-thanks-to-madfox1234-and-read-the-fu",
            "created_at": "2023-06-20T05:42:17Z",
            "votes": {
                "negative": 0,
                "positive": 0,
                "important": 0,
                "liked": 0,
                "disliked": 0,
                "lol": 0,
                "toxic": 0,
                "saved": 0,
                "comments": 0
            }
        },
        {
            "kind": "news",
            "domain": "@ArdorPlatform",
            "source": {
                "title": "Ardor Twitter",
                "region": "en",
                "domain": "twitter.com",
                "path": "@ardorplatform"
            },
            "title": "RT @Nxter_org: #Ardor accounts as digital ID. \ud83e\udd29\n\nAccounts can be tagged on the #blockchain, it's called setting \"Account Properties\". In #W\u2026",
            "published_at": "2023-06-11T13:16:53Z",
            "slug": "RT-Nxter_org-Ardor-accounts-as-digital-ID-Accounts-can-be-tagged-on-the-blockchain-its-called-setting-Account-Properties-In-W",
            "currencies": [
                {
                    "code": "ARDR",
                    "title": "Ardor",
                    "slug": "ardor",
                    "url": "https:\/\/cryptopanic.com\/news\/ardor\/"
                }
            ],
            "id": 18554704,
            "url": "https:\/\/cryptopanic.com\/news\/18554704\/RT-Nxter_org-Ardor-accounts-as-digital-ID-Accounts-can-be-tagged-on-the-blockchain-its-called-setting-Account-Properties-In-W",
            "created_at": "2023-06-11T13:16:53Z",
            "votes": {
                "negative": 0,
                "positive": 0,
                "important": 0,
                "liked": 0,
                "disliked": 0,
                "lol": 0,
                "toxic": 0,
                "saved": 0,
                "comments": 0
            }
        },
        {
            "kind": "news",
            "domain": "@ArdorPlatform",
            "source": {
                "title": "Ardor Twitter",
                "region": "en",
                "domain": "twitter.com",
                "path": "@ardorplatform"
            },
            "title": "RT @sigbroapp: Sneak peak at the God UI for #WenGods.\n\n\n\nWhitelisted #Ardor accounts can now log in with #SIGBRO and\u2026",
            "published_at": "2023-06-11T12:34:45Z",
            "slug": "RT-sigbroapp-Sneak-peak-at-the-God-UI-for-WenGods-Whitelisted-Ardor-accounts-can-now-log-in-with-SIGBRO-and",
            "currencies": [
                {
                    "code": "ARDR",
                    "title": "Ardor",
                    "slug": "ardor",
                    "url": "https:\/\/cryptopanic.com\/news\/ardor\/"
                }
            ],
            "id": 18554705,
            "url": "https:\/\/cryptopanic.com\/news\/18554705\/RT-sigbroapp-Sneak-peak-at-the-God-UI-for-WenGods-Whitelisted-Ardor-accounts-can-now-log-in-with-SIGBRO-and",
            "created_at": "2023-06-11T12:34:45Z",
            "votes": {
                "negative": 0,
                "positive": 0,
                "important": 0,
                "liked": 0,
                "disliked": 0,
                "lol": 0,
                "toxic": 0,
                "saved": 0,
                "comments": 0
            }
        },
        {
            "kind": "news",
            "domain": "@ArdorPlatform",
            "source": {
                "title": "Ardor Twitter",
                "region": "en",
                "domain": "twitter.com",
                "path": "@ardorplatform"
            },
            "title": "Scalability and Ecosystem Applications  \nRead the AMA session review about #Ardor #blockchain!\n\n\u2026",
            "published_at": "2023-06-09T13:25:58Z",
            "slug": "Scalability-and-Ecosystem-Applications-Read-the-AMA-session-review-about-Ardor-blockchain",
            "currencies": [
                {
                    "code": "ARDR",
                    "title": "Ardor",
                    "slug": "ardor",
                    "url": "https:\/\/cryptopanic.com\/news\/ardor\/"
                }
            ],
            "id": 18543742,
            "url": "https:\/\/cryptopanic.com\/news\/18543742\/Scalability-and-Ecosystem-Applications-Read-the-AMA-session-review-about-Ardor-blockchain",
            "created_at": "2023-06-09T13:25:58Z",
            "votes": {
                "negative": 0,
                "positive": 0,
                "important": 0,
                "liked": 0,
                "disliked": 0,
                "lol": 0,
                "toxic": 0,
                "saved": 0,
                "comments": 0
            }
        },
        {
            "kind": "news",
            "domain": "@ArdorPlatform",
            "source": {
                "title": "Ardor Twitter",
                "region": "en",
                "domain": "twitter.com",
                "path": "@ardorplatform"
            },
            "title": "RT @BeingsMythical: Thrilled to be at the #NonfungibleConference in the heart of beautiful Lisbon!  Connecting with Cynthia from @faerian_\u2026",
            "published_at": "2023-06-08T17:07:24Z",
            "slug": "RT-BeingsMythical-Thrilled-to-be-at-the-NonfungibleConference-in-the-heart-of-beautiful-Lisbon-Connecting-with-Cynthia-from-faerian_",
            "currencies": [
                {
                    "code": "ARDR",
                    "title": "Ardor",
                    "slug": "ardor",
                    "url": "https:\/\/cryptopanic.com\/news\/ardor\/"
                }
            ],
            "id": 18535201,
            "url": "https:\/\/cryptopanic.com\/news\/18535201\/RT-BeingsMythical-Thrilled-to-be-at-the-NonfungibleConference-in-the-heart-of-beautiful-Lisbon-Connecting-with-Cynthia-from-faerian_",
            "created_at": "2023-06-08T17:07:24Z",
            "votes": {
                "negative": 0,
                "positive": 0,
                "important": 0,
                "liked": 0,
                "disliked": 0,
                "lol": 0,
                "toxic": 0,
                "saved": 0,
                "comments": 0
            }
        },
        {
            "kind": "news",
            "domain": "@ArdorPlatform",
            "source": {
                "title": "Ardor Twitter",
                "region": "en",
                "domain": "twitter.com",
                "path": "@ardorplatform"
            },
            "title": "RT @sigbroapp: I wanted to share with you that ...\nNot all who wander are lost in #WenGods!\n\nFacts about character attributes and questing\u2026",
            "published_at": "2023-06-08T07:11:46Z",
            "slug": "RT-sigbroapp-I-wanted-to-share-with-you-that-Not-all-who-wander-are-lost-in-WenGods-Facts-about-character-attributes-and-questing",
            "currencies": [
                {
                    "code": "ARDR",
                    "title": "Ardor",
                    "slug": "ardor",
                    "url": "https:\/\/cryptopanic.com\/news\/ardor\/"
                }
            ],
            "id": 18535202,
            "url": "https:\/\/cryptopanic.com\/news\/18535202\/RT-sigbroapp-I-wanted-to-share-with-you-that-Not-all-who-wander-are-lost-in-WenGods-Facts-about-character-attributes-and-questing",
            "created_at": "2023-06-08T07:11:46Z",
            "votes": {
                "negative": 0,
                "positive": 0,
                "important": 0,
                "liked": 0,
                "disliked": 0,
                "lol": 0,
                "toxic": 0,
                "saved": 0,
                "comments": 0
            }
        },
        {
            "kind": "news",
            "domain": "@ArdorPlatform",
            "source": {
                "title": "Ardor Twitter",
                "region": "en",
                "domain": "twitter.com",
                "path": "@ardorplatform"
            },
            "title": "RT @Jelurida:  Our Weekly Wins are here!  \n\n#Ardor #Ignis #Nxt #blockchain #crypto\n\nWatch the video thanks to @madfox1234 and read the fu\u2026",
            "published_at": "2023-06-05T08:36:07Z",
            "slug": "RT-Jelurida-Our-Weekly-Wins-are-here-Ardor-Ignis-Nxt-blockchain-crypto-Watch-the-video-thanks-to-madfox1234-and-read-the-fu",
            "currencies": [
                {
                    "code": "ARDR",
                    "title": "Ardor",
                    "slug": "ardor",
                    "url": "https:\/\/cryptopanic.com\/news\/ardor\/"
                }
            ],
            "id": 18509008,
            "url": "https:\/\/cryptopanic.com\/news\/18509008\/RT-Jelurida-Our-Weekly-Wins-are-here-Ardor-Ignis-Nxt-blockchain-crypto-Watch-the-video-thanks-to-madfox1234-and-read-the-fu",
            "created_at": "2023-06-05T08:36:07Z",
            "votes": {
                "negative": 0,
                "positive": 0,
                "important": 0,
                "liked": 0,
                "disliked": 0,
                "lol": 0,
                "toxic": 0,
                "saved": 0,
                "comments": 0
            }
        },
        {
            "kind": "news",
            "domain": "@ArdorPlatform",
            "source": {
                "title": "Ardor Twitter",
                "region": "en",
                "domain": "twitter.com",
                "path": "@ardorplatform"
            },
            "title": "#WenGods - the new #MMO community game on #Ardor #blockchain  \n\nRead the article about the game development, the r\u2026",
            "published_at": "2023-06-02T10:45:10Z",
            "slug": "WenGods-the-new-MMO-community-game-on-Ardor-blockchain-Read-the-article-about-the-game-development-the-r",
            "currencies": [
                {
                    "code": "ARDR",
                    "title": "Ardor",
                    "slug": "ardor",
                    "url": "https:\/\/cryptopanic.com\/news\/ardor\/"
                }
            ],
            "id": 18491015,
            "url": "https:\/\/cryptopanic.com\/news\/18491015\/WenGods-the-new-MMO-community-game-on-Ardor-blockchain-Read-the-article-about-the-game-development-the-r",
            "created_at": "2023-06-02T10:45:10Z",
            "votes": {
                "negative": 0,
                "positive": 0,
                "important": 0,
                "liked": 0,
                "disliked": 0,
                "lol": 0,
                "toxic": 0,
                "saved": 0,
                "comments": 0
            }
        },
        {
            "kind": "news",
            "domain": "@ArdorPlatform",
            "source": {
                "title": "Ardor Twitter",
                "region": "en",
                "domain": "twitter.com",
                "path": "@ardorplatform"
            },
            "title": "RT @bridge_champ: Big news for #BridgeChamp fans! Version 1.0.6 is here   \nDiscover the New Menu and Casual Tables list design update,\u2026",
            "published_at": "2023-06-02T07:51:07Z",
            "slug": "RT-bridge_champ-Big-news-for-BridgeChamp-fans-Version-106-is-here-Discover-the-New-Menu-and-Casual-Tables-list-design-update",
            "currencies": [
                {
                    "code": "ARDR",
                    "title": "Ardor",
                    "slug": "ardor",
                    "url": "https:\/\/cryptopanic.com\/news\/ardor\/"
                }
            ],
            "id": 18491016,
            "url": "https:\/\/cryptopanic.com\/news\/18491016\/RT-bridge_champ-Big-news-for-BridgeChamp-fans-Version-106-is-here-Discover-the-New-Menu-and-Casual-Tables-list-design-update",
            "created_at": "2023-06-02T07:51:07Z",
            "votes": {
                "negative": 0,
                "positive": 0,
                "important": 0,
                "liked": 0,
                "disliked": 0,
                "lol": 0,
                "toxic": 0,
                "saved": 0,
                "comments": 0
            }
        },
        {
            "kind": "news",
            "domain": "@ArdorPlatform",
            "source": {
                "title": "Ardor Twitter",
                "region": "en",
                "domain": "twitter.com",
                "path": "@ardorplatform"
            },
            "title": "RT @Nxter_org: Aliases never go out of style\n\n\nSALE open: $ARDR $IGNIS $BITS $GPS #blockchain",
            "published_at": "2023-06-01T09:43:43Z",
            "slug": "RT-Nxter_org-Aliases-never-go-out-of-style-SALE-open-ARDR-IGNIS-BITS-GPS-blockchain",
            "currencies": [
                {
                    "code": "ARDR",
                    "title": "Ardor",
                    "slug": "ardor",
                    "url": "https:\/\/cryptopanic.com\/news\/ardor\/"
                }
            ],
            "id": 18482589,
            "url": "https:\/\/cryptopanic.com\/news\/18482589\/RT-Nxter_org-Aliases-never-go-out-of-style-SALE-open-ARDR-IGNIS-BITS-GPS-blockchain",
            "created_at": "2023-06-01T09:43:43Z",
            "votes": {
                "negative": 0,
                "positive": 0,
                "important": 0,
                "liked": 0,
                "disliked": 0,
                "lol": 0,
                "toxic": 0,
                "saved": 0,
                "comments": 0
            }
        },
        {
            "kind": "news",
            "domain": "@ArdorPlatform",
            "source": {
                "title": "Ardor Twitter",
                "region": "en",
                "domain": "twitter.com",
                "path": "@ardorplatform"
            },
            "title": "RT @sigbroapp: Imagine. Aliases are single non-fungible uniquely named tradable &amp; transferrable tokens that for example points to accounts.\u2026",
            "published_at": "2023-06-01T09:43:30Z",
            "slug": "RT-sigbroapp-Imagine-Aliases-are-single-non-fungible-uniquely-named-tradable-amp-transferrable-tokens-that-for-example-points-to-accounts",
            "currencies": [
                {
                    "code": "ARDR",
                    "title": "Ardor",
                    "slug": "ardor",
                    "url": "https:\/\/cryptopanic.com\/news\/ardor\/"
                }
            ],
            "id": 18482590,
            "url": "https:\/\/cryptopanic.com\/news\/18482590\/RT-sigbroapp-Imagine-Aliases-are-single-non-fungible-uniquely-named-tradable-amp-transferrable-tokens-that-for-example-points-to-accounts",
            "created_at": "2023-06-01T09:43:30Z",
            "votes": {
                "negative": 0,
                "positive": 0,
                "important": 0,
                "liked": 0,
                "disliked": 0,
                "lol": 0,
                "toxic": 0,
                "saved": 0,
                "comments": 0
            }
        },
        {
            "kind": "news",
            "domain": "@ArdorPlatform",
            "source": {
                "title": "Ardor Twitter",
                "region": "en",
                "domain": "twitter.com",
                "path": "@ardorplatform"
            },
            "title": " #Ardor AMA Recap  \n\nRead the complete summary of the #AMA session hosted on May 16th, in collaboration with\u2026",
            "published_at": "2023-06-01T08:05:48Z",
            "slug": "Ardor-AMA-Recap-Read-the-complete-summary-of-the-AMA-session-hosted-on-May-16th-in-collaboration-with",
            "currencies": [
                {
                    "code": "ARDR",
                    "title": "Ardor",
                    "slug": "ardor",
                    "url": "https:\/\/cryptopanic.com\/news\/ardor\/"
                }
            ],
            "id": 18482591,
            "url": "https:\/\/cryptopanic.com\/news\/18482591\/Ardor-AMA-Recap-Read-the-complete-summary-of-the-AMA-session-hosted-on-May-16th-in-collaboration-with",
            "created_at": "2023-06-01T08:05:48Z",
            "votes": {
                "negative": 0,
                "positive": 0,
                "important": 0,
                "liked": 0,
                "disliked": 0,
                "lol": 0,
                "toxic": 0,
                "saved": 0,
                "comments": 0
            }
        },
        {
            "kind": "news",
            "domain": "@ArdorPlatform",
            "source": {
                "title": "Ardor Twitter",
                "region": "en",
                "domain": "twitter.com",
                "path": "@ardorplatform"
            },
            "title": "RT @CryptoWalletcom: We had such a great time during AMA we hosted on May 16 with @ArdorPlatform \n\nWe talked about the project idea, top f\u2026",
            "published_at": "2023-06-01T07:16:25Z",
            "slug": "RT-CryptoWalletcom-We-had-such-a-great-time-during-AMA-we-hosted-on-May-16-with-ArdorPlatform-We-talked-about-the-project-idea-top-f",
            "currencies": [
                {
                    "code": "ARDR",
                    "title": "Ardor",
                    "slug": "ardor",
                    "url": "https:\/\/cryptopanic.com\/news\/ardor\/"
                }
            ],
            "id": 18482592,
            "url": "https:\/\/cryptopanic.com\/news\/18482592\/RT-CryptoWalletcom-We-had-such-a-great-time-during-AMA-we-hosted-on-May-16-with-ArdorPlatform-We-talked-about-the-project-idea-top-f",
            "created_at": "2023-06-01T07:16:25Z",
            "votes": {
                "negative": 0,
                "positive": 0,
                "important": 0,
                "liked": 0,
                "disliked": 0,
                "lol": 0,
                "toxic": 0,
                "saved": 0,
                "comments": 0
            }
        },
        {
            "kind": "news",
            "domain": "@ArdorPlatform",
            "source": {
                "title": "Ardor Twitter",
                "region": "en",
                "domain": "twitter.com",
                "path": "@ardorplatform"
            },
            "title": "RT @Jelurida:  Our Weekly Wins are here!  \n\n#Ardor #Ignis #Nxt #blockchain #crypto\n\nWatch the video thanks to @madfox1234 and read the fu\u2026",
            "published_at": "2023-05-29T09:25:22Z",
            "slug": "RT-Jelurida-Our-Weekly-Wins-are-here-Ardor-Ignis-Nxt-blockchain-crypto-Watch-the-video-thanks-to-madfox1234-and-read-the-fu",
            "currencies": [
                {
                    "code": "ARDR",
                    "title": "Ardor",
                    "slug": "ardor",
                    "url": "https:\/\/cryptopanic.com\/news\/ardor\/"
                }
            ],
            "id": 18457040,
            "url": "https:\/\/cryptopanic.com\/news\/18457040\/RT-Jelurida-Our-Weekly-Wins-are-here-Ardor-Ignis-Nxt-blockchain-crypto-Watch-the-video-thanks-to-madfox1234-and-read-the-fu",
            "created_at": "2023-05-29T09:25:22Z",
            "votes": {
                "negative": 0,
                "positive": 0,
                "important": 0,
                "liked": 0,
                "disliked": 0,
                "lol": 0,
                "toxic": 0,
                "saved": 0,
                "comments": 0
            }
        },
        {
            "kind": "news",
            "domain": "@ArdorPlatform",
            "source": {
                "title": "Ardor Twitter",
                "region": "en",
                "domain": "twitter.com",
                "path": "@ardorplatform"
            },
            "title": "RT @ardor_world: I just published \/  \/ \u200a\u2014\u200aLatest News May 2023 https\u2026",
            "published_at": "2023-05-25T08:05:24Z",
            "slug": "RT-ardor_world-I-just-published-Latest-News-May-2023-https",
            "currencies": [
                {
                    "code": "ARDR",
                    "title": "Ardor",
                    "slug": "ardor",
                    "url": "https:\/\/cryptopanic.com\/news\/ardor\/"
                }
            ],
            "id": 18431032,
            "url": "https:\/\/cryptopanic.com\/news\/18431032\/RT-ardor_world-I-just-published-Latest-News-May-2023-https",
            "created_at": "2023-05-25T08:05:24Z",
            "votes": {
                "negative": 0,
                "positive": 0,
                "important": 0,
                "liked": 0,
                "disliked": 0,
                "lol": 0,
                "toxic": 0,
                "saved": 0,
                "comments": 0
            }
        },
        {
            "kind": "news",
            "domain": "@ArdorPlatform",
            "source": {
                "title": "Ardor Twitter",
                "region": "en",
                "domain": "twitter.com",
                "path": "@ardorplatform"
            },
            "title": "RT @Nxter_org: #WenGods is the name of a new game.\n\nRead first ideas about characters, #NFTs in gaming, classless systems and world maps -\u2026",
            "published_at": "2023-05-24T13:54:19Z",
            "slug": "RT-Nxter_org-WenGods-is-the-name-of-a-new-game-Read-first-ideas-about-characters-NFTs-in-gaming-classless-systems-and-world-maps-",
            "currencies": [
                {
                    "code": "ARDR",
                    "title": "Ardor",
                    "slug": "ardor",
                    "url": "https:\/\/cryptopanic.com\/news\/ardor\/"
                }
            ],
            "id": 18421915,
            "url": "https:\/\/cryptopanic.com\/news\/18421915\/RT-Nxter_org-WenGods-is-the-name-of-a-new-game-Read-first-ideas-about-characters-NFTs-in-gaming-classless-systems-and-world-maps-",
            "created_at": "2023-05-24T13:54:19Z",
            "votes": {
                "negative": 0,
                "positive": 0,
                "important": 0,
                "liked": 0,
                "disliked": 0,
                "lol": 0,
                "toxic": 0,
                "saved": 0,
                "comments": 0
            }
        },
        {
            "kind": "news",
            "domain": "@ArdorPlatform",
            "source": {
                "title": "Ardor Twitter",
                "region": "en",
                "domain": "twitter.com",
                "path": "@ardorplatform"
            },
            "title": "RT @Nxter_org: #Discord commands revealed;\n\nThe #SIGBRO team is building a text-based #MMORPG that you can play directly in Discord.",
            "published_at": "2023-05-24T12:54:39Z",
            "slug": "RT-Nxter_org-Discord-commands-revealed-The-SIGBRO-team-is-building-a-text-based-MMORPG-that-you-can-play-directly-in-Discord",
            "currencies": [
                {
                    "code": "ARDR",
                    "title": "Ardor",
                    "slug": "ardor",
                    "url": "https:\/\/cryptopanic.com\/news\/ardor\/"
                }
            ],
            "id": 18421916,
            "url": "https:\/\/cryptopanic.com\/news\/18421916\/RT-Nxter_org-Discord-commands-revealed-The-SIGBRO-team-is-building-a-text-based-MMORPG-that-you-can-play-directly-in-Discord",
            "created_at": "2023-05-24T12:54:39Z",
            "votes": {
                "negative": 0,
                "positive": 0,
                "important": 0,
                "liked": 0,
                "disliked": 0,
                "lol": 0,
                "toxic": 0,
                "saved": 0,
                "comments": 0
            }
        },
        {
            "kind": "news",
            "domain": "@ArdorPlatform",
            "source": {
                "title": "Ardor Twitter",
                "region": "en",
                "domain": "twitter.com",
                "path": "@ardorplatform"
            },
            "title": "RT @sigbroapp: I posted about the controls in the #WenGods game.\nWe're building this #Discord bot and game engine from scratch, to bring up\u2026",
            "published_at": "2023-05-24T12:54:24Z",
            "slug": "RT-sigbroapp-I-posted-about-the-controls-in-the-WenGods-game-Were-building-this-Discord-bot-and-game-engine-from-scratch-to-bring-up",
            "currencies": [
                {
                    "code": "ARDR",
                    "title": "Ardor",
                    "slug": "ardor",
                    "url": "https:\/\/cryptopanic.com\/news\/ardor\/"
                }
            ],
            "id": 18421917,
            "url": "https:\/\/cryptopanic.com\/news\/18421917\/RT-sigbroapp-I-posted-about-the-controls-in-the-WenGods-game-Were-building-this-Discord-bot-and-game-engine-from-scratch-to-bring-up",
            "created_at": "2023-05-24T12:54:24Z",
            "votes": {
                "negative": 0,
                "positive": 0,
                "important": 0,
                "liked": 0,
                "disliked": 0,
                "lol": 0,
                "toxic": 0,
                "saved": 0,
                "comments": 0
            }
        }
    ]
}
