{
    "count": 200,
    "next": "https:\/\/cryptopanic.com\/api\/v1\/posts\/?auth_token=01c356e89ffc1b8eba2127c81fc8c66ee0eace75&kind=news&currencies=DUSK&page=2",
    "previous": null,
    "results": [
        {
            "kind": "news",
            "domain": "@DuskFoundation",
            "source": {
                "title": "Dusk Network Twitter",
                "region": "en",
                "domain": "twitter.com",
                "path": "@duskfoundation"
            },
            "title": "Thank you @OriginalOlii from @ZKPanther for joining our twitter space!\n\nIn case you missed it, the recording is ava\u2026",
            "published_at": "2023-07-11T16:01:38Z",
            "slug": "Thank-you-OriginalOlii-from-ZKPanther-for-joining-our-twitter-space-In-case-you-missed-it-the-recording-is-ava",
            "currencies": [
                {
                    "code": "DUSK",
                    "title": "DUSK Network",
                    "slug": "dusk-network",
                    "url": "https:\/\/cryptopanic.com\/news\/dusk-network\/"
                }
            ],
            "id": 18763890,
            "url": "https:\/\/cryptopanic.com\/news\/18763890\/Thank-you-OriginalOlii-from-ZKPanther-for-joining-our-twitter-space-In-case-you-missed-it-the-recording-is-ava",
            "created_at": "2023-07-11T16:01:38Z",
            "votes": {
                "negative": 0,
                "positive": 0,
                "important": 0,
                "liked": 0,
                "disliked": 0,
                "lol": 0,
                "toxic": 0,
                "saved": 0,
                "comments": 0
            }
        },
        {
            "kind": "news",
            "domain": "@DuskFoundation",
            "source": {
                "title": "Dusk Network Twitter",
                "region": "en",
                "domain": "twitter.com",
                "path": "@duskfoundation"
            },
            "title": "Live in 1 hour!",
            "published_at": "2023-07-11T13:07:44Z",
            "slug": "Live-in-1-hour",
            "currencies": [
                {
                    "code": "DUSK",
                    "title": "DUSK Network",
                    "slug": "dusk-network",
                    "url": "https:\/\/cryptopanic.com\/news\/dusk-network\/"
                }
            ],
            "id": 18763891,
            "url": "https:\/\/cryptopanic.com\/news\/18763891\/Live-in-1-hour",
            "created_at": "2023-07-11T13:07:44Z",
            "votes": {
                "negative": 0,
                "positive": 0,
                "important": 0,
                "liked": 0,
                "disliked": 0,
                "lol": 0,
                "toxic": 0,
                "saved": 0,
                "comments": 0
            }
        },
        {
            "kind": "news",
            "domain": "@DuskFoundation",
            "source": {
                "title": "Dusk Network Twitter",
                "region": "en",
                "domain": "twitter.com",
                "path": "@duskfoundation"
            },
            "title": "At #Dusk, with privacy and compliance at our core, we're reshaping the handling of identity verification, and makin\u2026",
            "published_at": "2023-07-10T19:00:13Z",
            "slug": "At-Dusk-with-privacy-and-compliance-at-our-core-were-reshaping-the-handling-of-identity-verification-and-makin",
            "currencies": [
                {
                    "code": "DUSK",
                    "title": "DUSK Network",
                    "slug": "dusk-network",
                    "url": "https:\/\/cryptopanic.com\/news\/dusk-network\/"
                }
            ],
            "id": 18755779,
            "url": "https:\/\/cryptopanic.com\/news\/18755779\/At-Dusk-with-privacy-and-compliance-at-our-core-were-reshaping-the-handling-of-identity-verification-and-makin",
            "created_at": "2023-07-10T19:00:13Z",
            "votes": {
                "negative": 0,
                "positive": 0,
                "important": 0,
                "liked": 0,
                "disliked": 0,
                "lol": 0,
                "toxic": 0,
                "saved": 0,
                "comments": 0
            }
        },
        {
            "kind": "news",
            "domain": "@DuskFoundation",
            "source": {
                "title": "Dusk Network Twitter",
                "region": "en",
                "domain": "twitter.com",
                "path": "@duskfoundation"
            },
            "title": "Compliance + Privacy + Real World Assets = Dusk\n\nFor the more complicated math, we sent our research team to the Ei\u2026",
            "published_at": "2023-07-10T13:02:20Z",
            "slug": "Compliance-Privacy-Real-World-Assets-Dusk-For-the-more-complicated-math-we-sent-our-research-team-to-the-Ei",
            "currencies": [
                {
                    "code": "DUSK",
                    "title": "DUSK Network",
                    "slug": "dusk-network",
                    "url": "https:\/\/cryptopanic.com\/news\/dusk-network\/"
                }
            ],
            "id": 18755780,
            "url": "https:\/\/cryptopanic.com\/news\/18755780\/Compliance-Privacy-Real-World-Assets-Dusk-For-the-more-complicated-math-we-sent-our-research-team-to-the-Ei",
            "created_at": "2023-07-10T13:02:20Z",
            "votes": {
                "negative": 0,
                "positive": 0,
                "important": 0,
                "liked": 0,
                "disliked": 0,
                "lol": 0,
                "toxic": 0,
                "saved": 0,
                "comments": 0
            }
        },
        {
            "kind": "news",
            "domain": "@DuskFoundation",
            "source": {
                "title": "Dusk Network Twitter",
                "region": "en",
                "domain": "twitter.com",
                "path": "@duskfoundation"
            },
            "title": "\ufe0f Get your monthly fix of Dusk updates! \n\nSubscribe to our newsletter and receive a comprehensive overview of the\u2026",
            "published_at": "2023-07-10T07:00:05Z",
            "slug": "Get-your-monthly-fix-of-Dusk-updates-Subscribe-to-our-newsletter-and-receive-a-comprehensive-overview-of-the",
            "currencies": [
                {
                    "code": "DUSK",
                    "title": "DUSK Network",
                    "slug": "dusk-network",
                    "url": "https:\/\/cryptopanic.com\/news\/dusk-network\/"
                }
            ],
            "id": 18749490,
            "url": "https:\/\/cryptopanic.com\/news\/18749490\/Get-your-monthly-fix-of-Dusk-updates-Subscribe-to-our-newsletter-and-receive-a-comprehensive-overview-of-the",
            "created_at": "2023-07-10T07:00:05Z",
            "votes": {
                "negative": 0,
                "positive": 0,
                "important": 0,
                "liked": 0,
                "disliked": 0,
                "lol": 0,
                "toxic": 0,
                "saved": 0,
                "comments": 0
            }
        },
        {
            "kind": "news",
            "domain": "@DuskFoundation",
            "source": {
                "title": "Dusk Network Twitter",
                "region": "en",
                "domain": "twitter.com",
                "path": "@duskfoundation"
            },
            "title": "Founding in the blockchain industry isn't just about building companies.\nIt's about creating a new tomorrow - trans\u2026",
            "published_at": "2023-07-07T13:01:04Z",
            "slug": "Founding-in-the-blockchain-industry-isnt-just-about-building-companies-Its-about-creating-a-new-tomorrow-trans",
            "currencies": [
                {
                    "code": "DUSK",
                    "title": "DUSK Network",
                    "slug": "dusk-network",
                    "url": "https:\/\/cryptopanic.com\/news\/dusk-network\/"
                }
            ],
            "id": 18739813,
            "url": "https:\/\/cryptopanic.com\/news\/18739813\/Founding-in-the-blockchain-industry-isnt-just-about-building-companies-Its-about-creating-a-new-tomorrow-trans",
            "created_at": "2023-07-07T13:01:04Z",
            "votes": {
                "negative": 0,
                "positive": 0,
                "important": 0,
                "liked": 0,
                "disliked": 0,
                "lol": 0,
                "toxic": 0,
                "saved": 0,
                "comments": 0
            }
        },
        {
            "kind": "news",
            "domain": "@DuskFoundation",
            "source": {
                "title": "Dusk Network Twitter",
                "region": "en",
                "domain": "twitter.com",
                "path": "@duskfoundation"
            },
            "title": "Don't forget to set a reminder! \n\nBeyond Blockchain | Privacy, Regulations and DeFi  \ufe0fTuesday, July 11th, 16:00\u2026",
            "published_at": "2023-07-07T09:50:12Z",
            "slug": "Dont-forget-to-set-a-reminder-Beyond-Blockchain-Privacy-Regulations-and-DeFi-Tuesday-July-11th-1600",
            "currencies": [
                {
                    "code": "DUSK",
                    "title": "DUSK Network",
                    "slug": "dusk-network",
                    "url": "https:\/\/cryptopanic.com\/news\/dusk-network\/"
                }
            ],
            "id": 18739814,
            "url": "https:\/\/cryptopanic.com\/news\/18739814\/Dont-forget-to-set-a-reminder-Beyond-Blockchain-Privacy-Regulations-and-DeFi-Tuesday-July-11th-1600",
            "created_at": "2023-07-07T09:50:12Z",
            "votes": {
                "negative": 0,
                "positive": 0,
                "important": 0,
                "liked": 0,
                "disliked": 0,
                "lol": 0,
                "toxic": 0,
                "saved": 0,
                "comments": 0
            }
        },
        {
            "kind": "news",
            "domain": "@DuskFoundation",
            "source": {
                "title": "Dusk Network Twitter",
                "region": "en",
                "domain": "twitter.com",
                "path": "@duskfoundation"
            },
            "title": "Where do you store your #Cryptoassets?",
            "published_at": "2023-07-06T14:19:38Z",
            "slug": "Where-do-you-store-your-Cryptoassets",
            "currencies": [
                {
                    "code": "DUSK",
                    "title": "DUSK Network",
                    "slug": "dusk-network",
                    "url": "https:\/\/cryptopanic.com\/news\/dusk-network\/"
                }
            ],
            "id": 18732143,
            "url": "https:\/\/cryptopanic.com\/news\/18732143\/Where-do-you-store-your-Cryptoassets",
            "created_at": "2023-07-06T14:19:38Z",
            "votes": {
                "negative": 0,
                "positive": 0,
                "important": 0,
                "liked": 0,
                "disliked": 0,
                "lol": 0,
                "toxic": 0,
                "saved": 0,
                "comments": 0
            }
        },
        {
            "kind": "news",
            "domain": "@DuskFoundation",
            "source": {
                "title": "Dusk Network Twitter",
                "region": "en",
                "domain": "twitter.com",
                "path": "@duskfoundation"
            },
            "title": " Ready to level up your knowledge? \n\ufe0f Engage in insightful discussions. \n Stay updated with the latest news in t\u2026",
            "published_at": "2023-07-06T12:08:38Z",
            "slug": "Ready-to-level-up-your-knowledge-Engage-in-insightful-discussions-Stay-updated-with-the-latest-news-in-t",
            "currencies": [
                {
                    "code": "DUSK",
                    "title": "DUSK Network",
                    "slug": "dusk-network",
                    "url": "https:\/\/cryptopanic.com\/news\/dusk-network\/"
                }
            ],
            "id": 18732144,
            "url": "https:\/\/cryptopanic.com\/news\/18732144\/Ready-to-level-up-your-knowledge-Engage-in-insightful-discussions-Stay-updated-with-the-latest-news-in-t",
            "created_at": "2023-07-06T12:08:38Z",
            "votes": {
                "negative": 0,
                "positive": 0,
                "important": 0,
                "liked": 0,
                "disliked": 0,
                "lol": 0,
                "toxic": 0,
                "saved": 0,
                "comments": 0
            }
        },
        {
            "kind": "news",
            "domain": "@DuskFoundation",
            "source": {
                "title": "Dusk Network Twitter",
                "region": "en",
                "domain": "twitter.com",
                "path": "@duskfoundation"
            },
            "title": " New episode alert! \n\nTune into the latest #InternetOfAssetsPodcast as we chat with Zvedzin Besarabov from\u2026",
            "published_at": "2023-07-06T09:00:50Z",
            "slug": "New-episode-alert-Tune-into-the-latest-InternetOfAssetsPodcast-as-we-chat-with-Zvedzin-Besarabov-from",
            "currencies": [
                {
                    "code": "DUSK",
                    "title": "DUSK Network",
                    "slug": "dusk-network",
                    "url": "https:\/\/cryptopanic.com\/news\/dusk-network\/"
                }
            ],
            "id": 18732145,
            "url": "https:\/\/cryptopanic.com\/news\/18732145\/New-episode-alert-Tune-into-the-latest-InternetOfAssetsPodcast-as-we-chat-with-Zvedzin-Besarabov-from",
            "created_at": "2023-07-06T09:00:50Z",
            "votes": {
                "negative": 0,
                "positive": 0,
                "important": 0,
                "liked": 0,
                "disliked": 0,
                "lol": 0,
                "toxic": 0,
                "saved": 0,
                "comments": 0
            }
        },
        {
            "kind": "news",
            "domain": "@DuskFoundation",
            "source": {
                "title": "Dusk Network Twitter",
                "region": "en",
                "domain": "twitter.com",
                "path": "@duskfoundation"
            },
            "title": "Imagine a future where you can trade both traditional and novel #assets from your own wallet, creating unique finan\u2026",
            "published_at": "2023-07-05T13:15:53Z",
            "slug": "Imagine-a-future-where-you-can-trade-both-traditional-and-novel-assets-from-your-own-wallet-creating-unique-finan",
            "currencies": [
                {
                    "code": "DUSK",
                    "title": "DUSK Network",
                    "slug": "dusk-network",
                    "url": "https:\/\/cryptopanic.com\/news\/dusk-network\/"
                }
            ],
            "id": 18723587,
            "url": "https:\/\/cryptopanic.com\/news\/18723587\/Imagine-a-future-where-you-can-trade-both-traditional-and-novel-assets-from-your-own-wallet-creating-unique-finan",
            "created_at": "2023-07-05T13:15:53Z",
            "votes": {
                "negative": 0,
                "positive": 0,
                "important": 0,
                "liked": 0,
                "disliked": 0,
                "lol": 0,
                "toxic": 0,
                "saved": 0,
                "comments": 0
            }
        },
        {
            "kind": "news",
            "domain": "@DuskFoundation",
            "source": {
                "title": "Dusk Network Twitter",
                "region": "en",
                "domain": "twitter.com",
                "path": "@duskfoundation"
            },
            "title": "Upcoming Twitter Space!\n\nBeyond Blockchain | Privacy, Regulations and DeFi\n\ufe0fTuesday, July 11th, 16:00 CET\n\n\u2026",
            "published_at": "2023-07-05T12:10:57Z",
            "slug": "Upcoming-Twitter-Space-Beyond-Blockchain-Privacy-Regulations-and-DeFi-Tuesday-July-11th-1600-CET",
            "currencies": [
                {
                    "code": "DUSK",
                    "title": "DUSK Network",
                    "slug": "dusk-network",
                    "url": "https:\/\/cryptopanic.com\/news\/dusk-network\/"
                }
            ],
            "id": 18723588,
            "url": "https:\/\/cryptopanic.com\/news\/18723588\/Upcoming-Twitter-Space-Beyond-Blockchain-Privacy-Regulations-and-DeFi-Tuesday-July-11th-1600-CET",
            "created_at": "2023-07-05T12:10:57Z",
            "votes": {
                "negative": 0,
                "positive": 0,
                "important": 0,
                "liked": 0,
                "disliked": 0,
                "lol": 0,
                "toxic": 0,
                "saved": 0,
                "comments": 0
            }
        },
        {
            "kind": "news",
            "domain": "@DuskFoundation",
            "source": {
                "title": "Dusk Network Twitter",
                "region": "en",
                "domain": "twitter.com",
                "path": "@duskfoundation"
            },
            "title": "Looking for more insights into our latest investment into @getoutdid? Keep an eye out, for this week's podcast with\u2026",
            "published_at": "2023-07-04T19:32:34Z",
            "slug": "Looking-for-more-insights-into-our-latest-investment-into-getoutdid-Keep-an-eye-out-for-this-weeks-podcast-with",
            "currencies": [
                {
                    "code": "DUSK",
                    "title": "DUSK Network",
                    "slug": "dusk-network",
                    "url": "https:\/\/cryptopanic.com\/news\/dusk-network\/"
                }
            ],
            "id": 18715891,
            "url": "https:\/\/cryptopanic.com\/news\/18715891\/Looking-for-more-insights-into-our-latest-investment-into-getoutdid-Keep-an-eye-out-for-this-weeks-podcast-with",
            "created_at": "2023-07-04T19:32:34Z",
            "votes": {
                "negative": 0,
                "positive": 0,
                "important": 0,
                "liked": 0,
                "disliked": 0,
                "lol": 0,
                "toxic": 0,
                "saved": 0,
                "comments": 0
            }
        },
        {
            "kind": "news",
            "domain": "@DuskFoundation",
            "source": {
                "title": "Dusk Network Twitter",
                "region": "en",
                "domain": "twitter.com",
                "path": "@duskfoundation"
            },
            "title": "#MiCA is around the corner and we are here for it. \n\nStill don't know why #MiCA is important for the blockchain ind\u2026",
            "published_at": "2023-07-04T15:04:23Z",
            "slug": "MiCA-is-around-the-corner-and-we-are-here-for-it-Still-dont-know-why-MiCA-is-important-for-the-blockchain-ind",
            "currencies": [
                {
                    "code": "DUSK",
                    "title": "DUSK Network",
                    "slug": "dusk-network",
                    "url": "https:\/\/cryptopanic.com\/news\/dusk-network\/"
                }
            ],
            "id": 18715892,
            "url": "https:\/\/cryptopanic.com\/news\/18715892\/MiCA-is-around-the-corner-and-we-are-here-for-it-Still-dont-know-why-MiCA-is-important-for-the-blockchain-ind",
            "created_at": "2023-07-04T15:04:23Z",
            "votes": {
                "negative": 0,
                "positive": 0,
                "important": 0,
                "liked": 0,
                "disliked": 0,
                "lol": 0,
                "toxic": 0,
                "saved": 0,
                "comments": 0
            }
        },
        {
            "kind": "news",
            "domain": "@DuskFoundation",
            "source": {
                "title": "Dusk Network Twitter",
                "region": "en",
                "domain": "twitter.com",
                "path": "@duskfoundation"
            },
            "title": "Curious about market making in the world of cryptocurrencies? \ud83e\udd14 \n\nTune in to our latest episode where we explore t\u2026",
            "published_at": "2023-07-04T09:19:42Z",
            "slug": "Curious-about-market-making-in-the-world-of-cryptocurrencies-Tune-in-to-our-latest-episode-where-we-explore-t",
            "currencies": [
                {
                    "code": "DUSK",
                    "title": "DUSK Network",
                    "slug": "dusk-network",
                    "url": "https:\/\/cryptopanic.com\/news\/dusk-network\/"
                }
            ],
            "id": 18715893,
            "url": "https:\/\/cryptopanic.com\/news\/18715893\/Curious-about-market-making-in-the-world-of-cryptocurrencies-Tune-in-to-our-latest-episode-where-we-explore-t",
            "created_at": "2023-07-04T09:19:42Z",
            "votes": {
                "negative": 0,
                "positive": 0,
                "important": 0,
                "liked": 0,
                "disliked": 0,
                "lol": 0,
                "toxic": 0,
                "saved": 0,
                "comments": 0
            }
        },
        {
            "kind": "news",
            "domain": "@DuskFoundation",
            "source": {
                "title": "Dusk Network Twitter",
                "region": "en",
                "domain": "twitter.com",
                "path": "@duskfoundation"
            },
            "title": "It is time for the 53rd edition of the Monthly Dose.   \n\nA look back at another eventful month, podcasts, regulat\u2026",
            "published_at": "2023-07-03T12:26:28Z",
            "slug": "It-is-time-for-the-53rd-edition-of-the-Monthly-Dose-A-look-back-at-another-eventful-month-podcasts-regulat",
            "currencies": [
                {
                    "code": "DUSK",
                    "title": "DUSK Network",
                    "slug": "dusk-network",
                    "url": "https:\/\/cryptopanic.com\/news\/dusk-network\/"
                }
            ],
            "id": 18708622,
            "url": "https:\/\/cryptopanic.com\/news\/18708622\/It-is-time-for-the-53rd-edition-of-the-Monthly-Dose-A-look-back-at-another-eventful-month-podcasts-regulat",
            "created_at": "2023-07-03T12:26:28Z",
            "votes": {
                "negative": 0,
                "positive": 0,
                "important": 0,
                "liked": 0,
                "disliked": 0,
                "lol": 0,
                "toxic": 0,
                "saved": 0,
                "comments": 0
            }
        },
        {
            "kind": "news",
            "domain": "@DuskFoundation",
            "source": {
                "title": "Dusk Network Twitter",
                "region": "en",
                "domain": "twitter.com",
                "path": "@duskfoundation"
            },
            "title": "New Internet of Assets #Podcast episode coming this week!\n\nAs trading #regulations evolve, there is an increasing n\u2026",
            "published_at": "2023-07-03T11:48:15Z",
            "slug": "New-Internet-of-Assets-Podcast-episode-coming-this-week-As-trading-regulations-evolve-there-is-an-increasing-n",
            "currencies": [
                {
                    "code": "DUSK",
                    "title": "DUSK Network",
                    "slug": "dusk-network",
                    "url": "https:\/\/cryptopanic.com\/news\/dusk-network\/"
                }
            ],
            "id": 18708623,
            "url": "https:\/\/cryptopanic.com\/news\/18708623\/New-Internet-of-Assets-Podcast-episode-coming-this-week-As-trading-regulations-evolve-there-is-an-increasing-n",
            "created_at": "2023-07-03T11:48:15Z",
            "votes": {
                "negative": 0,
                "positive": 0,
                "important": 0,
                "liked": 0,
                "disliked": 0,
                "lol": 0,
                "toxic": 0,
                "saved": 0,
                "comments": 0
            }
        },
        {
            "kind": "news",
            "domain": "@DuskFoundation",
            "source": {
                "title": "Dusk Network Twitter",
                "region": "en",
                "domain": "twitter.com",
                "path": "@duskfoundation"
            },
            "title": "Release Cycle Update #22 is out now! \n\nDevelopment is continuous, as is our GitHub documentation of each point of\u2026",
            "published_at": "2023-06-30T12:44:23Z",
            "slug": "Release-Cycle-Update-22-is-out-now-Development-is-continuous-as-is-our-GitHub-documentation-of-each-point-of",
            "currencies": [
                {
                    "code": "DUSK",
                    "title": "DUSK Network",
                    "slug": "dusk-network",
                    "url": "https:\/\/cryptopanic.com\/news\/dusk-network\/"
                }
            ],
            "id": 18693113,
            "url": "https:\/\/cryptopanic.com\/news\/18693113\/Release-Cycle-Update-22-is-out-now-Development-is-continuous-as-is-our-GitHub-documentation-of-each-point-of",
            "created_at": "2023-06-30T12:44:23Z",
            "votes": {
                "negative": 0,
                "positive": 0,
                "important": 0,
                "liked": 0,
                "disliked": 0,
                "lol": 0,
                "toxic": 0,
                "saved": 0,
                "comments": 0
            }
        },
        {
            "kind": "news",
            "domain": "@DuskFoundation",
            "source": {
                "title": "Dusk Network Twitter",
                "region": "en",
                "domain": "twitter.com",
                "path": "@duskfoundation"
            },
            "title": "New Internet of Assets #podcast episode is live!\n\nCheck out the full podcast on #Spotify or #YouTube!\u2026",
            "published_at": "2023-06-30T09:33:39Z",
            "slug": "New-Internet-of-Assets-podcast-episode-is-live-Check-out-the-full-podcast-on-Spotify-or-YouTube",
            "currencies": [
                {
                    "code": "DUSK",
                    "title": "DUSK Network",
                    "slug": "dusk-network",
                    "url": "https:\/\/cryptopanic.com\/news\/dusk-network\/"
                }
            ],
            "id": 18693114,
            "url": "https:\/\/cryptopanic.com\/news\/18693114\/New-Internet-of-Assets-podcast-episode-is-live-Check-out-the-full-podcast-on-Spotify-or-YouTube",
            "created_at": "2023-06-30T09:33:39Z",
            "votes": {
                "negative": 0,
                "positive": 0,
                "important": 0,
                "liked": 0,
                "disliked": 0,
                "lol": 0,
                "toxic": 0,
                "saved": 0,
                "comments": 0
            }
        },
        {
            "kind": "news",
            "domain": "@DuskFoundation",
            "source": {
                "title": "Dusk Network Twitter",
                "region": "en",
                "domain": "twitter.com",
                "path": "@duskfoundation"
            },
            "title": "Dusk is proud to be part of the group of investors backing @getoutdid. \n\nDusk is always looking for #tech innovator\u2026",
            "published_at": "2023-06-29T14:03:55Z",
            "slug": "Dusk-is-proud-to-be-part-of-the-group-of-investors-backing-getoutdid-Dusk-is-always-looking-for-tech-innovator",
            "currencies": [
                {
                    "code": "DUSK",
                    "title": "DUSK Network",
                    "slug": "dusk-network",
                    "url": "https:\/\/cryptopanic.com\/news\/dusk-network\/"
                }
            ],
            "id": 18685199,
            "url": "https:\/\/cryptopanic.com\/news\/18685199\/Dusk-is-proud-to-be-part-of-the-group-of-investors-backing-getoutdid-Dusk-is-always-looking-for-tech-innovator",
            "created_at": "2023-06-29T14:03:55Z",
            "votes": {
                "negative": 0,
                "positive": 0,
                "important": 0,
                "liked": 0,
                "disliked": 0,
                "lol": 0,
                "toxic": 0,
                "saved": 0,
                "comments": 0
            }
        }
    ]
}
