{
    "count": 200,
    "next": "https:\/\/cryptopanic.com\/api\/v1\/posts\/?auth_token=01c356e89ffc1b8eba2127c81fc8c66ee0eace75&kind=news&currencies=RLC&page=2",
    "previous": null,
    "results": [
        {
            "kind": "news",
            "domain": "@iEx_ec",
            "source": {
                "title": "iExec RLC Twitter",
                "region": "en",
                "domain": "twitter.com",
                "path": "@iex_ec"
            },
            "title": "With iExec, you control and profit from your data.\n\nSecurely monetize your email address, and #earn $RLC tokens. S\u2026",
            "published_at": "2023-07-12T09:53:00Z",
            "slug": "With-iExec-you-control-and-profit-from-your-data-Securely-monetize-your-email-address-and-earn-RLC-tokens-S",
            "currencies": [
                {
                    "code": "RLC",
                    "title": "iExec RLC",
                    "slug": "iexec-rlc",
                    "url": "https:\/\/cryptopanic.com\/news\/iexec-rlc\/"
                }
            ],
            "id": 18768460,
            "url": "https:\/\/cryptopanic.com\/news\/18768460\/With-iExec-you-control-and-profit-from-your-data-Securely-monetize-your-email-address-and-earn-RLC-tokens-S",
            "created_at": "2023-07-12T09:53:00Z",
            "votes": {
                "negative": 0,
                "positive": 0,
                "important": 0,
                "liked": 0,
                "disliked": 0,
                "lol": 0,
                "toxic": 0,
                "saved": 0,
                "comments": 0
            }
        },
        {
            "kind": "news",
            "domain": "@iEx_ec",
            "source": {
                "title": "iExec RLC Twitter",
                "region": "en",
                "domain": "twitter.com",
                "path": "@iex_ec"
            },
            "title": "RT @HerDaoFrance:  OFFICIAL @_HerDAO Side Events List for @EthCC\n\nDon't get lost in Paris \ud83c\uddeb\ud83c\uddf7\n\n\ud83e\udef6 Join our @_HerDAO Community during the co\u2026",
            "published_at": "2023-07-12T09:32:40Z",
            "slug": "RT-HerDaoFrance-OFFICIAL-_HerDAO-Side-Events-List-for-EthCC-Dont-get-lost-in-Paris-Join-our-_HerDAO-Community-during-the-co",
            "currencies": [
                {
                    "code": "RLC",
                    "title": "iExec RLC",
                    "slug": "iexec-rlc",
                    "url": "https:\/\/cryptopanic.com\/news\/iexec-rlc\/"
                }
            ],
            "id": 18768461,
            "url": "https:\/\/cryptopanic.com\/news\/18768461\/RT-HerDaoFrance-OFFICIAL-_HerDAO-Side-Events-List-for-EthCC-Dont-get-lost-in-Paris-Join-our-_HerDAO-Community-during-the-co",
            "created_at": "2023-07-12T09:32:40Z",
            "votes": {
                "negative": 0,
                "positive": 0,
                "important": 0,
                "liked": 0,
                "disliked": 0,
                "lol": 0,
                "toxic": 0,
                "saved": 0,
                "comments": 0
            }
        },
        {
            "kind": "news",
            "domain": "@iEx_ec",
            "source": {
                "title": "iExec RLC Twitter",
                "region": "en",
                "domain": "twitter.com",
                "path": "@iex_ec"
            },
            "title": "Earn with every email you receive.\n\nThe iExec Privacy Pass Incentive Program.\n\nSign up to securely monetize your em\u2026",
            "published_at": "2023-07-11T10:50:00Z",
            "slug": "Earn-with-every-email-you-receive-The-iExec-Privacy-Pass-Incentive-Program-Sign-up-to-securely-monetize-your-em",
            "currencies": [
                {
                    "code": "RLC",
                    "title": "iExec RLC",
                    "slug": "iexec-rlc",
                    "url": "https:\/\/cryptopanic.com\/news\/iexec-rlc\/"
                }
            ],
            "id": 18768462,
            "url": "https:\/\/cryptopanic.com\/news\/18768462\/Earn-with-every-email-you-receive-The-iExec-Privacy-Pass-Incentive-Program-Sign-up-to-securely-monetize-your-em",
            "created_at": "2023-07-11T10:50:00Z",
            "votes": {
                "negative": 0,
                "positive": 0,
                "important": 0,
                "liked": 0,
                "disliked": 0,
                "lol": 0,
                "toxic": 0,
                "saved": 0,
                "comments": 0
            }
        },
        {
            "kind": "news",
            "domain": "@iEx_ec",
            "source": {
                "title": "iExec RLC Twitter",
                "region": "en",
                "domain": "twitter.com",
                "path": "@iex_ec"
            },
            "title": "Your #iExec $RLC Corgi mascots are excited for #EthCC next week!\n\nStop by the iExec booth and meet them! \n\n@EthCC J\u2026",
            "published_at": "2023-07-11T09:47:21Z",
            "slug": "Your-iExec-RLC-Corgi-mascots-are-excited-for-EthCC-next-week-Stop-by-the-iExec-booth-and-meet-them-EthCC-J",
            "currencies": [
                {
                    "code": "RLC",
                    "title": "iExec RLC",
                    "slug": "iexec-rlc",
                    "url": "https:\/\/cryptopanic.com\/news\/iexec-rlc\/"
                }
            ],
            "id": 18760184,
            "url": "https:\/\/cryptopanic.com\/news\/18760184\/Your-iExec-RLC-Corgi-mascots-are-excited-for-EthCC-next-week-Stop-by-the-iExec-booth-and-meet-them-EthCC-J",
            "created_at": "2023-07-11T09:47:21Z",
            "votes": {
                "negative": 0,
                "positive": 0,
                "important": 0,
                "liked": 0,
                "disliked": 0,
                "lol": 0,
                "toxic": 0,
                "saved": 0,
                "comments": 0
            }
        },
        {
            "kind": "news",
            "domain": "@iEx_ec",
            "source": {
                "title": "iExec RLC Twitter",
                "region": "en",
                "domain": "twitter.com",
                "path": "@iex_ec"
            },
            "title": "RT @iEx_ec: @VitalikButerin @ethereum @EthCC And don't forget, iExec CEO Gilles Fedak will be talking on the main stage, presenting iExec's\u2026",
            "published_at": "2023-07-10T18:05:09Z",
            "slug": "RT-iEx_ec-VitalikButerin-ethereum-EthCC-And-dont-forget-iExec-CEO-Gilles-Fedak-will-be-talking-on-the-main-stage-presenting-iExecs",
            "currencies": [
                {
                    "code": "RLC",
                    "title": "iExec RLC",
                    "slug": "iexec-rlc",
                    "url": "https:\/\/cryptopanic.com\/news\/iexec-rlc\/"
                }
            ],
            "id": 18760185,
            "url": "https:\/\/cryptopanic.com\/news\/18760185\/RT-iEx_ec-VitalikButerin-ethereum-EthCC-And-dont-forget-iExec-CEO-Gilles-Fedak-will-be-talking-on-the-main-stage-presenting-iExecs",
            "created_at": "2023-07-10T18:05:09Z",
            "votes": {
                "negative": 0,
                "positive": 0,
                "important": 0,
                "liked": 0,
                "disliked": 0,
                "lol": 0,
                "toxic": 0,
                "saved": 0,
                "comments": 0
            }
        },
        {
            "kind": "news",
            "domain": "@iEx_ec",
            "source": {
                "title": "iExec RLC Twitter",
                "region": "en",
                "domain": "twitter.com",
                "path": "@iex_ec"
            },
            "title": "Less than 7 days to go until we join @VitalikButerin and the rest of the community at the biggest @ethereum $ETH de\u2026",
            "published_at": "2023-07-10T14:36:10Z",
            "slug": "Less-than-7-days-to-go-until-we-join-VitalikButerin-and-the-rest-of-the-community-at-the-biggest-ethereum-ETH-de",
            "currencies": [
                {
                    "code": "RLC",
                    "title": "iExec RLC",
                    "slug": "iexec-rlc",
                    "url": "https:\/\/cryptopanic.com\/news\/iexec-rlc\/"
                }
            ],
            "id": 18760186,
            "url": "https:\/\/cryptopanic.com\/news\/18760186\/Less-than-7-days-to-go-until-we-join-VitalikButerin-and-the-rest-of-the-community-at-the-biggest-ethereum-ETH-de",
            "created_at": "2023-07-10T14:36:10Z",
            "votes": {
                "negative": 0,
                "positive": 0,
                "important": 0,
                "liked": 0,
                "disliked": 0,
                "lol": 0,
                "toxic": 0,
                "saved": 0,
                "comments": 0
            }
        },
        {
            "kind": "news",
            "domain": "@iEx_ec",
            "source": {
                "title": "iExec RLC Twitter",
                "region": "en",
                "domain": "twitter.com",
                "path": "@iex_ec"
            },
            "title": "RT @EthCC: EthCC[6] is made possible by our sponsors.\n\nThank you @iEx_ec for supporting us this year as a RUBY sponsor!\n\n\ud83e\udd0d\ufe0f",
            "published_at": "2023-07-10T14:12:26Z",
            "slug": "RT-EthCC-EthCC6-is-made-possible-by-our-sponsors-Thank-you-iEx_ec-for-supporting-us-this-year-as-a-RUBY-sponsor",
            "currencies": [
                {
                    "code": "RLC",
                    "title": "iExec RLC",
                    "slug": "iexec-rlc",
                    "url": "https:\/\/cryptopanic.com\/news\/iexec-rlc\/"
                }
            ],
            "id": 18760187,
            "url": "https:\/\/cryptopanic.com\/news\/18760187\/RT-EthCC-EthCC6-is-made-possible-by-our-sponsors-Thank-you-iEx_ec-for-supporting-us-this-year-as-a-RUBY-sponsor",
            "created_at": "2023-07-10T14:12:26Z",
            "votes": {
                "negative": 0,
                "positive": 0,
                "important": 0,
                "liked": 0,
                "disliked": 0,
                "lol": 0,
                "toxic": 0,
                "saved": 0,
                "comments": 0
            }
        },
        {
            "kind": "news",
            "domain": "@iEx_ec",
            "source": {
                "title": "iExec RLC Twitter",
                "region": "en",
                "domain": "twitter.com",
                "path": "@iex_ec"
            },
            "title": "Sign-up to securely monetize your email address: \n\n#earn",
            "published_at": "2023-07-10T10:10:13Z",
            "slug": "Sign-up-to-securely-monetize-your-email-address-earn",
            "currencies": [
                {
                    "code": "RLC",
                    "title": "iExec RLC",
                    "slug": "iexec-rlc",
                    "url": "https:\/\/cryptopanic.com\/news\/iexec-rlc\/"
                }
            ],
            "id": 18752268,
            "url": "https:\/\/cryptopanic.com\/news\/18752268\/Sign-up-to-securely-monetize-your-email-address-earn",
            "created_at": "2023-07-10T10:10:13Z",
            "votes": {
                "negative": 0,
                "positive": 0,
                "important": 0,
                "liked": 0,
                "disliked": 0,
                "lol": 0,
                "toxic": 0,
                "saved": 0,
                "comments": 0
            }
        },
        {
            "kind": "news",
            "domain": "@iEx_ec",
            "source": {
                "title": "iExec RLC Twitter",
                "region": "en",
                "domain": "twitter.com",
                "path": "@iex_ec"
            },
            "title": "Introducing the future of marketing in Web3! \n\nSay hello to user consent and privacy. \nSay goodbye to invasive data\u2026",
            "published_at": "2023-07-10T08:26:17Z",
            "slug": "Introducing-the-future-of-marketing-in-Web3-Say-hello-to-user-consent-and-privacy-Say-goodbye-to-invasive-data",
            "currencies": [
                {
                    "code": "RLC",
                    "title": "iExec RLC",
                    "slug": "iexec-rlc",
                    "url": "https:\/\/cryptopanic.com\/news\/iexec-rlc\/"
                }
            ],
            "id": 18752269,
            "url": "https:\/\/cryptopanic.com\/news\/18752269\/Introducing-the-future-of-marketing-in-Web3-Say-hello-to-user-consent-and-privacy-Say-goodbye-to-invasive-data",
            "created_at": "2023-07-10T08:26:17Z",
            "votes": {
                "negative": 0,
                "positive": 0,
                "important": 0,
                "liked": 0,
                "disliked": 0,
                "lol": 0,
                "toxic": 0,
                "saved": 0,
                "comments": 0
            }
        },
        {
            "kind": "news",
            "domain": "@iEx_ec",
            "source": {
                "title": "iExec RLC Twitter",
                "region": "en",
                "domain": "twitter.com",
                "path": "@iex_ec"
            },
            "title": "Every email you receive means $RLC tokens. \n\nThanks to iExec &amp; Confidential Computing (data being processed within\u2026",
            "published_at": "2023-07-08T08:19:00Z",
            "slug": "Every-email-you-receive-means-RLC-tokens-Thanks-to-iExec-amp-Confidential-Computing-data-being-processed-within",
            "currencies": [
                {
                    "code": "RLC",
                    "title": "iExec RLC",
                    "slug": "iexec-rlc",
                    "url": "https:\/\/cryptopanic.com\/news\/iexec-rlc\/"
                }
            ],
            "id": 18743541,
            "url": "https:\/\/cryptopanic.com\/news\/18743541\/Every-email-you-receive-means-RLC-tokens-Thanks-to-iExec-amp-Confidential-Computing-data-being-processed-within",
            "created_at": "2023-07-08T08:19:00Z",
            "votes": {
                "negative": 0,
                "positive": 0,
                "important": 0,
                "liked": 0,
                "disliked": 0,
                "lol": 0,
                "toxic": 0,
                "saved": 0,
                "comments": 0
            }
        },
        {
            "kind": "news",
            "domain": "@iEx_ec",
            "source": {
                "title": "iExec RLC Twitter",
                "region": "en",
                "domain": "twitter.com",
                "path": "@iex_ec"
            },
            "title": "- @EthCC is going to be huge this year!\n\niExec CEO Gilles Fedak will be talking on the main stage, presenting iExec\u2026",
            "published_at": "2023-07-07T14:43:13Z",
            "slug": "-EthCC-is-going-to-be-huge-this-year-iExec-CEO-Gilles-Fedak-will-be-talking-on-the-main-stage-presenting-iExec",
            "currencies": [
                {
                    "code": "RLC",
                    "title": "iExec RLC",
                    "slug": "iexec-rlc",
                    "url": "https:\/\/cryptopanic.com\/news\/iexec-rlc\/"
                }
            ],
            "id": 18743542,
            "url": "https:\/\/cryptopanic.com\/news\/18743542\/-EthCC-is-going-to-be-huge-this-year-iExec-CEO-Gilles-Fedak-will-be-talking-on-the-main-stage-presenting-iExec",
            "created_at": "2023-07-07T14:43:13Z",
            "votes": {
                "negative": 0,
                "positive": 0,
                "important": 0,
                "liked": 0,
                "disliked": 0,
                "lol": 0,
                "toxic": 0,
                "saved": 0,
                "comments": 0
            }
        },
        {
            "kind": "news",
            "domain": "@iEx_ec",
            "source": {
                "title": "iExec RLC Twitter",
                "region": "en",
                "domain": "twitter.com",
                "path": "@iex_ec"
            },
            "title": "A brief introduction to iExec's new dev tools for Privacy-Enhancing Marketing.\n\nTransforming how dapps and Web3 use\u2026",
            "published_at": "2023-07-07T12:46:14Z",
            "slug": "A-brief-introduction-to-iExecs-new-dev-tools-for-Privacy-Enhancing-Marketing-Transforming-how-dapps-and-Web3-use",
            "currencies": [
                {
                    "code": "RLC",
                    "title": "iExec RLC",
                    "slug": "iexec-rlc",
                    "url": "https:\/\/cryptopanic.com\/news\/iexec-rlc\/"
                }
            ],
            "id": 18743543,
            "url": "https:\/\/cryptopanic.com\/news\/18743543\/A-brief-introduction-to-iExecs-new-dev-tools-for-Privacy-Enhancing-Marketing-Transforming-how-dapps-and-Web3-use",
            "created_at": "2023-07-07T12:46:14Z",
            "votes": {
                "negative": 0,
                "positive": 0,
                "important": 0,
                "liked": 0,
                "disliked": 0,
                "lol": 0,
                "toxic": 0,
                "saved": 0,
                "comments": 0
            }
        },
        {
            "kind": "news",
            "domain": "@iEx_ec",
            "source": {
                "title": "iExec RLC Twitter",
                "region": "en",
                "domain": "twitter.com",
                "path": "@iex_ec"
            },
            "title": "EU-Funded online #blockchain #hackathon. \nGot a project idea? \n\nSign up before July 21",
            "published_at": "2023-07-07T11:07:08Z",
            "slug": "EU-Funded-online-blockchain-hackathon-Got-a-project-idea-Sign-up-before-July-21",
            "currencies": [
                {
                    "code": "RLC",
                    "title": "iExec RLC",
                    "slug": "iexec-rlc",
                    "url": "https:\/\/cryptopanic.com\/news\/iexec-rlc\/"
                }
            ],
            "id": 18743544,
            "url": "https:\/\/cryptopanic.com\/news\/18743544\/EU-Funded-online-blockchain-hackathon-Got-a-project-idea-Sign-up-before-July-21",
            "created_at": "2023-07-07T11:07:08Z",
            "votes": {
                "negative": 0,
                "positive": 0,
                "important": 0,
                "liked": 0,
                "disliked": 0,
                "lol": 0,
                "toxic": 0,
                "saved": 0,
                "comments": 0
            }
        },
        {
            "kind": "news",
            "domain": "@iEx_ec",
            "source": {
                "title": "iExec RLC Twitter",
                "region": "en",
                "domain": "twitter.com",
                "path": "@iex_ec"
            },
            "title": "Sign up for the online hackathon before July 21! \nUp to \u20ac3000 for your project.",
            "published_at": "2023-07-07T10:12:00Z",
            "slug": "Sign-up-for-the-online-hackathon-before-July-21-Up-to-3000-for-your-project",
            "currencies": [
                {
                    "code": "RLC",
                    "title": "iExec RLC",
                    "slug": "iexec-rlc",
                    "url": "https:\/\/cryptopanic.com\/news\/iexec-rlc\/"
                }
            ],
            "id": 18736655,
            "url": "https:\/\/cryptopanic.com\/news\/18736655\/Sign-up-for-the-online-hackathon-before-July-21-Up-to-3000-for-your-project",
            "created_at": "2023-07-07T10:12:00Z",
            "votes": {
                "negative": 0,
                "positive": 0,
                "important": 0,
                "liked": 0,
                "disliked": 0,
                "lol": 0,
                "toxic": 0,
                "saved": 0,
                "comments": 0
            }
        },
        {
            "kind": "news",
            "domain": "@iEx_ec",
            "source": {
                "title": "iExec RLC Twitter",
                "region": "en",
                "domain": "twitter.com",
                "path": "@iex_ec"
            },
            "title": "1 hour to go until our online workshop! \n17:00 Paris Time \u23f0\nSign up for free here",
            "published_at": "2023-07-06T14:10:50Z",
            "slug": "1-hour-to-go-until-our-online-workshop-1700-Paris-Time-Sign-up-for-free-here",
            "currencies": [
                {
                    "code": "RLC",
                    "title": "iExec RLC",
                    "slug": "iexec-rlc",
                    "url": "https:\/\/cryptopanic.com\/news\/iexec-rlc\/"
                }
            ],
            "id": 18736656,
            "url": "https:\/\/cryptopanic.com\/news\/18736656\/1-hour-to-go-until-our-online-workshop-1700-Paris-Time-Sign-up-for-free-here",
            "created_at": "2023-07-06T14:10:50Z",
            "votes": {
                "negative": 0,
                "positive": 0,
                "important": 0,
                "liked": 0,
                "disliked": 0,
                "lol": 0,
                "toxic": 0,
                "saved": 0,
                "comments": 0
            }
        },
        {
            "kind": "news",
            "domain": "@iEx_ec",
            "source": {
                "title": "iExec RLC Twitter",
                "region": "en",
                "domain": "twitter.com",
                "path": "@iex_ec"
            },
            "title": "iExec Confidential Computing makes it possible to monetize or \u201crent out\u201d datasets, without revealing them...\n\nIt's\u2026",
            "published_at": "2023-07-06T12:30:00Z",
            "slug": "iExec-Confidential-Computing-makes-it-possible-to-monetize-or-rent-out-datasets-without-revealing-them-Its",
            "currencies": [
                {
                    "code": "RLC",
                    "title": "iExec RLC",
                    "slug": "iexec-rlc",
                    "url": "https:\/\/cryptopanic.com\/news\/iexec-rlc\/"
                }
            ],
            "id": 18736657,
            "url": "https:\/\/cryptopanic.com\/news\/18736657\/iExec-Confidential-Computing-makes-it-possible-to-monetize-or-rent-out-datasets-without-revealing-them-Its",
            "created_at": "2023-07-06T12:30:00Z",
            "votes": {
                "negative": 0,
                "positive": 0,
                "important": 0,
                "liked": 0,
                "disliked": 0,
                "lol": 0,
                "toxic": 0,
                "saved": 0,
                "comments": 0
            }
        },
        {
            "kind": "news",
            "domain": "@iEx_ec",
            "source": {
                "title": "iExec RLC Twitter",
                "region": "en",
                "domain": "twitter.com",
                "path": "@iex_ec"
            },
            "title": "Calling all developers! \n\nCreate your own Privacy-Enhanced Marketing applications or run campaigns with iExec's us\u2026",
            "published_at": "2023-07-06T11:51:58Z",
            "slug": "Calling-all-developers-Create-your-own-Privacy-Enhanced-Marketing-applications-or-run-campaigns-with-iExecs-us",
            "currencies": [
                {
                    "code": "RLC",
                    "title": "iExec RLC",
                    "slug": "iexec-rlc",
                    "url": "https:\/\/cryptopanic.com\/news\/iexec-rlc\/"
                }
            ],
            "id": 18736658,
            "url": "https:\/\/cryptopanic.com\/news\/18736658\/Calling-all-developers-Create-your-own-Privacy-Enhanced-Marketing-applications-or-run-campaigns-with-iExecs-us",
            "created_at": "2023-07-06T11:51:58Z",
            "votes": {
                "negative": 0,
                "positive": 0,
                "important": 0,
                "liked": 0,
                "disliked": 0,
                "lol": 0,
                "toxic": 0,
                "saved": 0,
                "comments": 0
            }
        },
        {
            "kind": "news",
            "domain": "@iEx_ec",
            "source": {
                "title": "iExec RLC Twitter",
                "region": "en",
                "domain": "twitter.com",
                "path": "@iex_ec"
            },
            "title": "Last chance to register for our online workshop today at 16:00 CEST \n\nLearn about the latest iExec developer tools\u2026",
            "published_at": "2023-07-06T06:08:00Z",
            "slug": "Last-chance-to-register-for-our-online-workshop-today-at-1600-CEST-Learn-about-the-latest-iExec-developer-tools",
            "currencies": [
                {
                    "code": "RLC",
                    "title": "iExec RLC",
                    "slug": "iexec-rlc",
                    "url": "https:\/\/cryptopanic.com\/news\/iexec-rlc\/"
                }
            ],
            "id": 18727967,
            "url": "https:\/\/cryptopanic.com\/news\/18727967\/Last-chance-to-register-for-our-online-workshop-today-at-1600-CEST-Learn-about-the-latest-iExec-developer-tools",
            "created_at": "2023-07-06T06:08:00Z",
            "votes": {
                "negative": 0,
                "positive": 0,
                "important": 0,
                "liked": 0,
                "disliked": 0,
                "lol": 0,
                "toxic": 0,
                "saved": 0,
                "comments": 0
            }
        },
        {
            "kind": "news",
            "domain": "@iEx_ec",
            "source": {
                "title": "iExec RLC Twitter",
                "region": "en",
                "domain": "twitter.com",
                "path": "@iex_ec"
            },
            "title": "Sign up to securely monetize your email address: \n\n\ufe0f \n\n#Earn $RLC tokens with each email yo\u2026",
            "published_at": "2023-07-05T13:34:33Z",
            "slug": "Sign-up-to-securely-monetize-your-email-address-Earn-RLC-tokens-with-each-email-yo",
            "currencies": [
                {
                    "code": "RLC",
                    "title": "iExec RLC",
                    "slug": "iexec-rlc",
                    "url": "https:\/\/cryptopanic.com\/news\/iexec-rlc\/"
                }
            ],
            "id": 18727968,
            "url": "https:\/\/cryptopanic.com\/news\/18727968\/Sign-up-to-securely-monetize-your-email-address-Earn-RLC-tokens-with-each-email-yo",
            "created_at": "2023-07-05T13:34:33Z",
            "votes": {
                "negative": 0,
                "positive": 0,
                "important": 0,
                "liked": 0,
                "disliked": 0,
                "lol": 0,
                "toxic": 0,
                "saved": 0,
                "comments": 0
            }
        },
        {
            "kind": "news",
            "domain": "@iEx_ec",
            "source": {
                "title": "iExec RLC Twitter",
                "region": "en",
                "domain": "twitter.com",
                "path": "@iex_ec"
            },
            "title": "Tomorrow at 16:00 CEST! Don't miss our online workshop for the chance to learn how to implement new iExec developer\u2026",
            "published_at": "2023-07-05T11:13:00Z",
            "slug": "Tomorrow-at-1600-CEST-Dont-miss-our-online-workshop-for-the-chance-to-learn-how-to-implement-new-iExec-developer",
            "currencies": [
                {
                    "code": "RLC",
                    "title": "iExec RLC",
                    "slug": "iexec-rlc",
                    "url": "https:\/\/cryptopanic.com\/news\/iexec-rlc\/"
                }
            ],
            "id": 18727969,
            "url": "https:\/\/cryptopanic.com\/news\/18727969\/Tomorrow-at-1600-CEST-Dont-miss-our-online-workshop-for-the-chance-to-learn-how-to-implement-new-iExec-developer",
            "created_at": "2023-07-05T11:13:00Z",
            "votes": {
                "negative": 0,
                "positive": 0,
                "important": 0,
                "liked": 0,
                "disliked": 0,
                "lol": 0,
                "toxic": 0,
                "saved": 0,
                "comments": 0
            }
        }
    ]
}
