{
    "count": 200,
    "next": "https:\/\/cryptopanic.com\/api\/v1\/posts\/?auth_token=01c356e89ffc1b8eba2127c81fc8c66ee0eace75&kind=news&currencies=HOOK&page=2",
    "previous": null,
    "results": [
        {
            "kind": "news",
            "domain": "@HookedProtocol",
            "source": {
                "title": "Hooked Protocol Twitter",
                "region": "en",
                "domain": "twitter.com",
                "path": "@hookedprotocol"
            },
            "title": "Buckle up and join us on the thrilling #ToDaMoon rocket ship alongside @Lifeformcc for an incredible opportunity to\u2026",
            "published_at": "2023-07-12T05:00:47Z",
            "slug": "Buckle-up-and-join-us-on-the-thrilling-ToDaMoon-rocket-ship-alongside-Lifeformcc-for-an-incredible-opportunity-to",
            "currencies": [
                {
                    "code": "HOOK",
                    "title": "Hooked Protocol",
                    "slug": "hooked-protocol",
                    "url": "https:\/\/cryptopanic.com\/news\/hooked-protocol\/"
                }
            ],
            "id": 18764837,
            "url": "https:\/\/cryptopanic.com\/news\/18764837\/Buckle-up-and-join-us-on-the-thrilling-ToDaMoon-rocket-ship-alongside-Lifeformcc-for-an-incredible-opportunity-to",
            "created_at": "2023-07-12T05:00:47Z",
            "votes": {
                "negative": 0,
                "positive": 0,
                "important": 0,
                "liked": 0,
                "disliked": 0,
                "lol": 0,
                "toxic": 0,
                "saved": 0,
                "comments": 0
            }
        },
        {
            "kind": "news",
            "domain": "@HookedProtocol",
            "source": {
                "title": "Hooked Protocol Twitter",
                "region": "en",
                "domain": "twitter.com",
                "path": "@hookedprotocol"
            },
            "title": "#HookedNewsFlash\n\nThe Hooked wallet now offers enhanced utility!\nStake HOOK and enjoy additional rewards for a limi\u2026",
            "published_at": "2023-07-11T05:45:35Z",
            "slug": "HookedNewsFlash-The-Hooked-wallet-now-offers-enhanced-utility-Stake-HOOK-and-enjoy-additional-rewards-for-a-limi",
            "currencies": [
                {
                    "code": "HOOK",
                    "title": "Hooked Protocol",
                    "slug": "hooked-protocol",
                    "url": "https:\/\/cryptopanic.com\/news\/hooked-protocol\/"
                }
            ],
            "id": 18756680,
            "url": "https:\/\/cryptopanic.com\/news\/18756680\/HookedNewsFlash-The-Hooked-wallet-now-offers-enhanced-utility-Stake-HOOK-and-enjoy-additional-rewards-for-a-limi",
            "created_at": "2023-07-11T05:45:35Z",
            "votes": {
                "negative": 0,
                "positive": 0,
                "important": 0,
                "liked": 0,
                "disliked": 0,
                "lol": 0,
                "toxic": 0,
                "saved": 0,
                "comments": 0
            }
        },
        {
            "kind": "news",
            "domain": "@HookedProtocol",
            "source": {
                "title": "Hooked Protocol Twitter",
                "region": "en",
                "domain": "twitter.com",
                "path": "@hookedprotocol"
            },
            "title": " Embrace the new chapter of Hooked infrastructure, seamlessly integrating Hooked DeFi!\n\nDiscover the world of DeF\u2026",
            "published_at": "2023-07-11T05:12:55Z",
            "slug": "Embrace-the-new-chapter-of-Hooked-infrastructure-seamlessly-integrating-Hooked-DeFi-Discover-the-world-of-DeF",
            "currencies": [
                {
                    "code": "HOOK",
                    "title": "Hooked Protocol",
                    "slug": "hooked-protocol",
                    "url": "https:\/\/cryptopanic.com\/news\/hooked-protocol\/"
                }
            ],
            "id": 18756681,
            "url": "https:\/\/cryptopanic.com\/news\/18756681\/Embrace-the-new-chapter-of-Hooked-infrastructure-seamlessly-integrating-Hooked-DeFi-Discover-the-world-of-DeF",
            "created_at": "2023-07-11T05:12:55Z",
            "votes": {
                "negative": 0,
                "positive": 0,
                "important": 0,
                "liked": 0,
                "disliked": 0,
                "lol": 0,
                "toxic": 0,
                "saved": 0,
                "comments": 0
            }
        },
        {
            "kind": "news",
            "domain": "@HookedProtocol",
            "source": {
                "title": "Hooked Protocol Twitter",
                "region": "en",
                "domain": "twitter.com",
                "path": "@hookedprotocol"
            },
            "title": " Our next #ToDaMoon event is in partnership with @Lifeformcc! \n\nLifeform is an open solution platform for decentr\u2026",
            "published_at": "2023-07-10T08:29:53Z",
            "slug": "Our-next-ToDaMoon-event-is-in-partnership-with-Lifeformcc-Lifeform-is-an-open-solution-platform-for-decentr",
            "currencies": [
                {
                    "code": "HOOK",
                    "title": "Hooked Protocol",
                    "slug": "hooked-protocol",
                    "url": "https:\/\/cryptopanic.com\/news\/hooked-protocol\/"
                }
            ],
            "id": 18756682,
            "url": "https:\/\/cryptopanic.com\/news\/18756682\/Our-next-ToDaMoon-event-is-in-partnership-with-Lifeformcc-Lifeform-is-an-open-solution-platform-for-decentr",
            "created_at": "2023-07-10T08:29:53Z",
            "votes": {
                "negative": 0,
                "positive": 0,
                "important": 0,
                "liked": 0,
                "disliked": 0,
                "lol": 0,
                "toxic": 0,
                "saved": 0,
                "comments": 0
            }
        },
        {
            "kind": "news",
            "domain": "@HookedProtocol",
            "source": {
                "title": "Hooked Protocol Twitter",
                "region": "en",
                "domain": "twitter.com",
                "path": "@hookedprotocol"
            },
            "title": "Congratulations to the 25 lucky winners who joined forces with Hooked &amp; @realpolkabridge and @bscstation!\n\nThey ha\u2026",
            "published_at": "2023-07-10T07:53:04Z",
            "slug": "Congratulations-to-the-25-lucky-winners-who-joined-forces-with-Hooked-amp-realpolkabridge-and-bscstation-They-ha",
            "currencies": [
                {
                    "code": "HOOK",
                    "title": "Hooked Protocol",
                    "slug": "hooked-protocol",
                    "url": "https:\/\/cryptopanic.com\/news\/hooked-protocol\/"
                }
            ],
            "id": 18756683,
            "url": "https:\/\/cryptopanic.com\/news\/18756683\/Congratulations-to-the-25-lucky-winners-who-joined-forces-with-Hooked-amp-realpolkabridge-and-bscstation-They-ha",
            "created_at": "2023-07-10T07:53:04Z",
            "votes": {
                "negative": 0,
                "positive": 0,
                "important": 0,
                "liked": 0,
                "disliked": 0,
                "lol": 0,
                "toxic": 0,
                "saved": 0,
                "comments": 0
            }
        },
        {
            "kind": "news",
            "domain": "@HookedProtocol",
            "source": {
                "title": "Hooked Protocol Twitter",
                "region": "en",
                "domain": "twitter.com",
                "path": "@hookedprotocol"
            },
            "title": "\ud83e\udd42 Come together with the entire #Web3 ecosystem to celebrate &amp; welcome the next billion users on board! Join us for\u2026",
            "published_at": "2023-07-08T12:39:40Z",
            "slug": "Come-together-with-the-entire-Web3-ecosystem-to-celebrate-amp-welcome-the-next-billion-users-on-board-Join-us-for",
            "currencies": [
                {
                    "code": "HOOK",
                    "title": "Hooked Protocol",
                    "slug": "hooked-protocol",
                    "url": "https:\/\/cryptopanic.com\/news\/hooked-protocol\/"
                }
            ],
            "id": 18745797,
            "url": "https:\/\/cryptopanic.com\/news\/18745797\/Come-together-with-the-entire-Web3-ecosystem-to-celebrate-amp-welcome-the-next-billion-users-on-board-Join-us-for",
            "created_at": "2023-07-08T12:39:40Z",
            "votes": {
                "negative": 0,
                "positive": 0,
                "important": 0,
                "liked": 0,
                "disliked": 0,
                "lol": 0,
                "toxic": 0,
                "saved": 0,
                "comments": 0
            }
        },
        {
            "kind": "news",
            "domain": "@HookedProtocol",
            "source": {
                "title": "Hooked Protocol Twitter",
                "region": "en",
                "domain": "twitter.com",
                "path": "@hookedprotocol"
            },
            "title": " Jump aboard the thrilling #ToDaMoon rocket ship with Hooked, @realpolkabridge @bscstation for a chance to win ama\u2026",
            "published_at": "2023-07-07T08:00:29Z",
            "slug": "Jump-aboard-the-thrilling-ToDaMoon-rocket-ship-with-Hooked-realpolkabridge-bscstation-for-a-chance-to-win-ama",
            "currencies": [
                {
                    "code": "HOOK",
                    "title": "Hooked Protocol",
                    "slug": "hooked-protocol",
                    "url": "https:\/\/cryptopanic.com\/news\/hooked-protocol\/"
                }
            ],
            "id": 18740576,
            "url": "https:\/\/cryptopanic.com\/news\/18740576\/Jump-aboard-the-thrilling-ToDaMoon-rocket-ship-with-Hooked-realpolkabridge-bscstation-for-a-chance-to-win-ama",
            "created_at": "2023-07-07T08:00:29Z",
            "votes": {
                "negative": 0,
                "positive": 0,
                "important": 0,
                "liked": 0,
                "disliked": 0,
                "lol": 0,
                "toxic": 0,
                "saved": 0,
                "comments": 0
            }
        },
        {
            "kind": "news",
            "domain": "@HookedProtocol",
            "source": {
                "title": "Hooked Protocol Twitter",
                "region": "en",
                "domain": "twitter.com",
                "path": "@hookedprotocol"
            },
            "title": "#HookedAcademySensei, driven by #HookedAI, is pushing boundaries of AI-powered Web3 education.\n\n Nearly 1 million\u2026",
            "published_at": "2023-07-06T08:00:00Z",
            "slug": "HookedAcademySensei-driven-by-HookedAI-is-pushing-boundaries-of-AI-powered-Web3-education-Nearly-1-million",
            "currencies": [
                {
                    "code": "HOOK",
                    "title": "Hooked Protocol",
                    "slug": "hooked-protocol",
                    "url": "https:\/\/cryptopanic.com\/news\/hooked-protocol\/"
                }
            ],
            "id": 18732965,
            "url": "https:\/\/cryptopanic.com\/news\/18732965\/HookedAcademySensei-driven-by-HookedAI-is-pushing-boundaries-of-AI-powered-Web3-education-Nearly-1-million",
            "created_at": "2023-07-06T08:00:00Z",
            "votes": {
                "negative": 0,
                "positive": 0,
                "important": 0,
                "liked": 0,
                "disliked": 0,
                "lol": 0,
                "toxic": 0,
                "saved": 0,
                "comments": 0
            }
        },
        {
            "kind": "news",
            "domain": "@HookedProtocol",
            "source": {
                "title": "Hooked Protocol Twitter",
                "region": "en",
                "domain": "twitter.com",
                "path": "@hookedprotocol"
            },
            "title": " #Hookedfrens\nWelcome our new co-educators of #edutainment galaxy to a dynamic panel of \u201cWeb3 Launchpads Accelerat\u2026",
            "published_at": "2023-07-05T13:57:13Z",
            "slug": "Hookedfrens-Welcome-our-new-co-educators-of-edutainment-galaxy-to-a-dynamic-panel-of-Web3-Launchpads-Accelerat",
            "currencies": [
                {
                    "code": "HOOK",
                    "title": "Hooked Protocol",
                    "slug": "hooked-protocol",
                    "url": "https:\/\/cryptopanic.com\/news\/hooked-protocol\/"
                }
            ],
            "id": 18724515,
            "url": "https:\/\/cryptopanic.com\/news\/18724515\/Hookedfrens-Welcome-our-new-co-educators-of-edutainment-galaxy-to-a-dynamic-panel-of-Web3-Launchpads-Accelerat",
            "created_at": "2023-07-05T13:57:13Z",
            "votes": {
                "negative": 0,
                "positive": 0,
                "important": 0,
                "liked": 0,
                "disliked": 0,
                "lol": 0,
                "toxic": 0,
                "saved": 0,
                "comments": 0
            }
        },
        {
            "kind": "news",
            "domain": "@HookedProtocol",
            "source": {
                "title": "Hooked Protocol Twitter",
                "region": "en",
                "domain": "twitter.com",
                "path": "@hookedprotocol"
            },
            "title": " #Hookedfrens #ToDaMoon\n\n\u23f3 Only 3 hours left until the start of a thrilling and non-stop rollercoaster of FUN, acc\u2026",
            "published_at": "2023-07-05T07:57:12Z",
            "slug": "Hookedfrens-ToDaMoon-Only-3-hours-left-until-the-start-of-a-thrilling-and-non-stop-rollercoaster-of-FUN-acc",
            "currencies": [
                {
                    "code": "HOOK",
                    "title": "Hooked Protocol",
                    "slug": "hooked-protocol",
                    "url": "https:\/\/cryptopanic.com\/news\/hooked-protocol\/"
                }
            ],
            "id": 18724516,
            "url": "https:\/\/cryptopanic.com\/news\/18724516\/Hookedfrens-ToDaMoon-Only-3-hours-left-until-the-start-of-a-thrilling-and-non-stop-rollercoaster-of-FUN-acc",
            "created_at": "2023-07-05T07:57:12Z",
            "votes": {
                "negative": 0,
                "positive": 0,
                "important": 0,
                "liked": 0,
                "disliked": 0,
                "lol": 0,
                "toxic": 0,
                "saved": 0,
                "comments": 0
            }
        },
        {
            "kind": "news",
            "domain": "@HookedProtocol",
            "source": {
                "title": "Hooked Protocol Twitter",
                "region": "en",
                "domain": "twitter.com",
                "path": "@hookedprotocol"
            },
            "title": "Let's delve into the unforgettable memories we have created with @Lifeform during this incredible journey of onboar\u2026",
            "published_at": "2023-07-04T14:24:40Z",
            "slug": "Lets-delve-into-the-unforgettable-memories-we-have-created-with-Lifeform-during-this-incredible-journey-of-onboar",
            "currencies": [
                {
                    "code": "HOOK",
                    "title": "Hooked Protocol",
                    "slug": "hooked-protocol",
                    "url": "https:\/\/cryptopanic.com\/news\/hooked-protocol\/"
                }
            ],
            "id": 18716690,
            "url": "https:\/\/cryptopanic.com\/news\/18716690\/Lets-delve-into-the-unforgettable-memories-we-have-created-with-Lifeform-during-this-incredible-journey-of-onboar",
            "created_at": "2023-07-04T14:24:40Z",
            "votes": {
                "negative": 0,
                "positive": 0,
                "important": 0,
                "liked": 0,
                "disliked": 0,
                "lol": 0,
                "toxic": 0,
                "saved": 0,
                "comments": 0
            }
        },
        {
            "kind": "news",
            "domain": "@HookedProtocol",
            "source": {
                "title": "Hooked Protocol Twitter",
                "region": "en",
                "domain": "twitter.com",
                "path": "@hookedprotocol"
            },
            "title": " #Hookedfrens #ToDaMoon\nAbout to enter the Web3 with Hooked, and our new pioneering co-educators? \n\nWelcome to\u2026",
            "published_at": "2023-07-04T11:59:45Z",
            "slug": "Hookedfrens-ToDaMoon-About-to-enter-the-Web3-with-Hooked-and-our-new-pioneering-co-educators-Welcome-to",
            "currencies": [
                {
                    "code": "HOOK",
                    "title": "Hooked Protocol",
                    "slug": "hooked-protocol",
                    "url": "https:\/\/cryptopanic.com\/news\/hooked-protocol\/"
                }
            ],
            "id": 18716691,
            "url": "https:\/\/cryptopanic.com\/news\/18716691\/Hookedfrens-ToDaMoon-About-to-enter-the-Web3-with-Hooked-and-our-new-pioneering-co-educators-Welcome-to",
            "created_at": "2023-07-04T11:59:45Z",
            "votes": {
                "negative": 0,
                "positive": 0,
                "important": 0,
                "liked": 0,
                "disliked": 0,
                "lol": 0,
                "toxic": 0,
                "saved": 0,
                "comments": 0
            }
        },
        {
            "kind": "news",
            "domain": "@HookedProtocol",
            "source": {
                "title": "Hooked Protocol Twitter",
                "region": "en",
                "domain": "twitter.com",
                "path": "@hookedprotocol"
            },
            "title": "#Hookedfrens \n\n The mechanism of #ToDaMoon has received an enhanced upgrade, with a primary focus on bring more i\u2026",
            "published_at": "2023-07-04T10:41:38Z",
            "slug": "Hookedfrens-The-mechanism-of-ToDaMoon-has-received-an-enhanced-upgrade-with-a-primary-focus-on-bring-more-i",
            "currencies": [
                {
                    "code": "HOOK",
                    "title": "Hooked Protocol",
                    "slug": "hooked-protocol",
                    "url": "https:\/\/cryptopanic.com\/news\/hooked-protocol\/"
                }
            ],
            "id": 18716692,
            "url": "https:\/\/cryptopanic.com\/news\/18716692\/Hookedfrens-The-mechanism-of-ToDaMoon-has-received-an-enhanced-upgrade-with-a-primary-focus-on-bring-more-i",
            "created_at": "2023-07-04T10:41:38Z",
            "votes": {
                "negative": 0,
                "positive": 0,
                "important": 0,
                "liked": 0,
                "disliked": 0,
                "lol": 0,
                "toxic": 0,
                "saved": 0,
                "comments": 0
            }
        },
        {
            "kind": "news",
            "domain": "@HookedProtocol",
            "source": {
                "title": "Hooked Protocol Twitter",
                "region": "en",
                "domain": "twitter.com",
                "path": "@hookedprotocol"
            },
            "title": "RT @DoveyWan: on the 6th I will be co-hosting a Web3 builders' breakfast with local @awscloud team @realkaiyong and SqrDao chad @DarthCaste\u2026",
            "published_at": "2023-07-04T04:23:42Z",
            "slug": "RT-DoveyWan-on-the-6th-I-will-be-co-hosting-a-Web3-builders-breakfast-with-local-awscloud-team-realkaiyong-and-SqrDao-chad-DarthCaste",
            "currencies": [
                {
                    "code": "HOOK",
                    "title": "Hooked Protocol",
                    "slug": "hooked-protocol",
                    "url": "https:\/\/cryptopanic.com\/news\/hooked-protocol\/"
                }
            ],
            "id": 18709473,
            "url": "https:\/\/cryptopanic.com\/news\/18709473\/RT-DoveyWan-on-the-6th-I-will-be-co-hosting-a-Web3-builders-breakfast-with-local-awscloud-team-realkaiyong-and-SqrDao-chad-DarthCaste",
            "created_at": "2023-07-04T04:23:42Z",
            "votes": {
                "negative": 0,
                "positive": 0,
                "important": 0,
                "liked": 0,
                "disliked": 0,
                "lol": 0,
                "toxic": 0,
                "saved": 0,
                "comments": 0
            }
        },
        {
            "kind": "news",
            "domain": "@HookedProtocol",
            "source": {
                "title": "Hooked Protocol Twitter",
                "region": "en",
                "domain": "twitter.com",
                "path": "@hookedprotocol"
            },
            "title": "#HookedonEvent\n Exciting CHINESE AMA collaboration with @binancezh, as we embark on a journey of globalization an\u2026",
            "published_at": "2023-07-03T10:01:49Z",
            "slug": "HookedonEvent-Exciting-CHINESE-AMA-collaboration-with-binancezh-as-we-embark-on-a-journey-of-globalization-an",
            "currencies": [
                {
                    "code": "HOOK",
                    "title": "Hooked Protocol",
                    "slug": "hooked-protocol",
                    "url": "https:\/\/cryptopanic.com\/news\/hooked-protocol\/"
                }
            ],
            "id": 18709474,
            "url": "https:\/\/cryptopanic.com\/news\/18709474\/HookedonEvent-Exciting-CHINESE-AMA-collaboration-with-binancezh-as-we-embark-on-a-journey-of-globalization-an",
            "created_at": "2023-07-03T10:01:49Z",
            "votes": {
                "negative": 0,
                "positive": 0,
                "important": 0,
                "liked": 0,
                "disliked": 0,
                "lol": 0,
                "toxic": 0,
                "saved": 0,
                "comments": 0
            }
        },
        {
            "kind": "news",
            "domain": "@HookedProtocol",
            "source": {
                "title": "Hooked Protocol Twitter",
                "region": "en",
                "domain": "twitter.com",
                "path": "@hookedprotocol"
            },
            "title": "As an effort to keep Hooked Family members updated, here\u2019s the latest development progress by Jun. 30th, 2023: ",
            "published_at": "2023-07-01T14:36:16Z",
            "slug": "As-an-effort-to-keep-Hooked-Family-members-updated-heres-the-latest-development-progress-by-Jun-30th-2023",
            "currencies": [
                {
                    "code": "HOOK",
                    "title": "Hooked Protocol",
                    "slug": "hooked-protocol",
                    "url": "https:\/\/cryptopanic.com\/news\/hooked-protocol\/"
                }
            ],
            "id": 18698935,
            "url": "https:\/\/cryptopanic.com\/news\/18698935\/As-an-effort-to-keep-Hooked-Family-members-updated-heres-the-latest-development-progress-by-Jun-30th-2023",
            "created_at": "2023-07-01T14:36:16Z",
            "votes": {
                "negative": 0,
                "positive": 0,
                "important": 0,
                "liked": 0,
                "disliked": 0,
                "lol": 0,
                "toxic": 0,
                "saved": 0,
                "comments": 0
            }
        },
        {
            "kind": "news",
            "domain": "@HookedProtocol",
            "source": {
                "title": "Hooked Protocol Twitter",
                "region": "en",
                "domain": "twitter.com",
                "path": "@hookedprotocol"
            },
            "title": "#HookedonEvent\n Worried about asking burning questions publicly? \ud83e\udd10\nFear no more!\n\nAsk anything you've been hesita\u2026",
            "published_at": "2023-07-01T13:00:02Z",
            "slug": "HookedonEvent-Worried-about-asking-burning-questions-publicly-Fear-no-more-Ask-anything-youve-been-hesita",
            "currencies": [
                {
                    "code": "HOOK",
                    "title": "Hooked Protocol",
                    "slug": "hooked-protocol",
                    "url": "https:\/\/cryptopanic.com\/news\/hooked-protocol\/"
                }
            ],
            "id": 18698936,
            "url": "https:\/\/cryptopanic.com\/news\/18698936\/HookedonEvent-Worried-about-asking-burning-questions-publicly-Fear-no-more-Ask-anything-youve-been-hesita",
            "created_at": "2023-07-01T13:00:02Z",
            "votes": {
                "negative": 0,
                "positive": 0,
                "important": 0,
                "liked": 0,
                "disliked": 0,
                "lol": 0,
                "toxic": 0,
                "saved": 0,
                "comments": 0
            }
        },
        {
            "kind": "news",
            "domain": "@HookedProtocol",
            "source": {
                "title": "Hooked Protocol Twitter",
                "region": "en",
                "domain": "twitter.com",
                "path": "@hookedprotocol"
            },
            "title": "Put your knowledge to the test and get ready to win big at #ToDaMoon! \n\nCollect your ticket &amp; answer quizzes on W\u2026",
            "published_at": "2023-06-30T07:48:45Z",
            "slug": "Put-your-knowledge-to-the-test-and-get-ready-to-win-big-at-ToDaMoon-Collect-your-ticket-amp-answer-quizzes-on-W",
            "currencies": [
                {
                    "code": "HOOK",
                    "title": "Hooked Protocol",
                    "slug": "hooked-protocol",
                    "url": "https:\/\/cryptopanic.com\/news\/hooked-protocol\/"
                }
            ],
            "id": 18693878,
            "url": "https:\/\/cryptopanic.com\/news\/18693878\/Put-your-knowledge-to-the-test-and-get-ready-to-win-big-at-ToDaMoon-Collect-your-ticket-amp-answer-quizzes-on-W",
            "created_at": "2023-06-30T07:48:45Z",
            "votes": {
                "negative": 0,
                "positive": 0,
                "important": 0,
                "liked": 0,
                "disliked": 0,
                "lol": 0,
                "toxic": 0,
                "saved": 0,
                "comments": 0
            }
        },
        {
            "kind": "news",
            "domain": "@HookedProtocol",
            "source": {
                "title": "Hooked Protocol Twitter",
                "region": "en",
                "domain": "twitter.com",
                "path": "@hookedprotocol"
            },
            "title": " 1 $HOOK to unlock a BRAND NEW way to master Web3 with Hooked Academy Sensei!\n\nNewbie: Dive into Web3 basics effo\u2026",
            "published_at": "2023-06-29T08:17:44Z",
            "slug": "1-HOOK-to-unlock-a-BRAND-NEW-way-to-master-Web3-with-Hooked-Academy-Sensei-Newbie-Dive-into-Web3-basics-effo",
            "currencies": [
                {
                    "code": "HOOK",
                    "title": "Hooked Protocol",
                    "slug": "hooked-protocol",
                    "url": "https:\/\/cryptopanic.com\/news\/hooked-protocol\/"
                }
            ],
            "id": 18686077,
            "url": "https:\/\/cryptopanic.com\/news\/18686077\/1-HOOK-to-unlock-a-BRAND-NEW-way-to-master-Web3-with-Hooked-Academy-Sensei-Newbie-Dive-into-Web3-basics-effo",
            "created_at": "2023-06-29T08:17:44Z",
            "votes": {
                "negative": 0,
                "positive": 0,
                "important": 0,
                "liked": 0,
                "disliked": 0,
                "lol": 0,
                "toxic": 0,
                "saved": 0,
                "comments": 0
            }
        },
        {
            "kind": "news",
            "domain": "@HookedProtocol",
            "source": {
                "title": "Hooked Protocol Twitter",
                "region": "en",
                "domain": "twitter.com",
                "path": "@hookedprotocol"
            },
            "title": "Jump on board #ToDaMoon! Join us at 1100 UTC for a revolutionary web3 learning experience with rewards! \n\n Collec\u2026",
            "published_at": "2023-06-28T06:32:30Z",
            "slug": "Jump-on-board-ToDaMoon-Join-us-at-1100-UTC-for-a-revolutionary-web3-learning-experience-with-rewards-Collec",
            "currencies": [
                {
                    "code": "HOOK",
                    "title": "Hooked Protocol",
                    "slug": "hooked-protocol",
                    "url": "https:\/\/cryptopanic.com\/news\/hooked-protocol\/"
                }
            ],
            "id": 18669796,
            "url": "https:\/\/cryptopanic.com\/news\/18669796\/Jump-on-board-ToDaMoon-Join-us-at-1100-UTC-for-a-revolutionary-web3-learning-experience-with-rewards-Collec",
            "created_at": "2023-06-28T06:32:30Z",
            "votes": {
                "negative": 0,
                "positive": 0,
                "important": 0,
                "liked": 0,
                "disliked": 0,
                "lol": 0,
                "toxic": 0,
                "saved": 0,
                "comments": 0
            }
        }
    ]
}
