{
    "count": 200,
    "next": "https:\/\/cryptopanic.com\/api\/v1\/posts\/?auth_token=01c356e89ffc1b8eba2127c81fc8c66ee0eace75&kind=news&currencies=AST&page=2",
    "previous": null,
    "results": [
        {
            "kind": "news",
            "domain": "@airswap",
            "source": {
                "title": "AirSwap Twitter",
                "region": "en",
                "domain": "twitter.com",
                "path": "@airswap"
            },
            "title": "Hey AirSwap member, it's time to check out our weekly stats for AirSwap V3:\n\n\ufe0f $6.5M in weekly volume\n $281M year\u2026",
            "published_at": "2023-07-11T17:20:34Z",
            "slug": "Hey-AirSwap-member-its-time-to-check-out-our-weekly-stats-for-AirSwap-V3-65M-in-weekly-volume-281M-year",
            "currencies": [
                {
                    "code": "AST",
                    "title": "AirSwap",
                    "slug": "airswap",
                    "url": "https:\/\/cryptopanic.com\/news\/airswap\/"
                }
            ],
            "id": 18762407,
            "url": "https:\/\/cryptopanic.com\/news\/18762407\/Hey-AirSwap-member-its-time-to-check-out-our-weekly-stats-for-AirSwap-V3-65M-in-weekly-volume-281M-year",
            "created_at": "2023-07-11T17:20:34Z",
            "votes": {
                "negative": 0,
                "positive": 0,
                "important": 0,
                "liked": 0,
                "disliked": 0,
                "lol": 0,
                "toxic": 0,
                "saved": 0,
                "comments": 0
            }
        },
        {
            "kind": "news",
            "domain": "@ASTtoken",
            "source": {
                "title": "Absolute Sync Token Twitter",
                "region": "en",
                "domain": "twitter.com",
                "path": "@asttoken"
            },
            "title": "Coin trading profitability\nFor more information visit us at : \n\u2022\n\u2022\n\u2022\n\u2022\n\u2022\n#trading #invest\u2026",
            "published_at": "2023-07-07T05:16:29Z",
            "slug": "Coin-trading-profitability-For-more-information-visit-us-at-trading-invest",
            "currencies": [
                {
                    "code": "AST",
                    "title": "Absolute Sync",
                    "slug": "absolute-sync-token",
                    "url": "https:\/\/cryptopanic.com\/news\/absolute-sync-token\/"
                }
            ],
            "id": 18730573,
            "url": "https:\/\/cryptopanic.com\/news\/18730573\/Coin-trading-profitability-For-more-information-visit-us-at-trading-invest",
            "created_at": "2023-07-07T05:16:29Z",
            "votes": {
                "negative": 0,
                "positive": 0,
                "important": 0,
                "liked": 0,
                "disliked": 0,
                "lol": 0,
                "toxic": 0,
                "saved": 0,
                "comments": 0
            }
        },
        {
            "kind": "news",
            "domain": "@ASTtoken",
            "source": {
                "title": "Absolute Sync Token Twitter",
                "region": "en",
                "domain": "twitter.com",
                "path": "@asttoken"
            },
            "title": "Coin trading\nFor more information visit us at : \n\u2022\n\u2022\n\u2022\n\u2022\n\u2022\n#trading #invest #forex #token\u2026",
            "published_at": "2023-07-06T07:35:55Z",
            "slug": "Coin-trading-For-more-information-visit-us-at-trading-invest-forex-token",
            "currencies": [
                {
                    "code": "AST",
                    "title": "Absolute Sync",
                    "slug": "absolute-sync-token",
                    "url": "https:\/\/cryptopanic.com\/news\/absolute-sync-token\/"
                }
            ],
            "id": 18730574,
            "url": "https:\/\/cryptopanic.com\/news\/18730574\/Coin-trading-For-more-information-visit-us-at-trading-invest-forex-token",
            "created_at": "2023-07-06T07:35:55Z",
            "votes": {
                "negative": 0,
                "positive": 0,
                "important": 0,
                "liked": 0,
                "disliked": 0,
                "lol": 0,
                "toxic": 0,
                "saved": 0,
                "comments": 0
            }
        },
        {
            "kind": "news",
            "domain": "@ASTtoken",
            "source": {
                "title": "Absolute Sync Token Twitter",
                "region": "en",
                "domain": "twitter.com",
                "path": "@asttoken"
            },
            "title": "Coin trading profitability\nFor more information visit us at : \n\u2022\n\u2022\n\u2022\n\u2022\n\u2022\n#trading #invest\u2026",
            "published_at": "2023-07-05T06:15:58Z",
            "slug": "Coin-trading-profitability-For-more-information-visit-us-at-trading-invest",
            "currencies": [
                {
                    "code": "AST",
                    "title": "Absolute Sync",
                    "slug": "absolute-sync-token",
                    "url": "https:\/\/cryptopanic.com\/news\/absolute-sync-token\/"
                }
            ],
            "id": 18722047,
            "url": "https:\/\/cryptopanic.com\/news\/18722047\/Coin-trading-profitability-For-more-information-visit-us-at-trading-invest",
            "created_at": "2023-07-05T06:15:58Z",
            "votes": {
                "negative": 0,
                "positive": 0,
                "important": 0,
                "liked": 0,
                "disliked": 0,
                "lol": 0,
                "toxic": 0,
                "saved": 0,
                "comments": 0
            }
        },
        {
            "kind": "news",
            "domain": "@airswap",
            "source": {
                "title": "AirSwap Twitter",
                "region": "en",
                "domain": "twitter.com",
                "path": "@airswap"
            },
            "title": "\ufe0f AirSwap Member: Remember to cast your vote for our monthly update and AIP 87. Voting closes tomorrow, July 5! \u23f0",
            "published_at": "2023-07-04T17:35:20Z",
            "slug": "AirSwap-Member-Remember-to-cast-your-vote-for-our-monthly-update-and-AIP-87-Voting-closes-tomorrow-July-5",
            "currencies": [
                {
                    "code": "AST",
                    "title": "AirSwap",
                    "slug": "airswap",
                    "url": "https:\/\/cryptopanic.com\/news\/airswap\/"
                }
            ],
            "id": 18714528,
            "url": "https:\/\/cryptopanic.com\/news\/18714528\/AirSwap-Member-Remember-to-cast-your-vote-for-our-monthly-update-and-AIP-87-Voting-closes-tomorrow-July-5",
            "created_at": "2023-07-04T17:35:20Z",
            "votes": {
                "negative": 0,
                "positive": 0,
                "important": 0,
                "liked": 0,
                "disliked": 0,
                "lol": 0,
                "toxic": 0,
                "saved": 0,
                "comments": 0
            }
        },
        {
            "kind": "news",
            "domain": "@ASTtoken",
            "source": {
                "title": "Absolute Sync Token Twitter",
                "region": "en",
                "domain": "twitter.com",
                "path": "@asttoken"
            },
            "title": "Profitable outcomes using coin trading\nFor more information visit us at : \n\u2022\n\u2022\n\u2022\n\u2022\n\u2022\u2026",
            "published_at": "2023-07-04T05:50:47Z",
            "slug": "Profitable-outcomes-using-coin-trading-For-more-information-visit-us-at",
            "currencies": [
                {
                    "code": "AST",
                    "title": "Absolute Sync",
                    "slug": "absolute-sync-token",
                    "url": "https:\/\/cryptopanic.com\/news\/absolute-sync-token\/"
                }
            ],
            "id": 18714497,
            "url": "https:\/\/cryptopanic.com\/news\/18714497\/Profitable-outcomes-using-coin-trading-For-more-information-visit-us-at",
            "created_at": "2023-07-04T05:50:47Z",
            "votes": {
                "negative": 0,
                "positive": 0,
                "important": 0,
                "liked": 0,
                "disliked": 0,
                "lol": 0,
                "toxic": 0,
                "saved": 0,
                "comments": 0
            }
        },
        {
            "kind": "news",
            "domain": "@airswap",
            "source": {
                "title": "AirSwap Twitter",
                "region": "en",
                "domain": "twitter.com",
                "path": "@airswap"
            },
            "title": "Hey AirSwap Members \n\nIt's time to check our weekly numbers for AirSwap V3.\n\n\ufe0f $6.3M weekly volume\n $317M year-t\u2026",
            "published_at": "2023-07-03T14:56:03Z",
            "slug": "Hey-AirSwap-Members-Its-time-to-check-our-weekly-numbers-for-AirSwap-V3-63M-weekly-volume-317M-year-t",
            "currencies": [
                {
                    "code": "AST",
                    "title": "AirSwap",
                    "slug": "airswap",
                    "url": "https:\/\/cryptopanic.com\/news\/airswap\/"
                }
            ],
            "id": 18707152,
            "url": "https:\/\/cryptopanic.com\/news\/18707152\/Hey-AirSwap-Members-Its-time-to-check-our-weekly-numbers-for-AirSwap-V3-63M-weekly-volume-317M-year-t",
            "created_at": "2023-07-03T14:56:03Z",
            "votes": {
                "negative": 0,
                "positive": 0,
                "important": 0,
                "liked": 0,
                "disliked": 0,
                "lol": 0,
                "toxic": 0,
                "saved": 0,
                "comments": 0
            }
        },
        {
            "kind": "news",
            "domain": "@ASTtoken",
            "source": {
                "title": "Absolute Sync Token Twitter",
                "region": "en",
                "domain": "twitter.com",
                "path": "@asttoken"
            },
            "title": "Coin trading provides significant returns\nFor more information visit us at : \n\u2022\n\u2022\n\u2022\n\u2022\n\u2022\u2026",
            "published_at": "2023-07-03T09:55:04Z",
            "slug": "Coin-trading-provides-significant-returns-For-more-information-visit-us-at",
            "currencies": [
                {
                    "code": "AST",
                    "title": "Absolute Sync",
                    "slug": "absolute-sync-token",
                    "url": "https:\/\/cryptopanic.com\/news\/absolute-sync-token\/"
                }
            ],
            "id": 18707112,
            "url": "https:\/\/cryptopanic.com\/news\/18707112\/Coin-trading-provides-significant-returns-For-more-information-visit-us-at",
            "created_at": "2023-07-03T09:55:04Z",
            "votes": {
                "negative": 0,
                "positive": 0,
                "important": 0,
                "liked": 0,
                "disliked": 0,
                "lol": 0,
                "toxic": 0,
                "saved": 0,
                "comments": 0
            }
        },
        {
            "kind": "news",
            "domain": "@airswap",
            "source": {
                "title": "AirSwap Twitter",
                "region": "en",
                "domain": "twitter.com",
                "path": "@airswap"
            },
            "title": " Voting is now live for the AirSwap monthly update and AIP 87 \n\nUse your staked AST to participate in the monthly\u2026",
            "published_at": "2023-07-01T16:47:13Z",
            "slug": "Voting-is-now-live-for-the-AirSwap-monthly-update-and-AIP-87-Use-your-staked-AST-to-participate-in-the-monthly",
            "currencies": [
                {
                    "code": "AST",
                    "title": "AirSwap",
                    "slug": "airswap",
                    "url": "https:\/\/cryptopanic.com\/news\/airswap\/"
                }
            ],
            "id": 18697624,
            "url": "https:\/\/cryptopanic.com\/news\/18697624\/Voting-is-now-live-for-the-AirSwap-monthly-update-and-AIP-87-Use-your-staked-AST-to-participate-in-the-monthly",
            "created_at": "2023-07-01T16:47:13Z",
            "votes": {
                "negative": 0,
                "positive": 0,
                "important": 0,
                "liked": 0,
                "disliked": 0,
                "lol": 0,
                "toxic": 0,
                "saved": 0,
                "comments": 0
            }
        },
        {
            "kind": "news",
            "domain": "@ASTtoken",
            "source": {
                "title": "Absolute Sync Token Twitter",
                "region": "en",
                "domain": "twitter.com",
                "path": "@asttoken"
            },
            "title": "Enhanced trading experience with AST\nFor more information visit us at : \n\u2022\n\u2022\n\u2022\n\u2022\n\u2022\n#trading\u2026",
            "published_at": "2023-06-30T07:57:34Z",
            "slug": "Enhanced-trading-experience-with-AST-For-more-information-visit-us-at-trading",
            "currencies": [
                {
                    "code": "AST",
                    "title": "Absolute Sync",
                    "slug": "absolute-sync-token",
                    "url": "https:\/\/cryptopanic.com\/news\/absolute-sync-token\/"
                }
            ],
            "id": 18691640,
            "url": "https:\/\/cryptopanic.com\/news\/18691640\/Enhanced-trading-experience-with-AST-For-more-information-visit-us-at-trading",
            "created_at": "2023-06-30T07:57:34Z",
            "votes": {
                "negative": 0,
                "positive": 0,
                "important": 0,
                "liked": 0,
                "disliked": 0,
                "lol": 0,
                "toxic": 0,
                "saved": 0,
                "comments": 0
            }
        },
        {
            "kind": "news",
            "domain": "@ASTtoken",
            "source": {
                "title": "Absolute Sync Token Twitter",
                "region": "en",
                "domain": "twitter.com",
                "path": "@asttoken"
            },
            "title": "Crypto trading\nFor more information visit us at : \n\u2022\n\u2022\n\u2022\n\u2022\n\u2022\n#trading #invest #forex #token\u2026",
            "published_at": "2023-06-29T11:41:48Z",
            "slug": "Crypto-trading-For-more-information-visit-us-at-trading-invest-forex-token",
            "currencies": [
                {
                    "code": "AST",
                    "title": "Absolute Sync",
                    "slug": "absolute-sync-token",
                    "url": "https:\/\/cryptopanic.com\/news\/absolute-sync-token\/"
                }
            ],
            "id": 18683598,
            "url": "https:\/\/cryptopanic.com\/news\/18683598\/Crypto-trading-For-more-information-visit-us-at-trading-invest-forex-token",
            "created_at": "2023-06-29T11:41:48Z",
            "votes": {
                "negative": 0,
                "positive": 0,
                "important": 0,
                "liked": 0,
                "disliked": 0,
                "lol": 0,
                "toxic": 0,
                "saved": 0,
                "comments": 0
            }
        },
        {
            "kind": "news",
            "domain": "@airswap",
            "source": {
                "title": "AirSwap Twitter",
                "region": "en",
                "domain": "twitter.com",
                "path": "@airswap"
            },
            "title": " AirSwap member: Don't miss our monthly Community Call today! We will discuss our latest updates and extend a warm\u2026",
            "published_at": "2023-06-28T08:38:46Z",
            "slug": "AirSwap-member-Dont-miss-our-monthly-Community-Call-today-We-will-discuss-our-latest-updates-and-extend-a-warm",
            "currencies": [
                {
                    "code": "AST",
                    "title": "AirSwap",
                    "slug": "airswap",
                    "url": "https:\/\/cryptopanic.com\/news\/airswap\/"
                }
            ],
            "id": 18675571,
            "url": "https:\/\/cryptopanic.com\/news\/18675571\/AirSwap-member-Dont-miss-our-monthly-Community-Call-today-We-will-discuss-our-latest-updates-and-extend-a-warm",
            "created_at": "2023-06-28T08:38:46Z",
            "votes": {
                "negative": 0,
                "positive": 0,
                "important": 0,
                "liked": 0,
                "disliked": 0,
                "lol": 0,
                "toxic": 0,
                "saved": 0,
                "comments": 0
            }
        },
        {
            "kind": "news",
            "domain": "@airswap",
            "source": {
                "title": "AirSwap Twitter",
                "region": "en",
                "domain": "twitter.com",
                "path": "@airswap"
            },
            "title": "Hey AirSwap member, it's time to check out our weekly stats:\n\n\ufe0f $12.2M in weekly volume\n $337M year-to-date\n $8.\u2026",
            "published_at": "2023-06-27T12:45:34Z",
            "slug": "Hey-AirSwap-member-its-time-to-check-out-our-weekly-stats-122M-in-weekly-volume-337M-year-to-date-8",
            "currencies": [
                {
                    "code": "AST",
                    "title": "AirSwap",
                    "slug": "airswap",
                    "url": "https:\/\/cryptopanic.com\/news\/airswap\/"
                }
            ],
            "id": 18667325,
            "url": "https:\/\/cryptopanic.com\/news\/18667325\/Hey-AirSwap-member-its-time-to-check-out-our-weekly-stats-122M-in-weekly-volume-337M-year-to-date-8",
            "created_at": "2023-06-27T12:45:34Z",
            "votes": {
                "negative": 0,
                "positive": 0,
                "important": 0,
                "liked": 0,
                "disliked": 0,
                "lol": 0,
                "toxic": 0,
                "saved": 0,
                "comments": 0
            }
        },
        {
            "kind": "news",
            "domain": "@ASTtoken",
            "source": {
                "title": "Absolute Sync Token Twitter",
                "region": "en",
                "domain": "twitter.com",
                "path": "@asttoken"
            },
            "title": "Making informed trading decisions based on market trends\nFor more information visit us at ",
            "published_at": "2023-06-27T06:26:23Z",
            "slug": "Making-informed-trading-decisions-based-on-market-trends-For-more-information-visit-us-at",
            "currencies": [
                {
                    "code": "AST",
                    "title": "Absolute Sync",
                    "slug": "absolute-sync-token",
                    "url": "https:\/\/cryptopanic.com\/news\/absolute-sync-token\/"
                }
            ],
            "id": 18667289,
            "url": "https:\/\/cryptopanic.com\/news\/18667289\/Making-informed-trading-decisions-based-on-market-trends-For-more-information-visit-us-at",
            "created_at": "2023-06-27T06:26:23Z",
            "votes": {
                "negative": 0,
                "positive": 0,
                "important": 0,
                "liked": 0,
                "disliked": 0,
                "lol": 0,
                "toxic": 0,
                "saved": 0,
                "comments": 0
            }
        },
        {
            "kind": "news",
            "domain": "@airswap",
            "source": {
                "title": "AirSwap Twitter",
                "region": "en",
                "domain": "twitter.com",
                "path": "@airswap"
            },
            "title": "Welcome Voyagers! Come make some Linea swaps on @AirSwap for DeFi Week. ",
            "published_at": "2023-06-26T14:48:15Z",
            "slug": "Welcome-Voyagers-Come-make-some-Linea-swaps-on-AirSwap-for-DeFi-Week",
            "currencies": [
                {
                    "code": "AST",
                    "title": "AirSwap",
                    "slug": "airswap",
                    "url": "https:\/\/cryptopanic.com\/news\/airswap\/"
                }
            ],
            "id": 18659056,
            "url": "https:\/\/cryptopanic.com\/news\/18659056\/Welcome-Voyagers-Come-make-some-Linea-swaps-on-AirSwap-for-DeFi-Week",
            "created_at": "2023-06-26T14:48:15Z",
            "votes": {
                "negative": 0,
                "positive": 0,
                "important": 0,
                "liked": 0,
                "disliked": 0,
                "lol": 0,
                "toxic": 0,
                "saved": 0,
                "comments": 0
            }
        },
        {
            "kind": "news",
            "domain": "@ASTtoken",
            "source": {
                "title": "Absolute Sync Token Twitter",
                "region": "en",
                "domain": "twitter.com",
                "path": "@asttoken"
            },
            "title": "Traders Empowerment through tools \nFor more information visit us at : \n\u2022\n\u2022\n\u2022\n\u2022\n\u2022\n#trading\u2026",
            "published_at": "2023-06-26T10:45:18Z",
            "slug": "Traders-Empowerment-through-tools-For-more-information-visit-us-at-trading",
            "currencies": [
                {
                    "code": "AST",
                    "title": "Absolute Sync",
                    "slug": "absolute-sync-token",
                    "url": "https:\/\/cryptopanic.com\/news\/absolute-sync-token\/"
                }
            ],
            "id": 18659010,
            "url": "https:\/\/cryptopanic.com\/news\/18659010\/Traders-Empowerment-through-tools-For-more-information-visit-us-at-trading",
            "created_at": "2023-06-26T10:45:18Z",
            "votes": {
                "negative": 0,
                "positive": 0,
                "important": 0,
                "liked": 0,
                "disliked": 0,
                "lol": 0,
                "toxic": 0,
                "saved": 0,
                "comments": 0
            }
        },
        {
            "kind": "news",
            "domain": "@ASTtoken",
            "source": {
                "title": "Absolute Sync Token Twitter",
                "region": "en",
                "domain": "twitter.com",
                "path": "@asttoken"
            },
            "title": "Traders Empowerment\nFor more information visit us at : \n\u2022\n\u2022\n\u2022\n\u2022\n\u2022\n#trading #invest #forex\u2026",
            "published_at": "2023-06-23T06:37:00Z",
            "slug": "Traders-Empowerment-For-more-information-visit-us-at-trading-invest-forex",
            "currencies": [
                {
                    "code": "AST",
                    "title": "Absolute Sync",
                    "slug": "absolute-sync-token",
                    "url": "https:\/\/cryptopanic.com\/news\/absolute-sync-token\/"
                }
            ],
            "id": 18642727,
            "url": "https:\/\/cryptopanic.com\/news\/18642727\/Traders-Empowerment-For-more-information-visit-us-at-trading-invest-forex",
            "created_at": "2023-06-23T06:37:00Z",
            "votes": {
                "negative": 0,
                "positive": 0,
                "important": 0,
                "liked": 0,
                "disliked": 0,
                "lol": 0,
                "toxic": 0,
                "saved": 0,
                "comments": 0
            }
        },
        {
            "kind": "news",
            "domain": "@ASTtoken",
            "source": {
                "title": "Absolute Sync Token Twitter",
                "region": "en",
                "domain": "twitter.com",
                "path": "@asttoken"
            },
            "title": "Revolutionary trading experience with AST\nFor more information visit us at : \n\u2022\n\u2022\n\u2022\n\u2022\n\u2022\u2026",
            "published_at": "2023-06-22T07:37:09Z",
            "slug": "Revolutionary-trading-experience-with-AST-For-more-information-visit-us-at",
            "currencies": [
                {
                    "code": "AST",
                    "title": "Absolute Sync",
                    "slug": "absolute-sync-token",
                    "url": "https:\/\/cryptopanic.com\/news\/absolute-sync-token\/"
                }
            ],
            "id": 18634860,
            "url": "https:\/\/cryptopanic.com\/news\/18634860\/Revolutionary-trading-experience-with-AST-For-more-information-visit-us-at",
            "created_at": "2023-06-22T07:37:09Z",
            "votes": {
                "negative": 0,
                "positive": 0,
                "important": 0,
                "liked": 0,
                "disliked": 0,
                "lol": 0,
                "toxic": 0,
                "saved": 0,
                "comments": 0
            }
        },
        {
            "kind": "news",
            "domain": "@ASTtoken",
            "source": {
                "title": "Absolute Sync Token Twitter",
                "region": "en",
                "domain": "twitter.com",
                "path": "@asttoken"
            },
            "title": "Revolutionary crypto trading world with AST\nFor more information visit us at : \n\u2022\n\u2022\n\u2022\n\u2022\n\u2022\u2026",
            "published_at": "2023-06-21T07:23:52Z",
            "slug": "Revolutionary-crypto-trading-world-with-AST-For-more-information-visit-us-at",
            "currencies": [
                {
                    "code": "AST",
                    "title": "Absolute Sync",
                    "slug": "absolute-sync-token",
                    "url": "https:\/\/cryptopanic.com\/news\/absolute-sync-token\/"
                }
            ],
            "id": 18626118,
            "url": "https:\/\/cryptopanic.com\/news\/18626118\/Revolutionary-crypto-trading-world-with-AST-For-more-information-visit-us-at",
            "created_at": "2023-06-21T07:23:52Z",
            "votes": {
                "negative": 0,
                "positive": 0,
                "important": 0,
                "liked": 0,
                "disliked": 0,
                "lol": 0,
                "toxic": 0,
                "saved": 0,
                "comments": 0
            }
        },
        {
            "kind": "news",
            "domain": "@ASTtoken",
            "source": {
                "title": "Absolute Sync Token Twitter",
                "region": "en",
                "domain": "twitter.com",
                "path": "@asttoken"
            },
            "title": "Revolutionary trading experience with AST\nFor more information visit us at : \n\u2022\n\u2022\n\u2022\n\u2022\n\u2022\u2026",
            "published_at": "2023-06-20T11:06:48Z",
            "slug": "Revolutionary-trading-experience-with-AST-For-more-information-visit-us-at",
            "currencies": [
                {
                    "code": "AST",
                    "title": "Absolute Sync",
                    "slug": "absolute-sync-token",
                    "url": "https:\/\/cryptopanic.com\/news\/absolute-sync-token\/"
                }
            ],
            "id": 18618228,
            "url": "https:\/\/cryptopanic.com\/news\/18618228\/Revolutionary-trading-experience-with-AST-For-more-information-visit-us-at",
            "created_at": "2023-06-20T11:06:48Z",
            "votes": {
                "negative": 0,
                "positive": 0,
                "important": 0,
                "liked": 0,
                "disliked": 0,
                "lol": 0,
                "toxic": 0,
                "saved": 0,
                "comments": 0
            }
        }
    ]
}
