{
    "count": 200,
    "next": "https:\/\/cryptopanic.com\/api\/v1\/posts\/?auth_token=01c356e89ffc1b8eba2127c81fc8c66ee0eace75&kind=news&currencies=WIN&page=2",
    "previous": null,
    "results": [
        {
            "kind": "news",
            "domain": "@WINkorg777",
            "source": {
                "title": "WINk Twitter",
                "region": "en",
                "domain": "twitter.com",
                "path": "@winkorg777"
            },
            "title": "Keep spamming us with your attempts at #MYWINKYFACE. This is so cute!",
            "published_at": "2021-12-15T06:34:00Z",
            "slug": "Keep-spamming-us-with-your-attempts-at-MYWINKYFACE-This-is-so-cute",
            "currencies": [
                {
                    "code": "WIN",
                    "title": "WINkLink",
                    "slug": "wink",
                    "url": "https:\/\/cryptopanic.com\/news\/wink\/"
                }
            ],
            "id": 13676766,
            "url": "https:\/\/cryptopanic.com\/news\/13676766\/Keep-spamming-us-with-your-attempts-at-MYWINKYFACE-This-is-so-cute",
            "created_at": "2021-12-15T06:34:00Z",
            "votes": {
                "negative": 0,
                "positive": 0,
                "important": 0,
                "liked": 0,
                "disliked": 0,
                "lol": 0,
                "toxic": 0,
                "saved": 0,
                "comments": 0
            }
        },
        {
            "kind": "news",
            "domain": "@WINkorg777",
            "source": {
                "title": "WINk Twitter",
                "region": "en",
                "domain": "twitter.com",
                "path": "@winkorg777"
            },
            "title": "Alien Winky?",
            "published_at": "2021-12-15T04:09:50Z",
            "slug": "Alien-Winky",
            "currencies": [
                {
                    "code": "WIN",
                    "title": "WINkLink",
                    "slug": "wink",
                    "url": "https:\/\/cryptopanic.com\/news\/wink\/"
                }
            ],
            "id": 13676767,
            "url": "https:\/\/cryptopanic.com\/news\/13676767\/Alien-Winky",
            "created_at": "2021-12-15T04:09:50Z",
            "votes": {
                "negative": 0,
                "positive": 0,
                "important": 0,
                "liked": 0,
                "disliked": 0,
                "lol": 0,
                "toxic": 0,
                "saved": 0,
                "comments": 0
            }
        },
        {
            "kind": "news",
            "domain": "@WINkorg777",
            "source": {
                "title": "WINk Twitter",
                "region": "en",
                "domain": "twitter.com",
                "path": "@winkorg777"
            },
            "title": "1st impression of #MYWINKYFACE from @weamhussein. ",
            "published_at": "2021-12-14T15:57:32Z",
            "slug": "1st-impression-of-MYWINKYFACE-from-weamhussein",
            "currencies": [
                {
                    "code": "WIN",
                    "title": "WINkLink",
                    "slug": "wink",
                    "url": "https:\/\/cryptopanic.com\/news\/wink\/"
                }
            ],
            "id": 13676768,
            "url": "https:\/\/cryptopanic.com\/news\/13676768\/1st-impression-of-MYWINKYFACE-from-weamhussein",
            "created_at": "2021-12-14T15:57:32Z",
            "votes": {
                "negative": 0,
                "positive": 0,
                "important": 0,
                "liked": 0,
                "disliked": 0,
                "lol": 0,
                "toxic": 0,
                "saved": 0,
                "comments": 0
            }
        },
        {
            "kind": "news",
            "domain": "@WINkorg777",
            "source": {
                "title": "WINk Twitter",
                "region": "en",
                "domain": "twitter.com",
                "path": "@winkorg777"
            },
            "title": "We finally have a mascot! But how does he looks like?\n\nCan #WINkCommunity draw and fill the face using the image be\u2026",
            "published_at": "2021-12-14T15:32:36Z",
            "slug": "We-finally-have-a-mascot-But-how-does-he-looks-like-Can-WINkCommunity-draw-and-fill-the-face-using-the-image-be",
            "currencies": [
                {
                    "code": "WIN",
                    "title": "WINkLink",
                    "slug": "wink",
                    "url": "https:\/\/cryptopanic.com\/news\/wink\/"
                }
            ],
            "id": 13676769,
            "url": "https:\/\/cryptopanic.com\/news\/13676769\/We-finally-have-a-mascot-But-how-does-he-looks-like-Can-WINkCommunity-draw-and-fill-the-face-using-the-image-be",
            "created_at": "2021-12-14T15:32:36Z",
            "votes": {
                "negative": 0,
                "positive": 0,
                "important": 0,
                "liked": 0,
                "disliked": 0,
                "lol": 0,
                "toxic": 0,
                "saved": 0,
                "comments": 0
            }
        },
        {
            "kind": "news",
            "domain": "@WINkorg777",
            "source": {
                "title": "WINk Twitter",
                "region": "en",
                "domain": "twitter.com",
                "path": "@winkorg777"
            },
            "title": "RT @WINNFTHORSE: We swap recharge revenue and transaction fees\uff08From Dec 8 to Dec 14\uff09into equivalent $NFT tokens on \ufe0f SunSwap and then bur\u2026",
            "published_at": "2021-12-14T14:36:13Z",
            "slug": "RT-WINNFTHORSE-We-swap-recharge-revenue-and-transaction-feesFrom-Dec-8-to-Dec-14into-equivalent-NFT-tokens-on-SunSwap-and-then-bur",
            "currencies": [
                {
                    "code": "WIN",
                    "title": "WINkLink",
                    "slug": "wink",
                    "url": "https:\/\/cryptopanic.com\/news\/wink\/"
                }
            ],
            "id": 13676770,
            "url": "https:\/\/cryptopanic.com\/news\/13676770\/RT-WINNFTHORSE-We-swap-recharge-revenue-and-transaction-feesFrom-Dec-8-to-Dec-14into-equivalent-NFT-tokens-on-SunSwap-and-then-bur",
            "created_at": "2021-12-14T14:36:13Z",
            "votes": {
                "negative": 0,
                "positive": 0,
                "important": 0,
                "liked": 0,
                "disliked": 0,
                "lol": 0,
                "toxic": 0,
                "saved": 0,
                "comments": 0
            }
        },
        {
            "kind": "news",
            "domain": "@WINkorg777",
            "source": {
                "title": "WINk Twitter",
                "region": "en",
                "domain": "twitter.com",
                "path": "@winkorg777"
            },
            "title": "RT @Be_Like_Kane: Bet on #MondayNightFootball at Sportsbook &amp; Casino \n\n#LARams vs #Cardinals tonight!\n\nUse $trx $us\u2026",
            "published_at": "2021-12-14T12:51:09Z",
            "slug": "RT-Be_Like_Kane-Bet-on-MondayNightFootball-at-Sportsbook-amp-Casino-LARams-vs-Cardinals-tonight-Use-trx-us",
            "currencies": [
                {
                    "code": "WIN",
                    "title": "WINkLink",
                    "slug": "wink",
                    "url": "https:\/\/cryptopanic.com\/news\/wink\/"
                }
            ],
            "id": 13676771,
            "url": "https:\/\/cryptopanic.com\/news\/13676771\/RT-Be_Like_Kane-Bet-on-MondayNightFootball-at-Sportsbook-amp-Casino-LARams-vs-Cardinals-tonight-Use-trx-us",
            "created_at": "2021-12-14T12:51:09Z",
            "votes": {
                "negative": 0,
                "positive": 0,
                "important": 0,
                "liked": 0,
                "disliked": 0,
                "lol": 0,
                "toxic": 0,
                "saved": 0,
                "comments": 0
            }
        },
        {
            "kind": "news",
            "domain": "@WINkorg777",
            "source": {
                "title": "WINk Twitter",
                "region": "en",
                "domain": "twitter.com",
                "path": "@winkorg777"
            },
            "title": "Santa's Wonderland ends Jan 6th. Don't forget to check out the event!",
            "published_at": "2021-12-14T07:05:18Z",
            "slug": "Santas-Wonderland-ends-Jan-6th-Dont-forget-to-check-out-the-event",
            "currencies": [
                {
                    "code": "WIN",
                    "title": "WINkLink",
                    "slug": "wink",
                    "url": "https:\/\/cryptopanic.com\/news\/wink\/"
                }
            ],
            "id": 13664752,
            "url": "https:\/\/cryptopanic.com\/news\/13664752\/Santas-Wonderland-ends-Jan-6th-Dont-forget-to-check-out-the-event",
            "created_at": "2021-12-14T07:05:18Z",
            "votes": {
                "negative": 0,
                "positive": 0,
                "important": 0,
                "liked": 0,
                "disliked": 0,
                "lol": 0,
                "toxic": 0,
                "saved": 0,
                "comments": 0
            }
        },
        {
            "kind": "news",
            "domain": "@WinkLink_Oracle",
            "source": {
                "title": "WINkLink Twitter",
                "region": "en",
                "domain": "twitter.com",
                "path": "@winklink_oracle"
            },
            "title": "\ud83e\udd2930 lucky players for 30USDT rewards each!",
            "published_at": "2021-12-14T05:50:22Z",
            "slug": "30-lucky-players-for-30USDT-rewards-each",
            "currencies": [
                {
                    "code": "WIN",
                    "title": "WINkLink",
                    "slug": "wink",
                    "url": "https:\/\/cryptopanic.com\/news\/wink\/"
                },
                {
                    "code": "WIN",
                    "title": "WINkLink BSC",
                    "slug": "winklink-bsc",
                    "url": "https:\/\/cryptopanic.com\/news\/winklink-bsc\/"
                }
            ],
            "id": 13664756,
            "url": "https:\/\/cryptopanic.com\/news\/13664756\/30-lucky-players-for-30USDT-rewards-each",
            "created_at": "2021-12-14T05:50:22Z",
            "votes": {
                "negative": 0,
                "positive": 0,
                "important": 0,
                "liked": 0,
                "disliked": 0,
                "lol": 0,
                "toxic": 0,
                "saved": 0,
                "comments": 0
            }
        },
        {
            "kind": "news",
            "domain": "@WINkorg777",
            "source": {
                "title": "WINk Twitter",
                "region": "en",
                "domain": "twitter.com",
                "path": "@winkorg777"
            },
            "title": "RT @WINNFTHORSE: The number of @WINNFTHORSE followers exceed 50,000!!!\n\nSoooo, Airdrop welfare event comes!\n\nQuote this tweet\n@3 friend\u2026",
            "published_at": "2021-12-14T05:05:11Z",
            "slug": "RT-WINNFTHORSE-The-number-of-WINNFTHORSE-followers-exceed-50000-Soooo-Airdrop-welfare-event-comes-Quote-this-tweet-3-friend",
            "currencies": [
                {
                    "code": "WIN",
                    "title": "WINkLink",
                    "slug": "wink",
                    "url": "https:\/\/cryptopanic.com\/news\/wink\/"
                }
            ],
            "id": 13664753,
            "url": "https:\/\/cryptopanic.com\/news\/13664753\/RT-WINNFTHORSE-The-number-of-WINNFTHORSE-followers-exceed-50000-Soooo-Airdrop-welfare-event-comes-Quote-this-tweet-3-friend",
            "created_at": "2021-12-14T05:05:11Z",
            "votes": {
                "negative": 0,
                "positive": 0,
                "important": 0,
                "liked": 0,
                "disliked": 0,
                "lol": 0,
                "toxic": 0,
                "saved": 0,
                "comments": 0
            }
        },
        {
            "kind": "news",
            "domain": "@WINkorg777",
            "source": {
                "title": "WINk Twitter",
                "region": "en",
                "domain": "twitter.com",
                "path": "@winkorg777"
            },
            "title": "RT @WINkorg777: #WINkCommunity, pushing this up again to remind everyone to use this form if you have unresolved tickets",
            "published_at": "2021-12-13T22:54:00Z",
            "slug": "RT-WINkorg777-WINkCommunity-pushing-this-up-again-to-remind-everyone-to-use-this-form-if-you-have-unresolved-tickets",
            "currencies": [
                {
                    "code": "WIN",
                    "title": "WINkLink",
                    "slug": "wink",
                    "url": "https:\/\/cryptopanic.com\/news\/wink\/"
                }
            ],
            "id": 13664754,
            "url": "https:\/\/cryptopanic.com\/news\/13664754\/RT-WINkorg777-WINkCommunity-pushing-this-up-again-to-remind-everyone-to-use-this-form-if-you-have-unresolved-tickets",
            "created_at": "2021-12-13T22:54:00Z",
            "votes": {
                "negative": 0,
                "positive": 0,
                "important": 0,
                "liked": 0,
                "disliked": 0,
                "lol": 0,
                "toxic": 0,
                "saved": 0,
                "comments": 0
            }
        },
        {
            "kind": "news",
            "domain": "@WINkorg777",
            "source": {
                "title": "WINk Twitter",
                "region": "en",
                "domain": "twitter.com",
                "path": "@winkorg777"
            },
            "title": "RT @WINNFTHORSE: (1\/2) The #WINNFTHORSE sale that was originally scheduled at 20:00 today was postponed due to the influx of players' enthu\u2026",
            "published_at": "2021-12-13T14:32:46Z",
            "slug": "RT-WINNFTHORSE-12-The-WINNFTHORSE-sale-that-was-originally-scheduled-at-2000-today-was-postponed-due-to-the-influx-of-players-enthu",
            "currencies": [
                {
                    "code": "WIN",
                    "title": "WINkLink",
                    "slug": "wink",
                    "url": "https:\/\/cryptopanic.com\/news\/wink\/"
                }
            ],
            "id": 13664755,
            "url": "https:\/\/cryptopanic.com\/news\/13664755\/RT-WINNFTHORSE-12-The-WINNFTHORSE-sale-that-was-originally-scheduled-at-2000-today-was-postponed-due-to-the-influx-of-players-enthu",
            "created_at": "2021-12-13T14:32:46Z",
            "votes": {
                "negative": 0,
                "positive": 0,
                "important": 0,
                "liked": 0,
                "disliked": 0,
                "lol": 0,
                "toxic": 0,
                "saved": 0,
                "comments": 0
            }
        },
        {
            "kind": "news",
            "domain": "@WinkLink_Oracle",
            "source": {
                "title": "WINkLink Twitter",
                "region": "en",
                "domain": "twitter.com",
                "path": "@winklink_oracle"
            },
            "title": "RT @apenftorg: December \u2018s APENFT (NFT) Airdrop to TRON Token Holders Has Concluded",
            "published_at": "2021-12-13T07:31:40Z",
            "slug": "RT-apenftorg-December-s-APENFT-NFT-Airdrop-to-TRON-Token-Holders-Has-Concluded",
            "currencies": [
                {
                    "code": "WIN",
                    "title": "WINkLink",
                    "slug": "wink",
                    "url": "https:\/\/cryptopanic.com\/news\/wink\/"
                },
                {
                    "code": "WIN",
                    "title": "WINkLink BSC",
                    "slug": "winklink-bsc",
                    "url": "https:\/\/cryptopanic.com\/news\/winklink-bsc\/"
                },
                {
                    "code": "TRX",
                    "title": "TRON",
                    "slug": "tron",
                    "url": "https:\/\/cryptopanic.com\/news\/tron\/"
                }
            ],
            "id": 13653389,
            "url": "https:\/\/cryptopanic.com\/news\/13653389\/RT-apenftorg-December-s-APENFT-NFT-Airdrop-to-TRON-Token-Holders-Has-Concluded",
            "created_at": "2021-12-13T07:31:40Z",
            "votes": {
                "negative": 0,
                "positive": 0,
                "important": 0,
                "liked": 0,
                "disliked": 0,
                "lol": 0,
                "toxic": 0,
                "saved": 0,
                "comments": 0
            }
        },
        {
            "kind": "news",
            "domain": "@WINkorg777",
            "source": {
                "title": "WINk Twitter",
                "region": "en",
                "domain": "twitter.com",
                "path": "@winkorg777"
            },
            "title": "Christmas event on #Binance, trade $WIN to win",
            "published_at": "2021-12-13T06:49:57Z",
            "slug": "Christmas-event-on-Binance-trade-WIN-to-win",
            "currencies": [
                {
                    "code": "WIN",
                    "title": "WINkLink",
                    "slug": "wink",
                    "url": "https:\/\/cryptopanic.com\/news\/wink\/"
                }
            ],
            "id": 13653383,
            "url": "https:\/\/cryptopanic.com\/news\/13653383\/Christmas-event-on-Binance-trade-WIN-to-win",
            "created_at": "2021-12-13T06:49:57Z",
            "votes": {
                "negative": 0,
                "positive": 0,
                "important": 0,
                "liked": 0,
                "disliked": 0,
                "lol": 0,
                "toxic": 0,
                "saved": 0,
                "comments": 0
            }
        },
        {
            "kind": "news",
            "domain": "@WinkLink_Oracle",
            "source": {
                "title": "WINkLink Twitter",
                "region": "en",
                "domain": "twitter.com",
                "path": "@winklink_oracle"
            },
            "title": "Get involved and win the prize!\n\n#WINkLink #Oracle $WIN",
            "published_at": "2021-12-13T06:45:23Z",
            "slug": "Get-involved-and-win-the-prize-WINkLink-Oracle-WIN",
            "currencies": [
                {
                    "code": "WIN",
                    "title": "WINkLink",
                    "slug": "wink",
                    "url": "https:\/\/cryptopanic.com\/news\/wink\/"
                },
                {
                    "code": "WIN",
                    "title": "WINkLink BSC",
                    "slug": "winklink-bsc",
                    "url": "https:\/\/cryptopanic.com\/news\/winklink-bsc\/"
                }
            ],
            "id": 13653390,
            "url": "https:\/\/cryptopanic.com\/news\/13653390\/Get-involved-and-win-the-prize-WINkLink-Oracle-WIN",
            "created_at": "2021-12-13T06:45:23Z",
            "votes": {
                "negative": 0,
                "positive": 0,
                "important": 0,
                "liked": 0,
                "disliked": 0,
                "lol": 0,
                "toxic": 0,
                "saved": 0,
                "comments": 0
            }
        },
        {
            "kind": "news",
            "domain": "@WINkorg777",
            "source": {
                "title": "WINk Twitter",
                "region": "en",
                "domain": "twitter.com",
                "path": "@winkorg777"
            },
            "title": "RT @Be_Like_Kane: Haven\u2019t posted in a bit so I thought I would share this into. Divs at are SICK!!\n\nStake $Win $Liv\u2026",
            "published_at": "2021-12-13T06:41:05Z",
            "slug": "RT-Be_Like_Kane-Havent-posted-in-a-bit-so-I-thought-I-would-share-this-into-Divs-at-are-SICK-Stake-Win-Liv",
            "currencies": [
                {
                    "code": "WIN",
                    "title": "WINkLink",
                    "slug": "wink",
                    "url": "https:\/\/cryptopanic.com\/news\/wink\/"
                }
            ],
            "id": 13653384,
            "url": "https:\/\/cryptopanic.com\/news\/13653384\/RT-Be_Like_Kane-Havent-posted-in-a-bit-so-I-thought-I-would-share-this-into-Divs-at-are-SICK-Stake-Win-Liv",
            "created_at": "2021-12-13T06:41:05Z",
            "votes": {
                "negative": 0,
                "positive": 0,
                "important": 0,
                "liked": 0,
                "disliked": 0,
                "lol": 0,
                "toxic": 0,
                "saved": 0,
                "comments": 0
            }
        },
        {
            "kind": "news",
            "domain": "@WinkLink_Oracle",
            "source": {
                "title": "WINkLink Twitter",
                "region": "en",
                "domain": "twitter.com",
                "path": "@winklink_oracle"
            },
            "title": "\"Upgrade VIP to win the legendary horse\" activity will extend to 4:00AM on 14th Dec. UTC.\n\n\u23f0Hurry up to join!",
            "published_at": "2021-12-13T06:09:52Z",
            "slug": "Upgrade-VIP-to-win-the-legendary-horse-activity-will-extend-to-400AM-on-14th-Dec-UTC-Hurry-up-to-join",
            "currencies": [
                {
                    "code": "WIN",
                    "title": "WINkLink",
                    "slug": "wink",
                    "url": "https:\/\/cryptopanic.com\/news\/wink\/"
                },
                {
                    "code": "WIN",
                    "title": "WINkLink BSC",
                    "slug": "winklink-bsc",
                    "url": "https:\/\/cryptopanic.com\/news\/winklink-bsc\/"
                }
            ],
            "id": 13653391,
            "url": "https:\/\/cryptopanic.com\/news\/13653391\/Upgrade-VIP-to-win-the-legendary-horse-activity-will-extend-to-400AM-on-14th-Dec-UTC-Hurry-up-to-join",
            "created_at": "2021-12-13T06:09:52Z",
            "votes": {
                "negative": 0,
                "positive": 0,
                "important": 0,
                "liked": 0,
                "disliked": 0,
                "lol": 0,
                "toxic": 0,
                "saved": 0,
                "comments": 0
            }
        },
        {
            "kind": "news",
            "domain": "@WinkLink_Oracle",
            "source": {
                "title": "WINkLink Twitter",
                "region": "en",
                "domain": "twitter.com",
                "path": "@winklink_oracle"
            },
            "title": "The intense S0 stage activities have ended and all rewards will be announced within 3 days!\n\n S1 season will star\u2026",
            "published_at": "2021-12-13T06:05:18Z",
            "slug": "The-intense-S0-stage-activities-have-ended-and-all-rewards-will-be-announced-within-3-days-S1-season-will-star",
            "currencies": [
                {
                    "code": "WIN",
                    "title": "WINkLink",
                    "slug": "wink",
                    "url": "https:\/\/cryptopanic.com\/news\/wink\/"
                },
                {
                    "code": "WIN",
                    "title": "WINkLink BSC",
                    "slug": "winklink-bsc",
                    "url": "https:\/\/cryptopanic.com\/news\/winklink-bsc\/"
                }
            ],
            "id": 13653392,
            "url": "https:\/\/cryptopanic.com\/news\/13653392\/The-intense-S0-stage-activities-have-ended-and-all-rewards-will-be-announced-within-3-days-S1-season-will-star",
            "created_at": "2021-12-13T06:05:18Z",
            "votes": {
                "negative": 0,
                "positive": 0,
                "important": 0,
                "liked": 0,
                "disliked": 0,
                "lol": 0,
                "toxic": 0,
                "saved": 0,
                "comments": 0
            }
        },
        {
            "kind": "news",
            "domain": "@WINkorg777",
            "source": {
                "title": "WINk Twitter",
                "region": "en",
                "domain": "twitter.com",
                "path": "@winkorg777"
            },
            "title": "#WINkCommunity, show us what you've won. ",
            "published_at": "2021-12-13T05:58:45Z",
            "slug": "WINkCommunity-show-us-what-youve-won",
            "currencies": [
                {
                    "code": "WIN",
                    "title": "WINkLink",
                    "slug": "wink",
                    "url": "https:\/\/cryptopanic.com\/news\/wink\/"
                }
            ],
            "id": 13653385,
            "url": "https:\/\/cryptopanic.com\/news\/13653385\/WINkCommunity-show-us-what-youve-won",
            "created_at": "2021-12-13T05:58:45Z",
            "votes": {
                "negative": 0,
                "positive": 0,
                "important": 0,
                "liked": 0,
                "disliked": 0,
                "lol": 0,
                "toxic": 0,
                "saved": 0,
                "comments": 0
            }
        },
        {
            "kind": "news",
            "domain": "@WinkLink_Oracle",
            "source": {
                "title": "WINkLink Twitter",
                "region": "en",
                "domain": "twitter.com",
                "path": "@winklink_oracle"
            },
            "title": "\ud83e\udd73Welcome to @Binance's Collect &amp; Win Christmas Edition\u00a0Event!\n\nTrade $WIN to share $300k in rewards\uff01\n\n\u23f012\/13\/2021\u2026",
            "published_at": "2021-12-13T04:25:03Z",
            "slug": "Welcome-to-Binances-Collect-amp-Win-Christmas-Edition-Event-Trade-WIN-to-share-300k-in-rewards-12132021",
            "currencies": [
                {
                    "code": "WIN",
                    "title": "WINkLink",
                    "slug": "wink",
                    "url": "https:\/\/cryptopanic.com\/news\/wink\/"
                },
                {
                    "code": "WIN",
                    "title": "WINkLink BSC",
                    "slug": "winklink-bsc",
                    "url": "https:\/\/cryptopanic.com\/news\/winklink-bsc\/"
                }
            ],
            "id": 13653393,
            "url": "https:\/\/cryptopanic.com\/news\/13653393\/Welcome-to-Binances-Collect-amp-Win-Christmas-Edition-Event-Trade-WIN-to-share-300k-in-rewards-12132021",
            "created_at": "2021-12-13T04:25:03Z",
            "votes": {
                "negative": 0,
                "positive": 0,
                "important": 0,
                "liked": 0,
                "disliked": 0,
                "lol": 0,
                "toxic": 0,
                "saved": 0,
                "comments": 0
            }
        },
        {
            "kind": "news",
            "domain": "@WINkorg777",
            "source": {
                "title": "WINk Twitter",
                "region": "en",
                "domain": "twitter.com",
                "path": "@winkorg777"
            },
            "title": "#WINkCommunity, we're not too far away from our 200K milestone. ",
            "published_at": "2021-12-13T03:17:03Z",
            "slug": "WINkCommunity-were-not-too-far-away-from-our-200K-milestone",
            "currencies": [
                {
                    "code": "WIN",
                    "title": "WINkLink",
                    "slug": "wink",
                    "url": "https:\/\/cryptopanic.com\/news\/wink\/"
                }
            ],
            "id": 13653386,
            "url": "https:\/\/cryptopanic.com\/news\/13653386\/WINkCommunity-were-not-too-far-away-from-our-200K-milestone",
            "created_at": "2021-12-13T03:17:03Z",
            "votes": {
                "negative": 0,
                "positive": 0,
                "important": 0,
                "liked": 0,
                "disliked": 0,
                "lol": 0,
                "toxic": 0,
                "saved": 0,
                "comments": 0
            }
        }
    ]
}
