{
    "count": 200,
    "next": "https:\/\/cryptopanic.com\/api\/v1\/posts\/?auth_token=01c356e89ffc1b8eba2127c81fc8c66ee0eace75&kind=news&currencies=RAD&page=2",
    "previous": null,
    "results": [
        {
            "kind": "news",
            "domain": "@ZillazNFT",
            "source": {
                "title": "RAD Twitter",
                "region": "en",
                "domain": "twitter.com",
                "path": "@zillaznft"
            },
            "title": "RT @ToddlerNFT: What if...",
            "published_at": "2023-06-12T15:54:34Z",
            "slug": "RT-ToddlerNFT-What-if",
            "currencies": [
                {
                    "code": "RAD",
                    "title": "RAD",
                    "slug": "rad",
                    "url": "https:\/\/cryptopanic.com\/news\/rad\/"
                }
            ],
            "id": 18564919,
            "url": "https:\/\/cryptopanic.com\/news\/18564919\/RT-ToddlerNFT-What-if",
            "created_at": "2023-06-12T15:54:34Z",
            "votes": {
                "negative": 0,
                "positive": 0,
                "important": 0,
                "liked": 0,
                "disliked": 0,
                "lol": 0,
                "toxic": 0,
                "saved": 0,
                "comments": 0
            }
        },
        {
            "kind": "news",
            "domain": "@ZillazNFT",
            "source": {
                "title": "RAD Twitter",
                "region": "en",
                "domain": "twitter.com",
                "path": "@zillaznft"
            },
            "title": "RT @GroovyNFTs: One of the first ways I started dipping my toes into Web3 was to create memes.\n\nI just wanted to contribute.\n\nChances are i\u2026",
            "published_at": "2023-06-09T16:20:04Z",
            "slug": "RT-GroovyNFTs-One-of-the-first-ways-I-started-dipping-my-toes-into-Web3-was-to-create-memes-I-just-wanted-to-contribute-Chances-are-i",
            "currencies": [
                {
                    "code": "RAD",
                    "title": "RAD",
                    "slug": "rad",
                    "url": "https:\/\/cryptopanic.com\/news\/rad\/"
                }
            ],
            "id": 18547581,
            "url": "https:\/\/cryptopanic.com\/news\/18547581\/RT-GroovyNFTs-One-of-the-first-ways-I-started-dipping-my-toes-into-Web3-was-to-create-memes-I-just-wanted-to-contribute-Chances-are-i",
            "created_at": "2023-06-09T16:20:04Z",
            "votes": {
                "negative": 0,
                "positive": 0,
                "important": 0,
                "liked": 0,
                "disliked": 0,
                "lol": 0,
                "toxic": 0,
                "saved": 0,
                "comments": 0
            }
        },
        {
            "kind": "news",
            "domain": "@ZillazNFT",
            "source": {
                "title": "RAD Twitter",
                "region": "en",
                "domain": "twitter.com",
                "path": "@zillaznft"
            },
            "title": "RT @ToddlerNFT: What if...",
            "published_at": "2023-06-03T17:13:01Z",
            "slug": "RT-ToddlerNFT-What-if",
            "currencies": [
                {
                    "code": "RAD",
                    "title": "RAD",
                    "slug": "rad",
                    "url": "https:\/\/cryptopanic.com\/news\/rad\/"
                }
            ],
            "id": 18500409,
            "url": "https:\/\/cryptopanic.com\/news\/18500409\/RT-ToddlerNFT-What-if",
            "created_at": "2023-06-03T17:13:01Z",
            "votes": {
                "negative": 0,
                "positive": 0,
                "important": 0,
                "liked": 0,
                "disliked": 0,
                "lol": 0,
                "toxic": 0,
                "saved": 0,
                "comments": 0
            }
        },
        {
            "kind": "news",
            "domain": "@ZillazNFT",
            "source": {
                "title": "RAD Twitter",
                "region": "en",
                "domain": "twitter.com",
                "path": "@zillaznft"
            },
            "title": "Current status of the project\nTLDR\n- The game is ready\n- The merch is ready\n- Waiting for @TheSandboxGame approval\u2026",
            "published_at": "2023-04-18T22:22:49Z",
            "slug": "Current-status-of-the-project-TLDR-The-game-is-ready-The-merch-is-ready-Waiting-for-TheSandboxGame-approval",
            "currencies": [
                {
                    "code": "RAD",
                    "title": "RAD",
                    "slug": "rad",
                    "url": "https:\/\/cryptopanic.com\/news\/rad\/"
                }
            ],
            "id": 18145004,
            "url": "https:\/\/cryptopanic.com\/news\/18145004\/Current-status-of-the-project-TLDR-The-game-is-ready-The-merch-is-ready-Waiting-for-TheSandboxGame-approval",
            "created_at": "2023-04-18T22:22:49Z",
            "votes": {
                "negative": 0,
                "positive": 0,
                "important": 0,
                "liked": 0,
                "disliked": 0,
                "lol": 0,
                "toxic": 0,
                "saved": 0,
                "comments": 0
            }
        },
        {
            "kind": "news",
            "domain": "@ZillazNFT",
            "source": {
                "title": "RAD Twitter",
                "region": "en",
                "domain": "twitter.com",
                "path": "@zillaznft"
            },
            "title": "RT @MrSnow_615: @ZillazNFT is so primed for multichain it\u2019s wild.",
            "published_at": "2023-03-30T01:37:40Z",
            "slug": "RT-MrSnow_615-ZillazNFT-is-so-primed-for-multichain-its-wild",
            "currencies": [
                {
                    "code": "RAD",
                    "title": "RAD",
                    "slug": "rad",
                    "url": "https:\/\/cryptopanic.com\/news\/rad\/"
                }
            ],
            "id": 17997846,
            "url": "https:\/\/cryptopanic.com\/news\/17997846\/RT-MrSnow_615-ZillazNFT-is-so-primed-for-multichain-its-wild",
            "created_at": "2023-03-30T01:37:40Z",
            "votes": {
                "negative": 0,
                "positive": 0,
                "important": 0,
                "liked": 0,
                "disliked": 0,
                "lol": 0,
                "toxic": 0,
                "saved": 0,
                "comments": 0
            }
        },
        {
            "kind": "news",
            "domain": "@ZillazNFT",
            "source": {
                "title": "RAD Twitter",
                "region": "en",
                "domain": "twitter.com",
                "path": "@zillaznft"
            },
            "title": "GM\nCheck Brice, Good Brice",
            "published_at": "2023-01-26T14:00:31Z",
            "slug": "GM-Check-Brice-Good-Brice",
            "currencies": [
                {
                    "code": "RAD",
                    "title": "RAD",
                    "slug": "rad",
                    "url": "https:\/\/cryptopanic.com\/news\/rad\/"
                }
            ],
            "id": 17484530,
            "url": "https:\/\/cryptopanic.com\/news\/17484530\/GM-Check-Brice-Good-Brice",
            "created_at": "2023-01-26T14:00:31Z",
            "votes": {
                "negative": 0,
                "positive": 0,
                "important": 0,
                "liked": 0,
                "disliked": 0,
                "lol": 0,
                "toxic": 0,
                "saved": 0,
                "comments": 0
            }
        },
        {
            "kind": "news",
            "domain": "@ZillazNFT",
            "source": {
                "title": "RAD Twitter",
                "region": "en",
                "domain": "twitter.com",
                "path": "@zillaznft"
            },
            "title": "On our new website, we have included an animation of a Monkezilla that moves as the user scrolls down the page. \nTh\u2026",
            "published_at": "2023-01-25T21:39:31Z",
            "slug": "On-our-new-website-we-have-included-an-animation-of-a-Monkezilla-that-moves-as-the-user-scrolls-down-the-page-Th",
            "currencies": [
                {
                    "code": "RAD",
                    "title": "RAD",
                    "slug": "rad",
                    "url": "https:\/\/cryptopanic.com\/news\/rad\/"
                }
            ],
            "id": 17475397,
            "url": "https:\/\/cryptopanic.com\/news\/17475397\/On-our-new-website-we-have-included-an-animation-of-a-Monkezilla-that-moves-as-the-user-scrolls-down-the-page-Th",
            "created_at": "2023-01-25T21:39:31Z",
            "votes": {
                "negative": 0,
                "positive": 0,
                "important": 0,
                "liked": 0,
                "disliked": 0,
                "lol": 0,
                "toxic": 0,
                "saved": 0,
                "comments": 0
            }
        },
        {
            "kind": "news",
            "domain": "@ZillazNFT",
            "source": {
                "title": "RAD Twitter",
                "region": "en",
                "domain": "twitter.com",
                "path": "@zillaznft"
            },
            "title": "RT @jmw874: GOOD BRICE ",
            "published_at": "2023-01-25T21:33:10Z",
            "slug": "RT-jmw874-GOOD-BRICE",
            "currencies": [
                {
                    "code": "RAD",
                    "title": "RAD",
                    "slug": "rad",
                    "url": "https:\/\/cryptopanic.com\/news\/rad\/"
                }
            ],
            "id": 17475399,
            "url": "https:\/\/cryptopanic.com\/news\/17475399\/RT-jmw874-GOOD-BRICE",
            "created_at": "2023-01-25T21:33:10Z",
            "votes": {
                "negative": 0,
                "positive": 0,
                "important": 0,
                "liked": 0,
                "disliked": 0,
                "lol": 0,
                "toxic": 0,
                "saved": 0,
                "comments": 0
            }
        },
        {
            "kind": "news",
            "domain": "@ZillazNFT",
            "source": {
                "title": "RAD Twitter",
                "region": "en",
                "domain": "twitter.com",
                "path": "@zillaznft"
            },
            "title": "RT @jpegned: Bamilia?",
            "published_at": "2023-01-25T21:32:52Z",
            "slug": "RT-jpegned-Bamilia",
            "currencies": [
                {
                    "code": "RAD",
                    "title": "RAD",
                    "slug": "rad",
                    "url": "https:\/\/cryptopanic.com\/news\/rad\/"
                }
            ],
            "id": 17475401,
            "url": "https:\/\/cryptopanic.com\/news\/17475401\/RT-jpegned-Bamilia",
            "created_at": "2023-01-25T21:32:52Z",
            "votes": {
                "negative": 0,
                "positive": 0,
                "important": 0,
                "liked": 0,
                "disliked": 0,
                "lol": 0,
                "toxic": 0,
                "saved": 0,
                "comments": 0
            }
        },
        {
            "kind": "news",
            "domain": "@ZillazNFT",
            "source": {
                "title": "RAD Twitter",
                "region": "en",
                "domain": "twitter.com",
                "path": "@zillaznft"
            },
            "title": "RT @FLiP4FUNdz: Who could get people to #Mint our #NFT? You get a community to mint 20+, Ill give you a @ZillazNFT. Only open for 5 more da\u2026",
            "published_at": "2023-01-25T16:28:25Z",
            "slug": "RT-FLiP4FUNdz-Who-could-get-people-to-Mint-our-NFT-You-get-a-community-to-mint-20-Ill-give-you-a-ZillazNFT-Only-open-for-5-more-da",
            "currencies": [
                {
                    "code": "RAD",
                    "title": "RAD",
                    "slug": "rad",
                    "url": "https:\/\/cryptopanic.com\/news\/rad\/"
                }
            ],
            "id": 17475402,
            "url": "https:\/\/cryptopanic.com\/news\/17475402\/RT-FLiP4FUNdz-Who-could-get-people-to-Mint-our-NFT-You-get-a-community-to-mint-20-Ill-give-you-a-ZillazNFT-Only-open-for-5-more-da",
            "created_at": "2023-01-25T16:28:25Z",
            "votes": {
                "negative": 0,
                "positive": 0,
                "important": 0,
                "liked": 0,
                "disliked": 0,
                "lol": 0,
                "toxic": 0,
                "saved": 0,
                "comments": 0
            }
        },
        {
            "kind": "news",
            "domain": "@ZillazNFT",
            "source": {
                "title": "RAD Twitter",
                "region": "en",
                "domain": "twitter.com",
                "path": "@zillaznft"
            },
            "title": "Overheard @MagicEden: @ZillazNFT Zillaz NFT officially launched its updated website and trailer of his highly antic\u2026",
            "published_at": "2023-01-25T16:12:45Z",
            "slug": "Overheard-MagicEden-ZillazNFT-Zillaz-NFT-officially-launched-its-updated-website-and-trailer-of-his-highly-antic",
            "currencies": [
                {
                    "code": "RAD",
                    "title": "RAD",
                    "slug": "rad",
                    "url": "https:\/\/cryptopanic.com\/news\/rad\/"
                }
            ],
            "id": 17475404,
            "url": "https:\/\/cryptopanic.com\/news\/17475404\/Overheard-MagicEden-ZillazNFT-Zillaz-NFT-officially-launched-its-updated-website-and-trailer-of-his-highly-antic",
            "created_at": "2023-01-25T16:12:45Z",
            "votes": {
                "negative": 0,
                "positive": 0,
                "important": 0,
                "liked": 0,
                "disliked": 0,
                "lol": 0,
                "toxic": 0,
                "saved": 0,
                "comments": 0
            }
        },
        {
            "kind": "news",
            "domain": "@ZillazNFT",
            "source": {
                "title": "RAD Twitter",
                "region": "en",
                "domain": "twitter.com",
                "path": "@zillaznft"
            },
            "title": "RT @ZillazNFT: Now you can enjoy our new website \n\nA unique and innovative design, that aims to showcase everything we have been working\u2026",
            "published_at": "2023-01-24T18:57:21Z",
            "slug": "RT-ZillazNFT-Now-you-can-enjoy-our-new-website-A-unique-and-innovative-design-that-aims-to-showcase-everything-we-have-been-working",
            "currencies": [
                {
                    "code": "RAD",
                    "title": "RAD",
                    "slug": "rad",
                    "url": "https:\/\/cryptopanic.com\/news\/rad\/"
                }
            ],
            "id": 17466155,
            "url": "https:\/\/cryptopanic.com\/news\/17466155\/RT-ZillazNFT-Now-you-can-enjoy-our-new-website-A-unique-and-innovative-design-that-aims-to-showcase-everything-we-have-been-working",
            "created_at": "2023-01-24T18:57:21Z",
            "votes": {
                "negative": 0,
                "positive": 0,
                "important": 0,
                "liked": 0,
                "disliked": 0,
                "lol": 0,
                "toxic": 0,
                "saved": 0,
                "comments": 0
            }
        },
        {
            "kind": "news",
            "domain": "@ZillazNFT",
            "source": {
                "title": "RAD Twitter",
                "region": "en",
                "domain": "twitter.com",
                "path": "@zillaznft"
            },
            "title": "RT @0x_Amethyst: @ZillazNFT Website is backyacular. \ud83e\udd0c",
            "published_at": "2023-01-24T02:37:46Z",
            "slug": "RT-0x_Amethyst-ZillazNFT-Website-is-backyacular",
            "currencies": [
                {
                    "code": "RAD",
                    "title": "RAD",
                    "slug": "rad",
                    "url": "https:\/\/cryptopanic.com\/news\/rad\/"
                }
            ],
            "id": 17457004,
            "url": "https:\/\/cryptopanic.com\/news\/17457004\/RT-0x_Amethyst-ZillazNFT-Website-is-backyacular",
            "created_at": "2023-01-24T02:37:46Z",
            "votes": {
                "negative": 0,
                "positive": 0,
                "important": 0,
                "liked": 0,
                "disliked": 0,
                "lol": 0,
                "toxic": 0,
                "saved": 0,
                "comments": 0
            }
        },
        {
            "kind": "news",
            "domain": "@ZillazNFT",
            "source": {
                "title": "RAD Twitter",
                "region": "en",
                "domain": "twitter.com",
                "path": "@zillaznft"
            },
            "title": "RT @easymoneyding: 9\/ @juxtin4fitness bought @SolanaMoneyBoys and @ZillazNFT\nas two potential comeback plays",
            "published_at": "2023-01-24T02:37:40Z",
            "slug": "RT-easymoneyding-9-juxtin4fitness-bought-SolanaMoneyBoys-and-ZillazNFT-as-two-potential-comeback-plays",
            "currencies": [
                {
                    "code": "RAD",
                    "title": "RAD",
                    "slug": "rad",
                    "url": "https:\/\/cryptopanic.com\/news\/rad\/"
                }
            ],
            "id": 17457005,
            "url": "https:\/\/cryptopanic.com\/news\/17457005\/RT-easymoneyding-9-juxtin4fitness-bought-SolanaMoneyBoys-and-ZillazNFT-as-two-potential-comeback-plays",
            "created_at": "2023-01-24T02:37:40Z",
            "votes": {
                "negative": 0,
                "positive": 0,
                "important": 0,
                "liked": 0,
                "disliked": 0,
                "lol": 0,
                "toxic": 0,
                "saved": 0,
                "comments": 0
            }
        },
        {
            "kind": "news",
            "domain": "@ZillazNFT",
            "source": {
                "title": "RAD Twitter",
                "region": "en",
                "domain": "twitter.com",
                "path": "@zillaznft"
            },
            "title": "RT @0xOmniman: Hyped that @ZillazNFT just debuted the website &amp; rebrand that @W3BLEN produced for them a while back!\n\nIt was fun to rig the\u2026",
            "published_at": "2023-01-23T21:20:31Z",
            "slug": "RT-0xOmniman-Hyped-that-ZillazNFT-just-debuted-the-website-amp-rebrand-that-W3BLEN-produced-for-them-a-while-back-It-was-fun-to-rig-the",
            "currencies": [
                {
                    "code": "RAD",
                    "title": "RAD",
                    "slug": "rad",
                    "url": "https:\/\/cryptopanic.com\/news\/rad\/"
                }
            ],
            "id": 17457006,
            "url": "https:\/\/cryptopanic.com\/news\/17457006\/RT-0xOmniman-Hyped-that-ZillazNFT-just-debuted-the-website-amp-rebrand-that-W3BLEN-produced-for-them-a-while-back-It-was-fun-to-rig-the",
            "created_at": "2023-01-23T21:20:31Z",
            "votes": {
                "negative": 0,
                "positive": 0,
                "important": 0,
                "liked": 0,
                "disliked": 0,
                "lol": 0,
                "toxic": 0,
                "saved": 0,
                "comments": 0
            }
        },
        {
            "kind": "news",
            "domain": "@ZillazNFT",
            "source": {
                "title": "RAD Twitter",
                "region": "en",
                "domain": "twitter.com",
                "path": "@zillaznft"
            },
            "title": "RT @hakyzz1: @ZillazNFT Simply amazing ",
            "published_at": "2023-01-23T20:08:03Z",
            "slug": "RT-hakyzz1-ZillazNFT-Simply-amazing",
            "currencies": [
                {
                    "code": "RAD",
                    "title": "RAD",
                    "slug": "rad",
                    "url": "https:\/\/cryptopanic.com\/news\/rad\/"
                }
            ],
            "id": 17457007,
            "url": "https:\/\/cryptopanic.com\/news\/17457007\/RT-hakyzz1-ZillazNFT-Simply-amazing",
            "created_at": "2023-01-23T20:08:03Z",
            "votes": {
                "negative": 0,
                "positive": 0,
                "important": 0,
                "liked": 0,
                "disliked": 0,
                "lol": 0,
                "toxic": 0,
                "saved": 0,
                "comments": 0
            }
        },
        {
            "kind": "news",
            "domain": "@ZillazNFT",
            "source": {
                "title": "RAD Twitter",
                "region": "en",
                "domain": "twitter.com",
                "path": "@zillaznft"
            },
            "title": "RT @MrSnow_615: @ZillazNFT Wow can tell the work that went into this!",
            "published_at": "2023-01-23T20:07:57Z",
            "slug": "RT-MrSnow_615-ZillazNFT-Wow-can-tell-the-work-that-went-into-this",
            "currencies": [
                {
                    "code": "RAD",
                    "title": "RAD",
                    "slug": "rad",
                    "url": "https:\/\/cryptopanic.com\/news\/rad\/"
                }
            ],
            "id": 17457008,
            "url": "https:\/\/cryptopanic.com\/news\/17457008\/RT-MrSnow_615-ZillazNFT-Wow-can-tell-the-work-that-went-into-this",
            "created_at": "2023-01-23T20:07:57Z",
            "votes": {
                "negative": 0,
                "positive": 0,
                "important": 0,
                "liked": 0,
                "disliked": 0,
                "lol": 0,
                "toxic": 0,
                "saved": 0,
                "comments": 0
            }
        },
        {
            "kind": "news",
            "domain": "@ZillazNFT",
            "source": {
                "title": "RAD Twitter",
                "region": "en",
                "domain": "twitter.com",
                "path": "@zillaznft"
            },
            "title": "Now you can enjoy our new website \n\nA unique and innovative design, that aims to showcase everything we have been\u2026",
            "published_at": "2023-01-23T19:22:48Z",
            "slug": "Now-you-can-enjoy-our-new-website-A-unique-and-innovative-design-that-aims-to-showcase-everything-we-have-been",
            "currencies": [
                {
                    "code": "RAD",
                    "title": "RAD",
                    "slug": "rad",
                    "url": "https:\/\/cryptopanic.com\/news\/rad\/"
                }
            ],
            "id": 17457009,
            "url": "https:\/\/cryptopanic.com\/news\/17457009\/Now-you-can-enjoy-our-new-website-A-unique-and-innovative-design-that-aims-to-showcase-everything-we-have-been",
            "created_at": "2023-01-23T19:22:48Z",
            "votes": {
                "negative": 0,
                "positive": 0,
                "important": 0,
                "liked": 0,
                "disliked": 0,
                "lol": 0,
                "toxic": 0,
                "saved": 0,
                "comments": 0
            }
        },
        {
            "kind": "news",
            "domain": "@ZillazNFT",
            "source": {
                "title": "RAD Twitter",
                "region": "en",
                "domain": "twitter.com",
                "path": "@zillaznft"
            },
            "title": "Tip. \nGo to discord or wait a few hours",
            "published_at": "2023-01-23T18:11:58Z",
            "slug": "Tip-Go-to-discord-or-wait-a-few-hours",
            "currencies": [
                {
                    "code": "RAD",
                    "title": "RAD",
                    "slug": "rad",
                    "url": "https:\/\/cryptopanic.com\/news\/rad\/"
                }
            ],
            "id": 17457010,
            "url": "https:\/\/cryptopanic.com\/news\/17457010\/Tip-Go-to-discord-or-wait-a-few-hours",
            "created_at": "2023-01-23T18:11:58Z",
            "votes": {
                "negative": 0,
                "positive": 0,
                "important": 0,
                "liked": 0,
                "disliked": 0,
                "lol": 0,
                "toxic": 0,
                "saved": 0,
                "comments": 0
            }
        },
        {
            "kind": "news",
            "domain": "@ZillazNFT",
            "source": {
                "title": "RAD Twitter",
                "region": "en",
                "domain": "twitter.com",
                "path": "@zillaznft"
            },
            "title": "Loading...",
            "published_at": "2023-01-20T15:31:03Z",
            "slug": "Loading",
            "currencies": [
                {
                    "code": "RAD",
                    "title": "RAD",
                    "slug": "rad",
                    "url": "https:\/\/cryptopanic.com\/news\/rad\/"
                }
            ],
            "id": 17437091,
            "url": "https:\/\/cryptopanic.com\/news\/17437091\/Loading",
            "created_at": "2023-01-20T15:31:03Z",
            "votes": {
                "negative": 0,
                "positive": 0,
                "important": 0,
                "liked": 0,
                "disliked": 0,
                "lol": 0,
                "toxic": 0,
                "saved": 0,
                "comments": 0
            }
        }
    ]
}
