{
    "count": 200,
    "next": "https:\/\/cryptopanic.com\/api\/v1\/posts\/?auth_token=01c356e89ffc1b8eba2127c81fc8c66ee0eace75&kind=news&currencies=NKN&page=2",
    "previous": null,
    "results": [
        {
            "kind": "news",
            "domain": "@NKN_ORG",
            "votes": {
                "negative": 0,
                "positive": 1,
                "important": 0,
                "liked": 1,
                "disliked": 0,
                "lol": 0,
                "toxic": 0,
                "saved": 0,
                "comments": 0
            },
            "source": {
                "title": "NKN Twitter",
                "region": "en",
                "domain": "twitter.com",
                "path": "@nkn_org"
            },
            "title": "NKN Monthly Report 2023\/06\n- NKN ranking into 2 top 10 lists of Github and Daily Active Address\n- nConnect v1.0.9 u\u2026",
            "published_at": "2023-07-05T17:00:57Z",
            "slug": "NKN-Monthly-Report-202306-NKN-ranking-into-2-top-10-lists-of-Github-and-Daily-Active-Address-nConnect-v109-u",
            "currencies": [
                {
                    "code": "NKN",
                    "title": "NKN",
                    "slug": "nkn",
                    "url": "https:\/\/cryptopanic.com\/news\/nkn\/"
                }
            ],
            "id": 18725565,
            "url": "https:\/\/cryptopanic.com\/news\/18725565\/NKN-Monthly-Report-202306-NKN-ranking-into-2-top-10-lists-of-Github-and-Daily-Active-Address-nConnect-v109-u",
            "created_at": "2023-07-05T17:00:57Z"
        },
        {
            "kind": "news",
            "domain": "@NKN_ORG",
            "source": {
                "title": "NKN Twitter",
                "region": "en",
                "domain": "twitter.com",
                "path": "@nkn_org"
            },
            "title": "What bear market? NKN is establishing itself in Korea by launching new Naver and Medium portals in Korean language\u2026",
            "published_at": "2023-06-30T16:18:34Z",
            "slug": "What-bear-market-NKN-is-establishing-itself-in-Korea-by-launching-new-Naver-and-Medium-portals-in-Korean-language",
            "currencies": [
                {
                    "code": "NKN",
                    "title": "NKN",
                    "slug": "nkn",
                    "url": "https:\/\/cryptopanic.com\/news\/nkn\/"
                }
            ],
            "id": 18694803,
            "url": "https:\/\/cryptopanic.com\/news\/18694803\/What-bear-market-NKN-is-establishing-itself-in-Korea-by-launching-new-Naver-and-Medium-portals-in-Korean-language",
            "created_at": "2023-06-30T16:18:34Z",
            "votes": {
                "negative": 0,
                "positive": 0,
                "important": 0,
                "liked": 0,
                "disliked": 0,
                "lol": 0,
                "toxic": 0,
                "saved": 0,
                "comments": 0
            }
        },
        {
            "kind": "news",
            "domain": "@NKN_ORG",
            "source": {
                "title": "NKN Twitter",
                "region": "en",
                "domain": "twitter.com",
                "path": "@nkn_org"
            },
            "title": "nConnect v1.0.9 is updated on @Synology @QNAP_nas @ASUSTOR app store. nConnect is NKN's leading product for secure\u2026",
            "published_at": "2023-06-21T18:02:32Z",
            "slug": "nConnect-v109-is-updated-on-Synology-QNAP_nas-ASUSTOR-app-store-nConnect-is-NKNs-leading-product-for-secure",
            "currencies": [
                {
                    "code": "NKN",
                    "title": "NKN",
                    "slug": "nkn",
                    "url": "https:\/\/cryptopanic.com\/news\/nkn\/"
                }
            ],
            "id": 18629896,
            "url": "https:\/\/cryptopanic.com\/news\/18629896\/nConnect-v109-is-updated-on-Synology-QNAP_nas-ASUSTOR-app-store-nConnect-is-NKNs-leading-product-for-secure",
            "created_at": "2023-06-21T18:02:32Z",
            "votes": {
                "negative": 0,
                "positive": 0,
                "important": 0,
                "liked": 0,
                "disliked": 0,
                "lol": 0,
                "toxic": 0,
                "saved": 0,
                "comments": 0
            }
        },
        {
            "kind": "news",
            "domain": "@NKN_ORG",
            "source": {
                "title": "NKN Twitter",
                "region": "en",
                "domain": "twitter.com",
                "path": "@nkn_org"
            },
            "title": "RT @nolaris_io: Welcome to Nolaris beta testing program! To get started, download software by visiting . Ensure that\u2026",
            "published_at": "2023-06-20T16:42:14Z",
            "slug": "RT-nolaris_io-Welcome-to-Nolaris-beta-testing-program-To-get-started-download-software-by-visiting-Ensure-that",
            "currencies": [
                {
                    "code": "NKN",
                    "title": "NKN",
                    "slug": "nkn",
                    "url": "https:\/\/cryptopanic.com\/news\/nkn\/"
                }
            ],
            "id": 18621898,
            "url": "https:\/\/cryptopanic.com\/news\/18621898\/RT-nolaris_io-Welcome-to-Nolaris-beta-testing-program-To-get-started-download-software-by-visiting-Ensure-that",
            "created_at": "2023-06-20T16:42:14Z",
            "votes": {
                "negative": 0,
                "positive": 0,
                "important": 0,
                "liked": 0,
                "disliked": 0,
                "lol": 0,
                "toxic": 0,
                "saved": 0,
                "comments": 0
            }
        },
        {
            "kind": "news",
            "domain": "@NKN_ORG",
            "source": {
                "title": "NKN Twitter",
                "region": "en",
                "domain": "twitter.com",
                "path": "@nkn_org"
            },
            "title": "Excellent application utilizing NKN's unique capabilities. nRide is one of the main winners from our Gitcoin grant\u2026",
            "published_at": "2023-06-19T03:30:53Z",
            "slug": "Excellent-application-utilizing-NKNs-unique-capabilities-nRide-is-one-of-the-main-winners-from-our-Gitcoin-grant",
            "currencies": [
                {
                    "code": "NKN",
                    "title": "NKN",
                    "slug": "nkn",
                    "url": "https:\/\/cryptopanic.com\/news\/nkn\/"
                }
            ],
            "id": 18606871,
            "url": "https:\/\/cryptopanic.com\/news\/18606871\/Excellent-application-utilizing-NKNs-unique-capabilities-nRide-is-one-of-the-main-winners-from-our-Gitcoin-grant",
            "created_at": "2023-06-19T03:30:53Z",
            "votes": {
                "negative": 0,
                "positive": 0,
                "important": 0,
                "liked": 0,
                "disliked": 0,
                "lol": 0,
                "toxic": 0,
                "saved": 0,
                "comments": 0
            }
        },
        {
            "kind": "news",
            "domain": "@NKN_ORG",
            "source": {
                "title": "NKN Twitter",
                "region": "en",
                "domain": "twitter.com",
                "path": "@nkn_org"
            },
            "title": "Today NKN made into two top 10 lists:\n- GitHub commits which measures developer activity @nalitica \n- Daily Active\u2026",
            "published_at": "2023-06-16T16:37:18Z",
            "slug": "Today-NKN-made-into-two-top-10-lists-GitHub-commits-which-measures-developer-activity-nalitica-Daily-Active",
            "currencies": [
                {
                    "code": "NKN",
                    "title": "NKN",
                    "slug": "nkn",
                    "url": "https:\/\/cryptopanic.com\/news\/nkn\/"
                }
            ],
            "id": 18597287,
            "url": "https:\/\/cryptopanic.com\/news\/18597287\/Today-NKN-made-into-two-top-10-lists-GitHub-commits-which-measures-developer-activity-nalitica-Daily-Active",
            "created_at": "2023-06-16T16:37:18Z",
            "votes": {
                "negative": 0,
                "positive": 0,
                "important": 0,
                "liked": 0,
                "disliked": 0,
                "lol": 0,
                "toxic": 0,
                "saved": 0,
                "comments": 0
            }
        },
        {
            "kind": "news",
            "domain": "@NKN_ORG",
            "source": {
                "title": "NKN Twitter",
                "region": "en",
                "domain": "twitter.com",
                "path": "@nkn_org"
            },
            "title": "RT @CryptoDiffer: Top-15 Projects by #DAA growth in the last 30 days\n\nDAA (Daily Active Addresses) is the number of distinct addresses that\u2026",
            "published_at": "2023-06-16T14:25:51Z",
            "slug": "RT-CryptoDiffer-Top-15-Projects-by-DAA-growth-in-the-last-30-days-DAA-Daily-Active-Addresses-is-the-number-of-distinct-addresses-that",
            "currencies": [
                {
                    "code": "NKN",
                    "title": "NKN",
                    "slug": "nkn",
                    "url": "https:\/\/cryptopanic.com\/news\/nkn\/"
                }
            ],
            "id": 18597288,
            "url": "https:\/\/cryptopanic.com\/news\/18597288\/RT-CryptoDiffer-Top-15-Projects-by-DAA-growth-in-the-last-30-days-DAA-Daily-Active-Addresses-is-the-number-of-distinct-addresses-that",
            "created_at": "2023-06-16T14:25:51Z",
            "votes": {
                "negative": 0,
                "positive": 0,
                "important": 0,
                "liked": 0,
                "disliked": 0,
                "lol": 0,
                "toxic": 0,
                "saved": 0,
                "comments": 0
            }
        },
        {
            "kind": "news",
            "domain": "@NKN_ORG",
            "source": {
                "title": "NKN Twitter",
                "region": "en",
                "domain": "twitter.com",
                "path": "@nkn_org"
            },
            "title": "RT @nalitica: Top Platform #crypto growth in Github commits, past 30 days:\n $MATIC @0xPolygon +181%\n\ud83e\udd48 $IOTX @iotex_io +160%\n\ud83e\udd49 $LINK @chain\u2026",
            "published_at": "2023-06-16T14:25:44Z",
            "slug": "RT-nalitica-Top-Platform-crypto-growth-in-Github-commits-past-30-days-MATIC-0xPolygon-181-IOTX-iotex_io-160-LINK-chain",
            "currencies": [
                {
                    "code": "NKN",
                    "title": "NKN",
                    "slug": "nkn",
                    "url": "https:\/\/cryptopanic.com\/news\/nkn\/"
                },
                {
                    "code": "MATIC",
                    "title": "Polygon",
                    "slug": "matic-network",
                    "url": "https:\/\/cryptopanic.com\/news\/matic-network\/"
                },
                {
                    "code": "LINK",
                    "title": "Chainlink",
                    "slug": "chainlink",
                    "url": "https:\/\/cryptopanic.com\/news\/chainlink\/"
                }
            ],
            "id": 18597289,
            "url": "https:\/\/cryptopanic.com\/news\/18597289\/RT-nalitica-Top-Platform-crypto-growth-in-Github-commits-past-30-days-MATIC-0xPolygon-181-IOTX-iotex_io-160-LINK-chain",
            "created_at": "2023-06-16T14:25:44Z",
            "votes": {
                "negative": 0,
                "positive": 0,
                "important": 0,
                "liked": 0,
                "disliked": 0,
                "lol": 0,
                "toxic": 0,
                "saved": 0,
                "comments": 0
            }
        },
        {
            "kind": "news",
            "domain": "@NKN_ORG",
            "source": {
                "title": "NKN Twitter",
                "region": "en",
                "domain": "twitter.com",
                "path": "@nkn_org"
            },
            "title": "NKN is happy to support web 3.0 developers and hackathons globally! $NKN #BUIDL #web3 #network",
            "published_at": "2023-06-07T18:20:06Z",
            "slug": "NKN-is-happy-to-support-web-30-developers-and-hackathons-globally-NKN-BUIDL-web3-network",
            "currencies": [
                {
                    "code": "NKN",
                    "title": "NKN",
                    "slug": "nkn",
                    "url": "https:\/\/cryptopanic.com\/news\/nkn\/"
                }
            ],
            "id": 18530041,
            "url": "https:\/\/cryptopanic.com\/news\/18530041\/NKN-is-happy-to-support-web-30-developers-and-hackathons-globally-NKN-BUIDL-web3-network",
            "created_at": "2023-06-07T18:20:06Z",
            "votes": {
                "negative": 0,
                "positive": 0,
                "important": 0,
                "liked": 0,
                "disliked": 0,
                "lol": 0,
                "toxic": 0,
                "saved": 0,
                "comments": 0
            }
        },
        {
            "kind": "news",
            "domain": "@NKN_ORG",
            "source": {
                "title": "NKN Twitter",
                "region": "en",
                "domain": "twitter.com",
                "path": "@nkn_org"
            },
            "title": "NKN Monthly Report 2023\/5\n- nConnect: Building a private ChatGPT server\n- Novio Wallet for NKN mainnet on Chrome we\u2026",
            "published_at": "2023-06-05T17:50:59Z",
            "slug": "NKN-Monthly-Report-20235-nConnect-Building-a-private-ChatGPT-server-Novio-Wallet-for-NKN-mainnet-on-Chrome-we",
            "currencies": [
                {
                    "code": "NKN",
                    "title": "NKN",
                    "slug": "nkn",
                    "url": "https:\/\/cryptopanic.com\/news\/nkn\/"
                }
            ],
            "id": 18512571,
            "url": "https:\/\/cryptopanic.com\/news\/18512571\/NKN-Monthly-Report-20235-nConnect-Building-a-private-ChatGPT-server-Novio-Wallet-for-NKN-mainnet-on-Chrome-we",
            "created_at": "2023-06-05T17:50:59Z",
            "votes": {
                "negative": 0,
                "positive": 0,
                "important": 0,
                "liked": 0,
                "disliked": 0,
                "lol": 0,
                "toxic": 0,
                "saved": 0,
                "comments": 0
            }
        },
        {
            "kind": "news",
            "domain": "@NKN_ORG",
            "source": {
                "title": "NKN Twitter",
                "region": "en",
                "domain": "twitter.com",
                "path": "@nkn_org"
            },
            "title": "RT @warriormonk101: @Binance_AUS For those playing along at home and missed it they would be $ELA @ElastosInfo $TRAC @origin_trail $NKN @NK\u2026",
            "published_at": "2023-06-04T14:11:38Z",
            "slug": "RT-warriormonk101-Binance_AUS-For-those-playing-along-at-home-and-missed-it-they-would-be-ELA-ElastosInfo-TRAC-origin_trail-NKN-NK",
            "currencies": [
                {
                    "code": "NKN",
                    "title": "NKN",
                    "slug": "nkn",
                    "url": "https:\/\/cryptopanic.com\/news\/nkn\/"
                }
            ],
            "id": 18504740,
            "url": "https:\/\/cryptopanic.com\/news\/18504740\/RT-warriormonk101-Binance_AUS-For-those-playing-along-at-home-and-missed-it-they-would-be-ELA-ElastosInfo-TRAC-origin_trail-NKN-NK",
            "created_at": "2023-06-04T14:11:38Z",
            "votes": {
                "negative": 0,
                "positive": 0,
                "important": 0,
                "liked": 0,
                "disliked": 0,
                "lol": 0,
                "toxic": 0,
                "saved": 0,
                "comments": 0
            }
        },
        {
            "kind": "news",
            "domain": "@NKN_ORG",
            "source": {
                "title": "NKN Twitter",
                "region": "en",
                "domain": "twitter.com",
                "path": "@nkn_org"
            },
            "title": "RT @_Blockunity: Top #Crypto Gainers: PoW Consensus (last 7D)!  \n\n\ud83e\udd47 Top Winner: @NKN_ORG - $NKN\n\ud83e\udd48 @Aion_OAN - $AION\n\ud83e\udd49 @syscoin - $SYS\n\nFol\u2026",
            "published_at": "2023-06-02T12:48:29Z",
            "slug": "RT-_Blockunity-Top-Crypto-Gainers-PoW-Consensus-last-7D-Top-Winner-NKN_ORG-NKN-Aion_OAN-AION-syscoin-SYS-Fol",
            "currencies": [
                {
                    "code": "NKN",
                    "title": "NKN",
                    "slug": "nkn",
                    "url": "https:\/\/cryptopanic.com\/news\/nkn\/"
                }
            ],
            "id": 18494225,
            "url": "https:\/\/cryptopanic.com\/news\/18494225\/RT-_Blockunity-Top-Crypto-Gainers-PoW-Consensus-last-7D-Top-Winner-NKN_ORG-NKN-Aion_OAN-AION-syscoin-SYS-Fol",
            "created_at": "2023-06-02T12:48:29Z",
            "votes": {
                "negative": 0,
                "positive": 0,
                "important": 0,
                "liked": 0,
                "disliked": 0,
                "lol": 0,
                "toxic": 0,
                "saved": 0,
                "comments": 0
            }
        },
        {
            "kind": "news",
            "domain": "@NKN_ORG",
            "source": {
                "title": "NKN Twitter",
                "region": "en",
                "domain": "twitter.com",
                "path": "@nkn_org"
            },
            "title": "RT @LunarCrush: Current top cryptocurrencies by LunarCrush AltRank\u2122 with leading social and market activity.\n\n1\ufe0f\u20e3 $lina\n2\ufe0f\u20e3 $velo\n3\ufe0f\u20e3 $inj\u2026",
            "published_at": "2023-05-30T13:51:23Z",
            "slug": "RT-LunarCrush-Current-top-cryptocurrencies-by-LunarCrush-AltRankTM-with-leading-social-and-market-activity-1-lina-2-velo-3-inj",
            "currencies": [
                {
                    "code": "NKN",
                    "title": "NKN",
                    "slug": "nkn",
                    "url": "https:\/\/cryptopanic.com\/news\/nkn\/"
                }
            ],
            "id": 18468818,
            "url": "https:\/\/cryptopanic.com\/news\/18468818\/RT-LunarCrush-Current-top-cryptocurrencies-by-LunarCrush-AltRankTM-with-leading-social-and-market-activity-1-lina-2-velo-3-inj",
            "created_at": "2023-05-30T13:51:23Z",
            "votes": {
                "negative": 0,
                "positive": 0,
                "important": 0,
                "liked": 0,
                "disliked": 0,
                "lol": 0,
                "toxic": 0,
                "saved": 0,
                "comments": 0
            }
        },
        {
            "kind": "news",
            "domain": "@NKN_ORG",
            "source": {
                "title": "NKN Twitter",
                "region": "en",
                "domain": "twitter.com",
                "path": "@nkn_org"
            },
            "title": "RT @LunarCrush: Top cryptocurrencies by AltRank\u2122 on \n\n Leading combined social and market activity.\n\n1\ufe0f\u20e3 $ben\n2\ufe0f\u20e3 $\u2026",
            "published_at": "2023-05-25T13:13:51Z",
            "slug": "RT-LunarCrush-Top-cryptocurrencies-by-AltRankTM-on-Leading-combined-social-and-market-activity-1-ben-2",
            "currencies": [
                {
                    "code": "NKN",
                    "title": "NKN",
                    "slug": "nkn",
                    "url": "https:\/\/cryptopanic.com\/news\/nkn\/"
                }
            ],
            "id": 18434811,
            "url": "https:\/\/cryptopanic.com\/news\/18434811\/RT-LunarCrush-Top-cryptocurrencies-by-AltRankTM-on-Leading-combined-social-and-market-activity-1-ben-2",
            "created_at": "2023-05-25T13:13:51Z",
            "votes": {
                "negative": 0,
                "positive": 0,
                "important": 0,
                "liked": 0,
                "disliked": 0,
                "lol": 0,
                "toxic": 0,
                "saved": 0,
                "comments": 0
            }
        },
        {
            "kind": "news",
            "domain": "@NKN_ORG",
            "source": {
                "title": "NKN Twitter",
                "region": "en",
                "domain": "twitter.com",
                "path": "@nkn_org"
            },
            "title": "NKN was in ETHDenver, unveiling Universal Communication Service. Where shall we go next?",
            "published_at": "2023-05-23T20:26:13Z",
            "slug": "NKN-was-in-ETHDenver-unveiling-Universal-Communication-Service-Where-shall-we-go-next",
            "currencies": [
                {
                    "code": "NKN",
                    "title": "NKN",
                    "slug": "nkn",
                    "url": "https:\/\/cryptopanic.com\/news\/nkn\/"
                }
            ],
            "id": 18416044,
            "url": "https:\/\/cryptopanic.com\/news\/18416044\/NKN-was-in-ETHDenver-unveiling-Universal-Communication-Service-Where-shall-we-go-next",
            "created_at": "2023-05-23T20:26:13Z",
            "votes": {
                "negative": 0,
                "positive": 0,
                "important": 0,
                "liked": 0,
                "disliked": 0,
                "lol": 0,
                "toxic": 0,
                "saved": 0,
                "comments": 0
            }
        },
        {
            "kind": "news",
            "domain": "@NKN_ORG",
            "source": {
                "title": "NKN Twitter",
                "region": "en",
                "domain": "twitter.com",
                "path": "@nkn_org"
            },
            "title": "Need AI and preserve privacy at the same time? NKN's nConnect can help. We just published a new tutorial on buildin\u2026",
            "published_at": "2023-05-09T17:37:19Z",
            "slug": "Need-AI-and-preserve-privacy-at-the-same-time-NKNs-nConnect-can-help-We-just-published-a-new-tutorial-on-buildin",
            "currencies": [
                {
                    "code": "NKN",
                    "title": "NKN",
                    "slug": "nkn",
                    "url": "https:\/\/cryptopanic.com\/news\/nkn\/"
                }
            ],
            "id": 18305511,
            "url": "https:\/\/cryptopanic.com\/news\/18305511\/Need-AI-and-preserve-privacy-at-the-same-time-NKNs-nConnect-can-help-We-just-published-a-new-tutorial-on-buildin",
            "created_at": "2023-05-09T17:37:19Z",
            "votes": {
                "negative": 0,
                "positive": 0,
                "important": 0,
                "liked": 0,
                "disliked": 0,
                "lol": 0,
                "toxic": 0,
                "saved": 0,
                "comments": 0
            }
        },
        {
            "kind": "news",
            "domain": "@NKN_ORG",
            "source": {
                "title": "NKN Twitter",
                "region": "en",
                "domain": "twitter.com",
                "path": "@nkn_org"
            },
            "title": "RT @CoinDCX: @NKN_ORG is the world\u2019s biggest blockchain network, with 78,376 nodes currently \ud83e\udd29\n$NKN is now available to trade on the CoinDC\u2026",
            "published_at": "2023-05-06T15:03:07Z",
            "slug": "RT-CoinDCX-NKN_ORG-is-the-worlds-biggest-blockchain-network-with-78376-nodes-currently-NKN-is-now-available-to-trade-on-the-CoinDC",
            "currencies": [
                {
                    "code": "NKN",
                    "title": "NKN",
                    "slug": "nkn",
                    "url": "https:\/\/cryptopanic.com\/news\/nkn\/"
                }
            ],
            "id": 18283620,
            "url": "https:\/\/cryptopanic.com\/news\/18283620\/RT-CoinDCX-NKN_ORG-is-the-worlds-biggest-blockchain-network-with-78376-nodes-currently-NKN-is-now-available-to-trade-on-the-CoinDC",
            "created_at": "2023-05-06T15:03:07Z",
            "votes": {
                "negative": 0,
                "positive": 0,
                "important": 0,
                "liked": 0,
                "disliked": 0,
                "lol": 0,
                "toxic": 0,
                "saved": 0,
                "comments": 0
            }
        },
        {
            "kind": "news",
            "domain": "@NKN_ORG",
            "source": {
                "title": "NKN Twitter",
                "region": "en",
                "domain": "twitter.com",
                "path": "@nkn_org"
            },
            "title": "NKN Monthly report 2023-04\n- HK Web 3 Festival \n- Recruitment event with OpenJob\n- nMobile adds AI-powered ChatGPT\u2026",
            "published_at": "2023-05-01T15:29:06Z",
            "slug": "NKN-Monthly-report-2023-04-HK-Web-3-Festival-Recruitment-event-with-OpenJob-nMobile-adds-AI-powered-ChatGPT",
            "currencies": [
                {
                    "code": "NKN",
                    "title": "NKN",
                    "slug": "nkn",
                    "url": "https:\/\/cryptopanic.com\/news\/nkn\/"
                }
            ],
            "id": 18242771,
            "url": "https:\/\/cryptopanic.com\/news\/18242771\/NKN-Monthly-report-2023-04-HK-Web-3-Festival-Recruitment-event-with-OpenJob-nMobile-adds-AI-powered-ChatGPT",
            "created_at": "2023-05-01T15:29:06Z",
            "votes": {
                "negative": 0,
                "positive": 0,
                "important": 0,
                "liked": 0,
                "disliked": 0,
                "lol": 0,
                "toxic": 0,
                "saved": 0,
                "comments": 0
            }
        },
        {
            "kind": "news",
            "domain": "@NKN_ORG",
            "source": {
                "title": "NKN Twitter",
                "region": "en",
                "domain": "twitter.com",
                "path": "@nkn_org"
            },
            "title": "Drum rolls, Novio wallet is available from Chrome web store! Since it is still in beta, please use caution when tes\u2026",
            "published_at": "2023-04-27T17:06:00Z",
            "slug": "Drum-rolls-Novio-wallet-is-available-from-Chrome-web-store-Since-it-is-still-in-beta-please-use-caution-when-tes",
            "currencies": [
                {
                    "code": "NKN",
                    "title": "NKN",
                    "slug": "nkn",
                    "url": "https:\/\/cryptopanic.com\/news\/nkn\/"
                }
            ],
            "id": 18216864,
            "url": "https:\/\/cryptopanic.com\/news\/18216864\/Drum-rolls-Novio-wallet-is-available-from-Chrome-web-store-Since-it-is-still-in-beta-please-use-caution-when-tes",
            "created_at": "2023-04-27T17:06:00Z",
            "votes": {
                "negative": 0,
                "positive": 0,
                "important": 0,
                "liked": 0,
                "disliked": 0,
                "lol": 0,
                "toxic": 0,
                "saved": 0,
                "comments": 0
            }
        },
        {
            "kind": "news",
            "domain": "@NKN_ORG",
            "source": {
                "title": "NKN Twitter",
                "region": "en",
                "domain": "twitter.com",
                "path": "@nkn_org"
            },
            "title": "Novio wallet for NKN mainnet will be available on Chrome extension store soon, thanks to community developer Mutsi!\u2026",
            "published_at": "2023-04-25T20:54:12Z",
            "slug": "Novio-wallet-for-NKN-mainnet-will-be-available-on-Chrome-extension-store-soon-thanks-to-community-developer-Mutsi",
            "currencies": [
                {
                    "code": "NKN",
                    "title": "NKN",
                    "slug": "nkn",
                    "url": "https:\/\/cryptopanic.com\/news\/nkn\/"
                }
            ],
            "id": 18197869,
            "url": "https:\/\/cryptopanic.com\/news\/18197869\/Novio-wallet-for-NKN-mainnet-will-be-available-on-Chrome-extension-store-soon-thanks-to-community-developer-Mutsi",
            "created_at": "2023-04-25T20:54:12Z",
            "votes": {
                "negative": 0,
                "positive": 0,
                "important": 0,
                "liked": 0,
                "disliked": 0,
                "lol": 0,
                "toxic": 0,
                "saved": 0,
                "comments": 0
            }
        }
    ]
}
