{
    "count": 200,
    "next": "https:\/\/cryptopanic.com\/api\/v1\/posts\/?auth_token=01c356e89ffc1b8eba2127c81fc8c66ee0eace75&kind=news&currencies=C98&page=2",
    "previous": null,
    "results": [
        {
            "kind": "news",
            "domain": "@coin98_wallet",
            "source": {
                "title": "Coin98 Twitter",
                "region": "en",
                "domain": "twitter.com",
                "path": "@coin98_wallet"
            },
            "title": "#Coin98 rocked the scene with our awesome booth at @gmvn_official, packed with fun activities and tons of swag for\u2026",
            "published_at": "2023-07-11T11:30:27Z",
            "slug": "Coin98-rocked-the-scene-with-our-awesome-booth-at-gmvn_official-packed-with-fun-activities-and-tons-of-swag-for",
            "currencies": [
                {
                    "code": "C98",
                    "title": "Coin98",
                    "slug": "coin98",
                    "url": "https:\/\/cryptopanic.com\/news\/coin98\/"
                }
            ],
            "id": 18763372,
            "url": "https:\/\/cryptopanic.com\/news\/18763372\/Coin98-rocked-the-scene-with-our-awesome-booth-at-gmvn_official-packed-with-fun-activities-and-tons-of-swag-for",
            "created_at": "2023-07-11T11:30:27Z",
            "votes": {
                "negative": 0,
                "positive": 0,
                "important": 0,
                "liked": 0,
                "disliked": 0,
                "lol": 0,
                "toxic": 0,
                "saved": 0,
                "comments": 0
            }
        },
        {
            "kind": "news",
            "domain": "@coin98_wallet",
            "source": {
                "title": "Coin98 Twitter",
                "region": "en",
                "domain": "twitter.com",
                "path": "@coin98_wallet"
            },
            "title": "Happy Monday \ufe0f\n\nLet's start the week right by saying \"GM\" with us now! ",
            "published_at": "2023-07-10T03:29:35Z",
            "slug": "Happy-Monday-Lets-start-the-week-right-by-saying-GM-with-us-now",
            "currencies": [
                {
                    "code": "C98",
                    "title": "Coin98",
                    "slug": "coin98",
                    "url": "https:\/\/cryptopanic.com\/news\/coin98\/"
                }
            ],
            "id": 18749184,
            "url": "https:\/\/cryptopanic.com\/news\/18749184\/Happy-Monday-Lets-start-the-week-right-by-saying-GM-with-us-now",
            "created_at": "2023-07-10T03:29:35Z",
            "votes": {
                "negative": 0,
                "positive": 0,
                "important": 0,
                "liked": 0,
                "disliked": 0,
                "lol": 0,
                "toxic": 0,
                "saved": 0,
                "comments": 0
            }
        },
        {
            "kind": "news",
            "domain": "@coin98_wallet",
            "source": {
                "title": "Coin98 Twitter",
                "region": "en",
                "domain": "twitter.com",
                "path": "@coin98_wallet"
            },
            "title": "Whether you're familiar with us from GM Vietnam and other recent events or new to Coin98, join us for a tour of\u2026",
            "published_at": "2023-07-09T12:15:28Z",
            "slug": "Whether-youre-familiar-with-us-from-GM-Vietnam-and-other-recent-events-or-new-to-Coin98-join-us-for-a-tour-of",
            "currencies": [
                {
                    "code": "C98",
                    "title": "Coin98",
                    "slug": "coin98",
                    "url": "https:\/\/cryptopanic.com\/news\/coin98\/"
                }
            ],
            "id": 18749185,
            "url": "https:\/\/cryptopanic.com\/news\/18749185\/Whether-youre-familiar-with-us-from-GM-Vietnam-and-other-recent-events-or-new-to-Coin98-join-us-for-a-tour-of",
            "created_at": "2023-07-09T12:15:28Z",
            "votes": {
                "negative": 0,
                "positive": 0,
                "important": 0,
                "liked": 0,
                "disliked": 0,
                "lol": 0,
                "toxic": 0,
                "saved": 0,
                "comments": 0
            }
        },
        {
            "kind": "news",
            "domain": "@coin98_wallet",
            "source": {
                "title": "Coin98 Twitter",
                "region": "en",
                "domain": "twitter.com",
                "path": "@coin98_wallet"
            },
            "title": " Don't miss out on the chance to receive FREE exclusive merchandise from #Coin98 \n\nIt's as easy as pie!\n\n Simpl\u2026",
            "published_at": "2023-07-06T14:04:37Z",
            "slug": "Dont-miss-out-on-the-chance-to-receive-FREE-exclusive-merchandise-from-Coin98-Its-as-easy-as-pie-Simpl",
            "currencies": [
                {
                    "code": "C98",
                    "title": "Coin98",
                    "slug": "coin98",
                    "url": "https:\/\/cryptopanic.com\/news\/coin98\/"
                }
            ],
            "id": 18731552,
            "url": "https:\/\/cryptopanic.com\/news\/18731552\/Dont-miss-out-on-the-chance-to-receive-FREE-exclusive-merchandise-from-Coin98-Its-as-easy-as-pie-Simpl",
            "created_at": "2023-07-06T14:04:37Z",
            "votes": {
                "negative": 0,
                "positive": 0,
                "important": 0,
                "liked": 0,
                "disliked": 0,
                "lol": 0,
                "toxic": 0,
                "saved": 0,
                "comments": 0
            }
        },
        {
            "kind": "news",
            "domain": "@coin98_wallet",
            "source": {
                "title": "Coin98 Twitter",
                "region": "en",
                "domain": "twitter.com",
                "path": "@coin98_wallet"
            },
            "title": "What an incredible 4-day journey at @BuilderSpace_!\n\nThe final day was a blast as we presented the session '\u2026",
            "published_at": "2023-07-06T07:40:54Z",
            "slug": "What-an-incredible-4-day-journey-at-BuilderSpace_-The-final-day-was-a-blast-as-we-presented-the-session",
            "currencies": [
                {
                    "code": "C98",
                    "title": "Coin98",
                    "slug": "coin98",
                    "url": "https:\/\/cryptopanic.com\/news\/coin98\/"
                }
            ],
            "id": 18731553,
            "url": "https:\/\/cryptopanic.com\/news\/18731553\/What-an-incredible-4-day-journey-at-BuilderSpace_-The-final-day-was-a-blast-as-we-presented-the-session",
            "created_at": "2023-07-06T07:40:54Z",
            "votes": {
                "negative": 0,
                "positive": 0,
                "important": 0,
                "liked": 0,
                "disliked": 0,
                "lol": 0,
                "toxic": 0,
                "saved": 0,
                "comments": 0
            }
        },
        {
            "kind": "news",
            "domain": "@coin98_wallet",
            "source": {
                "title": "Coin98 Twitter",
                "region": "en",
                "domain": "twitter.com",
                "path": "@coin98_wallet"
            },
            "title": "The buy-back protection program for @ArkenFinance IDO is just around the corner.\n\n#Coin98 holders who joined the\u2026",
            "published_at": "2023-07-05T13:29:29Z",
            "slug": "The-buy-back-protection-program-for-ArkenFinance-IDO-is-just-around-the-corner-Coin98-holders-who-joined-the",
            "currencies": [
                {
                    "code": "C98",
                    "title": "Coin98",
                    "slug": "coin98",
                    "url": "https:\/\/cryptopanic.com\/news\/coin98\/"
                }
            ],
            "id": 18722986,
            "url": "https:\/\/cryptopanic.com\/news\/18722986\/The-buy-back-protection-program-for-ArkenFinance-IDO-is-just-around-the-corner-Coin98-holders-who-joined-the",
            "created_at": "2023-07-05T13:29:29Z",
            "votes": {
                "negative": 0,
                "positive": 0,
                "important": 0,
                "liked": 0,
                "disliked": 0,
                "lol": 0,
                "toxic": 0,
                "saved": 0,
                "comments": 0
            }
        },
        {
            "kind": "news",
            "domain": "@coin98_wallet",
            "source": {
                "title": "Coin98 Twitter",
                "region": "en",
                "domain": "twitter.com",
                "path": "@coin98_wallet"
            },
            "title": "#Coin98 Bi-Weekly Roundup #13! Get ready to embark on an exhilarating journey through the latest and most captivati\u2026",
            "published_at": "2023-07-05T10:37:55Z",
            "slug": "Coin98-Bi-Weekly-Roundup-13-Get-ready-to-embark-on-an-exhilarating-journey-through-the-latest-and-most-captivati",
            "currencies": [
                {
                    "code": "C98",
                    "title": "Coin98",
                    "slug": "coin98",
                    "url": "https:\/\/cryptopanic.com\/news\/coin98\/"
                }
            ],
            "id": 18722987,
            "url": "https:\/\/cryptopanic.com\/news\/18722987\/Coin98-Bi-Weekly-Roundup-13-Get-ready-to-embark-on-an-exhilarating-journey-through-the-latest-and-most-captivati",
            "created_at": "2023-07-05T10:37:55Z",
            "votes": {
                "negative": 0,
                "positive": 0,
                "important": 0,
                "liked": 0,
                "disliked": 0,
                "lol": 0,
                "toxic": 0,
                "saved": 0,
                "comments": 0
            }
        },
        {
            "kind": "news",
            "domain": "@coin98_wallet",
            "source": {
                "title": "Coin98 Twitter",
                "region": "en",
                "domain": "twitter.com",
                "path": "@coin98_wallet"
            },
            "title": "RT @beagle_swap:  BeagleSwap has now fully supported @coin98_wallet on #BuildOnBase Testnet\n\nCoin98 is the leading multi-chain crypto wall\u2026",
            "published_at": "2023-07-05T09:16:01Z",
            "slug": "RT-beagle_swap-BeagleSwap-has-now-fully-supported-coin98_wallet-on-BuildOnBase-Testnet-Coin98-is-the-leading-multi-chain-crypto-wall",
            "currencies": [
                {
                    "code": "C98",
                    "title": "Coin98",
                    "slug": "coin98",
                    "url": "https:\/\/cryptopanic.com\/news\/coin98\/"
                }
            ],
            "id": 18722988,
            "url": "https:\/\/cryptopanic.com\/news\/18722988\/RT-beagle_swap-BeagleSwap-has-now-fully-supported-coin98_wallet-on-BuildOnBase-Testnet-Coin98-is-the-leading-multi-chain-crypto-wall",
            "created_at": "2023-07-05T09:16:01Z",
            "votes": {
                "negative": 0,
                "positive": 0,
                "important": 0,
                "liked": 0,
                "disliked": 0,
                "lol": 0,
                "toxic": 0,
                "saved": 0,
                "comments": 0
            }
        },
        {
            "kind": "news",
            "domain": "@coin98_wallet",
            "source": {
                "title": "Coin98 Twitter",
                "region": "en",
                "domain": "twitter.com",
                "path": "@coin98_wallet"
            },
            "title": "Coin98 is at @BuilderSpace_ \n\nWe're glad to meet like-minded people to talk about the market, blockchain ecosystem\u2026",
            "published_at": "2023-07-05T07:40:21Z",
            "slug": "Coin98-is-at-BuilderSpace_-Were-glad-to-meet-like-minded-people-to-talk-about-the-market-blockchain-ecosystem",
            "currencies": [
                {
                    "code": "C98",
                    "title": "Coin98",
                    "slug": "coin98",
                    "url": "https:\/\/cryptopanic.com\/news\/coin98\/"
                }
            ],
            "id": 18722989,
            "url": "https:\/\/cryptopanic.com\/news\/18722989\/Coin98-is-at-BuilderSpace_-Were-glad-to-meet-like-minded-people-to-talk-about-the-market-blockchain-ecosystem",
            "created_at": "2023-07-05T07:40:21Z",
            "votes": {
                "negative": 0,
                "positive": 0,
                "important": 0,
                "liked": 0,
                "disliked": 0,
                "lol": 0,
                "toxic": 0,
                "saved": 0,
                "comments": 0
            }
        },
        {
            "kind": "news",
            "domain": "@coin98_wallet",
            "source": {
                "title": "Coin98 Twitter",
                "region": "en",
                "domain": "twitter.com",
                "path": "@coin98_wallet"
            },
            "title": "Gm \ud83e\uddd1\u200d\n\nBuilders keep buidling in #Web3",
            "published_at": "2023-07-04T15:29:15Z",
            "slug": "Gm-Builders-keep-buidling-in-Web3",
            "currencies": [
                {
                    "code": "C98",
                    "title": "Coin98",
                    "slug": "coin98",
                    "url": "https:\/\/cryptopanic.com\/news\/coin98\/"
                }
            ],
            "id": 18715393,
            "url": "https:\/\/cryptopanic.com\/news\/18715393\/Gm-Builders-keep-buidling-in-Web3",
            "created_at": "2023-07-04T15:29:15Z",
            "votes": {
                "negative": 0,
                "positive": 0,
                "important": 0,
                "liked": 0,
                "disliked": 0,
                "lol": 0,
                "toxic": 0,
                "saved": 0,
                "comments": 0
            }
        },
        {
            "kind": "news",
            "domain": "@coin98_wallet",
            "source": {
                "title": "Coin98 Twitter",
                "region": "en",
                "domain": "twitter.com",
                "path": "@coin98_wallet"
            },
            "title": "Hold on tight \ud83e\udd1f! Coin98 is bringing the heat to @gmvn_official with the warm-up event. \n\n 50 luckiest hunters will\u2026",
            "published_at": "2023-07-03T10:33:09Z",
            "slug": "Hold-on-tight-Coin98-is-bringing-the-heat-to-gmvn_official-with-the-warm-up-event-50-luckiest-hunters-will",
            "currencies": [
                {
                    "code": "C98",
                    "title": "Coin98",
                    "slug": "coin98",
                    "url": "https:\/\/cryptopanic.com\/news\/coin98\/"
                }
            ],
            "id": 18708080,
            "url": "https:\/\/cryptopanic.com\/news\/18708080\/Hold-on-tight-Coin98-is-bringing-the-heat-to-gmvn_official-with-the-warm-up-event-50-luckiest-hunters-will",
            "created_at": "2023-07-03T10:33:09Z",
            "votes": {
                "negative": 0,
                "positive": 0,
                "important": 0,
                "liked": 0,
                "disliked": 0,
                "lol": 0,
                "toxic": 0,
                "saved": 0,
                "comments": 0
            }
        },
        {
            "kind": "news",
            "domain": "@coin98_wallet",
            "source": {
                "title": "Coin98 Twitter",
                "region": "en",
                "domain": "twitter.com",
                "path": "@coin98_wallet"
            },
            "title": "Coin98 will be presenting at @gmvn_official, Vietnam\u2019s Most Highly Anticipated #Blockchain Conference.\n\nWhy should\u2026",
            "published_at": "2023-07-02T06:56:03Z",
            "slug": "Coin98-will-be-presenting-at-gmvn_official-Vietnams-Most-Highly-Anticipated-Blockchain-Conference-Why-should",
            "currencies": [
                {
                    "code": "C98",
                    "title": "Coin98",
                    "slug": "coin98",
                    "url": "https:\/\/cryptopanic.com\/news\/coin98\/"
                }
            ],
            "id": 18702189,
            "url": "https:\/\/cryptopanic.com\/news\/18702189\/Coin98-will-be-presenting-at-gmvn_official-Vietnams-Most-Highly-Anticipated-Blockchain-Conference-Why-should",
            "created_at": "2023-07-02T06:56:03Z",
            "votes": {
                "negative": 0,
                "positive": 0,
                "important": 0,
                "liked": 0,
                "disliked": 0,
                "lol": 0,
                "toxic": 0,
                "saved": 0,
                "comments": 0
            }
        },
        {
            "kind": "news",
            "domain": "@coin98_wallet",
            "source": {
                "title": "Coin98 Twitter",
                "region": "en",
                "domain": "twitter.com",
                "path": "@coin98_wallet"
            },
            "title": "Good news for a good weekend. @archwayHQ Testnet is now available in #Coin98SuperApp's faucet! \n\nUpdate the app rig\u2026",
            "published_at": "2023-07-01T11:24:45Z",
            "slug": "Good-news-for-a-good-weekend-archwayHQ-Testnet-is-now-available-in-Coin98SuperApps-faucet-Update-the-app-rig",
            "currencies": [
                {
                    "code": "C98",
                    "title": "Coin98",
                    "slug": "coin98",
                    "url": "https:\/\/cryptopanic.com\/news\/coin98\/"
                }
            ],
            "id": 18698144,
            "url": "https:\/\/cryptopanic.com\/news\/18698144\/Good-news-for-a-good-weekend-archwayHQ-Testnet-is-now-available-in-Coin98SuperApps-faucet-Update-the-app-rig",
            "created_at": "2023-07-01T11:24:45Z",
            "votes": {
                "negative": 0,
                "positive": 0,
                "important": 0,
                "liked": 0,
                "disliked": 0,
                "lol": 0,
                "toxic": 0,
                "saved": 0,
                "comments": 0
            }
        },
        {
            "kind": "news",
            "domain": "@coin98_wallet",
            "source": {
                "title": "Coin98 Twitter",
                "region": "en",
                "domain": "twitter.com",
                "path": "@coin98_wallet"
            },
            "title": "Greetings, @vnfuturefund \ud83e\udd1d\n\nLet\u2019s go above and beyond funding to cultivate a thriving ecosystem for Vietnamese ente\u2026",
            "published_at": "2023-06-30T09:34:09Z",
            "slug": "Greetings-vnfuturefund-Lets-go-above-and-beyond-funding-to-cultivate-a-thriving-ecosystem-for-Vietnamese-ente",
            "currencies": [
                {
                    "code": "C98",
                    "title": "Coin98",
                    "slug": "coin98",
                    "url": "https:\/\/cryptopanic.com\/news\/coin98\/"
                }
            ],
            "id": 18692580,
            "url": "https:\/\/cryptopanic.com\/news\/18692580\/Greetings-vnfuturefund-Lets-go-above-and-beyond-funding-to-cultivate-a-thriving-ecosystem-for-Vietnamese-ente",
            "created_at": "2023-06-30T09:34:09Z",
            "votes": {
                "negative": 0,
                "positive": 0,
                "important": 0,
                "liked": 0,
                "disliked": 0,
                "lol": 0,
                "toxic": 0,
                "saved": 0,
                "comments": 0
            }
        },
        {
            "kind": "news",
            "domain": "@coin98_wallet",
            "source": {
                "title": "Coin98 Twitter",
                "region": "en",
                "domain": "twitter.com",
                "path": "@coin98_wallet"
            },
            "title": "Life is short, enjoy your longs in the world of #Crypto! How is your Friday? ",
            "published_at": "2023-06-30T03:15:55Z",
            "slug": "Life-is-short-enjoy-your-longs-in-the-world-of-Crypto-How-is-your-Friday",
            "currencies": [
                {
                    "code": "C98",
                    "title": "Coin98",
                    "slug": "coin98",
                    "url": "https:\/\/cryptopanic.com\/news\/coin98\/"
                }
            ],
            "id": 18684633,
            "url": "https:\/\/cryptopanic.com\/news\/18684633\/Life-is-short-enjoy-your-longs-in-the-world-of-Crypto-How-is-your-Friday",
            "created_at": "2023-06-30T03:15:55Z",
            "votes": {
                "negative": 0,
                "positive": 0,
                "important": 0,
                "liked": 0,
                "disliked": 0,
                "lol": 0,
                "toxic": 0,
                "saved": 0,
                "comments": 0
            }
        },
        {
            "kind": "news",
            "domain": "@coin98_wallet",
            "source": {
                "title": "Coin98 Twitter",
                "region": "en",
                "domain": "twitter.com",
                "path": "@coin98_wallet"
            },
            "title": "Are you afraid of someone seeing your password? \n\nDon't worry, let's try our next-gen matrix password on\u2026",
            "published_at": "2023-06-29T11:00:45Z",
            "slug": "Are-you-afraid-of-someone-seeing-your-password-Dont-worry-lets-try-our-next-gen-matrix-password-on",
            "currencies": [
                {
                    "code": "C98",
                    "title": "Coin98",
                    "slug": "coin98",
                    "url": "https:\/\/cryptopanic.com\/news\/coin98\/"
                }
            ],
            "id": 18684634,
            "url": "https:\/\/cryptopanic.com\/news\/18684634\/Are-you-afraid-of-someone-seeing-your-password-Dont-worry-lets-try-our-next-gen-matrix-password-on",
            "created_at": "2023-06-29T11:00:45Z",
            "votes": {
                "negative": 0,
                "positive": 0,
                "important": 0,
                "liked": 0,
                "disliked": 0,
                "lol": 0,
                "toxic": 0,
                "saved": 0,
                "comments": 0
            }
        },
        {
            "kind": "news",
            "domain": "@coin98_wallet",
            "source": {
                "title": "Coin98 Twitter",
                "region": "en",
                "domain": "twitter.com",
                "path": "@coin98_wallet"
            },
            "title": "Nobody: \nUs:\n\nComment if that is you \n\nSource: @YouMemeWorld",
            "published_at": "2023-06-27T13:23:57Z",
            "slug": "Nobody-Us-Comment-if-that-is-you-Source-YouMemeWorld",
            "currencies": [
                {
                    "code": "C98",
                    "title": "Coin98",
                    "slug": "coin98",
                    "url": "https:\/\/cryptopanic.com\/news\/coin98\/"
                }
            ],
            "id": 18668318,
            "url": "https:\/\/cryptopanic.com\/news\/18668318\/Nobody-Us-Comment-if-that-is-you-Source-YouMemeWorld",
            "created_at": "2023-06-27T13:23:57Z",
            "votes": {
                "negative": 0,
                "positive": 0,
                "important": 0,
                "liked": 0,
                "disliked": 0,
                "lol": 0,
                "toxic": 0,
                "saved": 0,
                "comments": 0
            }
        },
        {
            "kind": "news",
            "domain": "@coin98_wallet",
            "source": {
                "title": "Coin98 Twitter",
                "region": "en",
                "domain": "twitter.com",
                "path": "@coin98_wallet"
            },
            "title": "Half of the year has gone in just a blink of an eye  This month is surely an unpredictable one with some huge chan\u2026",
            "published_at": "2023-06-26T13:14:38Z",
            "slug": "Half-of-the-year-has-gone-in-just-a-blink-of-an-eye-This-month-is-surely-an-unpredictable-one-with-some-huge-chan",
            "currencies": [
                {
                    "code": "C98",
                    "title": "Coin98",
                    "slug": "coin98",
                    "url": "https:\/\/cryptopanic.com\/news\/coin98\/"
                }
            ],
            "id": 18660069,
            "url": "https:\/\/cryptopanic.com\/news\/18660069\/Half-of-the-year-has-gone-in-just-a-blink-of-an-eye-This-month-is-surely-an-unpredictable-one-with-some-huge-chan",
            "created_at": "2023-06-26T13:14:38Z",
            "votes": {
                "negative": 0,
                "positive": 0,
                "important": 0,
                "liked": 0,
                "disliked": 0,
                "lol": 0,
                "toxic": 0,
                "saved": 0,
                "comments": 0
            }
        },
        {
            "kind": "news",
            "domain": "@coin98_wallet",
            "source": {
                "title": "Coin98 Twitter",
                "region": "en",
                "domain": "twitter.com",
                "path": "@coin98_wallet"
            },
            "title": "Gm! \ufe0f\n\nHow long have you been exploring the #Web3 world? ",
            "published_at": "2023-06-24T01:40:50Z",
            "slug": "Gm-How-long-have-you-been-exploring-the-Web3-world",
            "currencies": [
                {
                    "code": "C98",
                    "title": "Coin98",
                    "slug": "coin98",
                    "url": "https:\/\/cryptopanic.com\/news\/coin98\/"
                }
            ],
            "id": 18643644,
            "url": "https:\/\/cryptopanic.com\/news\/18643644\/Gm-How-long-have-you-been-exploring-the-Web3-world",
            "created_at": "2023-06-24T01:40:50Z",
            "votes": {
                "negative": 0,
                "positive": 0,
                "important": 0,
                "liked": 0,
                "disliked": 0,
                "lol": 0,
                "toxic": 0,
                "saved": 0,
                "comments": 0
            }
        },
        {
            "kind": "news",
            "domain": "@coin98_wallet",
            "source": {
                "title": "Coin98 Twitter",
                "region": "en",
                "domain": "twitter.com",
                "path": "@coin98_wallet"
            },
            "title": "Our #Twitter feed is buzzing with these trending topics. What's yours? \n\nDrop your favorite topics below ",
            "published_at": "2023-06-22T14:38:43Z",
            "slug": "Our-Twitter-feed-is-buzzing-with-these-trending-topics-Whats-yours-Drop-your-favorite-topics-below",
            "currencies": [
                {
                    "code": "C98",
                    "title": "Coin98",
                    "slug": "coin98",
                    "url": "https:\/\/cryptopanic.com\/news\/coin98\/"
                }
            ],
            "id": 18635836,
            "url": "https:\/\/cryptopanic.com\/news\/18635836\/Our-Twitter-feed-is-buzzing-with-these-trending-topics-Whats-yours-Drop-your-favorite-topics-below",
            "created_at": "2023-06-22T14:38:43Z",
            "votes": {
                "negative": 0,
                "positive": 0,
                "important": 0,
                "liked": 0,
                "disliked": 0,
                "lol": 0,
                "toxic": 0,
                "saved": 0,
                "comments": 0
            }
        }
    ]
}
