{
    "count": 200,
    "next": "https:\/\/cryptopanic.com\/api\/v1\/posts\/?auth_token=01c356e89ffc1b8eba2127c81fc8c66ee0eace75&kind=news&currencies=OMG&page=2",
    "previous": null,
    "results": [
        {
            "kind": "news",
            "domain": "@OMG_Finance",
            "source": {
                "title": "Omega Finance Twitter",
                "region": "en",
                "domain": "twitter.com",
                "path": "@omg_finance"
            },
            "title": "RT @DWS_Society: Something extraordinary is being crafted within the realms of #DiamondWandSociety. But it's not merely a project, nor just\u2026",
            "published_at": "2023-07-06T08:00:46Z",
            "slug": "RT-DWS_Society-Something-extraordinary-is-being-crafted-within-the-realms-of-DiamondWandSociety-But-its-not-merely-a-project-nor-just",
            "currencies": [
                {
                    "code": "OMG",
                    "title": "Omega Finance",
                    "slug": null,
                    "url": "https:\/\/cryptopanic.com\/news\/None\/"
                }
            ],
            "id": 18725767,
            "url": "https:\/\/cryptopanic.com\/news\/18725767\/RT-DWS_Society-Something-extraordinary-is-being-crafted-within-the-realms-of-DiamondWandSociety-But-its-not-merely-a-project-nor-just",
            "created_at": "2023-07-06T08:00:46Z",
            "votes": {
                "negative": 0,
                "positive": 0,
                "important": 0,
                "liked": 0,
                "disliked": 0,
                "lol": 0,
                "toxic": 0,
                "saved": 0,
                "comments": 0
            }
        },
        {
            "kind": "news",
            "domain": "@OMG_Finance",
            "source": {
                "title": "Omega Finance Twitter",
                "region": "en",
                "domain": "twitter.com",
                "path": "@omg_finance"
            },
            "title": "RT @DWS_Society: Secrecy, magic, exclusivity, access. \n\nJoin the Society. \n\n#DiamondWandSociety #NFT #Web3",
            "published_at": "2023-07-05T05:18:12Z",
            "slug": "RT-DWS_Society-Secrecy-magic-exclusivity-access-Join-the-Society-DiamondWandSociety-NFT-Web3",
            "currencies": [
                {
                    "code": "OMG",
                    "title": "Omega Finance",
                    "slug": null,
                    "url": "https:\/\/cryptopanic.com\/news\/None\/"
                }
            ],
            "id": 18717861,
            "url": "https:\/\/cryptopanic.com\/news\/18717861\/RT-DWS_Society-Secrecy-magic-exclusivity-access-Join-the-Society-DiamondWandSociety-NFT-Web3",
            "created_at": "2023-07-05T05:18:12Z",
            "votes": {
                "negative": 0,
                "positive": 0,
                "important": 0,
                "liked": 0,
                "disliked": 0,
                "lol": 0,
                "toxic": 0,
                "saved": 0,
                "comments": 0
            }
        },
        {
            "kind": "news",
            "domain": "@OMG_Finance",
            "source": {
                "title": "Omega Finance Twitter",
                "region": "en",
                "domain": "twitter.com",
                "path": "@omg_finance"
            },
            "title": "RT @DWS_Society: We are an ever-expanding community that believes in the magic of Web3.\n\nJoin the society today. ",
            "published_at": "2023-07-01T10:25:19Z",
            "slug": "RT-DWS_Society-We-are-an-ever-expanding-community-that-believes-in-the-magic-of-Web3-Join-the-society-today",
            "currencies": [
                {
                    "code": "OMG",
                    "title": "Omega Finance",
                    "slug": null,
                    "url": "https:\/\/cryptopanic.com\/news\/None\/"
                }
            ],
            "id": 18699589,
            "url": "https:\/\/cryptopanic.com\/news\/18699589\/RT-DWS_Society-We-are-an-ever-expanding-community-that-believes-in-the-magic-of-Web3-Join-the-society-today",
            "created_at": "2023-07-01T10:25:19Z",
            "votes": {
                "negative": 0,
                "positive": 0,
                "important": 0,
                "liked": 0,
                "disliked": 0,
                "lol": 0,
                "toxic": 0,
                "saved": 0,
                "comments": 0
            }
        },
        {
            "kind": "news",
            "domain": "@OMG_Finance",
            "source": {
                "title": "Omega Finance Twitter",
                "region": "en",
                "domain": "twitter.com",
                "path": "@omg_finance"
            },
            "title": "RT @DWS_Society: Welcome to the Diamond Wand Society (#DWS) where magic, community and culture collide.",
            "published_at": "2023-07-01T10:25:16Z",
            "slug": "RT-DWS_Society-Welcome-to-the-Diamond-Wand-Society-DWS-where-magic-community-and-culture-collide",
            "currencies": [
                {
                    "code": "OMG",
                    "title": "Omega Finance",
                    "slug": null,
                    "url": "https:\/\/cryptopanic.com\/news\/None\/"
                }
            ],
            "id": 18699590,
            "url": "https:\/\/cryptopanic.com\/news\/18699590\/RT-DWS_Society-Welcome-to-the-Diamond-Wand-Society-DWS-where-magic-community-and-culture-collide",
            "created_at": "2023-07-01T10:25:16Z",
            "votes": {
                "negative": 0,
                "positive": 0,
                "important": 0,
                "liked": 0,
                "disliked": 0,
                "lol": 0,
                "toxic": 0,
                "saved": 0,
                "comments": 0
            }
        },
        {
            "kind": "news",
            "domain": "@OMG_Finance",
            "source": {
                "title": "Omega Finance Twitter",
                "region": "en",
                "domain": "twitter.com",
                "path": "@omg_finance"
            },
            "title": "RT @DWS_Society: We all wear masks, but it\u2019s the one we choose to wear that makes a difference..",
            "published_at": "2023-07-01T10:25:13Z",
            "slug": "RT-DWS_Society-We-all-wear-masks-but-its-the-one-we-choose-to-wear-that-makes-a-difference",
            "currencies": [
                {
                    "code": "OMG",
                    "title": "Omega Finance",
                    "slug": null,
                    "url": "https:\/\/cryptopanic.com\/news\/None\/"
                }
            ],
            "id": 18699591,
            "url": "https:\/\/cryptopanic.com\/news\/18699591\/RT-DWS_Society-We-all-wear-masks-but-its-the-one-we-choose-to-wear-that-makes-a-difference",
            "created_at": "2023-07-01T10:25:13Z",
            "votes": {
                "negative": 0,
                "positive": 0,
                "important": 0,
                "liked": 0,
                "disliked": 0,
                "lol": 0,
                "toxic": 0,
                "saved": 0,
                "comments": 0
            }
        },
        {
            "kind": "news",
            "domain": "@OMG_Finance",
            "source": {
                "title": "Omega Finance Twitter",
                "region": "en",
                "domain": "twitter.com",
                "path": "@omg_finance"
            },
            "title": "RT @elonmusk: Astra inclinant, sed non obligant",
            "published_at": "2023-06-30T07:54:08Z",
            "slug": "RT-elonmusk-Astra-inclinant-sed-non-obligant",
            "currencies": [
                {
                    "code": "OMG",
                    "title": "Omega Finance",
                    "slug": null,
                    "url": "https:\/\/cryptopanic.com\/news\/None\/"
                }
            ],
            "id": 18687329,
            "url": "https:\/\/cryptopanic.com\/news\/18687329\/RT-elonmusk-Astra-inclinant-sed-non-obligant",
            "created_at": "2023-06-30T07:54:08Z",
            "votes": {
                "negative": 0,
                "positive": 0,
                "important": 0,
                "liked": 0,
                "disliked": 0,
                "lol": 0,
                "toxic": 0,
                "saved": 0,
                "comments": 0
            }
        },
        {
            "kind": "news",
            "domain": "@OMG_Finance",
            "source": {
                "title": "Omega Finance Twitter",
                "region": "en",
                "domain": "twitter.com",
                "path": "@omg_finance"
            },
            "title": "RT @DWS_Society: Looks rare.",
            "published_at": "2023-06-30T07:42:49Z",
            "slug": "RT-DWS_Society-Looks-rare",
            "currencies": [
                {
                    "code": "OMG",
                    "title": "Omega Finance",
                    "slug": null,
                    "url": "https:\/\/cryptopanic.com\/news\/None\/"
                }
            ],
            "id": 18687330,
            "url": "https:\/\/cryptopanic.com\/news\/18687330\/RT-DWS_Society-Looks-rare",
            "created_at": "2023-06-30T07:42:49Z",
            "votes": {
                "negative": 0,
                "positive": 0,
                "important": 0,
                "liked": 0,
                "disliked": 0,
                "lol": 0,
                "toxic": 0,
                "saved": 0,
                "comments": 0
            }
        },
        {
            "kind": "news",
            "domain": "@OMG_Finance",
            "source": {
                "title": "Omega Finance Twitter",
                "region": "en",
                "domain": "twitter.com",
                "path": "@omg_finance"
            },
            "title": "RT @DWS_Society: \u23f3\n\nRelics of old..\n\nThe Founders collection.. \n\n#DiamondWandSociety #DWS",
            "published_at": "2023-06-24T06:07:01Z",
            "slug": "RT-DWS_Society-Relics-of-old-The-Founders-collection-DiamondWandSociety-DWS",
            "currencies": [
                {
                    "code": "OMG",
                    "title": "Omega Finance",
                    "slug": null,
                    "url": "https:\/\/cryptopanic.com\/news\/None\/"
                }
            ],
            "id": 18646065,
            "url": "https:\/\/cryptopanic.com\/news\/18646065\/RT-DWS_Society-Relics-of-old-The-Founders-collection-DiamondWandSociety-DWS",
            "created_at": "2023-06-24T06:07:01Z",
            "votes": {
                "negative": 0,
                "positive": 0,
                "important": 0,
                "liked": 0,
                "disliked": 0,
                "lol": 0,
                "toxic": 0,
                "saved": 0,
                "comments": 0
            }
        },
        {
            "kind": "news",
            "domain": "@OMG_Finance",
            "source": {
                "title": "Omega Finance Twitter",
                "region": "en",
                "domain": "twitter.com",
                "path": "@omg_finance"
            },
            "title": "RT @thakryptosource: Magic is all around you.\n\nHidden in plain sight. \n\nThe rumors were true. \n\n@DWS_Society \n\n#BAYC #YUGA #AZUKI #web3comm\u2026",
            "published_at": "2023-06-22T07:59:30Z",
            "slug": "RT-thakryptosource-Magic-is-all-around-you-Hidden-in-plain-sight-The-rumors-were-true-DWS_Society-BAYC-YUGA-AZUKI-web3comm",
            "currencies": [
                {
                    "code": "OMG",
                    "title": "Omega Finance",
                    "slug": null,
                    "url": "https:\/\/cryptopanic.com\/news\/None\/"
                }
            ],
            "id": 18630151,
            "url": "https:\/\/cryptopanic.com\/news\/18630151\/RT-thakryptosource-Magic-is-all-around-you-Hidden-in-plain-sight-The-rumors-were-true-DWS_Society-BAYC-YUGA-AZUKI-web3comm",
            "created_at": "2023-06-22T07:59:30Z",
            "votes": {
                "negative": 0,
                "positive": 0,
                "important": 0,
                "liked": 0,
                "disliked": 0,
                "lol": 0,
                "toxic": 0,
                "saved": 0,
                "comments": 0
            }
        },
        {
            "kind": "news",
            "domain": "@OMG_Finance",
            "source": {
                "title": "Omega Finance Twitter",
                "region": "en",
                "domain": "twitter.com",
                "path": "@omg_finance"
            },
            "title": "RT @DWS_Society: In the depths where magic dwells,\nWithin the labyrinth's cryptic spells.\nMages and bots, their powers entwined,\nDrawn from\u2026",
            "published_at": "2023-06-22T07:25:37Z",
            "slug": "RT-DWS_Society-In-the-depths-where-magic-dwells-Within-the-labyrinths-cryptic-spells-Mages-and-bots-their-powers-entwined-Drawn-from",
            "currencies": [
                {
                    "code": "OMG",
                    "title": "Omega Finance",
                    "slug": null,
                    "url": "https:\/\/cryptopanic.com\/news\/None\/"
                }
            ],
            "id": 18630152,
            "url": "https:\/\/cryptopanic.com\/news\/18630152\/RT-DWS_Society-In-the-depths-where-magic-dwells-Within-the-labyrinths-cryptic-spells-Mages-and-bots-their-powers-entwined-Drawn-from",
            "created_at": "2023-06-22T07:25:37Z",
            "votes": {
                "negative": 0,
                "positive": 0,
                "important": 0,
                "liked": 0,
                "disliked": 0,
                "lol": 0,
                "toxic": 0,
                "saved": 0,
                "comments": 0
            }
        },
        {
            "kind": "news",
            "domain": "@OMG_Finance",
            "source": {
                "title": "Omega Finance Twitter",
                "region": "en",
                "domain": "twitter.com",
                "path": "@omg_finance"
            },
            "title": "RT @DWS_Society: The rumors are true..",
            "published_at": "2023-06-21T10:17:57Z",
            "slug": "RT-DWS_Society-The-rumors-are-true",
            "currencies": [
                {
                    "code": "OMG",
                    "title": "Omega Finance",
                    "slug": null,
                    "url": "https:\/\/cryptopanic.com\/news\/None\/"
                }
            ],
            "id": 18630153,
            "url": "https:\/\/cryptopanic.com\/news\/18630153\/RT-DWS_Society-The-rumors-are-true",
            "created_at": "2023-06-21T10:17:57Z",
            "votes": {
                "negative": 0,
                "positive": 0,
                "important": 0,
                "liked": 0,
                "disliked": 0,
                "lol": 0,
                "toxic": 0,
                "saved": 0,
                "comments": 0
            }
        },
        {
            "kind": "news",
            "domain": "@OMG_Finance",
            "source": {
                "title": "Omega Finance Twitter",
                "region": "en",
                "domain": "twitter.com",
                "path": "@omg_finance"
            },
            "title": "RT @McDonaldsErc20: Get ready for the Binance AMA...\nMAY11 2023 20 UTC\n\nBig things are coming \n#MCDONALDS \n\nProbably 5000 listeners.\n\nhttps\u2026",
            "published_at": "2023-05-10T11:31:03Z",
            "slug": "RT-McDonaldsErc20-Get-ready-for-the-Binance-AMA-MAY11-2023-20-UTC-Big-things-are-coming-MCDONALDS-Probably-5000-listeners-https",
            "currencies": [
                {
                    "code": "OMG",
                    "title": "Omega Finance",
                    "slug": null,
                    "url": "https:\/\/cryptopanic.com\/news\/None\/"
                }
            ],
            "id": 18314638,
            "url": "https:\/\/cryptopanic.com\/news\/18314638\/RT-McDonaldsErc20-Get-ready-for-the-Binance-AMA-MAY11-2023-20-UTC-Big-things-are-coming-MCDONALDS-Probably-5000-listeners-https",
            "created_at": "2023-05-10T11:31:03Z",
            "votes": {
                "negative": 0,
                "positive": 0,
                "important": 0,
                "liked": 0,
                "disliked": 0,
                "lol": 0,
                "toxic": 0,
                "saved": 0,
                "comments": 0
            }
        },
        {
            "kind": "news",
            "domain": "@OMG_Finance",
            "source": {
                "title": "Omega Finance Twitter",
                "region": "en",
                "domain": "twitter.com",
                "path": "@omg_finance"
            },
            "title": "RT @The_Doge_King_: #MVPEPE will soon shock everyone ;)\n\nwe are not joking around, we are 100% convinced, 100% ready\n\nget ready for huge re\u2026",
            "published_at": "2023-05-10T07:19:32Z",
            "slug": "RT-The_Doge_King_-MVPEPE-will-soon-shock-everyone-we-are-not-joking-around-we-are-100-convinced-100-ready-get-ready-for-huge-re",
            "currencies": [
                {
                    "code": "OMG",
                    "title": "Omega Finance",
                    "slug": null,
                    "url": "https:\/\/cryptopanic.com\/news\/None\/"
                }
            ],
            "id": 18305714,
            "url": "https:\/\/cryptopanic.com\/news\/18305714\/RT-The_Doge_King_-MVPEPE-will-soon-shock-everyone-we-are-not-joking-around-we-are-100-convinced-100-ready-get-ready-for-huge-re",
            "created_at": "2023-05-10T07:19:32Z",
            "votes": {
                "negative": 0,
                "positive": 0,
                "important": 0,
                "liked": 0,
                "disliked": 0,
                "lol": 0,
                "toxic": 0,
                "saved": 0,
                "comments": 0
            }
        },
        {
            "kind": "news",
            "domain": "@OMG_Finance",
            "source": {
                "title": "Omega Finance Twitter",
                "region": "en",
                "domain": "twitter.com",
                "path": "@omg_finance"
            },
            "title": "RT @McDonaldsErc20: Dextools social, logo updated\n#PEPE #MCDONALDS",
            "published_at": "2023-05-10T06:43:14Z",
            "slug": "RT-McDonaldsErc20-Dextools-social-logo-updated-PEPE-MCDONALDS",
            "currencies": [
                {
                    "code": "OMG",
                    "title": "Omega Finance",
                    "slug": null,
                    "url": "https:\/\/cryptopanic.com\/news\/None\/"
                }
            ],
            "id": 18305715,
            "url": "https:\/\/cryptopanic.com\/news\/18305715\/RT-McDonaldsErc20-Dextools-social-logo-updated-PEPE-MCDONALDS",
            "created_at": "2023-05-10T06:43:14Z",
            "votes": {
                "negative": 0,
                "positive": 0,
                "important": 0,
                "liked": 0,
                "disliked": 0,
                "lol": 0,
                "toxic": 0,
                "saved": 0,
                "comments": 0
            }
        },
        {
            "kind": "news",
            "domain": "@OMG_Finance",
            "source": {
                "title": "Omega Finance Twitter",
                "region": "en",
                "domain": "twitter.com",
                "path": "@omg_finance"
            },
            "title": "RT @Rolex_Ethereum: We are currently on a tear! 600k MC ATH touched \n\n#ROLEX #ROLEXCOIN #PEPE #PEPECOIN #PEPECOINETH #ROLEXCOINETH #eth #E\u2026",
            "published_at": "2023-05-09T16:37:52Z",
            "slug": "RT-Rolex_Ethereum-We-are-currently-on-a-tear-600k-MC-ATH-touched-ROLEX-ROLEXCOIN-PEPE-PEPECOIN-PEPECOINETH-ROLEXCOINETH-eth-E",
            "currencies": [
                {
                    "code": "OMG",
                    "title": "Omega Finance",
                    "slug": null,
                    "url": "https:\/\/cryptopanic.com\/news\/None\/"
                }
            ],
            "id": 18305716,
            "url": "https:\/\/cryptopanic.com\/news\/18305716\/RT-Rolex_Ethereum-We-are-currently-on-a-tear-600k-MC-ATH-touched-ROLEX-ROLEXCOIN-PEPE-PEPECOIN-PEPECOINETH-ROLEXCOINETH-eth-E",
            "created_at": "2023-05-09T16:37:52Z",
            "votes": {
                "negative": 0,
                "positive": 0,
                "important": 0,
                "liked": 0,
                "disliked": 0,
                "lol": 0,
                "toxic": 0,
                "saved": 0,
                "comments": 0
            }
        },
        {
            "kind": "news",
            "domain": "@OMG_Finance",
            "source": {
                "title": "Omega Finance Twitter",
                "region": "en",
                "domain": "twitter.com",
                "path": "@omg_finance"
            },
            "title": "RT @iCryptoTesla: @RinTinOfficial APED \nThe team is working hard, I expect millions MC\n#Pepe #Shiba #Shibarium #Nft #AI",
            "published_at": "2023-05-09T14:41:08Z",
            "slug": "RT-iCryptoTesla-RinTinOfficial-APED-The-team-is-working-hard-I-expect-millions-MC-Pepe-Shiba-Shibarium-Nft-AI",
            "currencies": [
                {
                    "code": "OMG",
                    "title": "Omega Finance",
                    "slug": null,
                    "url": "https:\/\/cryptopanic.com\/news\/None\/"
                }
            ],
            "id": 18305717,
            "url": "https:\/\/cryptopanic.com\/news\/18305717\/RT-iCryptoTesla-RinTinOfficial-APED-The-team-is-working-hard-I-expect-millions-MC-Pepe-Shiba-Shibarium-Nft-AI",
            "created_at": "2023-05-09T14:41:08Z",
            "votes": {
                "negative": 0,
                "positive": 0,
                "important": 0,
                "liked": 0,
                "disliked": 0,
                "lol": 0,
                "toxic": 0,
                "saved": 0,
                "comments": 0
            }
        },
        {
            "kind": "news",
            "domain": "@OMG_Finance",
            "source": {
                "title": "Omega Finance Twitter",
                "region": "en",
                "domain": "twitter.com",
                "path": "@omg_finance"
            },
            "title": "RT @MVPepeToken: GM! \ufe0f \n\nNEWLY LAUNCHED WITH MEGA POTENTIAL! \ud83e\udd47\ud83e\udd47\ud83e\udd47\ud83e\udd47\ud83e\udd47\n\nFRESH ON #BSC &amp; #ETH \n\n\n\n$Mvpepe $pepe $peped\u2026",
            "published_at": "2023-05-09T14:34:50Z",
            "slug": "RT-MVPepeToken-GM-NEWLY-LAUNCHED-WITH-MEGA-POTENTIAL-FRESH-ON-BSC-amp-ETH-Mvpepe-pepe-peped",
            "currencies": [
                {
                    "code": "OMG",
                    "title": "Omega Finance",
                    "slug": null,
                    "url": "https:\/\/cryptopanic.com\/news\/None\/"
                }
            ],
            "id": 18305718,
            "url": "https:\/\/cryptopanic.com\/news\/18305718\/RT-MVPepeToken-GM-NEWLY-LAUNCHED-WITH-MEGA-POTENTIAL-FRESH-ON-BSC-amp-ETH-Mvpepe-pepe-peped",
            "created_at": "2023-05-09T14:34:50Z",
            "votes": {
                "negative": 0,
                "positive": 0,
                "important": 0,
                "liked": 0,
                "disliked": 0,
                "lol": 0,
                "toxic": 0,
                "saved": 0,
                "comments": 0
            }
        },
        {
            "kind": "news",
            "domain": "@OMG_Finance",
            "source": {
                "title": "Omega Finance Twitter",
                "region": "en",
                "domain": "twitter.com",
                "path": "@omg_finance"
            },
            "title": "$RIN\n\nRIN TIN TIN \n\n\n\n\n\n\n\nTAX 0\/2 DEV WILL\u2026",
            "published_at": "2023-05-09T14:32:10Z",
            "slug": "RIN-RIN-TIN-TIN-TAX-02-DEV-WILL",
            "currencies": [
                {
                    "code": "OMG",
                    "title": "Omega Finance",
                    "slug": null,
                    "url": "https:\/\/cryptopanic.com\/news\/None\/"
                }
            ],
            "id": 18305719,
            "url": "https:\/\/cryptopanic.com\/news\/18305719\/RIN-RIN-TIN-TIN-TAX-02-DEV-WILL",
            "created_at": "2023-05-09T14:32:10Z",
            "votes": {
                "negative": 0,
                "positive": 0,
                "important": 0,
                "liked": 0,
                "disliked": 0,
                "lol": 0,
                "toxic": 0,
                "saved": 0,
                "comments": 0
            }
        },
        {
            "kind": "news",
            "domain": "@OMG_Finance",
            "source": {
                "title": "Omega Finance Twitter",
                "region": "en",
                "domain": "twitter.com",
                "path": "@omg_finance"
            },
            "title": "RT @RinTinOfficial: So it begins. we are live",
            "published_at": "2023-05-09T14:20:33Z",
            "slug": "RT-RinTinOfficial-So-it-begins-we-are-live",
            "currencies": [
                {
                    "code": "OMG",
                    "title": "Omega Finance",
                    "slug": null,
                    "url": "https:\/\/cryptopanic.com\/news\/None\/"
                }
            ],
            "id": 18305720,
            "url": "https:\/\/cryptopanic.com\/news\/18305720\/RT-RinTinOfficial-So-it-begins-we-are-live",
            "created_at": "2023-05-09T14:20:33Z",
            "votes": {
                "negative": 0,
                "positive": 0,
                "important": 0,
                "liked": 0,
                "disliked": 0,
                "lol": 0,
                "toxic": 0,
                "saved": 0,
                "comments": 0
            }
        },
        {
            "kind": "news",
            "domain": "@OMG_Finance",
            "source": {
                "title": "Omega Finance Twitter",
                "region": "en",
                "domain": "twitter.com",
                "path": "@omg_finance"
            },
            "title": "RT @The_Doge_King_: \n\n\n\nWelcome to the Players Club.\n#MVPePe #PePe #ETH #BSC #BNB #binance\u2026",
            "published_at": "2023-05-09T08:39:42Z",
            "slug": "RT-The_Doge_King_-Welcome-to-the-Players-Club-MVPePe-PePe-ETH-BSC-BNB-binance",
            "currencies": [
                {
                    "code": "OMG",
                    "title": "Omega Finance",
                    "slug": null,
                    "url": "https:\/\/cryptopanic.com\/news\/None\/"
                }
            ],
            "id": 18296489,
            "url": "https:\/\/cryptopanic.com\/news\/18296489\/RT-The_Doge_King_-Welcome-to-the-Players-Club-MVPePe-PePe-ETH-BSC-BNB-binance",
            "created_at": "2023-05-09T08:39:42Z",
            "votes": {
                "negative": 0,
                "positive": 0,
                "important": 0,
                "liked": 0,
                "disliked": 0,
                "lol": 0,
                "toxic": 0,
                "saved": 0,
                "comments": 0
            }
        }
    ]
}
