{
    "count": 200,
    "next": "https:\/\/cryptopanic.com\/api\/v1\/posts\/?auth_token=01c356e89ffc1b8eba2127c81fc8c66ee0eace75&kind=news&currencies=CAN&page=2",
    "previous": null,
    "results": [
        {
            "kind": "news",
            "domain": "@ChannelsFinance",
            "source": {
                "title": "Channels Twitter",
                "region": "en",
                "domain": "twitter.com",
                "path": "@channelsfinance"
            },
            "title": "#Channels closed #HUSD's borrowing and depositing services.\ud83e\udddb\u200d\ufe0f\ud83e\udddb\u200d\ufe0f\n\n#Huobi #CAN",
            "published_at": "2022-10-28T07:56:04Z",
            "slug": "Channels-closed-HUSDs-borrowing-and-depositing-services-Huobi-CAN",
            "currencies": [
                {
                    "code": "CAN",
                    "title": "Channels",
                    "slug": "channels",
                    "url": "https:\/\/cryptopanic.com\/news\/channels\/"
                }
            ],
            "id": 16737447,
            "url": "https:\/\/cryptopanic.com\/news\/16737447\/Channels-closed-HUSDs-borrowing-and-depositing-services-Huobi-CAN",
            "created_at": "2022-10-28T07:56:04Z",
            "votes": {
                "negative": 0,
                "positive": 0,
                "important": 0,
                "liked": 0,
                "disliked": 0,
                "lol": 0,
                "toxic": 0,
                "saved": 0,
                "comments": 0
            }
        },
        {
            "kind": "news",
            "domain": "@ChannelsFinance",
            "source": {
                "title": "Channels Twitter",
                "region": "en",
                "domain": "twitter.com",
                "path": "@channelsfinance"
            },
            "title": "RT @acryptosdao: Are you still in our old @ChannelsFinance vaults?\nTime to move\ufe0fnext-gen V2 vaults!\n$BTC | $ETH | $BNB | $BUSD | $USDT\n\n-\u2026",
            "published_at": "2022-08-03T01:32:57Z",
            "slug": "RT-acryptosdao-Are-you-still-in-our-old-ChannelsFinance-vaults-Time-to-movenext-gen-V2-vaults-BTC-ETH-BNB-BUSD-USDT-",
            "currencies": [
                {
                    "code": "CAN",
                    "title": "Channels",
                    "slug": "channels",
                    "url": "https:\/\/cryptopanic.com\/news\/channels\/"
                },
                {
                    "code": "BUSD",
                    "title": "Binance USD",
                    "slug": "binance-usd",
                    "url": "https:\/\/cryptopanic.com\/news\/binance-usd\/"
                }
            ],
            "id": 15943410,
            "url": "https:\/\/cryptopanic.com\/news\/15943410\/RT-acryptosdao-Are-you-still-in-our-old-ChannelsFinance-vaults-Time-to-movenext-gen-V2-vaults-BTC-ETH-BNB-BUSD-USDT-",
            "created_at": "2022-08-03T01:32:57Z",
            "votes": {
                "negative": 0,
                "positive": 0,
                "important": 0,
                "liked": 0,
                "disliked": 0,
                "lol": 0,
                "toxic": 0,
                "saved": 0,
                "comments": 0
            }
        },
        {
            "kind": "news",
            "domain": "@ChannelsFinance",
            "source": {
                "title": "Channels Twitter",
                "region": "en",
                "domain": "twitter.com",
                "path": "@channelsfinance"
            },
            "title": "RT @HecochainDaily: Top Gainers in HECO Chain Ecosystem Last 24H \n\n$RICE @RICESWAP \n$SWFTC @SwftCoin \n$BXH @BXH_Blockchain \n$DOG @DogeSwa\u2026",
            "published_at": "2022-07-20T13:55:45Z",
            "slug": "RT-HecochainDaily-Top-Gainers-in-HECO-Chain-Ecosystem-Last-24H-RICE-RICESWAP-SWFTC-SwftCoin-BXH-BXH_Blockchain-DOG-DogeSwa",
            "currencies": [
                {
                    "code": "CAN",
                    "title": "Channels",
                    "slug": "channels",
                    "url": "https:\/\/cryptopanic.com\/news\/channels\/"
                },
                {
                    "code": "XCN",
                    "title": "Chain",
                    "slug": "chain-2",
                    "url": "https:\/\/cryptopanic.com\/news\/chain-2\/"
                }
            ],
            "id": 15824241,
            "url": "https:\/\/cryptopanic.com\/news\/15824241\/RT-HecochainDaily-Top-Gainers-in-HECO-Chain-Ecosystem-Last-24H-RICE-RICESWAP-SWFTC-SwftCoin-BXH-BXH_Blockchain-DOG-DogeSwa",
            "created_at": "2022-07-20T13:55:45Z",
            "votes": {
                "negative": 0,
                "positive": 0,
                "important": 0,
                "liked": 0,
                "disliked": 0,
                "lol": 0,
                "toxic": 0,
                "saved": 0,
                "comments": 0
            }
        },
        {
            "kind": "news",
            "domain": "@ChannelsFinance",
            "source": {
                "title": "Channels Twitter",
                "region": "en",
                "domain": "twitter.com",
                "path": "@channelsfinance"
            },
            "title": "Growing steadily, and not stopping.\ud83e\udd70",
            "published_at": "2022-06-01T08:37:21Z",
            "slug": "Growing-steadily-and-not-stopping",
            "currencies": [
                {
                    "code": "CAN",
                    "title": "Channels",
                    "slug": "channels",
                    "url": "https:\/\/cryptopanic.com\/news\/channels\/"
                }
            ],
            "id": 15379585,
            "url": "https:\/\/cryptopanic.com\/news\/15379585\/Growing-steadily-and-not-stopping",
            "created_at": "2022-06-01T08:37:21Z",
            "votes": {
                "negative": 0,
                "positive": 0,
                "important": 0,
                "liked": 0,
                "disliked": 0,
                "lol": 0,
                "toxic": 0,
                "saved": 0,
                "comments": 0
            }
        },
        {
            "kind": "news",
            "domain": "@ChannelsFinance",
            "source": {
                "title": "Channels Twitter",
                "region": "en",
                "domain": "twitter.com",
                "path": "@channelsfinance"
            },
            "title": "We are the Top Gainer in @HECO_Chain . Let\u2019s keep growing.",
            "published_at": "2022-05-06T12:24:55Z",
            "slug": "We-are-the-Top-Gainer-in-HECO_Chain-Lets-keep-growing",
            "currencies": [
                {
                    "code": "CAN",
                    "title": "Channels",
                    "slug": "channels",
                    "url": "https:\/\/cryptopanic.com\/news\/channels\/"
                }
            ],
            "id": 15135371,
            "url": "https:\/\/cryptopanic.com\/news\/15135371\/We-are-the-Top-Gainer-in-HECO_Chain-Lets-keep-growing",
            "created_at": "2022-05-06T12:24:55Z",
            "votes": {
                "negative": 0,
                "positive": 0,
                "important": 0,
                "liked": 0,
                "disliked": 0,
                "lol": 0,
                "toxic": 0,
                "saved": 0,
                "comments": 0
            }
        },
        {
            "kind": "news",
            "domain": "@ChannelsFinance",
            "source": {
                "title": "Channels Twitter",
                "region": "en",
                "domain": "twitter.com",
                "path": "@channelsfinance"
            },
            "title": "#Arbitrum Probably nothing",
            "published_at": "2022-05-06T11:26:24Z",
            "slug": "Arbitrum-Probably-nothing",
            "currencies": [
                {
                    "code": "CAN",
                    "title": "Channels",
                    "slug": "channels",
                    "url": "https:\/\/cryptopanic.com\/news\/channels\/"
                }
            ],
            "id": 15135372,
            "url": "https:\/\/cryptopanic.com\/news\/15135372\/Arbitrum-Probably-nothing",
            "created_at": "2022-05-06T11:26:24Z",
            "votes": {
                "negative": 0,
                "positive": 0,
                "important": 0,
                "liked": 0,
                "disliked": 0,
                "lol": 0,
                "toxic": 0,
                "saved": 0,
                "comments": 0
            }
        },
        {
            "kind": "news",
            "domain": "@callunaofficial",
            "source": {
                "title": "Calluna Wallet Twitter",
                "region": "en",
                "domain": "twitter.com",
                "path": "@callunaofficial"
            },
            "title": "Understand what is decentralized crypto wallet. ... \n#trx #callunawallet #wallet #DeFi",
            "published_at": "2022-04-25T18:14:43Z",
            "slug": "Understand-what-is-decentralized-crypto-wallet-trx-callunawallet-wallet-DeFi",
            "currencies": [
                {
                    "code": "CAN",
                    "title": "CAN",
                    "slug": "calluna-wallet",
                    "url": "https:\/\/cryptopanic.com\/news\/calluna-wallet\/"
                }
            ],
            "id": 15016933,
            "url": "https:\/\/cryptopanic.com\/news\/15016933\/Understand-what-is-decentralized-crypto-wallet-trx-callunawallet-wallet-DeFi",
            "created_at": "2022-04-25T18:14:43Z",
            "votes": {
                "negative": 0,
                "positive": 0,
                "important": 0,
                "liked": 0,
                "disliked": 0,
                "lol": 0,
                "toxic": 0,
                "saved": 0,
                "comments": 0
            }
        },
        {
            "kind": "news",
            "domain": "@callunaofficial",
            "source": {
                "title": "Calluna Wallet Twitter",
                "region": "en",
                "domain": "twitter.com",
                "path": "@callunaofficial"
            },
            "title": "Thanks to the Korean Medias. Calluna Wallet was reported and becomes the focus of attention in blockchain industry.\u2026",
            "published_at": "2022-04-22T19:18:25Z",
            "slug": "Thanks-to-the-Korean-Medias-Calluna-Wallet-was-reported-and-becomes-the-focus-of-attention-in-blockchain-industry",
            "currencies": [
                {
                    "code": "CAN",
                    "title": "CAN",
                    "slug": "calluna-wallet",
                    "url": "https:\/\/cryptopanic.com\/news\/calluna-wallet\/"
                }
            ],
            "id": 14990339,
            "url": "https:\/\/cryptopanic.com\/news\/14990339\/Thanks-to-the-Korean-Medias-Calluna-Wallet-was-reported-and-becomes-the-focus-of-attention-in-blockchain-industry",
            "created_at": "2022-04-22T19:18:25Z",
            "votes": {
                "negative": 0,
                "positive": 0,
                "important": 0,
                "liked": 0,
                "disliked": 0,
                "lol": 0,
                "toxic": 0,
                "saved": 0,
                "comments": 0
            }
        },
        {
            "kind": "news",
            "domain": "@callunaofficial",
            "source": {
                "title": "Calluna Wallet Twitter",
                "region": "en",
                "domain": "twitter.com",
                "path": "@callunaofficial"
            },
            "title": "#TRON total accounts exceeded 46 million.\n\nAccording to #TRONSCAN, TRON total accounts have reached 46,008,323.\u2026",
            "published_at": "2022-04-22T19:17:53Z",
            "slug": "TRON-total-accounts-exceeded-46-million-According-to-TRONSCAN-TRON-total-accounts-have-reached-46008323",
            "currencies": [
                {
                    "code": "CAN",
                    "title": "CAN",
                    "slug": "calluna-wallet",
                    "url": "https:\/\/cryptopanic.com\/news\/calluna-wallet\/"
                },
                {
                    "code": "TRX",
                    "title": "TRON",
                    "slug": "tron",
                    "url": "https:\/\/cryptopanic.com\/news\/tron\/"
                }
            ],
            "id": 14990341,
            "url": "https:\/\/cryptopanic.com\/news\/14990341\/TRON-total-accounts-exceeded-46-million-According-to-TRONSCAN-TRON-total-accounts-have-reached-46008323",
            "created_at": "2022-04-22T19:17:53Z",
            "votes": {
                "negative": 0,
                "positive": 0,
                "important": 0,
                "liked": 0,
                "disliked": 0,
                "lol": 0,
                "toxic": 0,
                "saved": 0,
                "comments": 0
            }
        },
        {
            "kind": "news",
            "domain": "@callunaofficial",
            "source": {
                "title": "Calluna Wallet Twitter",
                "region": "en",
                "domain": "twitter.com",
                "path": "@callunaofficial"
            },
            "title": "IOS AVAILABLE NOW\nIOS AVAILABLE NOW\nIOS AVAILABLE NOW\n\nDownload yours and start your journey of mining with\u2026",
            "published_at": "2022-04-22T19:16:47Z",
            "slug": "IOS-AVAILABLE-NOW-IOS-AVAILABLE-NOW-IOS-AVAILABLE-NOW-Download-yours-and-start-your-journey-of-mining-with",
            "currencies": [
                {
                    "code": "CAN",
                    "title": "CAN",
                    "slug": "calluna-wallet",
                    "url": "https:\/\/cryptopanic.com\/news\/calluna-wallet\/"
                }
            ],
            "id": 14990343,
            "url": "https:\/\/cryptopanic.com\/news\/14990343\/IOS-AVAILABLE-NOW-IOS-AVAILABLE-NOW-IOS-AVAILABLE-NOW-Download-yours-and-start-your-journey-of-mining-with",
            "created_at": "2022-04-22T19:16:47Z",
            "votes": {
                "negative": 0,
                "positive": 0,
                "important": 0,
                "liked": 0,
                "disliked": 0,
                "lol": 0,
                "toxic": 0,
                "saved": 0,
                "comments": 0
            }
        },
        {
            "kind": "news",
            "domain": "@callunaofficial",
            "source": {
                "title": "Calluna Wallet Twitter",
                "region": "en",
                "domain": "twitter.com",
                "path": "@callunaofficial"
            },
            "title": "Want to keep away third parties and custodial authorities from your business? Calluna is here to facilitate peer-to\u2026",
            "published_at": "2022-04-22T19:15:41Z",
            "slug": "Want-to-keep-away-third-parties-and-custodial-authorities-from-your-business-Calluna-is-here-to-facilitate-peer-to",
            "currencies": [
                {
                    "code": "CAN",
                    "title": "CAN",
                    "slug": "calluna-wallet",
                    "url": "https:\/\/cryptopanic.com\/news\/calluna-wallet\/"
                }
            ],
            "id": 14990346,
            "url": "https:\/\/cryptopanic.com\/news\/14990346\/Want-to-keep-away-third-parties-and-custodial-authorities-from-your-business-Calluna-is-here-to-facilitate-peer-to",
            "created_at": "2022-04-22T19:15:41Z",
            "votes": {
                "negative": 0,
                "positive": 0,
                "important": 0,
                "liked": 0,
                "disliked": 0,
                "lol": 0,
                "toxic": 0,
                "saved": 0,
                "comments": 0
            }
        },
        {
            "kind": "news",
            "domain": "@callunaofficial",
            "source": {
                "title": "Calluna Wallet Twitter",
                "region": "en",
                "domain": "twitter.com",
                "path": "@callunaofficial"
            },
            "title": "Calluna Wallet is a fully-decentralized blockchain wallet that allows to send, receive and trade cryptos all at you\u2026",
            "published_at": "2022-04-22T19:14:27Z",
            "slug": "Calluna-Wallet-is-a-fully-decentralized-blockchain-wallet-that-allows-to-send-receive-and-trade-cryptos-all-at-you",
            "currencies": [
                {
                    "code": "CAN",
                    "title": "CAN",
                    "slug": "calluna-wallet",
                    "url": "https:\/\/cryptopanic.com\/news\/calluna-wallet\/"
                }
            ],
            "id": 14990347,
            "url": "https:\/\/cryptopanic.com\/news\/14990347\/Calluna-Wallet-is-a-fully-decentralized-blockchain-wallet-that-allows-to-send-receive-and-trade-cryptos-all-at-you",
            "created_at": "2022-04-22T19:14:27Z",
            "votes": {
                "negative": 0,
                "positive": 0,
                "important": 0,
                "liked": 0,
                "disliked": 0,
                "lol": 0,
                "toxic": 0,
                "saved": 0,
                "comments": 0
            }
        },
        {
            "kind": "news",
            "domain": "@callunaofficial",
            "source": {
                "title": "Calluna Wallet Twitter",
                "region": "en",
                "domain": "twitter.com",
                "path": "@callunaofficial"
            },
            "title": "What will Elon Musk do if successfully buy over twitter\uff1f\nI think the first thing he most probably done will be chan\u2026",
            "published_at": "2022-04-22T19:13:37Z",
            "slug": "What-will-Elon-Musk-do-if-successfully-buy-over-twitter-I-think-the-first-thing-he-most-probably-done-will-be-chan",
            "currencies": [
                {
                    "code": "CAN",
                    "title": "CAN",
                    "slug": "calluna-wallet",
                    "url": "https:\/\/cryptopanic.com\/news\/calluna-wallet\/"
                }
            ],
            "id": 14990348,
            "url": "https:\/\/cryptopanic.com\/news\/14990348\/What-will-Elon-Musk-do-if-successfully-buy-over-twitter-I-think-the-first-thing-he-most-probably-done-will-be-chan",
            "created_at": "2022-04-22T19:13:37Z",
            "votes": {
                "negative": 0,
                "positive": 0,
                "important": 0,
                "liked": 0,
                "disliked": 0,
                "lol": 0,
                "toxic": 0,
                "saved": 0,
                "comments": 0
            }
        },
        {
            "kind": "news",
            "domain": "@ChannelsFinance",
            "source": {
                "title": "Channels Twitter",
                "region": "en",
                "domain": "twitter.com",
                "path": "@channelsfinance"
            },
            "title": "Top weekly gainers! ",
            "published_at": "2022-04-17T12:40:22Z",
            "slug": "Top-weekly-gainers",
            "currencies": [
                {
                    "code": "CAN",
                    "title": "Channels",
                    "slug": "channels",
                    "url": "https:\/\/cryptopanic.com\/news\/channels\/"
                }
            ],
            "id": 14933321,
            "url": "https:\/\/cryptopanic.com\/news\/14933321\/Top-weekly-gainers",
            "created_at": "2022-04-17T12:40:22Z",
            "votes": {
                "negative": 0,
                "positive": 0,
                "important": 0,
                "liked": 0,
                "disliked": 0,
                "lol": 0,
                "toxic": 0,
                "saved": 0,
                "comments": 0
            }
        },
        {
            "kind": "news",
            "domain": "@ChannelsFinance",
            "source": {
                "title": "Channels Twitter",
                "region": "en",
                "domain": "twitter.com",
                "path": "@channelsfinance"
            },
            "title": "Welcome our new partner @DeCredit001\n\n#DeCredit offers a #luckydraw \n\n 5 Mystery Boxes\n10 Whitelist Spots\n\nRULES\u2026",
            "published_at": "2022-04-14T06:28:17Z",
            "slug": "Welcome-our-new-partner-DeCredit001-DeCredit-offers-a-luckydraw-5-Mystery-Boxes-10-Whitelist-Spots-RULES",
            "currencies": [
                {
                    "code": "CAN",
                    "title": "Channels",
                    "slug": "channels",
                    "url": "https:\/\/cryptopanic.com\/news\/channels\/"
                }
            ],
            "id": 14906285,
            "url": "https:\/\/cryptopanic.com\/news\/14906285\/Welcome-our-new-partner-DeCredit001-DeCredit-offers-a-luckydraw-5-Mystery-Boxes-10-Whitelist-Spots-RULES",
            "created_at": "2022-04-14T06:28:17Z",
            "votes": {
                "negative": 0,
                "positive": 0,
                "important": 0,
                "liked": 0,
                "disliked": 0,
                "lol": 0,
                "toxic": 0,
                "saved": 0,
                "comments": 0
            }
        },
        {
            "kind": "news",
            "domain": "@ChannelsFinance",
            "source": {
                "title": "Channels Twitter",
                "region": "en",
                "domain": "twitter.com",
                "path": "@channelsfinance"
            },
            "title": "You can track the data of Channels on @KingData_com.",
            "published_at": "2022-04-11T12:52:09Z",
            "slug": "You-can-track-the-data-of-Channels-on-KingData_com",
            "currencies": [
                {
                    "code": "CAN",
                    "title": "Channels",
                    "slug": "channels",
                    "url": "https:\/\/cryptopanic.com\/news\/channels\/"
                }
            ],
            "id": 14869904,
            "url": "https:\/\/cryptopanic.com\/news\/14869904\/You-can-track-the-data-of-Channels-on-KingData_com",
            "created_at": "2022-04-11T12:52:09Z",
            "votes": {
                "negative": 0,
                "positive": 0,
                "important": 0,
                "liked": 0,
                "disliked": 0,
                "lol": 0,
                "toxic": 0,
                "saved": 0,
                "comments": 0
            }
        },
        {
            "kind": "news",
            "domain": "@ChannelsFinance",
            "source": {
                "title": "Channels Twitter",
                "region": "en",
                "domain": "twitter.com",
                "path": "@channelsfinance"
            },
            "title": "Congrats on #DMEX's rebranding campaign\n\nParticipate the event and win $CAN rewards ",
            "published_at": "2022-04-11T06:49:24Z",
            "slug": "Congrats-on-DMEXs-rebranding-campaign-Participate-the-event-and-win-CAN-rewards",
            "currencies": [
                {
                    "code": "CAN",
                    "title": "Channels",
                    "slug": "channels",
                    "url": "https:\/\/cryptopanic.com\/news\/channels\/"
                }
            ],
            "id": 14869905,
            "url": "https:\/\/cryptopanic.com\/news\/14869905\/Congrats-on-DMEXs-rebranding-campaign-Participate-the-event-and-win-CAN-rewards",
            "created_at": "2022-04-11T06:49:24Z",
            "votes": {
                "negative": 0,
                "positive": 0,
                "important": 0,
                "liked": 0,
                "disliked": 0,
                "lol": 0,
                "toxic": 0,
                "saved": 0,
                "comments": 0
            }
        },
        {
            "kind": "news",
            "domain": "@callunaofficial",
            "source": {
                "title": "Calluna Wallet Twitter",
                "region": "en",
                "domain": "twitter.com",
                "path": "@callunaofficial"
            },
            "title": "Rising Star in DeFi\u2014\u2014Calluna Wallet\n#ecosystem #TRX #BTC #Wallet #DeFi #blockchaintechnology #calluna #callunawallet",
            "published_at": "2022-04-10T18:58:25Z",
            "slug": "Rising-Star-in-DeFiCalluna-Wallet-ecosystem-TRX-BTC-Wallet-DeFi-blockchaintechnology-calluna-callunawallet",
            "currencies": [
                {
                    "code": "CAN",
                    "title": "CAN",
                    "slug": "calluna-wallet",
                    "url": "https:\/\/cryptopanic.com\/news\/calluna-wallet\/"
                }
            ],
            "id": 14963757,
            "url": "https:\/\/cryptopanic.com\/news\/14963757\/Rising-Star-in-DeFiCalluna-Wallet-ecosystem-TRX-BTC-Wallet-DeFi-blockchaintechnology-calluna-callunawallet",
            "created_at": "2022-04-10T18:58:25Z",
            "votes": {
                "negative": 0,
                "positive": 0,
                "important": 0,
                "liked": 0,
                "disliked": 0,
                "lol": 0,
                "toxic": 0,
                "saved": 0,
                "comments": 0
            }
        },
        {
            "kind": "news",
            "domain": "@callunaofficial",
            "source": {
                "title": "Calluna Wallet Twitter",
                "region": "en",
                "domain": "twitter.com",
                "path": "@callunaofficial"
            },
            "title": "Calluna Wallet's combination with varies of eco-system among Trx, Bsc, Btc, Eth.\nCheck it out and have your very \"o\u2026",
            "published_at": "2022-04-10T18:43:24Z",
            "slug": "Calluna-Wallets-combination-with-varies-of-eco-system-among-Trx-Bsc-Btc-Eth-Check-it-out-and-have-your-very-o",
            "currencies": [
                {
                    "code": "CAN",
                    "title": "Calluna Wallet",
                    "slug": "calluna-wallet",
                    "url": "https:\/\/cryptopanic.com\/news\/calluna-wallet\/"
                }
            ],
            "id": 14963758,
            "url": "https:\/\/cryptopanic.com\/news\/14963758\/Calluna-Wallets-combination-with-varies-of-eco-system-among-Trx-Bsc-Btc-Eth-Check-it-out-and-have-your-very-o",
            "created_at": "2022-04-10T18:43:24Z",
            "votes": {
                "negative": 0,
                "positive": 0,
                "important": 0,
                "liked": 0,
                "disliked": 0,
                "lol": 0,
                "toxic": 0,
                "saved": 0,
                "comments": 0
            }
        },
        {
            "kind": "news",
            "domain": "@callunaofficial",
            "source": {
                "title": "Calluna Wallet Twitter",
                "region": "en",
                "domain": "twitter.com",
                "path": "@callunaofficial"
            },
            "title": "For past year 2021 review and what we going to be in 2022.\nCalluna Wallet has been rated as the most trendy rising\u2026",
            "published_at": "2022-04-10T18:42:11Z",
            "slug": "For-past-year-2021-review-and-what-we-going-to-be-in-2022-Calluna-Wallet-has-been-rated-as-the-most-trendy-rising",
            "currencies": [
                {
                    "code": "CAN",
                    "title": "Calluna Wallet",
                    "slug": "calluna-wallet",
                    "url": "https:\/\/cryptopanic.com\/news\/calluna-wallet\/"
                }
            ],
            "id": 14963759,
            "url": "https:\/\/cryptopanic.com\/news\/14963759\/For-past-year-2021-review-and-what-we-going-to-be-in-2022-Calluna-Wallet-has-been-rated-as-the-most-trendy-rising",
            "created_at": "2022-04-10T18:42:11Z",
            "votes": {
                "negative": 0,
                "positive": 0,
                "important": 0,
                "liked": 0,
                "disliked": 0,
                "lol": 0,
                "toxic": 0,
                "saved": 0,
                "comments": 0
            }
        }
    ]
}
