{
    "count": 200,
    "next": "https:\/\/cryptopanic.com\/api\/v1\/posts\/?auth_token=01c356e89ffc1b8eba2127c81fc8c66ee0eace75&kind=news&currencies=PROM&page=2",
    "previous": null,
    "results": [
        {
            "kind": "news",
            "domain": "@prom_io",
            "source": {
                "title": "Prom Twitter",
                "region": "en",
                "domain": "twitter.com",
                "path": "@prom_io"
            },
            "title": "imagine letters \u201cg\u201d &amp; \u201cm\u201d were taken out of the alphabet, and crypto twitter went silent after that?\n\nuntil then\u2026 gm ",
            "published_at": "2023-07-11T10:43:26Z",
            "slug": "imagine-letters-g-amp-m-were-taken-out-of-the-alphabet-and-crypto-twitter-went-silent-after-that-until-then-gm",
            "currencies": [
                {
                    "code": "PROM",
                    "title": "Prom",
                    "slug": "prometeus",
                    "url": "https:\/\/cryptopanic.com\/news\/prometeus\/"
                }
            ],
            "id": 18766603,
            "url": "https:\/\/cryptopanic.com\/news\/18766603\/imagine-letters-g-amp-m-were-taken-out-of-the-alphabet-and-crypto-twitter-went-silent-after-that-until-then-gm",
            "created_at": "2023-07-11T10:43:26Z",
            "votes": {
                "negative": 0,
                "positive": 0,
                "important": 0,
                "liked": 0,
                "disliked": 0,
                "lol": 0,
                "toxic": 0,
                "saved": 0,
                "comments": 0
            }
        },
        {
            "kind": "news",
            "domain": "@prom_io",
            "source": {
                "title": "Prom Twitter",
                "region": "en",
                "domain": "twitter.com",
                "path": "@prom_io"
            },
            "title": "Metamorph: Your Realest Virtual Friend\n\n@metamorphbio is a vibrant open world inhabited by Morphs, realistic unique\u2026",
            "published_at": "2023-07-09T21:51:30Z",
            "slug": "Metamorph-Your-Realest-Virtual-Friend-metamorphbio-is-a-vibrant-open-world-inhabited-by-Morphs-realistic-unique",
            "currencies": [
                {
                    "code": "PROM",
                    "title": "Prom",
                    "slug": "prometeus",
                    "url": "https:\/\/cryptopanic.com\/news\/prometeus\/"
                }
            ],
            "id": 18751100,
            "url": "https:\/\/cryptopanic.com\/news\/18751100\/Metamorph-Your-Realest-Virtual-Friend-metamorphbio-is-a-vibrant-open-world-inhabited-by-Morphs-realistic-unique",
            "created_at": "2023-07-09T21:51:30Z",
            "votes": {
                "negative": 0,
                "positive": 0,
                "important": 0,
                "liked": 0,
                "disliked": 0,
                "lol": 0,
                "toxic": 0,
                "saved": 0,
                "comments": 0
            }
        },
        {
            "kind": "news",
            "domain": "@prom_io",
            "source": {
                "title": "Prom Twitter",
                "region": "en",
                "domain": "twitter.com",
                "path": "@prom_io"
            },
            "title": "Common GameFi Security Issues \ufe0f\n\nSecurity is a must for Web3 games.\n\nHowever, sometimes even Web3 projects have vu\u2026",
            "published_at": "2023-07-07T20:50:45Z",
            "slug": "Common-GameFi-Security-Issues-Security-is-a-must-for-Web3-games-However-sometimes-even-Web3-projects-have-vu",
            "currencies": [
                {
                    "code": "PROM",
                    "title": "Prom",
                    "slug": "prometeus",
                    "url": "https:\/\/cryptopanic.com\/news\/prometeus\/"
                }
            ],
            "id": 18742067,
            "url": "https:\/\/cryptopanic.com\/news\/18742067\/Common-GameFi-Security-Issues-Security-is-a-must-for-Web3-games-However-sometimes-even-Web3-projects-have-vu",
            "created_at": "2023-07-07T20:50:45Z",
            "votes": {
                "negative": 0,
                "positive": 0,
                "important": 0,
                "liked": 0,
                "disliked": 0,
                "lol": 0,
                "toxic": 0,
                "saved": 0,
                "comments": 0
            }
        },
        {
            "kind": "news",
            "domain": "@prom_io",
            "source": {
                "title": "Prom Twitter",
                "region": "en",
                "domain": "twitter.com",
                "path": "@prom_io"
            },
            "title": "Open #GameFi Discussion:\n\nYour Web2 gamer friend asks for a #Web3 recommendation. What game are you choosing? \ud83e\uddd0",
            "published_at": "2023-07-05T20:57:50Z",
            "slug": "Open-GameFi-Discussion-Your-Web2-gamer-friend-asks-for-a-Web3-recommendation-What-game-are-you-choosing",
            "currencies": [
                {
                    "code": "PROM",
                    "title": "Prom",
                    "slug": "prometeus",
                    "url": "https:\/\/cryptopanic.com\/news\/prometeus\/"
                }
            ],
            "id": 18726251,
            "url": "https:\/\/cryptopanic.com\/news\/18726251\/Open-GameFi-Discussion-Your-Web2-gamer-friend-asks-for-a-Web3-recommendation-What-game-are-you-choosing",
            "created_at": "2023-07-05T20:57:50Z",
            "votes": {
                "negative": 0,
                "positive": 0,
                "important": 0,
                "liked": 0,
                "disliked": 0,
                "lol": 0,
                "toxic": 0,
                "saved": 0,
                "comments": 0
            }
        },
        {
            "kind": "news",
            "domain": "@prom_io",
            "source": {
                "title": "Prom Twitter",
                "region": "en",
                "domain": "twitter.com",
                "path": "@prom_io"
            },
            "title": "Know Your Game: Game Genres Glossary \ud83e\uddd0\n\nFarming is one of the most widely spread genres in Web3.\n\nIt revolves aroun\u2026",
            "published_at": "2023-07-03T20:59:38Z",
            "slug": "Know-Your-Game-Game-Genres-Glossary-Farming-is-one-of-the-most-widely-spread-genres-in-Web3-It-revolves-aroun",
            "currencies": [
                {
                    "code": "PROM",
                    "title": "Prom",
                    "slug": "prometeus",
                    "url": "https:\/\/cryptopanic.com\/news\/prometeus\/"
                }
            ],
            "id": 18711217,
            "url": "https:\/\/cryptopanic.com\/news\/18711217\/Know-Your-Game-Game-Genres-Glossary-Farming-is-one-of-the-most-widely-spread-genres-in-Web3-It-revolves-aroun",
            "created_at": "2023-07-03T20:59:38Z",
            "votes": {
                "negative": 0,
                "positive": 0,
                "important": 0,
                "liked": 0,
                "disliked": 0,
                "lol": 0,
                "toxic": 0,
                "saved": 0,
                "comments": 0
            }
        },
        {
            "kind": "news",
            "domain": "@prom_io",
            "source": {
                "title": "Prom Twitter",
                "region": "en",
                "domain": "twitter.com",
                "path": "@prom_io"
            },
            "title": "while you sip on your gn juice, don\u2019t forget to print our tweets in case you exceed the reading limit ",
            "published_at": "2023-07-01T21:03:30Z",
            "slug": "while-you-sip-on-your-gn-juice-dont-forget-to-print-our-tweets-in-case-you-exceed-the-reading-limit",
            "currencies": [
                {
                    "code": "PROM",
                    "title": "Prom",
                    "slug": "prometeus",
                    "url": "https:\/\/cryptopanic.com\/news\/prometeus\/"
                }
            ],
            "id": 18699835,
            "url": "https:\/\/cryptopanic.com\/news\/18699835\/while-you-sip-on-your-gn-juice-dont-forget-to-print-our-tweets-in-case-you-exceed-the-reading-limit",
            "created_at": "2023-07-01T21:03:30Z",
            "votes": {
                "negative": 0,
                "positive": 0,
                "important": 0,
                "liked": 0,
                "disliked": 0,
                "lol": 0,
                "toxic": 0,
                "saved": 0,
                "comments": 0
            }
        },
        {
            "kind": "news",
            "domain": "@prom_io",
            "source": {
                "title": "Prom Twitter",
                "region": "en",
                "domain": "twitter.com",
                "path": "@prom_io"
            },
            "title": "Web3 Pixel Frenzy \n\nPack your flared jeans; we\u2019re travelling in time. Meet 3 gaming projects that merge Web3 &amp; ret\u2026",
            "published_at": "2023-06-29T20:25:49Z",
            "slug": "Web3-Pixel-Frenzy-Pack-your-flared-jeans-were-travelling-in-time-Meet-3-gaming-projects-that-merge-Web3-amp-ret",
            "currencies": [
                {
                    "code": "PROM",
                    "title": "Prom",
                    "slug": "prometeus",
                    "url": "https:\/\/cryptopanic.com\/news\/prometeus\/"
                }
            ],
            "id": 18687831,
            "url": "https:\/\/cryptopanic.com\/news\/18687831\/Web3-Pixel-Frenzy-Pack-your-flared-jeans-were-travelling-in-time-Meet-3-gaming-projects-that-merge-Web3-amp-ret",
            "created_at": "2023-06-29T20:25:49Z",
            "votes": {
                "negative": 0,
                "positive": 0,
                "important": 0,
                "liked": 0,
                "disliked": 0,
                "lol": 0,
                "toxic": 0,
                "saved": 0,
                "comments": 0
            }
        },
        {
            "kind": "news",
            "domain": "@prom_io",
            "source": {
                "title": "Prom Twitter",
                "region": "en",
                "domain": "twitter.com",
                "path": "@prom_io"
            },
            "title": "in 2023 GameFi world, what pill are taking and why? ",
            "published_at": "2023-06-28T21:36:01Z",
            "slug": "in-2023-GameFi-world-what-pill-are-taking-and-why",
            "currencies": [
                {
                    "code": "PROM",
                    "title": "Prom",
                    "slug": "prometeus",
                    "url": "https:\/\/cryptopanic.com\/news\/prometeus\/"
                }
            ],
            "id": 18679871,
            "url": "https:\/\/cryptopanic.com\/news\/18679871\/in-2023-GameFi-world-what-pill-are-taking-and-why",
            "created_at": "2023-06-28T21:36:01Z",
            "votes": {
                "negative": 0,
                "positive": 0,
                "important": 0,
                "liked": 0,
                "disliked": 0,
                "lol": 0,
                "toxic": 0,
                "saved": 0,
                "comments": 0
            }
        },
        {
            "kind": "news",
            "domain": "@prom_io",
            "source": {
                "title": "Prom Twitter",
                "region": "en",
                "domain": "twitter.com",
                "path": "@prom_io"
            },
            "title": "Music and Gaming \n\nThink of your favorite game. Do you hear something in the back of your head? It's the game\u2019s so\u2026",
            "published_at": "2023-06-26T21:01:09Z",
            "slug": "Music-and-Gaming-Think-of-your-favorite-game-Do-you-hear-something-in-the-back-of-your-head-Its-the-games-so",
            "currencies": [
                {
                    "code": "PROM",
                    "title": "Prom",
                    "slug": "prometeus",
                    "url": "https:\/\/cryptopanic.com\/news\/prometeus\/"
                }
            ],
            "id": 18663412,
            "url": "https:\/\/cryptopanic.com\/news\/18663412\/Music-and-Gaming-Think-of-your-favorite-game-Do-you-hear-something-in-the-back-of-your-head-Its-the-games-so",
            "created_at": "2023-06-26T21:01:09Z",
            "votes": {
                "negative": 0,
                "positive": 0,
                "important": 0,
                "liked": 0,
                "disliked": 0,
                "lol": 0,
                "toxic": 0,
                "saved": 0,
                "comments": 0
            }
        },
        {
            "kind": "news",
            "domain": "@prom_io",
            "source": {
                "title": "Prom Twitter",
                "region": "en",
                "domain": "twitter.com",
                "path": "@prom_io"
            },
            "title": "Open #GameFi discussion:\n\nwhat gaming genres\/mechanics are you missing in Web3 now? \ud83e\uddd0",
            "published_at": "2023-06-25T21:03:16Z",
            "slug": "Open-GameFi-discussion-what-gaming-genresmechanics-are-you-missing-in-Web3-now",
            "currencies": [
                {
                    "code": "PROM",
                    "title": "Prom",
                    "slug": "prometeus",
                    "url": "https:\/\/cryptopanic.com\/news\/prometeus\/"
                }
            ],
            "id": 18655811,
            "url": "https:\/\/cryptopanic.com\/news\/18655811\/Open-GameFi-discussion-what-gaming-genresmechanics-are-you-missing-in-Web3-now",
            "created_at": "2023-06-25T21:03:16Z",
            "votes": {
                "negative": 0,
                "positive": 0,
                "important": 0,
                "liked": 0,
                "disliked": 0,
                "lol": 0,
                "toxic": 0,
                "saved": 0,
                "comments": 0
            }
        },
        {
            "kind": "news",
            "domain": "@prom_io",
            "source": {
                "title": "Prom Twitter",
                "region": "en",
                "domain": "twitter.com",
                "path": "@prom_io"
            },
            "title": "Fly High Like a Moon Bird \n\nA colorful arcade-style Web3 banger: @flappymoonbird. Let your NFT birds out of the ca\u2026",
            "published_at": "2023-06-24T21:30:02Z",
            "slug": "Fly-High-Like-a-Moon-Bird-A-colorful-arcade-style-Web3-banger-flappymoonbird-Let-your-NFT-birds-out-of-the-ca",
            "currencies": [
                {
                    "code": "PROM",
                    "title": "Prom",
                    "slug": "prometeus",
                    "url": "https:\/\/cryptopanic.com\/news\/prometeus\/"
                }
            ],
            "id": 18651315,
            "url": "https:\/\/cryptopanic.com\/news\/18651315\/Fly-High-Like-a-Moon-Bird-A-colorful-arcade-style-Web3-banger-flappymoonbird-Let-your-NFT-birds-out-of-the-ca",
            "created_at": "2023-06-24T21:30:02Z",
            "votes": {
                "negative": 0,
                "positive": 0,
                "important": 0,
                "liked": 0,
                "disliked": 0,
                "lol": 0,
                "toxic": 0,
                "saved": 0,
                "comments": 0
            }
        },
        {
            "kind": "news",
            "domain": "@prom_io",
            "source": {
                "title": "Prom Twitter",
                "region": "en",
                "domain": "twitter.com",
                "path": "@prom_io"
            },
            "title": "stop scrolling, Prom fam:\n\ngotta rest your eyes and gn now to gm good tomorrow \ufe0f",
            "published_at": "2023-06-22T21:51:42Z",
            "slug": "stop-scrolling-Prom-fam-gotta-rest-your-eyes-and-gn-now-to-gm-good-tomorrow",
            "currencies": [
                {
                    "code": "PROM",
                    "title": "Prom",
                    "slug": "prometeus",
                    "url": "https:\/\/cryptopanic.com\/news\/prometeus\/"
                }
            ],
            "id": 18639202,
            "url": "https:\/\/cryptopanic.com\/news\/18639202\/stop-scrolling-Prom-fam-gotta-rest-your-eyes-and-gn-now-to-gm-good-tomorrow",
            "created_at": "2023-06-22T21:51:42Z",
            "votes": {
                "negative": 0,
                "positive": 0,
                "important": 0,
                "liked": 0,
                "disliked": 0,
                "lol": 0,
                "toxic": 0,
                "saved": 0,
                "comments": 0
            }
        },
        {
            "kind": "news",
            "domain": "@prom_io",
            "source": {
                "title": "Prom Twitter",
                "region": "en",
                "domain": "twitter.com",
                "path": "@prom_io"
            },
            "title": "NFT Gaming In Your Pocket \n\nBuild your base and lead an army in @MaviaGame, become a real estate pro in @UplandMe,\u2026",
            "published_at": "2023-06-21T21:02:05Z",
            "slug": "NFT-Gaming-In-Your-Pocket-Build-your-base-and-lead-an-army-in-MaviaGame-become-a-real-estate-pro-in-UplandMe",
            "currencies": [
                {
                    "code": "PROM",
                    "title": "Prom",
                    "slug": "prometeus",
                    "url": "https:\/\/cryptopanic.com\/news\/prometeus\/"
                }
            ],
            "id": 18630690,
            "url": "https:\/\/cryptopanic.com\/news\/18630690\/NFT-Gaming-In-Your-Pocket-Build-your-base-and-lead-an-army-in-MaviaGame-become-a-real-estate-pro-in-UplandMe",
            "created_at": "2023-06-21T21:02:05Z",
            "votes": {
                "negative": 0,
                "positive": 0,
                "important": 0,
                "liked": 0,
                "disliked": 0,
                "lol": 0,
                "toxic": 0,
                "saved": 0,
                "comments": 0
            }
        },
        {
            "kind": "news",
            "domain": "@prom_io",
            "source": {
                "title": "Prom Twitter",
                "region": "en",
                "domain": "twitter.com",
                "path": "@prom_io"
            },
            "title": "4 Top GameFi AI Projects \n\nAI, AI, AI, AI\u2026 yeah, we know. But let\u2019s make it GameFi.\n\nWe found at least 4 GameFi pr\u2026",
            "published_at": "2023-06-19T20:53:31Z",
            "slug": "4-Top-GameFi-AI-Projects-AI-AI-AI-AI-yeah-we-know-But-lets-make-it-GameFi-We-found-at-least-4-GameFi-pr",
            "currencies": [
                {
                    "code": "PROM",
                    "title": "Prom",
                    "slug": "prometeus",
                    "url": "https:\/\/cryptopanic.com\/news\/prometeus\/"
                }
            ],
            "id": 18614552,
            "url": "https:\/\/cryptopanic.com\/news\/18614552\/4-Top-GameFi-AI-Projects-AI-AI-AI-AI-yeah-we-know-But-lets-make-it-GameFi-We-found-at-least-4-GameFi-pr",
            "created_at": "2023-06-19T20:53:31Z",
            "votes": {
                "negative": 0,
                "positive": 0,
                "important": 0,
                "liked": 0,
                "disliked": 0,
                "lol": 0,
                "toxic": 0,
                "saved": 0,
                "comments": 0
            }
        },
        {
            "kind": "news",
            "domain": "@prom_io",
            "source": {
                "title": "Prom Twitter",
                "region": "en",
                "domain": "twitter.com",
                "path": "@prom_io"
            },
            "title": "The Big GameFi Brother is watching you \n\nwhat are you playing right now?",
            "published_at": "2023-06-18T20:49:20Z",
            "slug": "The-Big-GameFi-Brother-is-watching-you-what-are-you-playing-right-now",
            "currencies": [
                {
                    "code": "PROM",
                    "title": "Prom",
                    "slug": "prometeus",
                    "url": "https:\/\/cryptopanic.com\/news\/prometeus\/"
                }
            ],
            "id": 18607352,
            "url": "https:\/\/cryptopanic.com\/news\/18607352\/The-Big-GameFi-Brother-is-watching-you-what-are-you-playing-right-now",
            "created_at": "2023-06-18T20:49:20Z",
            "votes": {
                "negative": 0,
                "positive": 0,
                "important": 0,
                "liked": 0,
                "disliked": 0,
                "lol": 0,
                "toxic": 0,
                "saved": 0,
                "comments": 0
            }
        },
        {
            "kind": "news",
            "domain": "@prom_io",
            "source": {
                "title": "Prom Twitter",
                "region": "en",
                "domain": "twitter.com",
                "path": "@prom_io"
            },
            "title": "MetalCore: Uprising of the Mechs \ufe0f\n\n@playmetalcore invites you to test your combat skills in an open alien world.\u2026",
            "published_at": "2023-06-15T21:56:24Z",
            "slug": "MetalCore-Uprising-of-the-Mechs-playmetalcore-invites-you-to-test-your-combat-skills-in-an-open-alien-world",
            "currencies": [
                {
                    "code": "PROM",
                    "title": "Prom",
                    "slug": "prometeus",
                    "url": "https:\/\/cryptopanic.com\/news\/prometeus\/"
                }
            ],
            "id": 18589439,
            "url": "https:\/\/cryptopanic.com\/news\/18589439\/MetalCore-Uprising-of-the-Mechs-playmetalcore-invites-you-to-test-your-combat-skills-in-an-open-alien-world",
            "created_at": "2023-06-15T21:56:24Z",
            "votes": {
                "negative": 0,
                "positive": 0,
                "important": 0,
                "liked": 0,
                "disliked": 0,
                "lol": 0,
                "toxic": 0,
                "saved": 0,
                "comments": 0
            }
        },
        {
            "kind": "news",
            "domain": "@prom_io",
            "source": {
                "title": "Prom Twitter",
                "region": "en",
                "domain": "twitter.com",
                "path": "@prom_io"
            },
            "title": "Okay, Prom fam devs: as we chose RPG as the genre of our imaginary Web3 game, let\u2019s think about the lore. \n\nWhat wo\u2026",
            "published_at": "2023-06-14T22:47:14Z",
            "slug": "Okay-Prom-fam-devs-as-we-chose-RPG-as-the-genre-of-our-imaginary-Web3-game-lets-think-about-the-lore-What-wo",
            "currencies": [
                {
                    "code": "PROM",
                    "title": "Prom",
                    "slug": "prometeus",
                    "url": "https:\/\/cryptopanic.com\/news\/prometeus\/"
                }
            ],
            "id": 18581584,
            "url": "https:\/\/cryptopanic.com\/news\/18581584\/Okay-Prom-fam-devs-as-we-chose-RPG-as-the-genre-of-our-imaginary-Web3-game-lets-think-about-the-lore-What-wo",
            "created_at": "2023-06-14T22:47:14Z",
            "votes": {
                "negative": 0,
                "positive": 0,
                "important": 0,
                "liked": 0,
                "disliked": 0,
                "lol": 0,
                "toxic": 0,
                "saved": 0,
                "comments": 0
            }
        },
        {
            "kind": "news",
            "domain": "@prom_io",
            "source": {
                "title": "Prom Twitter",
                "region": "en",
                "domain": "twitter.com",
                "path": "@prom_io"
            },
            "title": "GameFi UX Peculiarities \ud83e\uddd0\n\nEvery project is formed brick by brick: from visuals to gameplay, from game economy to l\u2026",
            "published_at": "2023-06-12T21:08:18Z",
            "slug": "GameFi-UX-Peculiarities-Every-project-is-formed-brick-by-brick-from-visuals-to-gameplay-from-game-economy-to-l",
            "currencies": [
                {
                    "code": "PROM",
                    "title": "Prom",
                    "slug": "prometeus",
                    "url": "https:\/\/cryptopanic.com\/news\/prometeus\/"
                }
            ],
            "id": 18564840,
            "url": "https:\/\/cryptopanic.com\/news\/18564840\/GameFi-UX-Peculiarities-Every-project-is-formed-brick-by-brick-from-visuals-to-gameplay-from-game-economy-to-l",
            "created_at": "2023-06-12T21:08:18Z",
            "votes": {
                "negative": 0,
                "positive": 0,
                "important": 0,
                "liked": 0,
                "disliked": 0,
                "lol": 0,
                "toxic": 0,
                "saved": 0,
                "comments": 0
            }
        },
        {
            "kind": "news",
            "domain": "@prom_io",
            "source": {
                "title": "Prom Twitter",
                "region": "en",
                "domain": "twitter.com",
                "path": "@prom_io"
            },
            "title": "you, us, 2024? ",
            "published_at": "2023-06-10T21:26:05Z",
            "slug": "you-us-2024",
            "currencies": [
                {
                    "code": "PROM",
                    "title": "Prom",
                    "slug": "prometeus",
                    "url": "https:\/\/cryptopanic.com\/news\/prometeus\/"
                }
            ],
            "id": 18552568,
            "url": "https:\/\/cryptopanic.com\/news\/18552568\/you-us-2024",
            "created_at": "2023-06-10T21:26:05Z",
            "votes": {
                "negative": 0,
                "positive": 0,
                "important": 0,
                "liked": 0,
                "disliked": 0,
                "lol": 0,
                "toxic": 0,
                "saved": 0,
                "comments": 0
            }
        },
        {
            "kind": "news",
            "domain": "@prom_io",
            "source": {
                "title": "Prom Twitter",
                "region": "en",
                "domain": "twitter.com",
                "path": "@prom_io"
            },
            "title": "Prom fam, let\u2019s imagine we\u2019ve united as a group of #GameFi devs and are building our own game \n\nFirst, what genre are we choosing?",
            "published_at": "2023-06-09T22:36:11Z",
            "slug": "Prom-fam-lets-imagine-weve-united-as-a-group-of-GameFi-devs-and-are-building-our-own-game-First-what-genre-are-we-choosing",
            "currencies": [
                {
                    "code": "PROM",
                    "title": "Prom",
                    "slug": "prometeus",
                    "url": "https:\/\/cryptopanic.com\/news\/prometeus\/"
                }
            ],
            "id": 18547514,
            "url": "https:\/\/cryptopanic.com\/news\/18547514\/Prom-fam-lets-imagine-weve-united-as-a-group-of-GameFi-devs-and-are-building-our-own-game-First-what-genre-are-we-choosing",
            "created_at": "2023-06-09T22:36:11Z",
            "votes": {
                "negative": 0,
                "positive": 0,
                "important": 0,
                "liked": 0,
                "disliked": 0,
                "lol": 0,
                "toxic": 0,
                "saved": 0,
                "comments": 0
            }
        }
    ]
}
