{
    "count": 200,
    "next": "https:\/\/cryptopanic.com\/api\/v1\/posts\/?auth_token=01c356e89ffc1b8eba2127c81fc8c66ee0eace75&kind=news&currencies=XNO&page=2",
    "previous": null,
    "results": [
        {
            "kind": "news",
            "domain": "@nano",
            "source": {
                "title": "Nano Twitter",
                "region": "en",
                "domain": "twitter.com",
                "path": "@nano"
            },
            "title": "RT @NOWPayments_io: Dive into the thrilling world of @nano ( $XNO ) gaming! \n\nIt's the future, combining a unique block-lattice structure\u2026",
            "published_at": "2023-07-12T07:12:15Z",
            "slug": "RT-NOWPayments_io-Dive-into-the-thrilling-world-of-nano-XNO-gaming-Its-the-future-combining-a-unique-block-lattice-structure",
            "currencies": [
                {
                    "code": "XNO",
                    "title": "Nano",
                    "slug": "nano",
                    "url": "https:\/\/cryptopanic.com\/news\/nano\/"
                }
            ],
            "id": 18765943,
            "url": "https:\/\/cryptopanic.com\/news\/18765943\/RT-NOWPayments_io-Dive-into-the-thrilling-world-of-nano-XNO-gaming-Its-the-future-combining-a-unique-block-lattice-structure",
            "created_at": "2023-07-12T07:12:15Z",
            "votes": {
                "negative": 0,
                "positive": 0,
                "important": 0,
                "liked": 0,
                "disliked": 0,
                "lol": 0,
                "toxic": 0,
                "saved": 0,
                "comments": 0
            }
        },
        {
            "kind": "news",
            "domain": "@nano",
            "source": {
                "title": "Nano Twitter",
                "region": "en",
                "domain": "twitter.com",
                "path": "@nano"
            },
            "title": "RT @Crypto5tories: I just finished my first #nano job. I translated\/proof-read a text from English to Spanish. I am very happy for this exp\u2026",
            "published_at": "2023-07-11T13:55:50Z",
            "slug": "RT-Crypto5tories-I-just-finished-my-first-nano-job-I-translatedproof-read-a-text-from-English-to-Spanish-I-am-very-happy-for-this-exp",
            "currencies": [
                {
                    "code": "XNO",
                    "title": "Nano",
                    "slug": "nano",
                    "url": "https:\/\/cryptopanic.com\/news\/nano\/"
                }
            ],
            "id": 18765944,
            "url": "https:\/\/cryptopanic.com\/news\/18765944\/RT-Crypto5tories-I-just-finished-my-first-nano-job-I-translatedproof-read-a-text-from-English-to-Spanish-I-am-very-happy-for-this-exp",
            "created_at": "2023-07-11T13:55:50Z",
            "votes": {
                "negative": 0,
                "positive": 0,
                "important": 0,
                "liked": 0,
                "disliked": 0,
                "lol": 0,
                "toxic": 0,
                "saved": 0,
                "comments": 0
            }
        },
        {
            "kind": "news",
            "domain": "@nano",
            "source": {
                "title": "Nano Twitter",
                "region": "en",
                "domain": "twitter.com",
                "path": "@nano"
            },
            "title": "The @WeNanoApp has some awesome new functionality! \n\n\"You can now rain #nano $XNO on other WeNano users in two diff\u2026",
            "published_at": "2023-07-11T12:00:14Z",
            "slug": "The-WeNanoApp-has-some-awesome-new-functionality-You-can-now-rain-nano-XNO-on-other-WeNano-users-in-two-diff",
            "currencies": [
                {
                    "code": "XNO",
                    "title": "Nano",
                    "slug": "nano",
                    "url": "https:\/\/cryptopanic.com\/news\/nano\/"
                }
            ],
            "id": 18765945,
            "url": "https:\/\/cryptopanic.com\/news\/18765945\/The-WeNanoApp-has-some-awesome-new-functionality-You-can-now-rain-nano-XNO-on-other-WeNano-users-in-two-diff",
            "created_at": "2023-07-11T12:00:14Z",
            "votes": {
                "negative": 0,
                "positive": 0,
                "important": 0,
                "liked": 0,
                "disliked": 0,
                "lol": 0,
                "toxic": 0,
                "saved": 0,
                "comments": 0
            }
        },
        {
            "kind": "news",
            "domain": "@nano",
            "source": {
                "title": "Nano Twitter",
                "region": "en",
                "domain": "twitter.com",
                "path": "@nano"
            },
            "title": "RT @NanoDonate: Nano Donate v1.4.0 has just been released! This minor update replaces the \u22f0\u00b7\u22f0 symbol with the \u04fe symbol in logos and elsewhe\u2026",
            "published_at": "2023-07-11T09:37:12Z",
            "slug": "RT-NanoDonate-Nano-Donate-v140-has-just-been-released-This-minor-update-replaces-the-symbol-with-the-symbol-in-logos-and-elsewhe",
            "currencies": [
                {
                    "code": "XNO",
                    "title": "Nano",
                    "slug": "nano",
                    "url": "https:\/\/cryptopanic.com\/news\/nano\/"
                }
            ],
            "id": 18765946,
            "url": "https:\/\/cryptopanic.com\/news\/18765946\/RT-NanoDonate-Nano-Donate-v140-has-just-been-released-This-minor-update-replaces-the-symbol-with-the-symbol-in-logos-and-elsewhe",
            "created_at": "2023-07-11T09:37:12Z",
            "votes": {
                "negative": 0,
                "positive": 0,
                "important": 0,
                "liked": 0,
                "disliked": 0,
                "lol": 0,
                "toxic": 0,
                "saved": 0,
                "comments": 0
            }
        },
        {
            "kind": "news",
            "domain": "@nano",
            "source": {
                "title": "Nano Twitter",
                "region": "en",
                "domain": "twitter.com",
                "path": "@nano"
            },
            "title": "RT @travalacom: Hey, @nano fans! \n\nJoin the #Travala Affiliate Program and earn while you explore! \n\nWho's ready for a trip with extra pe\u2026",
            "published_at": "2023-07-09T19:13:49Z",
            "slug": "RT-travalacom-Hey-nano-fans-Join-the-Travala-Affiliate-Program-and-earn-while-you-explore-Whos-ready-for-a-trip-with-extra-pe",
            "currencies": [
                {
                    "code": "XNO",
                    "title": "Nano",
                    "slug": "nano",
                    "url": "https:\/\/cryptopanic.com\/news\/nano\/"
                }
            ],
            "id": 18750683,
            "url": "https:\/\/cryptopanic.com\/news\/18750683\/RT-travalacom-Hey-nano-fans-Join-the-Travala-Affiliate-Program-and-earn-while-you-explore-Whos-ready-for-a-trip-with-extra-pe",
            "created_at": "2023-07-09T19:13:49Z",
            "votes": {
                "negative": 0,
                "positive": 0,
                "important": 0,
                "liked": 0,
                "disliked": 0,
                "lol": 0,
                "toxic": 0,
                "saved": 0,
                "comments": 0
            }
        },
        {
            "kind": "news",
            "domain": "@nano",
            "source": {
                "title": "Nano Twitter",
                "region": "en",
                "domain": "twitter.com",
                "path": "@nano"
            },
            "title": "Our Community Ambassador from the #USA, Matthew Inderwiesen (@minderwiesen), is spot on - #Nano has an amazing comm\u2026",
            "published_at": "2023-07-09T14:37:05Z",
            "slug": "Our-Community-Ambassador-from-the-USA-Matthew-Inderwiesen-minderwiesen-is-spot-on-Nano-has-an-amazing-comm",
            "currencies": [
                {
                    "code": "XNO",
                    "title": "Nano",
                    "slug": "nano",
                    "url": "https:\/\/cryptopanic.com\/news\/nano\/"
                }
            ],
            "id": 18750684,
            "url": "https:\/\/cryptopanic.com\/news\/18750684\/Our-Community-Ambassador-from-the-USA-Matthew-Inderwiesen-minderwiesen-is-spot-on-Nano-has-an-amazing-comm",
            "created_at": "2023-07-09T14:37:05Z",
            "votes": {
                "negative": 0,
                "positive": 0,
                "important": 0,
                "liked": 0,
                "disliked": 0,
                "lol": 0,
                "toxic": 0,
                "saved": 0,
                "comments": 0
            }
        },
        {
            "kind": "news",
            "domain": "@nano",
            "source": {
                "title": "Nano Twitter",
                "region": "en",
                "domain": "twitter.com",
                "path": "@nano"
            },
            "title": "Tap to send - no fees, no fuss! That's how simple #nano $XNO is! \n\nDon't believe it? Try it yourself!\u2026",
            "published_at": "2023-07-08T16:32:05Z",
            "slug": "Tap-to-send-no-fees-no-fuss-Thats-how-simple-nano-XNO-is-Dont-believe-it-Try-it-yourself",
            "currencies": [
                {
                    "code": "XNO",
                    "title": "Nano",
                    "slug": "nano",
                    "url": "https:\/\/cryptopanic.com\/news\/nano\/"
                }
            ],
            "id": 18746367,
            "url": "https:\/\/cryptopanic.com\/news\/18746367\/Tap-to-send-no-fees-no-fuss-Thats-how-simple-nano-XNO-is-Dont-believe-it-Try-it-yourself",
            "created_at": "2023-07-08T16:32:05Z",
            "votes": {
                "negative": 0,
                "positive": 0,
                "important": 0,
                "liked": 0,
                "disliked": 0,
                "lol": 0,
                "toxic": 0,
                "saved": 0,
                "comments": 0
            }
        },
        {
            "kind": "news",
            "domain": "@nano",
            "source": {
                "title": "Nano Twitter",
                "region": "en",
                "domain": "twitter.com",
                "path": "@nano"
            },
            "title": "RT @GetXNO: Giveaway!\nWin 300,000 diamonds (3$ in $XNO) to celebrate 1,000 users!\nTo enter:\n1\ufe0f\u20e3Follow\n2\ufe0f\u20e3Retweet\n3\ufe0f\u20e3Like\n4\ufe0f\u20e3Mention 2 fr\u2026",
            "published_at": "2023-07-07T15:48:20Z",
            "slug": "RT-GetXNO-Giveaway-Win-300000-diamonds-3-in-XNO-to-celebrate-1000-users-To-enter-1Follow-2Retweet-3Like-4Mention-2-fr",
            "currencies": [
                {
                    "code": "XNO",
                    "title": "Nano",
                    "slug": "nano",
                    "url": "https:\/\/cryptopanic.com\/news\/nano\/"
                }
            ],
            "id": 18741541,
            "url": "https:\/\/cryptopanic.com\/news\/18741541\/RT-GetXNO-Giveaway-Win-300000-diamonds-3-in-XNO-to-celebrate-1000-users-To-enter-1Follow-2Retweet-3Like-4Mention-2-fr",
            "created_at": "2023-07-07T15:48:20Z",
            "votes": {
                "negative": 0,
                "positive": 0,
                "important": 0,
                "liked": 0,
                "disliked": 0,
                "lol": 0,
                "toxic": 0,
                "saved": 0,
                "comments": 0
            }
        },
        {
            "kind": "news",
            "domain": "@nano",
            "source": {
                "title": "Nano Twitter",
                "region": "en",
                "domain": "twitter.com",
                "path": "@nano"
            },
            "title": "Our ambassador Niwamanya Martin (@NiwamanyaMarti6) in #Uganda is unstoppable! With his University Outreach initiati\u2026",
            "published_at": "2023-07-07T15:41:01Z",
            "slug": "Our-ambassador-Niwamanya-Martin-NiwamanyaMarti6-in-Uganda-is-unstoppable-With-his-University-Outreach-initiati",
            "currencies": [
                {
                    "code": "XNO",
                    "title": "Nano",
                    "slug": "nano",
                    "url": "https:\/\/cryptopanic.com\/news\/nano\/"
                }
            ],
            "id": 18741542,
            "url": "https:\/\/cryptopanic.com\/news\/18741542\/Our-ambassador-Niwamanya-Martin-NiwamanyaMarti6-in-Uganda-is-unstoppable-With-his-University-Outreach-initiati",
            "created_at": "2023-07-07T15:41:01Z",
            "votes": {
                "negative": 0,
                "positive": 0,
                "important": 0,
                "liked": 0,
                "disliked": 0,
                "lol": 0,
                "toxic": 0,
                "saved": 0,
                "comments": 0
            }
        },
        {
            "kind": "news",
            "domain": "@nano",
            "source": {
                "title": "Nano Twitter",
                "region": "en",
                "domain": "twitter.com",
                "path": "@nano"
            },
            "title": "Nice video by YouTuber Jay James Invests covering why #nano $XNO is so suitable for #microtransactions! \n\nInstant,\u2026",
            "published_at": "2023-07-06T09:29:11Z",
            "slug": "Nice-video-by-YouTuber-Jay-James-Invests-covering-why-nano-XNO-is-so-suitable-for-microtransactions-Instant",
            "currencies": [
                {
                    "code": "XNO",
                    "title": "Nano",
                    "slug": "nano",
                    "url": "https:\/\/cryptopanic.com\/news\/nano\/"
                }
            ],
            "id": 18734068,
            "url": "https:\/\/cryptopanic.com\/news\/18734068\/Nice-video-by-YouTuber-Jay-James-Invests-covering-why-nano-XNO-is-so-suitable-for-microtransactions-Instant",
            "created_at": "2023-07-06T09:29:11Z",
            "votes": {
                "negative": 0,
                "positive": 0,
                "important": 0,
                "liked": 0,
                "disliked": 0,
                "lol": 0,
                "toxic": 0,
                "saved": 0,
                "comments": 0
            }
        },
        {
            "kind": "news",
            "domain": "@nano",
            "source": {
                "title": "Nano Twitter",
                "region": "en",
                "domain": "twitter.com",
                "path": "@nano"
            },
            "title": "\"Nano also does not have any transaction charges and facilitates small to large transactions just within a few seco\u2026",
            "published_at": "2023-07-05T15:01:03Z",
            "slug": "Nano-also-does-not-have-any-transaction-charges-and-facilitates-small-to-large-transactions-just-within-a-few-seco",
            "currencies": [
                {
                    "code": "XNO",
                    "title": "Nano",
                    "slug": "nano",
                    "url": "https:\/\/cryptopanic.com\/news\/nano\/"
                }
            ],
            "id": 18725606,
            "url": "https:\/\/cryptopanic.com\/news\/18725606\/Nano-also-does-not-have-any-transaction-charges-and-facilitates-small-to-large-transactions-just-within-a-few-seco",
            "created_at": "2023-07-05T15:01:03Z",
            "votes": {
                "negative": 0,
                "positive": 0,
                "important": 0,
                "liked": 0,
                "disliked": 0,
                "lol": 0,
                "toxic": 0,
                "saved": 0,
                "comments": 0
            }
        },
        {
            "kind": "news",
            "domain": "@nano",
            "source": {
                "title": "Nano Twitter",
                "region": "en",
                "domain": "twitter.com",
                "path": "@nano"
            },
            "title": "George Coxon, Director at the #Nano Foundation, is speaking tomorrow at the University of East London @UEL_News tom\u2026",
            "published_at": "2023-07-04T13:44:01Z",
            "slug": "George-Coxon-Director-at-the-Nano-Foundation-is-speaking-tomorrow-at-the-University-of-East-London-UEL_News-tom",
            "currencies": [
                {
                    "code": "XNO",
                    "title": "Nano",
                    "slug": "nano",
                    "url": "https:\/\/cryptopanic.com\/news\/nano\/"
                }
            ],
            "id": 18717700,
            "url": "https:\/\/cryptopanic.com\/news\/18717700\/George-Coxon-Director-at-the-Nano-Foundation-is-speaking-tomorrow-at-the-University-of-East-London-UEL_News-tom",
            "created_at": "2023-07-04T13:44:01Z",
            "votes": {
                "negative": 0,
                "positive": 0,
                "important": 0,
                "liked": 0,
                "disliked": 0,
                "lol": 0,
                "toxic": 0,
                "saved": 0,
                "comments": 0
            }
        },
        {
            "kind": "news",
            "domain": "@nano",
            "source": {
                "title": "Nano Twitter",
                "region": "en",
                "domain": "twitter.com",
                "path": "@nano"
            },
            "title": "Check out this great article by The Bulletin Time covering the tech and benefits of #nano $XNO - fast and feeless\u2026",
            "published_at": "2023-07-04T11:55:01Z",
            "slug": "Check-out-this-great-article-by-The-Bulletin-Time-covering-the-tech-and-benefits-of-nano-XNO-fast-and-feeless",
            "currencies": [
                {
                    "code": "XNO",
                    "title": "Nano",
                    "slug": "nano",
                    "url": "https:\/\/cryptopanic.com\/news\/nano\/"
                }
            ],
            "id": 18717701,
            "url": "https:\/\/cryptopanic.com\/news\/18717701\/Check-out-this-great-article-by-The-Bulletin-Time-covering-the-tech-and-benefits-of-nano-XNO-fast-and-feeless",
            "created_at": "2023-07-04T11:55:01Z",
            "votes": {
                "negative": 0,
                "positive": 0,
                "important": 0,
                "liked": 0,
                "disliked": 0,
                "lol": 0,
                "toxic": 0,
                "saved": 0,
                "comments": 0
            }
        },
        {
            "kind": "news",
            "domain": "@nano",
            "source": {
                "title": "Nano Twitter",
                "region": "en",
                "domain": "twitter.com",
                "path": "@nano"
            },
            "title": "RT @NOWNodes: Yesterday we finished maintenance and our tech team achieved 34 times faster node response time for @nano! Even with high-loa\u2026",
            "published_at": "2023-07-04T09:39:03Z",
            "slug": "RT-NOWNodes-Yesterday-we-finished-maintenance-and-our-tech-team-achieved-34-times-faster-node-response-time-for-nano-Even-with-high-loa",
            "currencies": [
                {
                    "code": "XNO",
                    "title": "Nano",
                    "slug": "nano",
                    "url": "https:\/\/cryptopanic.com\/news\/nano\/"
                }
            ],
            "id": 18717702,
            "url": "https:\/\/cryptopanic.com\/news\/18717702\/RT-NOWNodes-Yesterday-we-finished-maintenance-and-our-tech-team-achieved-34-times-faster-node-response-time-for-nano-Even-with-high-loa",
            "created_at": "2023-07-04T09:39:03Z",
            "votes": {
                "negative": 0,
                "positive": 0,
                "important": 0,
                "liked": 0,
                "disliked": 0,
                "lol": 0,
                "toxic": 0,
                "saved": 0,
                "comments": 0
            }
        },
        {
            "kind": "news",
            "domain": "@nano",
            "source": {
                "title": "Nano Twitter",
                "region": "en",
                "domain": "twitter.com",
                "path": "@nano"
            },
            "title": "RT @swapswopio: Hey!\n\nParticipate and win the @nano #giveaway\n\nTo participate in the $XNO giveaway you must complete three conditions:\n1. F\u2026",
            "published_at": "2023-07-04T08:41:13Z",
            "slug": "RT-swapswopio-Hey-Participate-and-win-the-nano-giveaway-To-participate-in-the-XNO-giveaway-you-must-complete-three-conditions-1-F",
            "currencies": [
                {
                    "code": "XNO",
                    "title": "Nano",
                    "slug": "nano",
                    "url": "https:\/\/cryptopanic.com\/news\/nano\/"
                }
            ],
            "id": 18717703,
            "url": "https:\/\/cryptopanic.com\/news\/18717703\/RT-swapswopio-Hey-Participate-and-win-the-nano-giveaway-To-participate-in-the-XNO-giveaway-you-must-complete-three-conditions-1-F",
            "created_at": "2023-07-04T08:41:13Z",
            "votes": {
                "negative": 0,
                "positive": 0,
                "important": 0,
                "liked": 0,
                "disliked": 0,
                "lol": 0,
                "toxic": 0,
                "saved": 0,
                "comments": 0
            }
        },
        {
            "kind": "news",
            "domain": "@nano",
            "votes": {
                "negative": 0,
                "positive": 0,
                "important": 0,
                "liked": 1,
                "disliked": 0,
                "lol": 0,
                "toxic": 0,
                "saved": 0,
                "comments": 0
            },
            "source": {
                "title": "Nano Twitter",
                "region": "en",
                "domain": "twitter.com",
                "path": "@nano"
            },
            "title": "RT @stack_wallet: \ufe0fIt's never too late for a Monday episode drop!\n\nTune in to to catch a brand new conversation wi\u2026",
            "published_at": "2023-07-04T08:06:25Z",
            "slug": "RT-stack_wallet-Its-never-too-late-for-a-Monday-episode-drop-Tune-in-to-to-catch-a-brand-new-conversation-wi",
            "currencies": [
                {
                    "code": "XNO",
                    "title": "Nano",
                    "slug": "nano",
                    "url": "https:\/\/cryptopanic.com\/news\/nano\/"
                }
            ],
            "id": 18710588,
            "url": "https:\/\/cryptopanic.com\/news\/18710588\/RT-stack_wallet-Its-never-too-late-for-a-Monday-episode-drop-Tune-in-to-to-catch-a-brand-new-conversation-wi",
            "created_at": "2023-07-04T08:06:25Z"
        },
        {
            "kind": "news",
            "domain": "@nano",
            "votes": {
                "negative": 0,
                "positive": 0,
                "important": 0,
                "liked": 1,
                "disliked": 0,
                "lol": 0,
                "toxic": 0,
                "saved": 0,
                "comments": 0
            },
            "source": {
                "title": "Nano Twitter",
                "region": "en",
                "domain": "twitter.com",
                "path": "@nano"
            },
            "title": "The popular #nano app @WeNanoApp &amp; the additional @WenanoBusiness app for businesses got some updates that allow fo\u2026",
            "published_at": "2023-07-02T10:53:00Z",
            "slug": "The-popular-nano-app-WeNanoApp-amp-the-additional-WenanoBusiness-app-for-businesses-got-some-updates-that-allow-fo",
            "currencies": [
                {
                    "code": "XNO",
                    "title": "Nano",
                    "slug": "nano",
                    "url": "https:\/\/cryptopanic.com\/news\/nano\/"
                }
            ],
            "id": 18703787,
            "url": "https:\/\/cryptopanic.com\/news\/18703787\/The-popular-nano-app-WeNanoApp-amp-the-additional-WenanoBusiness-app-for-businesses-got-some-updates-that-allow-fo",
            "created_at": "2023-07-02T10:53:00Z"
        },
        {
            "kind": "news",
            "domain": "@nano",
            "votes": {
                "negative": 0,
                "positive": 0,
                "important": 0,
                "liked": 1,
                "disliked": 0,
                "lol": 0,
                "toxic": 0,
                "saved": 0,
                "comments": 0
            },
            "source": {
                "title": "Nano Twitter",
                "region": "en",
                "domain": "twitter.com",
                "path": "@nano"
            },
            "title": "Our ambassador in Uganda, Niwamanya Martin (@NiwamanyaMarti6) has been doing amazing work spreading awareness of\u2026",
            "published_at": "2023-06-30T15:25:06Z",
            "slug": "Our-ambassador-in-Uganda-Niwamanya-Martin-NiwamanyaMarti6-has-been-doing-amazing-work-spreading-awareness-of",
            "currencies": [
                {
                    "code": "XNO",
                    "title": "Nano",
                    "slug": "nano",
                    "url": "https:\/\/cryptopanic.com\/news\/nano\/"
                }
            ],
            "id": 18694832,
            "url": "https:\/\/cryptopanic.com\/news\/18694832\/Our-ambassador-in-Uganda-Niwamanya-Martin-NiwamanyaMarti6-has-been-doing-amazing-work-spreading-awareness-of",
            "created_at": "2023-06-30T15:25:06Z"
        },
        {
            "kind": "news",
            "domain": "@nano",
            "source": {
                "title": "Nano Twitter",
                "region": "en",
                "domain": "twitter.com",
                "path": "@nano"
            },
            "title": "RT @NiwamanyaMarti6: Amazing moments with Muni University students. Nano was the topic of the day .Having students as Nano foot soldiers wa\u2026",
            "published_at": "2023-06-29T20:00:15Z",
            "slug": "RT-NiwamanyaMarti6-Amazing-moments-with-Muni-University-students-Nano-was-the-topic-of-the-day-Having-students-as-Nano-foot-soldiers-wa",
            "currencies": [
                {
                    "code": "XNO",
                    "title": "Nano",
                    "slug": "nano",
                    "url": "https:\/\/cryptopanic.com\/news\/nano\/"
                }
            ],
            "id": 18687173,
            "url": "https:\/\/cryptopanic.com\/news\/18687173\/RT-NiwamanyaMarti6-Amazing-moments-with-Muni-University-students-Nano-was-the-topic-of-the-day-Having-students-as-Nano-foot-soldiers-wa",
            "created_at": "2023-06-29T20:00:15Z",
            "votes": {
                "negative": 0,
                "positive": 0,
                "important": 0,
                "liked": 0,
                "disliked": 0,
                "lol": 0,
                "toxic": 0,
                "saved": 0,
                "comments": 0
            }
        },
        {
            "kind": "news",
            "domain": "@nano",
            "source": {
                "title": "Nano Twitter",
                "region": "en",
                "domain": "twitter.com",
                "path": "@nano"
            },
            "title": "RT @WenanoBusiness: Fruity Pancakes is running a promotion! They are selling 10 Comeon for 0.2 $Nano each, and they are located in Tiller,\u2026",
            "published_at": "2023-06-29T16:02:41Z",
            "slug": "RT-WenanoBusiness-Fruity-Pancakes-is-running-a-promotion-They-are-selling-10-Comeon-for-02-Nano-each-and-they-are-located-in-Tiller",
            "currencies": [
                {
                    "code": "XNO",
                    "title": "Nano",
                    "slug": "nano",
                    "url": "https:\/\/cryptopanic.com\/news\/nano\/"
                }
            ],
            "id": 18687174,
            "url": "https:\/\/cryptopanic.com\/news\/18687174\/RT-WenanoBusiness-Fruity-Pancakes-is-running-a-promotion-They-are-selling-10-Comeon-for-02-Nano-each-and-they-are-located-in-Tiller",
            "created_at": "2023-06-29T16:02:41Z",
            "votes": {
                "negative": 0,
                "positive": 0,
                "important": 0,
                "liked": 0,
                "disliked": 0,
                "lol": 0,
                "toxic": 0,
                "saved": 0,
                "comments": 0
            }
        }
    ]
}
