{
    "count": 200,
    "next": "https:\/\/cryptopanic.com\/api\/v1\/posts\/?auth_token=01c356e89ffc1b8eba2127c81fc8c66ee0eace75&kind=news&currencies=HFT&page=2",
    "previous": null,
    "results": [
        {
            "kind": "news",
            "domain": "@hashflow",
            "source": {
                "title": "Hashflow Twitter",
                "region": "en",
                "domain": "twitter.com",
                "path": "@hashflow"
            },
            "title": "Episode 2\ufe0f\u20e31\ufe0f\u20e3 of Basic Degenomics is this Thursday at 12pm ET!\n\nGiga Chad @Dynamo_Patrick will be stopping by to s\u2026",
            "published_at": "2023-07-11T16:59:57Z",
            "slug": "Episode-21-of-Basic-Degenomics-is-this-Thursday-at-12pm-ET-Giga-Chad-Dynamo_Patrick-will-be-stopping-by-to-s",
            "currencies": [
                {
                    "code": "HFT",
                    "title": "Hashflow",
                    "slug": "hashflow",
                    "url": "https:\/\/cryptopanic.com\/news\/hashflow\/"
                }
            ],
            "id": 18764739,
            "url": "https:\/\/cryptopanic.com\/news\/18764739\/Episode-21-of-Basic-Degenomics-is-this-Thursday-at-12pm-ET-Giga-Chad-Dynamo_Patrick-will-be-stopping-by-to-s",
            "created_at": "2023-07-11T16:59:57Z",
            "votes": {
                "negative": 0,
                "positive": 0,
                "important": 0,
                "liked": 0,
                "disliked": 0,
                "lol": 0,
                "toxic": 0,
                "saved": 0,
                "comments": 0
            }
        },
        {
            "kind": "news",
            "domain": "@hashflow",
            "source": {
                "title": "Hashflow Twitter",
                "region": "en",
                "domain": "twitter.com",
                "path": "@hashflow"
            },
            "title": "Gm frens! They made an upgrade. \n\ud83e\udd0d",
            "published_at": "2023-07-11T13:47:36Z",
            "slug": "Gm-frens-They-made-an-upgrade",
            "currencies": [
                {
                    "code": "HFT",
                    "title": "Hashflow",
                    "slug": "hashflow",
                    "url": "https:\/\/cryptopanic.com\/news\/hashflow\/"
                }
            ],
            "id": 18764740,
            "url": "https:\/\/cryptopanic.com\/news\/18764740\/Gm-frens-They-made-an-upgrade",
            "created_at": "2023-07-11T13:47:36Z",
            "votes": {
                "negative": 0,
                "positive": 0,
                "important": 0,
                "liked": 0,
                "disliked": 0,
                "lol": 0,
                "toxic": 0,
                "saved": 0,
                "comments": 0
            }
        },
        {
            "kind": "news",
            "domain": "@hashflow",
            "source": {
                "title": "Hashflow Twitter",
                "region": "en",
                "domain": "twitter.com",
                "path": "@hashflow"
            },
            "title": "\u201cSlippage is not real!\u201d \u200d\ufe0f",
            "published_at": "2023-07-10T21:14:35Z",
            "slug": "Slippage-is-not-real",
            "currencies": [
                {
                    "code": "HFT",
                    "title": "Hashflow",
                    "slug": "hashflow",
                    "url": "https:\/\/cryptopanic.com\/news\/hashflow\/"
                }
            ],
            "id": 18756589,
            "url": "https:\/\/cryptopanic.com\/news\/18756589\/Slippage-is-not-real",
            "created_at": "2023-07-10T21:14:35Z",
            "votes": {
                "negative": 0,
                "positive": 0,
                "important": 0,
                "liked": 0,
                "disliked": 0,
                "lol": 0,
                "toxic": 0,
                "saved": 0,
                "comments": 0
            }
        },
        {
            "kind": "news",
            "domain": "@hashflow",
            "source": {
                "title": "Hashflow Twitter",
                "region": "en",
                "domain": "twitter.com",
                "path": "@hashflow"
            },
            "title": "\"Volume update incoming\u201d \ufe0f\n\n3\u20262\u20261\u2026\n\n\ud83e\udd47@ethereum\n\ud83e\udd48@arbitrum\n\ud83e\udd49@BNBCHAIN\n\nAlmost $100m anon\u2026rain or shine, traders gon\u2026",
            "published_at": "2023-07-10T20:30:33Z",
            "slug": "Volume-update-incoming-321-ethereum-arbitrum-BNBCHAIN-Almost-100m-anonrain-or-shine-traders-gon",
            "currencies": [
                {
                    "code": "HFT",
                    "title": "Hashflow",
                    "slug": "hashflow",
                    "url": "https:\/\/cryptopanic.com\/news\/hashflow\/"
                }
            ],
            "id": 18756590,
            "url": "https:\/\/cryptopanic.com\/news\/18756590\/Volume-update-incoming-321-ethereum-arbitrum-BNBCHAIN-Almost-100m-anonrain-or-shine-traders-gon",
            "created_at": "2023-07-10T20:30:33Z",
            "votes": {
                "negative": 0,
                "positive": 0,
                "important": 0,
                "liked": 0,
                "disliked": 0,
                "lol": 0,
                "toxic": 0,
                "saved": 0,
                "comments": 0
            }
        },
        {
            "kind": "news",
            "domain": "@hashflow",
            "source": {
                "title": "Hashflow Twitter",
                "region": "en",
                "domain": "twitter.com",
                "path": "@hashflow"
            },
            "title": "Gm! There's trades to be made...who's ready? \u2328\ufe0f\ud83e\udd0d",
            "published_at": "2023-07-10T14:19:54Z",
            "slug": "Gm-Theres-trades-to-be-madewhos-ready",
            "currencies": [
                {
                    "code": "HFT",
                    "title": "Hashflow",
                    "slug": "hashflow",
                    "url": "https:\/\/cryptopanic.com\/news\/hashflow\/"
                }
            ],
            "id": 18756591,
            "url": "https:\/\/cryptopanic.com\/news\/18756591\/Gm-Theres-trades-to-be-madewhos-ready",
            "created_at": "2023-07-10T14:19:54Z",
            "votes": {
                "negative": 0,
                "positive": 0,
                "important": 0,
                "liked": 0,
                "disliked": 0,
                "lol": 0,
                "toxic": 0,
                "saved": 0,
                "comments": 0
            }
        },
        {
            "kind": "news",
            "domain": "@hashflow",
            "source": {
                "title": "Hashflow Twitter",
                "region": "en",
                "domain": "twitter.com",
                "path": "@hashflow"
            },
            "title": "\"What are crypto whales like?\u201d\n\nCrypto whales",
            "published_at": "2023-07-09T16:29:49Z",
            "slug": "What-are-crypto-whales-like-Crypto-whales",
            "currencies": [
                {
                    "code": "HFT",
                    "title": "Hashflow",
                    "slug": "hashflow",
                    "url": "https:\/\/cryptopanic.com\/news\/hashflow\/"
                }
            ],
            "id": 18749973,
            "url": "https:\/\/cryptopanic.com\/news\/18749973\/What-are-crypto-whales-like-Crypto-whales",
            "created_at": "2023-07-09T16:29:49Z",
            "votes": {
                "negative": 0,
                "positive": 0,
                "important": 0,
                "liked": 0,
                "disliked": 0,
                "lol": 0,
                "toxic": 0,
                "saved": 0,
                "comments": 0
            }
        },
        {
            "kind": "news",
            "domain": "@hashflow",
            "source": {
                "title": "Hashflow Twitter",
                "region": "en",
                "domain": "twitter.com",
                "path": "@hashflow"
            },
            "title": "Gm \ufe0f\ud83e\udd0d\n\nEveryday is a great day to be a degen.",
            "published_at": "2023-07-08T14:01:59Z",
            "slug": "Gm-Everyday-is-a-great-day-to-be-a-degen",
            "currencies": [
                {
                    "code": "HFT",
                    "title": "Hashflow",
                    "slug": "hashflow",
                    "url": "https:\/\/cryptopanic.com\/news\/hashflow\/"
                }
            ],
            "id": 18745751,
            "url": "https:\/\/cryptopanic.com\/news\/18745751\/Gm-Everyday-is-a-great-day-to-be-a-degen",
            "created_at": "2023-07-08T14:01:59Z",
            "votes": {
                "negative": 0,
                "positive": 0,
                "important": 0,
                "liked": 0,
                "disliked": 0,
                "lol": 0,
                "toxic": 0,
                "saved": 0,
                "comments": 0
            }
        },
        {
            "kind": "news",
            "domain": "@hashflow",
            "source": {
                "title": "Hashflow Twitter",
                "region": "en",
                "domain": "twitter.com",
                "path": "@hashflow"
            },
            "title": "\u201cWhat are bull markets like?\u201d  \ud83e\udd0d\n\nBull markets",
            "published_at": "2023-07-07T19:09:27Z",
            "slug": "What-are-bull-markets-like-Bull-markets",
            "currencies": [
                {
                    "code": "HFT",
                    "title": "Hashflow",
                    "slug": "hashflow",
                    "url": "https:\/\/cryptopanic.com\/news\/hashflow\/"
                }
            ],
            "id": 18740485,
            "url": "https:\/\/cryptopanic.com\/news\/18740485\/What-are-bull-markets-like-Bull-markets",
            "created_at": "2023-07-07T19:09:27Z",
            "votes": {
                "negative": 0,
                "positive": 0,
                "important": 0,
                "liked": 0,
                "disliked": 0,
                "lol": 0,
                "toxic": 0,
                "saved": 0,
                "comments": 0
            }
        },
        {
            "kind": "news",
            "domain": "@hashflow",
            "source": {
                "title": "Hashflow Twitter",
                "region": "en",
                "domain": "twitter.com",
                "path": "@hashflow"
            },
            "title": "Another Hashbeats coming in hotttt \ufe0f\n\n- Trade Volume\u2019s Boomin\u2019  \n- More Liquidity On It\u2019s Way!  \n- Governance Up\u2026",
            "published_at": "2023-07-07T17:17:37Z",
            "slug": "Another-Hashbeats-coming-in-hotttt-Trade-Volumes-Boomin-More-Liquidity-On-Its-Way-Governance-Up",
            "currencies": [
                {
                    "code": "HFT",
                    "title": "Hashflow",
                    "slug": "hashflow",
                    "url": "https:\/\/cryptopanic.com\/news\/hashflow\/"
                }
            ],
            "id": 18740486,
            "url": "https:\/\/cryptopanic.com\/news\/18740486\/Another-Hashbeats-coming-in-hotttt-Trade-Volumes-Boomin-More-Liquidity-On-Its-Way-Governance-Up",
            "created_at": "2023-07-07T17:17:37Z",
            "votes": {
                "negative": 0,
                "positive": 0,
                "important": 0,
                "liked": 0,
                "disliked": 0,
                "lol": 0,
                "toxic": 0,
                "saved": 0,
                "comments": 0
            }
        },
        {
            "kind": "news",
            "domain": "@hashflow",
            "source": {
                "title": "Hashflow Twitter",
                "region": "en",
                "domain": "twitter.com",
                "path": "@hashflow"
            },
            "title": "Frens, we will be joining @therollupco's mega-space to celebrate their 100th podcast \n\nSet a reminder:\u2026",
            "published_at": "2023-07-06T15:54:31Z",
            "slug": "Frens-we-will-be-joining-therollupcos-mega-space-to-celebrate-their-100th-podcast-Set-a-reminder",
            "currencies": [
                {
                    "code": "HFT",
                    "title": "Hashflow",
                    "slug": "hashflow",
                    "url": "https:\/\/cryptopanic.com\/news\/hashflow\/"
                }
            ],
            "id": 18732878,
            "url": "https:\/\/cryptopanic.com\/news\/18732878\/Frens-we-will-be-joining-therollupcos-mega-space-to-celebrate-their-100th-podcast-Set-a-reminder",
            "created_at": "2023-07-06T15:54:31Z",
            "votes": {
                "negative": 0,
                "positive": 0,
                "important": 0,
                "liked": 0,
                "disliked": 0,
                "lol": 0,
                "toxic": 0,
                "saved": 0,
                "comments": 0
            }
        },
        {
            "kind": "news",
            "domain": "@hashflow",
            "source": {
                "title": "Hashflow Twitter",
                "region": "en",
                "domain": "twitter.com",
                "path": "@hashflow"
            },
            "title": "Hello frens!\n\nDue to an unexpected emergency, this week\u2019s episode of Basic Degenomics with @yo is canceled :(\n\nDefi\u2026",
            "published_at": "2023-07-06T14:42:26Z",
            "slug": "Hello-frens-Due-to-an-unexpected-emergency-this-weeks-episode-of-Basic-Degenomics-with-yo-is-canceled-Defi",
            "currencies": [
                {
                    "code": "HFT",
                    "title": "Hashflow",
                    "slug": "hashflow",
                    "url": "https:\/\/cryptopanic.com\/news\/hashflow\/"
                }
            ],
            "id": 18732879,
            "url": "https:\/\/cryptopanic.com\/news\/18732879\/Hello-frens-Due-to-an-unexpected-emergency-this-weeks-episode-of-Basic-Degenomics-with-yo-is-canceled-Defi",
            "created_at": "2023-07-06T14:42:26Z",
            "votes": {
                "negative": 0,
                "positive": 0,
                "important": 0,
                "liked": 0,
                "disliked": 0,
                "lol": 0,
                "toxic": 0,
                "saved": 0,
                "comments": 0
            }
        },
        {
            "kind": "news",
            "domain": "@hashflow",
            "source": {
                "title": "Hashflow Twitter",
                "region": "en",
                "domain": "twitter.com",
                "path": "@hashflow"
            },
            "title": "Another gm coming in hot!\n\nEnjoy your day anon \ud83e\ude82\ud83e\udd0d",
            "published_at": "2023-07-06T13:15:08Z",
            "slug": "Another-gm-coming-in-hot-Enjoy-your-day-anon",
            "currencies": [
                {
                    "code": "HFT",
                    "title": "Hashflow",
                    "slug": "hashflow",
                    "url": "https:\/\/cryptopanic.com\/news\/hashflow\/"
                }
            ],
            "id": 18732880,
            "url": "https:\/\/cryptopanic.com\/news\/18732880\/Another-gm-coming-in-hot-Enjoy-your-day-anon",
            "created_at": "2023-07-06T13:15:08Z",
            "votes": {
                "negative": 0,
                "positive": 0,
                "important": 0,
                "liked": 0,
                "disliked": 0,
                "lol": 0,
                "toxic": 0,
                "saved": 0,
                "comments": 0
            }
        },
        {
            "kind": "news",
            "domain": "@hashflow",
            "source": {
                "title": "Hashflow Twitter",
                "region": "en",
                "domain": "twitter.com",
                "path": "@hashflow"
            },
            "title": "Episode 2\ufe0f\u20e3 1\ufe0f\u20e3 of Basic Degenomics is this Thursday at 2pm ET! \n\nWe're having a convo with the one and only @yo \u2026",
            "published_at": "2023-07-05T17:45:44Z",
            "slug": "Episode-2-1-of-Basic-Degenomics-is-this-Thursday-at-2pm-ET-Were-having-a-convo-with-the-one-and-only-yo",
            "currencies": [
                {
                    "code": "HFT",
                    "title": "Hashflow",
                    "slug": "hashflow",
                    "url": "https:\/\/cryptopanic.com\/news\/hashflow\/"
                }
            ],
            "id": 18724417,
            "url": "https:\/\/cryptopanic.com\/news\/18724417\/Episode-2-1-of-Basic-Degenomics-is-this-Thursday-at-2pm-ET-Were-having-a-convo-with-the-one-and-only-yo",
            "created_at": "2023-07-05T17:45:44Z",
            "votes": {
                "negative": 0,
                "positive": 0,
                "important": 0,
                "liked": 0,
                "disliked": 0,
                "lol": 0,
                "toxic": 0,
                "saved": 0,
                "comments": 0
            }
        },
        {
            "kind": "news",
            "domain": "@hashflow",
            "source": {
                "title": "Hashflow Twitter",
                "region": "en",
                "domain": "twitter.com",
                "path": "@hashflow"
            },
            "title": "Hashflow squashes MEV bots like little bugs.\n\nYou can run...but you can't hide \n\ud83e\udeb0\ud83e\udd0d",
            "published_at": "2023-07-05T13:00:26Z",
            "slug": "Hashflow-squashes-MEV-bots-like-little-bugs-You-can-runbut-you-cant-hide",
            "currencies": [
                {
                    "code": "HFT",
                    "title": "Hashflow",
                    "slug": "hashflow",
                    "url": "https:\/\/cryptopanic.com\/news\/hashflow\/"
                }
            ],
            "id": 18724418,
            "url": "https:\/\/cryptopanic.com\/news\/18724418\/Hashflow-squashes-MEV-bots-like-little-bugs-You-can-runbut-you-cant-hide",
            "created_at": "2023-07-05T13:00:26Z",
            "votes": {
                "negative": 0,
                "positive": 0,
                "important": 0,
                "liked": 0,
                "disliked": 0,
                "lol": 0,
                "toxic": 0,
                "saved": 0,
                "comments": 0
            }
        },
        {
            "kind": "news",
            "domain": "@hashflow",
            "source": {
                "title": "Hashflow Twitter",
                "region": "en",
                "domain": "twitter.com",
                "path": "@hashflow"
            },
            "title": "Today we celebrate Independence Day!\n\ud83c\uddfa\ud83c\uddf8\ud83e\udd0d\n\nBut DW tradooors, Crypto. Never. Sleeps. \u200d\ufe0f ",
            "published_at": "2023-07-04T13:20:06Z",
            "slug": "Today-we-celebrate-Independence-Day-But-DW-tradooors-Crypto-Never-Sleeps",
            "currencies": [
                {
                    "code": "HFT",
                    "title": "Hashflow",
                    "slug": "hashflow",
                    "url": "https:\/\/cryptopanic.com\/news\/hashflow\/"
                }
            ],
            "id": 18716603,
            "url": "https:\/\/cryptopanic.com\/news\/18716603\/Today-we-celebrate-Independence-Day-But-DW-tradooors-Crypto-Never-Sleeps",
            "created_at": "2023-07-04T13:20:06Z",
            "votes": {
                "negative": 0,
                "positive": 0,
                "important": 0,
                "liked": 0,
                "disliked": 0,
                "lol": 0,
                "toxic": 0,
                "saved": 0,
                "comments": 0
            }
        },
        {
            "kind": "news",
            "domain": "@hashflow",
            "source": {
                "title": "Hashflow Twitter",
                "region": "en",
                "domain": "twitter.com",
                "path": "@hashflow"
            },
            "title": "Bear market where? This week\u2019s volume was boomin\u2019 \ud83e\udd0d\n\n\ud83e\udd47@ethereum\n\ud83e\udd48@arbitrum\n\ud83e\udd49@BNBCHAIN\n\nOur BNB frens have locked\u2026",
            "published_at": "2023-07-03T18:00:13Z",
            "slug": "Bear-market-where-This-weeks-volume-was-boomin-ethereum-arbitrum-BNBCHAIN-Our-BNB-frens-have-locked",
            "currencies": [
                {
                    "code": "HFT",
                    "title": "Hashflow",
                    "slug": "hashflow",
                    "url": "https:\/\/cryptopanic.com\/news\/hashflow\/"
                }
            ],
            "id": 18709403,
            "url": "https:\/\/cryptopanic.com\/news\/18709403\/Bear-market-where-This-weeks-volume-was-boomin-ethereum-arbitrum-BNBCHAIN-Our-BNB-frens-have-locked",
            "created_at": "2023-07-03T18:00:13Z",
            "votes": {
                "negative": 0,
                "positive": 0,
                "important": 0,
                "liked": 0,
                "disliked": 0,
                "lol": 0,
                "toxic": 0,
                "saved": 0,
                "comments": 0
            }
        },
        {
            "kind": "news",
            "domain": "@hashflow",
            "source": {
                "title": "Hashflow Twitter",
                "region": "en",
                "domain": "twitter.com",
                "path": "@hashflow"
            },
            "title": "G to the M hashgang! \nLet's get this Hotboi summer's started \ud83e\udd0d",
            "published_at": "2023-07-03T13:15:30Z",
            "slug": "G-to-the-M-hashgang-Lets-get-this-Hotboi-summers-started",
            "currencies": [
                {
                    "code": "HFT",
                    "title": "Hashflow",
                    "slug": "hashflow",
                    "url": "https:\/\/cryptopanic.com\/news\/hashflow\/"
                }
            ],
            "id": 18709404,
            "url": "https:\/\/cryptopanic.com\/news\/18709404\/G-to-the-M-hashgang-Lets-get-this-Hotboi-summers-started",
            "created_at": "2023-07-03T13:15:30Z",
            "votes": {
                "negative": 0,
                "positive": 0,
                "important": 0,
                "liked": 0,
                "disliked": 0,
                "lol": 0,
                "toxic": 0,
                "saved": 0,
                "comments": 0
            }
        },
        {
            "kind": "news",
            "domain": "@hashflow",
            "source": {
                "title": "Hashflow Twitter",
                "region": "en",
                "domain": "twitter.com",
                "path": "@hashflow"
            },
            "title": "Gm \ud83e\udd0d\n\nIf your fren dresses like this, they\u2019re probably a crypto whale",
            "published_at": "2023-07-02T13:37:05Z",
            "slug": "Gm-If-your-fren-dresses-like-this-theyre-probably-a-crypto-whale",
            "currencies": [
                {
                    "code": "HFT",
                    "title": "Hashflow",
                    "slug": "hashflow",
                    "url": "https:\/\/cryptopanic.com\/news\/hashflow\/"
                }
            ],
            "id": 18703015,
            "url": "https:\/\/cryptopanic.com\/news\/18703015\/Gm-If-your-fren-dresses-like-this-theyre-probably-a-crypto-whale",
            "created_at": "2023-07-02T13:37:05Z",
            "votes": {
                "negative": 0,
                "positive": 0,
                "important": 0,
                "liked": 0,
                "disliked": 0,
                "lol": 0,
                "toxic": 0,
                "saved": 0,
                "comments": 0
            }
        },
        {
            "kind": "news",
            "domain": "@hashflow",
            "source": {
                "title": "Hashflow Twitter",
                "region": "en",
                "domain": "twitter.com",
                "path": "@hashflow"
            },
            "title": "What  A  Week \n\nS\/o to everyone we met at #IVS2023!\n\nSome amazing memories were created with our meetup co-hosts\u2026",
            "published_at": "2023-06-30T20:14:16Z",
            "slug": "What-A-Week-So-to-everyone-we-met-at-IVS2023-Some-amazing-memories-were-created-with-our-meetup-co-hosts",
            "currencies": [
                {
                    "code": "HFT",
                    "title": "Hashflow",
                    "slug": "hashflow",
                    "url": "https:\/\/cryptopanic.com\/news\/hashflow\/"
                }
            ],
            "id": 18693802,
            "url": "https:\/\/cryptopanic.com\/news\/18693802\/What-A-Week-So-to-everyone-we-met-at-IVS2023-Some-amazing-memories-were-created-with-our-meetup-co-hosts",
            "created_at": "2023-06-30T20:14:16Z",
            "votes": {
                "negative": 0,
                "positive": 0,
                "important": 0,
                "liked": 0,
                "disliked": 0,
                "lol": 0,
                "toxic": 0,
                "saved": 0,
                "comments": 0
            }
        },
        {
            "kind": "news",
            "domain": "@hashflow",
            "source": {
                "title": "Hashflow Twitter",
                "region": "en",
                "domain": "twitter.com",
                "path": "@hashflow"
            },
            "title": "The future is multi-chain frens...so your go-to DEX should be too! \ufe0f \ud83e\udd0d",
            "published_at": "2023-06-30T18:00:19Z",
            "slug": "The-future-is-multi-chain-frensso-your-go-to-DEX-should-be-too",
            "currencies": [
                {
                    "code": "HFT",
                    "title": "Hashflow",
                    "slug": "hashflow",
                    "url": "https:\/\/cryptopanic.com\/news\/hashflow\/"
                }
            ],
            "id": 18693803,
            "url": "https:\/\/cryptopanic.com\/news\/18693803\/The-future-is-multi-chain-frensso-your-go-to-DEX-should-be-too",
            "created_at": "2023-06-30T18:00:19Z",
            "votes": {
                "negative": 0,
                "positive": 0,
                "important": 0,
                "liked": 0,
                "disliked": 0,
                "lol": 0,
                "toxic": 0,
                "saved": 0,
                "comments": 0
            }
        }
    ]
}
