{
    "count": 200,
    "next": "https:\/\/cryptopanic.com\/api\/v1\/posts\/?auth_token=01c356e89ffc1b8eba2127c81fc8c66ee0eace75&kind=news&currencies=TOMO&page=2",
    "previous": null,
    "results": [
        {
            "kind": "news",
            "domain": "r\/Tomochain",
            "source": {
                "title": "TomoChain Reddit",
                "region": "en",
                "domain": "reddit.com",
                "path": "r\/tomochain"
            },
            "title": "Did I just fuck up?",
            "published_at": "2021-05-14T18:02:48.765560Z",
            "slug": "Did-I-just-fuck-up",
            "currencies": [
                {
                    "code": "TOMO",
                    "title": "TomoChain",
                    "slug": "tomochain",
                    "url": "https:\/\/cryptopanic.com\/news\/tomochain\/"
                }
            ],
            "id": 11935115,
            "url": "https:\/\/cryptopanic.com\/news\/11935115\/Did-I-just-fuck-up",
            "created_at": "2021-05-14T18:02:48.765560Z",
            "votes": {
                "negative": 0,
                "positive": 0,
                "important": 0,
                "liked": 0,
                "disliked": 0,
                "lol": 0,
                "toxic": 0,
                "saved": 0,
                "comments": 0
            }
        },
        {
            "kind": "news",
            "domain": "r\/Tomochain",
            "source": {
                "title": "TomoChain Reddit",
                "region": "en",
                "domain": "reddit.com",
                "path": "r\/tomochain"
            },
            "title": "Tomo vs ETH vs BinanceSmartChain TPS.",
            "published_at": "2021-05-10T19:02:48.514497Z",
            "slug": "Tomo-vs-ETH-vs-BinanceSmartChain-TPS",
            "currencies": [
                {
                    "code": "TOMO",
                    "title": "TomoChain",
                    "slug": "tomochain",
                    "url": "https:\/\/cryptopanic.com\/news\/tomochain\/"
                }
            ],
            "id": 11906780,
            "url": "https:\/\/cryptopanic.com\/news\/11906780\/Tomo-vs-ETH-vs-BinanceSmartChain-TPS",
            "created_at": "2021-05-10T19:02:48.514497Z",
            "votes": {
                "negative": 0,
                "positive": 0,
                "important": 0,
                "liked": 0,
                "disliked": 0,
                "lol": 0,
                "toxic": 0,
                "saved": 0,
                "comments": 0
            }
        },
        {
            "kind": "news",
            "domain": "r\/Tomochain",
            "source": {
                "title": "TomoChain Reddit",
                "region": "en",
                "domain": "reddit.com",
                "path": "r\/tomochain"
            },
            "title": "Leverage GAINS with TAI",
            "published_at": "2021-05-08T00:02:46.198188Z",
            "slug": "Leverage-GAINS-with-TAI",
            "currencies": [
                {
                    "code": "TOMO",
                    "title": "TomoChain",
                    "slug": "tomochain",
                    "url": "https:\/\/cryptopanic.com\/news\/tomochain\/"
                }
            ],
            "id": 11891362,
            "url": "https:\/\/cryptopanic.com\/news\/11891362\/Leverage-GAINS-with-TAI",
            "created_at": "2021-05-08T00:02:46.198188Z",
            "votes": {
                "negative": 0,
                "positive": 0,
                "important": 0,
                "liked": 0,
                "disliked": 0,
                "lol": 0,
                "toxic": 0,
                "saved": 0,
                "comments": 0
            }
        },
        {
            "kind": "news",
            "domain": "r\/Tomochain",
            "source": {
                "title": "TomoChain Reddit",
                "region": "en",
                "domain": "reddit.com",
                "path": "r\/tomochain"
            },
            "title": "Add to your calendar TomoChain (TOMO) event: Tomomaster DAO - September 1, 2021",
            "published_at": "2021-05-03T17:09:50Z",
            "slug": "Add-to-your-calendar-TomoChain-TOMO-event-Tomomaster-DAO-September-1-2021",
            "currencies": [
                {
                    "code": "TOMO",
                    "title": "TomoChain",
                    "slug": "tomochain",
                    "url": "https:\/\/cryptopanic.com\/news\/tomochain\/"
                }
            ],
            "id": 11866149,
            "url": "https:\/\/cryptopanic.com\/news\/11866149\/Add-to-your-calendar-TomoChain-TOMO-event-Tomomaster-DAO-September-1-2021",
            "created_at": "2021-05-03T17:09:50Z",
            "votes": {
                "negative": 0,
                "positive": 0,
                "important": 0,
                "liked": 0,
                "disliked": 0,
                "lol": 0,
                "toxic": 0,
                "saved": 0,
                "comments": 0
            }
        },
        {
            "kind": "news",
            "domain": "r\/Tomochain",
            "source": {
                "title": "TomoChain Reddit",
                "region": "en",
                "domain": "reddit.com",
                "path": "r\/tomochain"
            },
            "title": "Cant believe Tomo isnt performing like the rest. Where is the problem? Marketing? What do you think?",
            "published_at": "2021-05-01T11:48:38Z",
            "slug": "Cant-believe-Tomo-isnt-performing-like-the-rest-Where-is-the-problem-Marketing-What-do-you-think",
            "currencies": [
                {
                    "code": "TOMO",
                    "title": "TomoChain",
                    "slug": "tomochain",
                    "url": "https:\/\/cryptopanic.com\/news\/tomochain\/"
                }
            ],
            "id": 11857362,
            "url": "https:\/\/cryptopanic.com\/news\/11857362\/Cant-believe-Tomo-isnt-performing-like-the-rest-Where-is-the-problem-Marketing-What-do-you-think",
            "created_at": "2021-05-01T11:48:38Z",
            "votes": {
                "negative": 0,
                "positive": 0,
                "important": 0,
                "liked": 0,
                "disliked": 0,
                "lol": 0,
                "toxic": 0,
                "saved": 0,
                "comments": 0
            }
        },
        {
            "kind": "news",
            "domain": "r\/Tomochain",
            "source": {
                "title": "TomoChain Reddit",
                "region": "en",
                "domain": "reddit.com",
                "path": "r\/tomochain"
            },
            "title": "How open is Tomochain to integrating other blockchains?",
            "published_at": "2021-04-21T10:02:42.047856Z",
            "slug": "How-open-is-Tomochain-to-integrating-other-blockchains",
            "currencies": [
                {
                    "code": "TOMO",
                    "title": "TomoChain",
                    "slug": "tomochain",
                    "url": "https:\/\/cryptopanic.com\/news\/tomochain\/"
                }
            ],
            "id": 11801878,
            "url": "https:\/\/cryptopanic.com\/news\/11801878\/How-open-is-Tomochain-to-integrating-other-blockchains",
            "created_at": "2021-04-21T10:02:42.047856Z",
            "votes": {
                "negative": 0,
                "positive": 0,
                "important": 0,
                "liked": 0,
                "disliked": 0,
                "lol": 0,
                "toxic": 0,
                "saved": 0,
                "comments": 0
            }
        },
        {
            "kind": "news",
            "domain": "r\/Tomochain",
            "source": {
                "title": "TomoChain Reddit",
                "region": "en",
                "domain": "reddit.com",
                "path": "r\/tomochain"
            },
            "title": "tomochain.io is dropping thousands of BEP-20 TOMO into BSC accounts",
            "published_at": "2021-04-16T05:27:10Z",
            "slug": "tomochainio-is-dropping-thousands-of-BEP-20-TOMO-into-BSC-accounts",
            "currencies": [
                {
                    "code": "TOMO",
                    "title": "TomoChain",
                    "slug": "tomochain",
                    "url": "https:\/\/cryptopanic.com\/news\/tomochain\/"
                }
            ],
            "id": 11825636,
            "url": "https:\/\/cryptopanic.com\/news\/11825636\/tomochainio-is-dropping-thousands-of-BEP-20-TOMO-into-BSC-accounts",
            "created_at": "2021-04-16T05:27:10Z",
            "votes": {
                "negative": 0,
                "positive": 0,
                "important": 0,
                "liked": 0,
                "disliked": 0,
                "lol": 0,
                "toxic": 0,
                "saved": 0,
                "comments": 0
            }
        },
        {
            "kind": "news",
            "domain": "r\/Tomochain",
            "source": {
                "title": "TomoChain Reddit",
                "region": "en",
                "domain": "reddit.com",
                "path": "r\/tomochain"
            },
            "title": "TOMO received in MetaMask wallet. What do I do?!!?",
            "published_at": "2021-04-14T03:14:00Z",
            "slug": "TOMO-received-in-MetaMask-wallet-What-do-I-do",
            "currencies": [
                {
                    "code": "TOMO",
                    "title": "TomoChain",
                    "slug": "tomochain",
                    "url": "https:\/\/cryptopanic.com\/news\/tomochain\/"
                }
            ],
            "id": 11766776,
            "url": "https:\/\/cryptopanic.com\/news\/11766776\/TOMO-received-in-MetaMask-wallet-What-do-I-do",
            "created_at": "2021-04-14T03:14:00Z",
            "votes": {
                "negative": 0,
                "positive": 0,
                "important": 0,
                "liked": 0,
                "disliked": 0,
                "lol": 0,
                "toxic": 0,
                "saved": 0,
                "comments": 0
            }
        },
        {
            "kind": "news",
            "domain": "r\/Tomochain",
            "source": {
                "title": "TomoChain Reddit",
                "region": "en",
                "domain": "reddit.com",
                "path": "r\/tomochain"
            },
            "title": "TOMO sent to KuCoin did not arrive",
            "published_at": "2021-04-13T15:21:15Z",
            "slug": "TOMO-sent-to-KuCoin-did-not-arrive",
            "currencies": [
                {
                    "code": "TOMO",
                    "title": "TomoChain",
                    "slug": "tomochain",
                    "url": "https:\/\/cryptopanic.com\/news\/tomochain\/"
                }
            ],
            "id": 11762501,
            "url": "https:\/\/cryptopanic.com\/news\/11762501\/TOMO-sent-to-KuCoin-did-not-arrive",
            "created_at": "2021-04-13T15:21:15Z",
            "votes": {
                "negative": 0,
                "positive": 0,
                "important": 0,
                "liked": 0,
                "disliked": 0,
                "lol": 0,
                "toxic": 0,
                "saved": 0,
                "comments": 0
            }
        },
        {
            "kind": "news",
            "domain": "r\/Tomochain",
            "votes": {
                "negative": 1,
                "positive": 0,
                "important": 0,
                "liked": 0,
                "disliked": 0,
                "lol": 0,
                "toxic": 0,
                "saved": 0,
                "comments": 0
            },
            "source": {
                "title": "TomoChain Reddit",
                "region": "en",
                "domain": "reddit.com",
                "path": "r\/tomochain"
            },
            "title": "Why TomoChain Twitter and Medium accounts are banned?",
            "published_at": "2021-03-30T09:45:13Z",
            "slug": "Why-TomoChain-Twitter-and-Medium-accounts-are-banned",
            "currencies": [
                {
                    "code": "TOMO",
                    "title": "TomoChain",
                    "slug": "tomochain",
                    "url": "https:\/\/cryptopanic.com\/news\/tomochain\/"
                }
            ],
            "id": 11702438,
            "url": "https:\/\/cryptopanic.com\/news\/11702438\/Why-TomoChain-Twitter-and-Medium-accounts-are-banned",
            "created_at": "2021-03-30T09:45:13Z"
        },
        {
            "kind": "news",
            "domain": "r\/Tomochain",
            "source": {
                "title": "TomoChain Reddit",
                "region": "en",
                "domain": "reddit.com",
                "path": "r\/tomochain"
            },
            "title": "Can't send my tomo from MEW to Binance",
            "published_at": "2021-03-29T20:26:24Z",
            "slug": "Cant-send-my-tomo-from-MEW-to-Binance",
            "currencies": [
                {
                    "code": "TOMO",
                    "title": "TomoChain",
                    "slug": "tomochain",
                    "url": "https:\/\/cryptopanic.com\/news\/tomochain\/"
                }
            ],
            "id": 11797280,
            "url": "https:\/\/cryptopanic.com\/news\/11797280\/Cant-send-my-tomo-from-MEW-to-Binance",
            "created_at": "2021-03-29T20:26:24Z",
            "votes": {
                "negative": 0,
                "positive": 0,
                "important": 0,
                "liked": 0,
                "disliked": 0,
                "lol": 0,
                "toxic": 0,
                "saved": 0,
                "comments": 0
            }
        },
        {
            "kind": "news",
            "domain": "@TomoChainANN",
            "source": {
                "title": "TomoChain Twitter",
                "region": "en",
                "domain": "twitter.com",
                "path": "@tomochainann"
            },
            "title": "RT @TomoChainStatus: [TomoChain] released v2.3.1:\n- Decrease the smart contract creation fee\n\nIt is an optional update. You should update y\u2026",
            "published_at": "2021-03-25T08:32:29Z",
            "slug": "RT-TomoChainStatus-TomoChain-released-v231-Decrease-the-smart-contract-creation-fee-It-is-an-optional-update-You-should-update-y",
            "currencies": [
                {
                    "code": "TOMO",
                    "title": "TomoChain",
                    "slug": "tomochain",
                    "url": "https:\/\/cryptopanic.com\/news\/tomochain\/"
                },
                {
                    "code": "TOMOE",
                    "title": "TomoChain ERC-20",
                    "slug": "tomoe",
                    "url": "https:\/\/cryptopanic.com\/news\/tomoe\/"
                }
            ],
            "id": 11678945,
            "url": "https:\/\/cryptopanic.com\/news\/11678945\/RT-TomoChainStatus-TomoChain-released-v231-Decrease-the-smart-contract-creation-fee-It-is-an-optional-update-You-should-update-y",
            "created_at": "2021-03-25T08:32:29Z",
            "votes": {
                "negative": 0,
                "positive": 0,
                "important": 0,
                "liked": 0,
                "disliked": 0,
                "lol": 0,
                "toxic": 0,
                "saved": 0,
                "comments": 0
            }
        },
        {
            "kind": "news",
            "domain": "@TomoChainANN",
            "votes": {
                "negative": 0,
                "positive": 0,
                "important": 0,
                "liked": 1,
                "disliked": 0,
                "lol": 0,
                "toxic": 0,
                "saved": 0,
                "comments": 0
            },
            "source": {
                "title": "TomoChain Twitter",
                "region": "en",
                "domain": "twitter.com",
                "path": "@tomochainann"
            },
            "title": "A few tips to protect your #decentralized assets not only on #TomoChain but also on the entire #blockchain ecosyste\u2026",
            "published_at": "2021-03-25T03:42:11Z",
            "slug": "A-few-tips-to-protect-your-decentralized-assets-not-only-on-TomoChain-but-also-on-the-entire-blockchain-ecosyste",
            "currencies": [
                {
                    "code": "TOMO",
                    "title": "TomoChain",
                    "slug": "tomochain",
                    "url": "https:\/\/cryptopanic.com\/news\/tomochain\/"
                },
                {
                    "code": "TOMOE",
                    "title": "TomoChain ERC-20",
                    "slug": "tomoe",
                    "url": "https:\/\/cryptopanic.com\/news\/tomoe\/"
                }
            ],
            "id": 11673624,
            "url": "https:\/\/cryptopanic.com\/news\/11673624\/A-few-tips-to-protect-your-decentralized-assets-not-only-on-TomoChain-but-also-on-the-entire-blockchain-ecosyste",
            "created_at": "2021-03-25T03:42:11Z"
        },
        {
            "kind": "news",
            "domain": "@TomoChainANN",
            "source": {
                "title": "TomoChain Twitter",
                "region": "en",
                "domain": "twitter.com",
                "path": "@tomochainann"
            },
            "title": "#ERC20 (on Ethereum Network) &amp; #TRC21 tokens (on #TomoChain Network) on #TomoWallet? \n\nYou can change back &amp; forth\u2026",
            "published_at": "2021-03-20T15:00:02Z",
            "slug": "ERC20-on-Ethereum-Network-amp-TRC21-tokens-on-TomoChain-Network-on-TomoWallet-You-can-change-back-amp-forth",
            "currencies": [
                {
                    "code": "TOMO",
                    "title": "TomoChain",
                    "slug": "tomochain",
                    "url": "https:\/\/cryptopanic.com\/news\/tomochain\/"
                },
                {
                    "code": "TOMOE",
                    "title": "TomoChain ERC-20",
                    "slug": "tomoe",
                    "url": "https:\/\/cryptopanic.com\/news\/tomoe\/"
                }
            ],
            "id": 11654041,
            "url": "https:\/\/cryptopanic.com\/news\/11654041\/ERC20-on-Ethereum-Network-amp-TRC21-tokens-on-TomoChain-Network-on-TomoWallet-You-can-change-back-amp-forth",
            "created_at": "2021-03-20T15:00:02Z",
            "votes": {
                "negative": 0,
                "positive": 0,
                "important": 0,
                "liked": 0,
                "disliked": 0,
                "lol": 0,
                "toxic": 0,
                "saved": 0,
                "comments": 0
            }
        },
        {
            "kind": "news",
            "domain": "@TomoChainANN",
            "source": {
                "title": "TomoChain Twitter",
                "region": "en",
                "domain": "twitter.com",
                "path": "@tomochainann"
            },
            "title": " TELEGRAM NOTES: \n\n\ufe0fAdmins NEVER DM you FIRST! Double-check in our main chat to verify your information with real\u2026",
            "published_at": "2021-03-20T04:11:00Z",
            "slug": "TELEGRAM-NOTES-Admins-NEVER-DM-you-FIRST-Double-check-in-our-main-chat-to-verify-your-information-with-real",
            "currencies": [
                {
                    "code": "TOMO",
                    "title": "TomoChain",
                    "slug": "tomochain",
                    "url": "https:\/\/cryptopanic.com\/news\/tomochain\/"
                },
                {
                    "code": "TOMOE",
                    "title": "TomoChain ERC-20",
                    "slug": "tomoe",
                    "url": "https:\/\/cryptopanic.com\/news\/tomoe\/"
                }
            ],
            "id": 11650657,
            "url": "https:\/\/cryptopanic.com\/news\/11650657\/TELEGRAM-NOTES-Admins-NEVER-DM-you-FIRST-Double-check-in-our-main-chat-to-verify-your-information-with-real",
            "created_at": "2021-03-20T04:11:00Z",
            "votes": {
                "negative": 0,
                "positive": 0,
                "important": 0,
                "liked": 0,
                "disliked": 0,
                "lol": 0,
                "toxic": 0,
                "saved": 0,
                "comments": 0
            }
        },
        {
            "kind": "news",
            "domain": "@TomoChainANN",
            "source": {
                "title": "TomoChain Twitter",
                "region": "en",
                "domain": "twitter.com",
                "path": "@tomochainann"
            },
            "title": "Looking for a planet to settle your #crypto dream? \n\nWe invite you to discover life on #TomoChain &amp; how $TOMO's tr\u2026",
            "published_at": "2021-03-19T09:30:00Z",
            "slug": "Looking-for-a-planet-to-settle-your-crypto-dream-We-invite-you-to-discover-life-on-TomoChain-amp-how-TOMOs-tr",
            "currencies": [
                {
                    "code": "TOMO",
                    "title": "TomoChain",
                    "slug": "tomochain",
                    "url": "https:\/\/cryptopanic.com\/news\/tomochain\/"
                },
                {
                    "code": "TOMOE",
                    "title": "TomoChain ERC-20",
                    "slug": "tomoe",
                    "url": "https:\/\/cryptopanic.com\/news\/tomoe\/"
                }
            ],
            "id": 11650658,
            "url": "https:\/\/cryptopanic.com\/news\/11650658\/Looking-for-a-planet-to-settle-your-crypto-dream-We-invite-you-to-discover-life-on-TomoChain-amp-how-TOMOs-tr",
            "created_at": "2021-03-19T09:30:00Z",
            "votes": {
                "negative": 0,
                "positive": 0,
                "important": 0,
                "liked": 0,
                "disliked": 0,
                "lol": 0,
                "toxic": 0,
                "saved": 0,
                "comments": 0
            }
        },
        {
            "kind": "news",
            "domain": "@TomoChainANN",
            "source": {
                "title": "TomoChain Twitter",
                "region": "en",
                "domain": "twitter.com",
                "path": "@tomochainann"
            },
            "title": "The utility of #TomoChain's blockchain has expanded significantly with the #TomoBridge upgrade, enabling cross-chai\u2026",
            "published_at": "2021-03-18T10:00:01Z",
            "slug": "The-utility-of-TomoChains-blockchain-has-expanded-significantly-with-the-TomoBridge-upgrade-enabling-cross-chai",
            "currencies": [
                {
                    "code": "TOMO",
                    "title": "TomoChain",
                    "slug": "tomochain",
                    "url": "https:\/\/cryptopanic.com\/news\/tomochain\/"
                },
                {
                    "code": "TOMOE",
                    "title": "TomoChain ERC-20",
                    "slug": "tomoe",
                    "url": "https:\/\/cryptopanic.com\/news\/tomoe\/"
                }
            ],
            "id": 11645846,
            "url": "https:\/\/cryptopanic.com\/news\/11645846\/The-utility-of-TomoChains-blockchain-has-expanded-significantly-with-the-TomoBridge-upgrade-enabling-cross-chai",
            "created_at": "2021-03-18T10:00:01Z",
            "votes": {
                "negative": 0,
                "positive": 0,
                "important": 0,
                "liked": 0,
                "disliked": 0,
                "lol": 0,
                "toxic": 0,
                "saved": 0,
                "comments": 0
            }
        },
        {
            "kind": "news",
            "domain": "@TomoChainANN",
            "source": {
                "title": "TomoChain Twitter",
                "region": "en",
                "domain": "twitter.com",
                "path": "@tomochainann"
            },
            "title": " #TomoChain community now can deposit and trade $TOMO native - $TOMOB - $TOMOE on @binance. \n\nWe highly appreciate\u2026",
            "published_at": "2021-03-18T08:50:49Z",
            "slug": "TomoChain-community-now-can-deposit-and-trade-TOMO-native-TOMOB-TOMOE-on-binance-We-highly-appreciate",
            "currencies": [
                {
                    "code": "TOMO",
                    "title": "TomoChain",
                    "slug": "tomochain",
                    "url": "https:\/\/cryptopanic.com\/news\/tomochain\/"
                },
                {
                    "code": "TOMOE",
                    "title": "TomoChain ERC-20",
                    "slug": "tomoe",
                    "url": "https:\/\/cryptopanic.com\/news\/tomoe\/"
                }
            ],
            "id": 11645847,
            "url": "https:\/\/cryptopanic.com\/news\/11645847\/TomoChain-community-now-can-deposit-and-trade-TOMO-native-TOMOB-TOMOE-on-binance-We-highly-appreciate",
            "created_at": "2021-03-18T08:50:49Z",
            "votes": {
                "negative": 0,
                "positive": 0,
                "important": 0,
                "liked": 0,
                "disliked": 0,
                "lol": 0,
                "toxic": 0,
                "saved": 0,
                "comments": 0
            }
        },
        {
            "kind": "news",
            "domain": "@TomoChainANN",
            "source": {
                "title": "TomoChain Twitter",
                "region": "en",
                "domain": "twitter.com",
                "path": "@tomochainann"
            },
            "title": "With the continued market\u2019s demand for better products, #TomoChain works hard to transform ourselves to become a be\u2026",
            "published_at": "2021-03-15T13:00:00Z",
            "slug": "With-the-continued-markets-demand-for-better-products-TomoChain-works-hard-to-transform-ourselves-to-become-a-be",
            "currencies": [
                {
                    "code": "TOMO",
                    "title": "TomoChain",
                    "slug": "tomochain",
                    "url": "https:\/\/cryptopanic.com\/news\/tomochain\/"
                },
                {
                    "code": "TOMOE",
                    "title": "TomoChain ERC-20",
                    "slug": "tomoe",
                    "url": "https:\/\/cryptopanic.com\/news\/tomoe\/"
                }
            ],
            "id": 11628701,
            "url": "https:\/\/cryptopanic.com\/news\/11628701\/With-the-continued-markets-demand-for-better-products-TomoChain-works-hard-to-transform-ourselves-to-become-a-be",
            "created_at": "2021-03-15T13:00:00Z",
            "votes": {
                "negative": 0,
                "positive": 0,
                "important": 0,
                "liked": 0,
                "disliked": 0,
                "lol": 0,
                "toxic": 0,
                "saved": 0,
                "comments": 0
            }
        },
        {
            "kind": "news",
            "domain": "r\/Tomochain",
            "source": {
                "title": "TomoChain Reddit",
                "region": "en",
                "domain": "reddit.com",
                "path": "r\/tomochain"
            },
            "title": "How to send TOMO from MyEtherWallet to Binance?",
            "published_at": "2021-03-15T00:18:56Z",
            "slug": "How-to-send-TOMO-from-MyEtherWallet-to-Binance",
            "currencies": [
                {
                    "code": "TOMO",
                    "title": "TomoChain",
                    "slug": "tomochain",
                    "url": "https:\/\/cryptopanic.com\/news\/tomochain\/"
                }
            ],
            "id": 11625376,
            "url": "https:\/\/cryptopanic.com\/news\/11625376\/How-to-send-TOMO-from-MyEtherWallet-to-Binance",
            "created_at": "2021-03-15T00:18:56Z",
            "votes": {
                "negative": 0,
                "positive": 0,
                "important": 0,
                "liked": 0,
                "disliked": 0,
                "lol": 0,
                "toxic": 0,
                "saved": 0,
                "comments": 0
            }
        }
    ]
}
