{
    "count": 200,
    "next": "https:\/\/cryptopanic.com\/api\/v1\/posts\/?auth_token=01c356e89ffc1b8eba2127c81fc8c66ee0eace75&kind=news&currencies=LEVER&page=2",
    "previous": null,
    "results": [
        {
            "kind": "news",
            "domain": "@LeverFi",
            "source": {
                "title": "LeverFi Twitter",
                "region": "en",
                "domain": "twitter.com",
                "path": "@leverfi"
            },
            "title": "\ud83c\udded\ud83c\uddf0 Hong Kong continues its push to boost the city's digital hub ambitions &amp; enhance the skills of crypto traders wi\u2026",
            "published_at": "2023-07-11T15:01:18Z",
            "slug": "Hong-Kong-continues-its-push-to-boost-the-citys-digital-hub-ambitions-amp-enhance-the-skills-of-crypto-traders-wi",
            "currencies": [
                {
                    "code": "LEVER",
                    "title": "LeverFi",
                    "slug": "lever",
                    "url": "https:\/\/cryptopanic.com\/news\/lever\/"
                }
            ],
            "id": 18765372,
            "url": "https:\/\/cryptopanic.com\/news\/18765372\/Hong-Kong-continues-its-push-to-boost-the-citys-digital-hub-ambitions-amp-enhance-the-skills-of-crypto-traders-wi",
            "created_at": "2023-07-11T15:01:18Z",
            "votes": {
                "negative": 0,
                "positive": 0,
                "important": 0,
                "liked": 0,
                "disliked": 0,
                "lol": 0,
                "toxic": 0,
                "saved": 0,
                "comments": 0
            }
        },
        {
            "kind": "news",
            "domain": "@LeverFi",
            "source": {
                "title": "LeverFi Twitter",
                "region": "en",
                "domain": "twitter.com",
                "path": "@leverfi"
            },
            "title": "As $BTC reached new heights last week, we uncovered the drivers behind crypto &amp; traditional equities market gains.\u2026",
            "published_at": "2023-07-11T06:30:04Z",
            "slug": "As-BTC-reached-new-heights-last-week-we-uncovered-the-drivers-behind-crypto-amp-traditional-equities-market-gains",
            "currencies": [
                {
                    "code": "LEVER",
                    "title": "LeverFi",
                    "slug": "lever",
                    "url": "https:\/\/cryptopanic.com\/news\/lever\/"
                }
            ],
            "id": 18757230,
            "url": "https:\/\/cryptopanic.com\/news\/18757230\/As-BTC-reached-new-heights-last-week-we-uncovered-the-drivers-behind-crypto-amp-traditional-equities-market-gains",
            "created_at": "2023-07-11T06:30:04Z",
            "votes": {
                "negative": 0,
                "positive": 0,
                "important": 0,
                "liked": 0,
                "disliked": 0,
                "lol": 0,
                "toxic": 0,
                "saved": 0,
                "comments": 0
            }
        },
        {
            "kind": "news",
            "domain": "@LeverFi",
            "source": {
                "title": "LeverFi Twitter",
                "region": "en",
                "domain": "twitter.com",
                "path": "@leverfi"
            },
            "title": "What happens when DeFi scalability meets cutting-edge capital efficiency? \n\nYou get a platform that enables:\n\n Op\u2026",
            "published_at": "2023-07-10T13:00:01Z",
            "slug": "What-happens-when-DeFi-scalability-meets-cutting-edge-capital-efficiency-You-get-a-platform-that-enables-Op",
            "currencies": [
                {
                    "code": "LEVER",
                    "title": "LeverFi",
                    "slug": "lever",
                    "url": "https:\/\/cryptopanic.com\/news\/lever\/"
                }
            ],
            "id": 18757231,
            "url": "https:\/\/cryptopanic.com\/news\/18757231\/What-happens-when-DeFi-scalability-meets-cutting-edge-capital-efficiency-You-get-a-platform-that-enables-Op",
            "created_at": "2023-07-10T13:00:01Z",
            "votes": {
                "negative": 0,
                "positive": 0,
                "important": 0,
                "liked": 0,
                "disliked": 0,
                "lol": 0,
                "toxic": 0,
                "saved": 0,
                "comments": 0
            }
        },
        {
            "kind": "news",
            "domain": "@LeverFi",
            "source": {
                "title": "LeverFi Twitter",
                "region": "en",
                "domain": "twitter.com",
                "path": "@leverfi"
            },
            "title": "This weekend, I'll be leverage trading ______",
            "published_at": "2023-07-10T08:00:01Z",
            "slug": "This-weekend-Ill-be-leverage-trading-______",
            "currencies": [
                {
                    "code": "LEVER",
                    "title": "LeverFi",
                    "slug": "lever",
                    "url": "https:\/\/cryptopanic.com\/news\/lever\/"
                }
            ],
            "id": 18750290,
            "url": "https:\/\/cryptopanic.com\/news\/18750290\/This-weekend-Ill-be-leverage-trading-______",
            "created_at": "2023-07-10T08:00:01Z",
            "votes": {
                "negative": 0,
                "positive": 0,
                "important": 0,
                "liked": 0,
                "disliked": 0,
                "lol": 0,
                "toxic": 0,
                "saved": 0,
                "comments": 0
            }
        },
        {
            "kind": "news",
            "domain": "@LeverFi",
            "source": {
                "title": "LeverFi Twitter",
                "region": "en",
                "domain": "twitter.com",
                "path": "@leverfi"
            },
            "title": "1\/ LeverFi weekly market summary \n\n #FOMC minutes reveal the pace of rate hikes is expected to moderate after a p\u2026",
            "published_at": "2023-07-07T11:00:15Z",
            "slug": "1-LeverFi-weekly-market-summary-FOMC-minutes-reveal-the-pace-of-rate-hikes-is-expected-to-moderate-after-a-p",
            "currencies": [
                {
                    "code": "LEVER",
                    "title": "LeverFi",
                    "slug": "lever",
                    "url": "https:\/\/cryptopanic.com\/news\/lever\/"
                }
            ],
            "id": 18741015,
            "url": "https:\/\/cryptopanic.com\/news\/18741015\/1-LeverFi-weekly-market-summary-FOMC-minutes-reveal-the-pace-of-rate-hikes-is-expected-to-moderate-after-a-p",
            "created_at": "2023-07-07T11:00:15Z",
            "votes": {
                "negative": 0,
                "positive": 0,
                "important": 0,
                "liked": 0,
                "disliked": 0,
                "lol": 0,
                "toxic": 0,
                "saved": 0,
                "comments": 0
            }
        },
        {
            "kind": "news",
            "domain": "@LeverFi",
            "source": {
                "title": "LeverFi Twitter",
                "region": "en",
                "domain": "twitter.com",
                "path": "@leverfi"
            },
            "title": "GM! What #crypto are you trading this weekend? \ud83e\ude99",
            "published_at": "2023-07-07T03:45:00Z",
            "slug": "GM-What-crypto-are-you-trading-this-weekend",
            "currencies": [
                {
                    "code": "LEVER",
                    "title": "LeverFi",
                    "slug": "lever",
                    "url": "https:\/\/cryptopanic.com\/news\/lever\/"
                }
            ],
            "id": 18733479,
            "url": "https:\/\/cryptopanic.com\/news\/18733479\/GM-What-crypto-are-you-trading-this-weekend",
            "created_at": "2023-07-07T03:45:00Z",
            "votes": {
                "negative": 0,
                "positive": 0,
                "important": 0,
                "liked": 0,
                "disliked": 0,
                "lol": 0,
                "toxic": 0,
                "saved": 0,
                "comments": 0
            }
        },
        {
            "kind": "news",
            "domain": "@LeverFi",
            "source": {
                "title": "LeverFi Twitter",
                "region": "en",
                "domain": "twitter.com",
                "path": "@leverfi"
            },
            "title": "Liquidity is crucial in DeFi as it enables efficient trading, lower price volatility &amp; enhances accessibility to a\u2026",
            "published_at": "2023-07-06T12:00:01Z",
            "slug": "Liquidity-is-crucial-in-DeFi-as-it-enables-efficient-trading-lower-price-volatility-amp-enhances-accessibility-to-a",
            "currencies": [
                {
                    "code": "LEVER",
                    "title": "LeverFi",
                    "slug": "lever",
                    "url": "https:\/\/cryptopanic.com\/news\/lever\/"
                }
            ],
            "id": 18733480,
            "url": "https:\/\/cryptopanic.com\/news\/18733480\/Liquidity-is-crucial-in-DeFi-as-it-enables-efficient-trading-lower-price-volatility-amp-enhances-accessibility-to-a",
            "created_at": "2023-07-06T12:00:01Z",
            "votes": {
                "negative": 0,
                "positive": 0,
                "important": 0,
                "liked": 0,
                "disliked": 0,
                "lol": 0,
                "toxic": 0,
                "saved": 0,
                "comments": 0
            }
        },
        {
            "kind": "news",
            "domain": "@LeverFi",
            "source": {
                "title": "LeverFi Twitter",
                "region": "en",
                "domain": "twitter.com",
                "path": "@leverfi"
            },
            "title": "Crypto ETFs continue to be trending as BTC breached the $31k mark this week amid news of one of the largest asset m\u2026",
            "published_at": "2023-07-06T04:35:20Z",
            "slug": "Crypto-ETFs-continue-to-be-trending-as-BTC-breached-the-31k-mark-this-week-amid-news-of-one-of-the-largest-asset-m",
            "currencies": [
                {
                    "code": "LEVER",
                    "title": "LeverFi",
                    "slug": "lever",
                    "url": "https:\/\/cryptopanic.com\/news\/lever\/"
                }
            ],
            "id": 18725015,
            "url": "https:\/\/cryptopanic.com\/news\/18725015\/Crypto-ETFs-continue-to-be-trending-as-BTC-breached-the-31k-mark-this-week-amid-news-of-one-of-the-largest-asset-m",
            "created_at": "2023-07-06T04:35:20Z",
            "votes": {
                "negative": 0,
                "positive": 0,
                "important": 0,
                "liked": 0,
                "disliked": 0,
                "lol": 0,
                "toxic": 0,
                "saved": 0,
                "comments": 0
            }
        },
        {
            "kind": "news",
            "domain": "@LeverFi",
            "source": {
                "title": "LeverFi Twitter",
                "region": "en",
                "domain": "twitter.com",
                "path": "@leverfi"
            },
            "title": "As many crypto natives can expect, self-custody doesn\u2019t have to be complicated.\n\nDeFi is built to be accessible to\u2026",
            "published_at": "2023-07-05T13:00:03Z",
            "slug": "As-many-crypto-natives-can-expect-self-custody-doesnt-have-to-be-complicated-DeFi-is-built-to-be-accessible-to",
            "currencies": [
                {
                    "code": "LEVER",
                    "title": "LeverFi",
                    "slug": "lever",
                    "url": "https:\/\/cryptopanic.com\/news\/lever\/"
                }
            ],
            "id": 18725016,
            "url": "https:\/\/cryptopanic.com\/news\/18725016\/As-many-crypto-natives-can-expect-self-custody-doesnt-have-to-be-complicated-DeFi-is-built-to-be-accessible-to",
            "created_at": "2023-07-05T13:00:03Z",
            "votes": {
                "negative": 0,
                "positive": 0,
                "important": 0,
                "liked": 0,
                "disliked": 0,
                "lol": 0,
                "toxic": 0,
                "saved": 0,
                "comments": 0
            }
        },
        {
            "kind": "news",
            "domain": "@LeverFi",
            "source": {
                "title": "LeverFi Twitter",
                "region": "en",
                "domain": "twitter.com",
                "path": "@leverfi"
            },
            "title": "What is your favorite #crypto trading platform?\n\n...and why is it LeverFi? ",
            "published_at": "2023-07-05T07:00:04Z",
            "slug": "What-is-your-favorite-crypto-trading-platform-and-why-is-it-LeverFi",
            "currencies": [
                {
                    "code": "LEVER",
                    "title": "LeverFi",
                    "slug": "lever",
                    "url": "https:\/\/cryptopanic.com\/news\/lever\/"
                }
            ],
            "id": 18717187,
            "url": "https:\/\/cryptopanic.com\/news\/18717187\/What-is-your-favorite-crypto-trading-platform-and-why-is-it-LeverFi",
            "created_at": "2023-07-05T07:00:04Z",
            "votes": {
                "negative": 0,
                "positive": 0,
                "important": 0,
                "liked": 0,
                "disliked": 0,
                "lol": 0,
                "toxic": 0,
                "saved": 0,
                "comments": 0
            }
        },
        {
            "kind": "news",
            "domain": "@LeverFi",
            "source": {
                "title": "LeverFi Twitter",
                "region": "en",
                "domain": "twitter.com",
                "path": "@leverfi"
            },
            "title": "Fragmented liquidity in DeFi, subpar token utilities, and inefficient asset utilization will be issues of the past \u231b\ufe0f",
            "published_at": "2023-07-04T14:00:53Z",
            "slug": "Fragmented-liquidity-in-DeFi-subpar-token-utilities-and-inefficient-asset-utilization-will-be-issues-of-the-past",
            "currencies": [
                {
                    "code": "LEVER",
                    "title": "LeverFi",
                    "slug": "lever",
                    "url": "https:\/\/cryptopanic.com\/news\/lever\/"
                }
            ],
            "id": 18717188,
            "url": "https:\/\/cryptopanic.com\/news\/18717188\/Fragmented-liquidity-in-DeFi-subpar-token-utilities-and-inefficient-asset-utilization-will-be-issues-of-the-past",
            "created_at": "2023-07-04T14:00:53Z",
            "votes": {
                "negative": 0,
                "positive": 0,
                "important": 0,
                "liked": 0,
                "disliked": 0,
                "lol": 0,
                "toxic": 0,
                "saved": 0,
                "comments": 0
            }
        },
        {
            "kind": "news",
            "domain": "@LeverFi",
            "source": {
                "title": "LeverFi Twitter",
                "region": "en",
                "domain": "twitter.com",
                "path": "@leverfi"
            },
            "title": "Last edition featured the Wall Street-fueled market rally and a DeFi summer comeback.\n\nAs we kick off a new quarter\u2026",
            "published_at": "2023-07-04T08:00:15Z",
            "slug": "Last-edition-featured-the-Wall-Street-fueled-market-rally-and-a-DeFi-summer-comeback-As-we-kick-off-a-new-quarter",
            "currencies": [
                {
                    "code": "LEVER",
                    "title": "LeverFi",
                    "slug": "lever",
                    "url": "https:\/\/cryptopanic.com\/news\/lever\/"
                }
            ],
            "id": 18710008,
            "url": "https:\/\/cryptopanic.com\/news\/18710008\/Last-edition-featured-the-Wall-Street-fueled-market-rally-and-a-DeFi-summer-comeback-As-we-kick-off-a-new-quarter",
            "created_at": "2023-07-04T08:00:15Z",
            "votes": {
                "negative": 0,
                "positive": 0,
                "important": 0,
                "liked": 0,
                "disliked": 0,
                "lol": 0,
                "toxic": 0,
                "saved": 0,
                "comments": 0
            }
        },
        {
            "kind": "news",
            "domain": "@LeverFi",
            "source": {
                "title": "LeverFi Twitter",
                "region": "en",
                "domain": "twitter.com",
                "path": "@leverfi"
            },
            "title": "Traditionally, #crypto traders had to choose between deploying their assets to yield farm or depositing them as tra\u2026",
            "published_at": "2023-07-03T14:00:24Z",
            "slug": "Traditionally-crypto-traders-had-to-choose-between-deploying-their-assets-to-yield-farm-or-depositing-them-as-tra",
            "currencies": [
                {
                    "code": "LEVER",
                    "title": "LeverFi",
                    "slug": "lever",
                    "url": "https:\/\/cryptopanic.com\/news\/lever\/"
                }
            ],
            "id": 18710009,
            "url": "https:\/\/cryptopanic.com\/news\/18710009\/Traditionally-crypto-traders-had-to-choose-between-deploying-their-assets-to-yield-farm-or-depositing-them-as-tra",
            "created_at": "2023-07-03T14:00:24Z",
            "votes": {
                "negative": 0,
                "positive": 0,
                "important": 0,
                "liked": 0,
                "disliked": 0,
                "lol": 0,
                "toxic": 0,
                "saved": 0,
                "comments": 0
            }
        },
        {
            "kind": "news",
            "domain": "@LeverFi",
            "source": {
                "title": "LeverFi Twitter",
                "region": "en",
                "domain": "twitter.com",
                "path": "@leverfi"
            },
            "title": "What #crypto are you bullish on for July? ",
            "published_at": "2023-07-03T04:30:00Z",
            "slug": "What-crypto-are-you-bullish-on-for-July",
            "currencies": [
                {
                    "code": "LEVER",
                    "title": "LeverFi",
                    "slug": "lever",
                    "url": "https:\/\/cryptopanic.com\/news\/lever\/"
                }
            ],
            "id": 18703400,
            "url": "https:\/\/cryptopanic.com\/news\/18703400\/What-crypto-are-you-bullish-on-for-July",
            "created_at": "2023-07-03T04:30:00Z",
            "votes": {
                "negative": 0,
                "positive": 0,
                "important": 0,
                "liked": 0,
                "disliked": 0,
                "lol": 0,
                "toxic": 0,
                "saved": 0,
                "comments": 0
            }
        },
        {
            "kind": "news",
            "domain": "@LeverFi",
            "source": {
                "title": "LeverFi Twitter",
                "region": "en",
                "domain": "twitter.com",
                "path": "@leverfi"
            },
            "title": "1\/ LeverFi weekly market summary \n\n\ufe0f GDP revision shows US economy grew faster in Q1 than previously believed. Me\u2026",
            "published_at": "2023-06-30T11:00:15Z",
            "slug": "1-LeverFi-weekly-market-summary-GDP-revision-shows-US-economy-grew-faster-in-Q1-than-previously-believed-Me",
            "currencies": [
                {
                    "code": "LEVER",
                    "title": "LeverFi",
                    "slug": "lever",
                    "url": "https:\/\/cryptopanic.com\/news\/lever\/"
                }
            ],
            "id": 18694317,
            "url": "https:\/\/cryptopanic.com\/news\/18694317\/1-LeverFi-weekly-market-summary-GDP-revision-shows-US-economy-grew-faster-in-Q1-than-previously-believed-Me",
            "created_at": "2023-06-30T11:00:15Z",
            "votes": {
                "negative": 0,
                "positive": 0,
                "important": 0,
                "liked": 0,
                "disliked": 0,
                "lol": 0,
                "toxic": 0,
                "saved": 0,
                "comments": 0
            }
        },
        {
            "kind": "news",
            "domain": "@LeverFi",
            "source": {
                "title": "LeverFi Twitter",
                "region": "en",
                "domain": "twitter.com",
                "path": "@leverfi"
            },
            "title": "GM! What crypto are you trading this weekend?",
            "published_at": "2023-06-30T00:00:06Z",
            "slug": "GM-What-crypto-are-you-trading-this-weekend",
            "currencies": [
                {
                    "code": "LEVER",
                    "title": "LeverFi",
                    "slug": "lever",
                    "url": "https:\/\/cryptopanic.com\/news\/lever\/"
                }
            ],
            "id": 18686556,
            "url": "https:\/\/cryptopanic.com\/news\/18686556\/GM-What-crypto-are-you-trading-this-weekend",
            "created_at": "2023-06-30T00:00:06Z",
            "votes": {
                "negative": 0,
                "positive": 0,
                "important": 0,
                "liked": 0,
                "disliked": 0,
                "lol": 0,
                "toxic": 0,
                "saved": 0,
                "comments": 0
            }
        },
        {
            "kind": "news",
            "domain": "@LeverFi",
            "source": {
                "title": "LeverFi Twitter",
                "region": "en",
                "domain": "twitter.com",
                "path": "@leverfi"
            },
            "title": "My looks: \nMy personality: \nMy crypto trading portfolio on LeverFi: ",
            "published_at": "2023-06-29T13:00:21Z",
            "slug": "My-looks-My-personality-My-crypto-trading-portfolio-on-LeverFi",
            "currencies": [
                {
                    "code": "LEVER",
                    "title": "LeverFi",
                    "slug": "lever",
                    "url": "https:\/\/cryptopanic.com\/news\/lever\/"
                }
            ],
            "id": 18686557,
            "url": "https:\/\/cryptopanic.com\/news\/18686557\/My-looks-My-personality-My-crypto-trading-portfolio-on-LeverFi",
            "created_at": "2023-06-29T13:00:21Z",
            "votes": {
                "negative": 0,
                "positive": 0,
                "important": 0,
                "liked": 0,
                "disliked": 0,
                "lol": 0,
                "toxic": 0,
                "saved": 0,
                "comments": 0
            }
        },
        {
            "kind": "news",
            "domain": "@LeverFi",
            "source": {
                "title": "LeverFi Twitter",
                "region": "en",
                "domain": "twitter.com",
                "path": "@leverfi"
            },
            "title": "BTC maintains its position above the $30k mark amid investor anticipations of an SEC-approved spot Bitcoin ETF and\u2026",
            "published_at": "2023-06-29T05:35:00Z",
            "slug": "BTC-maintains-its-position-above-the-30k-mark-amid-investor-anticipations-of-an-SEC-approved-spot-Bitcoin-ETF-and",
            "currencies": [
                {
                    "code": "LEVER",
                    "title": "LeverFi",
                    "slug": "lever",
                    "url": "https:\/\/cryptopanic.com\/news\/lever\/"
                }
            ],
            "id": 18678596,
            "url": "https:\/\/cryptopanic.com\/news\/18678596\/BTC-maintains-its-position-above-the-30k-mark-amid-investor-anticipations-of-an-SEC-approved-spot-Bitcoin-ETF-and",
            "created_at": "2023-06-29T05:35:00Z",
            "votes": {
                "negative": 0,
                "positive": 0,
                "important": 0,
                "liked": 0,
                "disliked": 0,
                "lol": 0,
                "toxic": 0,
                "saved": 0,
                "comments": 0
            }
        },
        {
            "kind": "news",
            "domain": "@LeverFi",
            "source": {
                "title": "LeverFi Twitter",
                "region": "en",
                "domain": "twitter.com",
                "path": "@leverfi"
            },
            "title": "\ud83e\udde0 Fun fact: Traders can actually earn yield while trading.\n\nLeverFi enables crypto traders to generate yields on tr\u2026",
            "published_at": "2023-06-28T05:00:01Z",
            "slug": "Fun-fact-Traders-can-actually-earn-yield-while-trading-LeverFi-enables-crypto-traders-to-generate-yields-on-tr",
            "currencies": [
                {
                    "code": "LEVER",
                    "title": "LeverFi",
                    "slug": "lever",
                    "url": "https:\/\/cryptopanic.com\/news\/lever\/"
                }
            ],
            "id": 18670374,
            "url": "https:\/\/cryptopanic.com\/news\/18670374\/Fun-fact-Traders-can-actually-earn-yield-while-trading-LeverFi-enables-crypto-traders-to-generate-yields-on-tr",
            "created_at": "2023-06-28T05:00:01Z",
            "votes": {
                "negative": 0,
                "positive": 0,
                "important": 0,
                "liked": 0,
                "disliked": 0,
                "lol": 0,
                "toxic": 0,
                "saved": 0,
                "comments": 0
            }
        },
        {
            "kind": "news",
            "domain": "@LeverFi",
            "source": {
                "title": "LeverFi Twitter",
                "region": "en",
                "domain": "twitter.com",
                "path": "@leverfi"
            },
            "title": "Retweet if you trade crypto \ud83e\ude99",
            "published_at": "2023-06-28T01:00:10Z",
            "slug": "Retweet-if-you-trade-crypto",
            "currencies": [
                {
                    "code": "LEVER",
                    "title": "LeverFi",
                    "slug": "lever",
                    "url": "https:\/\/cryptopanic.com\/news\/lever\/"
                }
            ],
            "id": 18670375,
            "url": "https:\/\/cryptopanic.com\/news\/18670375\/Retweet-if-you-trade-crypto",
            "created_at": "2023-06-28T01:00:10Z",
            "votes": {
                "negative": 0,
                "positive": 0,
                "important": 0,
                "liked": 0,
                "disliked": 0,
                "lol": 0,
                "toxic": 0,
                "saved": 0,
                "comments": 0
            }
        }
    ]
}
