{
    "count": 200,
    "next": "https:\/\/cryptopanic.com\/api\/v1\/posts\/?auth_token=01c356e89ffc1b8eba2127c81fc8c66ee0eace75&kind=news&currencies=AERGO&page=2",
    "previous": null,
    "results": [
        {
            "kind": "news",
            "domain": "@aergo_io",
            "source": {
                "title": "Aergo Twitter",
                "region": "en",
                "domain": "twitter.com",
                "path": "@aergo_io"
            },
            "title": "Aergo 2023\u201324 Roadmap has been released\n\nThe roadmap contains three stages with different aims.\n\nAergo Roadmap in\u2026",
            "published_at": "2023-07-11T07:26:03Z",
            "slug": "Aergo-202324-Roadmap-has-been-released-The-roadmap-contains-three-stages-with-different-aims-Aergo-Roadmap-in",
            "currencies": [
                {
                    "code": "AERGO",
                    "title": "Aergo",
                    "slug": "aergo",
                    "url": "https:\/\/cryptopanic.com\/news\/aergo\/"
                }
            ],
            "id": 18762389,
            "url": "https:\/\/cryptopanic.com\/news\/18762389\/Aergo-202324-Roadmap-has-been-released-The-roadmap-contains-three-stages-with-different-aims-Aergo-Roadmap-in",
            "created_at": "2023-07-11T07:26:03Z",
            "votes": {
                "negative": 0,
                "positive": 0,
                "important": 0,
                "liked": 0,
                "disliked": 0,
                "lol": 0,
                "toxic": 0,
                "saved": 0,
                "comments": 0
            }
        },
        {
            "kind": "news",
            "domain": "@aergo_io",
            "source": {
                "title": "Aergo Twitter",
                "region": "en",
                "domain": "twitter.com",
                "path": "@aergo_io"
            },
            "title": "Breaking News: Booost NFTs SOLD OUT!\n\nWe're thrilled to announce that the @BOOOSTOfficial NFT minting has been a t\u2026",
            "published_at": "2023-06-30T10:28:39Z",
            "slug": "Breaking-News-Booost-NFTs-SOLD-OUT-Were-thrilled-to-announce-that-the-BOOOSTOfficial-NFT-minting-has-been-a-t",
            "currencies": [
                {
                    "code": "AERGO",
                    "title": "Aergo",
                    "slug": "aergo",
                    "url": "https:\/\/cryptopanic.com\/news\/aergo\/"
                }
            ],
            "id": 18691655,
            "url": "https:\/\/cryptopanic.com\/news\/18691655\/Breaking-News-Booost-NFTs-SOLD-OUT-Were-thrilled-to-announce-that-the-BOOOSTOfficial-NFT-minting-has-been-a-t",
            "created_at": "2023-06-30T10:28:39Z",
            "votes": {
                "negative": 0,
                "positive": 0,
                "important": 0,
                "liked": 0,
                "disliked": 0,
                "lol": 0,
                "toxic": 0,
                "saved": 0,
                "comments": 0
            }
        },
        {
            "kind": "news",
            "domain": "@aergo_io",
            "source": {
                "title": "Aergo Twitter",
                "region": "en",
                "domain": "twitter.com",
                "path": "@aergo_io"
            },
            "title": "The browser wallet for Aergo networks has been released!\n\nAergo Connect 3.0 is a gateway to Aergo-based Web3 dApps\u2026",
            "published_at": "2023-06-22T06:42:40Z",
            "slug": "The-browser-wallet-for-Aergo-networks-has-been-released-Aergo-Connect-30-is-a-gateway-to-Aergo-based-Web3-dApps",
            "currencies": [
                {
                    "code": "AERGO",
                    "title": "Aergo",
                    "slug": "aergo",
                    "url": "https:\/\/cryptopanic.com\/news\/aergo\/"
                }
            ],
            "id": 18634880,
            "url": "https:\/\/cryptopanic.com\/news\/18634880\/The-browser-wallet-for-Aergo-networks-has-been-released-Aergo-Connect-30-is-a-gateway-to-Aergo-based-Web3-dApps",
            "created_at": "2023-06-22T06:42:40Z",
            "votes": {
                "negative": 0,
                "positive": 0,
                "important": 0,
                "liked": 0,
                "disliked": 0,
                "lol": 0,
                "toxic": 0,
                "saved": 0,
                "comments": 0
            }
        },
        {
            "kind": "news",
            "domain": "@aergo_io",
            "source": {
                "title": "Aergo Twitter",
                "region": "en",
                "domain": "twitter.com",
                "path": "@aergo_io"
            },
            "title": "Due to a synchronization issue, the Aergo testnet will be rolled back to block 121397101 on June 18th.\n\nAergoScan\u2026",
            "published_at": "2023-06-17T05:16:05Z",
            "slug": "Due-to-a-synchronization-issue-the-Aergo-testnet-will-be-rolled-back-to-block-121397101-on-June-18th-AergoScan",
            "currencies": [
                {
                    "code": "AERGO",
                    "title": "Aergo",
                    "slug": "aergo",
                    "url": "https:\/\/cryptopanic.com\/news\/aergo\/"
                }
            ],
            "id": 18594048,
            "url": "https:\/\/cryptopanic.com\/news\/18594048\/Due-to-a-synchronization-issue-the-Aergo-testnet-will-be-rolled-back-to-block-121397101-on-June-18th-AergoScan",
            "created_at": "2023-06-17T05:16:05Z",
            "votes": {
                "negative": 0,
                "positive": 0,
                "important": 0,
                "liked": 0,
                "disliked": 0,
                "lol": 0,
                "toxic": 0,
                "saved": 0,
                "comments": 0
            }
        },
        {
            "kind": "news",
            "domain": "@aergo_io",
            "source": {
                "title": "Aergo Twitter",
                "region": "en",
                "domain": "twitter.com",
                "path": "@aergo_io"
            },
            "title": "Aergo 2.0 Whitepaper has been released!\n\nThe whitepaper explores the potential benefits, challenges, and implement\u2026",
            "published_at": "2023-06-16T06:04:15Z",
            "slug": "Aergo-20-Whitepaper-has-been-released-The-whitepaper-explores-the-potential-benefits-challenges-and-implement",
            "currencies": [
                {
                    "code": "AERGO",
                    "title": "Aergo",
                    "slug": "aergo",
                    "url": "https:\/\/cryptopanic.com\/news\/aergo\/"
                }
            ],
            "id": 18594049,
            "url": "https:\/\/cryptopanic.com\/news\/18594049\/Aergo-20-Whitepaper-has-been-released-The-whitepaper-explores-the-potential-benefits-challenges-and-implement",
            "created_at": "2023-06-16T06:04:15Z",
            "votes": {
                "negative": 0,
                "positive": 0,
                "important": 0,
                "liked": 0,
                "disliked": 0,
                "lol": 0,
                "toxic": 0,
                "saved": 0,
                "comments": 0
            }
        },
        {
            "kind": "news",
            "domain": "@aergo_io",
            "source": {
                "title": "Aergo Twitter",
                "region": "en",
                "domain": "twitter.com",
                "path": "@aergo_io"
            },
            "title": "RT @BOOOSTOfficial:  AERGO x BOOOST \n\nWe're excited to announce @aergo_io as a seed investor in BOOOST!\n\nOur partnership marks a signifi\u2026",
            "published_at": "2023-06-15T13:11:14Z",
            "slug": "RT-BOOOSTOfficial-AERGO-x-BOOOST-Were-excited-to-announce-aergo_io-as-a-seed-investor-in-BOOOST-Our-partnership-marks-a-signifi",
            "currencies": [
                {
                    "code": "AERGO",
                    "title": "Aergo",
                    "slug": "aergo",
                    "url": "https:\/\/cryptopanic.com\/news\/aergo\/"
                }
            ],
            "id": 18584998,
            "url": "https:\/\/cryptopanic.com\/news\/18584998\/RT-BOOOSTOfficial-AERGO-x-BOOOST-Were-excited-to-announce-aergo_io-as-a-seed-investor-in-BOOOST-Our-partnership-marks-a-signifi",
            "created_at": "2023-06-15T13:11:14Z",
            "votes": {
                "negative": 0,
                "positive": 0,
                "important": 0,
                "liked": 0,
                "disliked": 0,
                "lol": 0,
                "toxic": 0,
                "saved": 0,
                "comments": 0
            }
        },
        {
            "kind": "news",
            "domain": "@aergo_io",
            "source": {
                "title": "Aergo Twitter",
                "region": "en",
                "domain": "twitter.com",
                "path": "@aergo_io"
            },
            "title": "AERGO v2.4.4 has been deployed on the mainnet.\n\nThis update contains improvements &amp; bug fixes on aergocli and bri\u2026",
            "published_at": "2023-06-08T04:51:46Z",
            "slug": "AERGO-v244-has-been-deployed-on-the-mainnet-This-update-contains-improvements-amp-bug-fixes-on-aergocli-and-bri",
            "currencies": [
                {
                    "code": "AERGO",
                    "title": "Aergo",
                    "slug": "aergo",
                    "url": "https:\/\/cryptopanic.com\/news\/aergo\/"
                }
            ],
            "id": 18526333,
            "url": "https:\/\/cryptopanic.com\/news\/18526333\/AERGO-v244-has-been-deployed-on-the-mainnet-This-update-contains-improvements-amp-bug-fixes-on-aergocli-and-bri",
            "created_at": "2023-06-08T04:51:46Z",
            "votes": {
                "negative": 0,
                "positive": 0,
                "important": 0,
                "liked": 0,
                "disliked": 0,
                "lol": 0,
                "toxic": 0,
                "saved": 0,
                "comments": 0
            }
        },
        {
            "kind": "news",
            "domain": "@aergo_io",
            "source": {
                "title": "Aergo Twitter",
                "region": "en",
                "domain": "twitter.com",
                "path": "@aergo_io"
            },
            "title": "Excited to announce that our bug bounty initiative is now available!\n\nThis initiative will assist us in identifying\u2026",
            "published_at": "2023-06-05T01:26:46Z",
            "slug": "Excited-to-announce-that-our-bug-bounty-initiative-is-now-available-This-initiative-will-assist-us-in-identifying",
            "currencies": [
                {
                    "code": "AERGO",
                    "title": "Aergo",
                    "slug": "aergo",
                    "url": "https:\/\/cryptopanic.com\/news\/aergo\/"
                }
            ],
            "id": 18502355,
            "url": "https:\/\/cryptopanic.com\/news\/18502355\/Excited-to-announce-that-our-bug-bounty-initiative-is-now-available-This-initiative-will-assist-us-in-identifying",
            "created_at": "2023-06-05T01:26:46Z",
            "votes": {
                "negative": 0,
                "positive": 0,
                "important": 0,
                "liked": 0,
                "disliked": 0,
                "lol": 0,
                "toxic": 0,
                "saved": 0,
                "comments": 0
            }
        },
        {
            "kind": "news",
            "domain": "@aergo_io",
            "source": {
                "title": "Aergo Twitter",
                "region": "en",
                "domain": "twitter.com",
                "path": "@aergo_io"
            },
            "title": "AERGO Connect v1.0.3 has been released and now available on both Android and iOS. \n\nThe update brings new NFT, cus\u2026",
            "published_at": "2023-05-26T01:50:21Z",
            "slug": "AERGO-Connect-v103-has-been-released-and-now-available-on-both-Android-and-iOS-The-update-brings-new-NFT-cus",
            "currencies": [
                {
                    "code": "AERGO",
                    "title": "Aergo",
                    "slug": "aergo",
                    "url": "https:\/\/cryptopanic.com\/news\/aergo\/"
                }
            ],
            "id": 18430738,
            "url": "https:\/\/cryptopanic.com\/news\/18430738\/AERGO-Connect-v103-has-been-released-and-now-available-on-both-Android-and-iOS-The-update-brings-new-NFT-cus",
            "created_at": "2023-05-26T01:50:21Z",
            "votes": {
                "negative": 0,
                "positive": 0,
                "important": 0,
                "liked": 0,
                "disliked": 0,
                "lol": 0,
                "toxic": 0,
                "saved": 0,
                "comments": 0
            }
        },
        {
            "kind": "news",
            "domain": "@aergo_io",
            "source": {
                "title": "Aergo Twitter",
                "region": "en",
                "domain": "twitter.com",
                "path": "@aergo_io"
            },
            "title": "Exciting news!\nAERGO incubated NFT\/SBT project CCCV has successfully launched the first limited edition NFT with S\u2026",
            "published_at": "2023-05-23T11:14:01Z",
            "slug": "Exciting-news-AERGO-incubated-NFTSBT-project-CCCV-has-successfully-launched-the-first-limited-edition-NFT-with-S",
            "currencies": [
                {
                    "code": "AERGO",
                    "title": "Aergo",
                    "slug": "aergo",
                    "url": "https:\/\/cryptopanic.com\/news\/aergo\/"
                }
            ],
            "id": 18411858,
            "url": "https:\/\/cryptopanic.com\/news\/18411858\/Exciting-news-AERGO-incubated-NFTSBT-project-CCCV-has-successfully-launched-the-first-limited-edition-NFT-with-S",
            "created_at": "2023-05-23T11:14:01Z",
            "votes": {
                "negative": 0,
                "positive": 0,
                "important": 0,
                "liked": 0,
                "disliked": 0,
                "lol": 0,
                "toxic": 0,
                "saved": 0,
                "comments": 0
            }
        },
        {
            "kind": "news",
            "domain": "@aergo_io",
            "source": {
                "title": "Aergo Twitter",
                "region": "en",
                "domain": "twitter.com",
                "path": "@aergo_io"
            },
            "title": " Big news for AERGO and Web3 fam!\n\nBOOOST App is now officially live on mobile, allowing you to optimize your life\u2026",
            "published_at": "2023-05-15T14:22:40Z",
            "slug": "Big-news-for-AERGO-and-Web3-fam-BOOOST-App-is-now-officially-live-on-mobile-allowing-you-to-optimize-your-life",
            "currencies": [
                {
                    "code": "AERGO",
                    "title": "Aergo",
                    "slug": "aergo",
                    "url": "https:\/\/cryptopanic.com\/news\/aergo\/"
                }
            ],
            "id": 18347421,
            "url": "https:\/\/cryptopanic.com\/news\/18347421\/Big-news-for-AERGO-and-Web3-fam-BOOOST-App-is-now-officially-live-on-mobile-allowing-you-to-optimize-your-life",
            "created_at": "2023-05-15T14:22:40Z",
            "votes": {
                "negative": 0,
                "positive": 0,
                "important": 0,
                "liked": 0,
                "disliked": 0,
                "lol": 0,
                "toxic": 0,
                "saved": 0,
                "comments": 0
            }
        },
        {
            "kind": "news",
            "domain": "@aergo_io",
            "source": {
                "title": "Aergo Twitter",
                "region": "en",
                "domain": "twitter.com",
                "path": "@aergo_io"
            },
            "title": "Exciting news! AERGO\/USDT trading pair will be listed on Binance at May 5 08:00(UTC). This will increase the token\u2026",
            "published_at": "2023-05-04T03:42:28Z",
            "slug": "Exciting-news-AERGOUSDT-trading-pair-will-be-listed-on-Binance-at-May-5-0800UTC-This-will-increase-the-token",
            "currencies": [
                {
                    "code": "AERGO",
                    "title": "Aergo",
                    "slug": "aergo",
                    "url": "https:\/\/cryptopanic.com\/news\/aergo\/"
                }
            ],
            "id": 18256250,
            "url": "https:\/\/cryptopanic.com\/news\/18256250\/Exciting-news-AERGOUSDT-trading-pair-will-be-listed-on-Binance-at-May-5-0800UTC-This-will-increase-the-token",
            "created_at": "2023-05-04T03:42:28Z",
            "votes": {
                "negative": 0,
                "positive": 0,
                "important": 0,
                "liked": 0,
                "disliked": 0,
                "lol": 0,
                "toxic": 0,
                "saved": 0,
                "comments": 0
            }
        },
        {
            "kind": "news",
            "domain": "@aergo_io",
            "source": {
                "title": "Aergo Twitter",
                "region": "en",
                "domain": "twitter.com",
                "path": "@aergo_io"
            },
            "title": " We are at Hong Kong Web3 Festival @festival_web3! We are looking forward to share exciting ideas and ecosystem de\u2026",
            "published_at": "2023-04-12T08:29:08Z",
            "slug": "We-are-at-Hong-Kong-Web3-Festival-festival_web3-We-are-looking-forward-to-share-exciting-ideas-and-ecosystem-de",
            "currencies": [
                {
                    "code": "AERGO",
                    "title": "Aergo",
                    "slug": "aergo",
                    "url": "https:\/\/cryptopanic.com\/news\/aergo\/"
                }
            ],
            "id": 18096700,
            "url": "https:\/\/cryptopanic.com\/news\/18096700\/We-are-at-Hong-Kong-Web3-Festival-festival_web3-We-are-looking-forward-to-share-exciting-ideas-and-ecosystem-de",
            "created_at": "2023-04-12T08:29:08Z",
            "votes": {
                "negative": 0,
                "positive": 0,
                "important": 0,
                "liked": 0,
                "disliked": 0,
                "lol": 0,
                "toxic": 0,
                "saved": 0,
                "comments": 0
            }
        },
        {
            "kind": "news",
            "domain": "@aergo_io",
            "source": {
                "title": "Aergo Twitter",
                "region": "en",
                "domain": "twitter.com",
                "path": "@aergo_io"
            },
            "title": "[AERGO Maintenance Notice - Ethereum's Shapella]\n\nAll AERGO Swap(Bridge) Service will be temporarily unavailable f\u2026",
            "published_at": "2023-04-12T08:21:02Z",
            "slug": "AERGO-Maintenance-Notice-Ethereums-Shapella-All-AERGO-SwapBridge-Service-will-be-temporarily-unavailable-f",
            "currencies": [
                {
                    "code": "AERGO",
                    "title": "Aergo",
                    "slug": "aergo",
                    "url": "https:\/\/cryptopanic.com\/news\/aergo\/"
                }
            ],
            "id": 18096701,
            "url": "https:\/\/cryptopanic.com\/news\/18096701\/AERGO-Maintenance-Notice-Ethereums-Shapella-All-AERGO-SwapBridge-Service-will-be-temporarily-unavailable-f",
            "created_at": "2023-04-12T08:21:02Z",
            "votes": {
                "negative": 0,
                "positive": 0,
                "important": 0,
                "liked": 0,
                "disliked": 0,
                "lol": 0,
                "toxic": 0,
                "saved": 0,
                "comments": 0
            }
        },
        {
            "kind": "news",
            "domain": "@aergo_io",
            "source": {
                "title": "Aergo Twitter",
                "region": "en",
                "domain": "twitter.com",
                "path": "@aergo_io"
            },
            "title": "RT @BOOOSTOfficial: Iskra x BOOOST\n\nWe are excited to announce our partnership with @iskra_world! \ud83e\udd1d \n\nAs a blockchain gaming hub that con\u2026",
            "published_at": "2023-04-10T09:43:59Z",
            "slug": "RT-BOOOSTOfficial-Iskra-x-BOOOST-We-are-excited-to-announce-our-partnership-with-iskra_world-As-a-blockchain-gaming-hub-that-con",
            "currencies": [
                {
                    "code": "AERGO",
                    "title": "Aergo",
                    "slug": "aergo",
                    "url": "https:\/\/cryptopanic.com\/news\/aergo\/"
                }
            ],
            "id": 18079198,
            "url": "https:\/\/cryptopanic.com\/news\/18079198\/RT-BOOOSTOfficial-Iskra-x-BOOOST-We-are-excited-to-announce-our-partnership-with-iskra_world-As-a-blockchain-gaming-hub-that-con",
            "created_at": "2023-04-10T09:43:59Z",
            "votes": {
                "negative": 0,
                "positive": 0,
                "important": 0,
                "liked": 0,
                "disliked": 0,
                "lol": 0,
                "toxic": 0,
                "saved": 0,
                "comments": 0
            }
        },
        {
            "kind": "news",
            "domain": "@aergo_io",
            "source": {
                "title": "Aergo Twitter",
                "region": "en",
                "domain": "twitter.com",
                "path": "@aergo_io"
            },
            "title": "Dear AERGO Community!\nAERGO appointed 3 new executives: Hochul Seok as Director and CISO, Won Kim as CTO, and Jae\u2026",
            "published_at": "2023-04-07T02:46:16Z",
            "slug": "Dear-AERGO-Community-AERGO-appointed-3-new-executives-Hochul-Seok-as-Director-and-CISO-Won-Kim-as-CTO-and-Jae",
            "currencies": [
                {
                    "code": "AERGO",
                    "title": "Aergo",
                    "slug": "aergo",
                    "url": "https:\/\/cryptopanic.com\/news\/aergo\/"
                }
            ],
            "id": 18054764,
            "url": "https:\/\/cryptopanic.com\/news\/18054764\/Dear-AERGO-Community-AERGO-appointed-3-new-executives-Hochul-Seok-as-Director-and-CISO-Won-Kim-as-CTO-and-Jae",
            "created_at": "2023-04-07T02:46:16Z",
            "votes": {
                "negative": 0,
                "positive": 0,
                "important": 0,
                "liked": 0,
                "disliked": 0,
                "lol": 0,
                "toxic": 0,
                "saved": 0,
                "comments": 0
            }
        },
        {
            "kind": "news",
            "domain": "@aergo_io",
            "source": {
                "title": "Aergo Twitter",
                "region": "en",
                "domain": "twitter.com",
                "path": "@aergo_io"
            },
            "title": "RT @BOOOSTOfficial:  Havah x BOOOST \n\nWe are thrilled to announce our partnership with @HAVAHofficial and #HavahUnion! \ud83e\udd1d \n\nThis is a majo\u2026",
            "published_at": "2023-04-07T01:48:30Z",
            "slug": "RT-BOOOSTOfficial-Havah-x-BOOOST-We-are-thrilled-to-announce-our-partnership-with-HAVAHofficial-and-HavahUnion-This-is-a-majo",
            "currencies": [
                {
                    "code": "AERGO",
                    "title": "Aergo",
                    "slug": "aergo",
                    "url": "https:\/\/cryptopanic.com\/news\/aergo\/"
                }
            ],
            "id": 18054765,
            "url": "https:\/\/cryptopanic.com\/news\/18054765\/RT-BOOOSTOfficial-Havah-x-BOOOST-We-are-thrilled-to-announce-our-partnership-with-HAVAHofficial-and-HavahUnion-This-is-a-majo",
            "created_at": "2023-04-07T01:48:30Z",
            "votes": {
                "negative": 0,
                "positive": 0,
                "important": 0,
                "liked": 0,
                "disliked": 0,
                "lol": 0,
                "toxic": 0,
                "saved": 0,
                "comments": 0
            }
        },
        {
            "kind": "news",
            "domain": "@aergo_io",
            "source": {
                "title": "Aergo Twitter",
                "region": "en",
                "domain": "twitter.com",
                "path": "@aergo_io"
            },
            "title": " [AERGOSCAN API Updates]\nAERGOSCAN, the main blockchain explorer for the AERGO network, will be unavailable due to\u2026",
            "published_at": "2023-04-04T05:08:28Z",
            "slug": "AERGOSCAN-API-Updates-AERGOSCAN-the-main-blockchain-explorer-for-the-AERGO-network-will-be-unavailable-due-to",
            "currencies": [
                {
                    "code": "AERGO",
                    "title": "Aergo",
                    "slug": "aergo",
                    "url": "https:\/\/cryptopanic.com\/news\/aergo\/"
                }
            ],
            "id": 18028641,
            "url": "https:\/\/cryptopanic.com\/news\/18028641\/AERGOSCAN-API-Updates-AERGOSCAN-the-main-blockchain-explorer-for-the-AERGO-network-will-be-unavailable-due-to",
            "created_at": "2023-04-04T05:08:28Z",
            "votes": {
                "negative": 0,
                "positive": 0,
                "important": 0,
                "liked": 0,
                "disliked": 0,
                "lol": 0,
                "toxic": 0,
                "saved": 0,
                "comments": 0
            }
        },
        {
            "kind": "news",
            "domain": "@aergo_io",
            "source": {
                "title": "Aergo Twitter",
                "region": "en",
                "domain": "twitter.com",
                "path": "@aergo_io"
            },
            "title": "AERGO Swap Will Support Ethereum's Shapella Upgrade \n\n Ethereum's Shapella upgrade will take place approximately\u2026",
            "published_at": "2023-04-02T02:31:57Z",
            "slug": "AERGO-Swap-Will-Support-Ethereums-Shapella-Upgrade-Ethereums-Shapella-upgrade-will-take-place-approximately",
            "currencies": [
                {
                    "code": "AERGO",
                    "title": "Aergo",
                    "slug": "aergo",
                    "url": "https:\/\/cryptopanic.com\/news\/aergo\/"
                }
            ],
            "id": 18017733,
            "url": "https:\/\/cryptopanic.com\/news\/18017733\/AERGO-Swap-Will-Support-Ethereums-Shapella-Upgrade-Ethereums-Shapella-upgrade-will-take-place-approximately",
            "created_at": "2023-04-02T02:31:57Z",
            "votes": {
                "negative": 0,
                "positive": 0,
                "important": 0,
                "liked": 0,
                "disliked": 0,
                "lol": 0,
                "toxic": 0,
                "saved": 0,
                "comments": 0
            }
        },
        {
            "kind": "news",
            "domain": "@aergo_io",
            "source": {
                "title": "Aergo Twitter",
                "region": "en",
                "domain": "twitter.com",
                "path": "@aergo_io"
            },
            "title": "Dear AERGO Community! Our first 'Townhall' with questions from the community has been released!\n\nPlease find out\u2026",
            "published_at": "2023-03-31T06:24:44Z",
            "slug": "Dear-AERGO-Community-Our-first-Townhall-with-questions-from-the-community-has-been-released-Please-find-out",
            "currencies": [
                {
                    "code": "AERGO",
                    "title": "Aergo",
                    "slug": "aergo",
                    "url": "https:\/\/cryptopanic.com\/news\/aergo\/"
                }
            ],
            "id": 18010698,
            "url": "https:\/\/cryptopanic.com\/news\/18010698\/Dear-AERGO-Community-Our-first-Townhall-with-questions-from-the-community-has-been-released-Please-find-out",
            "created_at": "2023-03-31T06:24:44Z",
            "votes": {
                "negative": 0,
                "positive": 0,
                "important": 0,
                "liked": 0,
                "disliked": 0,
                "lol": 0,
                "toxic": 0,
                "saved": 0,
                "comments": 0
            }
        }
    ]
}
