{
    "count": 200,
    "next": "https:\/\/cryptopanic.com\/api\/v1\/posts\/?auth_token=01c356e89ffc1b8eba2127c81fc8c66ee0eace75&kind=news&currencies=AVA&page=2",
    "previous": null,
    "results": [
        {
            "kind": "news",
            "domain": "@travalacom",
            "source": {
                "title": "Travala Twitter",
                "region": "en",
                "domain": "twitter.com",
                "path": "@travalacom"
            },
            "title": "Travel bug biting you? No worries! We can help!",
            "published_at": "2023-07-12T06:34:06Z",
            "slug": "Travel-bug-biting-you-No-worries-We-can-help",
            "currencies": [
                {
                    "code": "AVA",
                    "title": "Travala.com",
                    "slug": "concierge-io",
                    "url": "https:\/\/cryptopanic.com\/news\/concierge-io\/"
                }
            ],
            "id": 18767705,
            "url": "https:\/\/cryptopanic.com\/news\/18767705\/Travel-bug-biting-you-No-worries-We-can-help",
            "created_at": "2023-07-12T06:34:06Z",
            "votes": {
                "negative": 0,
                "positive": 0,
                "important": 0,
                "liked": 0,
                "disliked": 0,
                "lol": 0,
                "toxic": 0,
                "saved": 0,
                "comments": 0
            }
        },
        {
            "kind": "news",
            "domain": "@travalacom",
            "source": {
                "title": "Travala Twitter",
                "region": "en",
                "domain": "twitter.com",
                "path": "@travalacom"
            },
            "title": "Do you know the most 'manly' festival in the world? It's the #Naadam Festival in #Mongolia! \ud83c\uddf2\ud83c\uddf3\n\nEvery #summer, thi\u2026",
            "published_at": "2023-07-11T23:00:22Z",
            "slug": "Do-you-know-the-most-manly-festival-in-the-world-Its-the-Naadam-Festival-in-Mongolia-Every-summer-thi",
            "currencies": [
                {
                    "code": "AVA",
                    "title": "Travala.com",
                    "slug": "concierge-io",
                    "url": "https:\/\/cryptopanic.com\/news\/concierge-io\/"
                }
            ],
            "id": 18767706,
            "url": "https:\/\/cryptopanic.com\/news\/18767706\/Do-you-know-the-most-manly-festival-in-the-world-Its-the-Naadam-Festival-in-Mongolia-Every-summer-thi",
            "created_at": "2023-07-11T23:00:22Z",
            "votes": {
                "negative": 0,
                "positive": 0,
                "important": 0,
                "liked": 0,
                "disliked": 0,
                "lol": 0,
                "toxic": 0,
                "saved": 0,
                "comments": 0
            }
        },
        {
            "kind": "news",
            "domain": "@Avatly_com",
            "source": {
                "title": "Avatly Twitter",
                "region": "en",
                "domain": "twitter.com",
                "path": "@avatly_com"
            },
            "title": "Don\u2019t miss it\ud83e\uddd8\u200d\ufe0f",
            "published_at": "2023-07-11T09:41:20Z",
            "slug": "Dont-miss-it",
            "currencies": [
                {
                    "code": "AVA",
                    "title": "Avatly",
                    "slug": "avatly",
                    "url": "https:\/\/cryptopanic.com\/news\/avatly\/"
                }
            ],
            "id": 18762692,
            "url": "https:\/\/cryptopanic.com\/news\/18762692\/Dont-miss-it",
            "created_at": "2023-07-11T09:41:20Z",
            "votes": {
                "negative": 0,
                "positive": 0,
                "important": 0,
                "liked": 0,
                "disliked": 0,
                "lol": 0,
                "toxic": 0,
                "saved": 0,
                "comments": 0
            }
        },
        {
            "kind": "news",
            "domain": "@travalacom",
            "source": {
                "title": "Travala Twitter",
                "region": "en",
                "domain": "twitter.com",
                "path": "@travalacom"
            },
            "title": "RT @SLam_LEJAS: Check out this recent trip I booked with @travalacom #TravalaAmbassador \n\nGetting time by the ocean and paying with #bitcoi\u2026",
            "published_at": "2023-07-11T02:37:57Z",
            "slug": "RT-SLam_LEJAS-Check-out-this-recent-trip-I-booked-with-travalacom-TravalaAmbassador-Getting-time-by-the-ocean-and-paying-with-bitcoi",
            "currencies": [
                {
                    "code": "AVA",
                    "title": "Travala.com",
                    "slug": "concierge-io",
                    "url": "https:\/\/cryptopanic.com\/news\/concierge-io\/"
                }
            ],
            "id": 18759433,
            "url": "https:\/\/cryptopanic.com\/news\/18759433\/RT-SLam_LEJAS-Check-out-this-recent-trip-I-booked-with-travalacom-TravalaAmbassador-Getting-time-by-the-ocean-and-paying-with-bitcoi",
            "created_at": "2023-07-11T02:37:57Z",
            "votes": {
                "negative": 0,
                "positive": 0,
                "important": 0,
                "liked": 0,
                "disliked": 0,
                "lol": 0,
                "toxic": 0,
                "saved": 0,
                "comments": 0
            }
        },
        {
            "kind": "news",
            "domain": "@travalacom",
            "source": {
                "title": "Travala Twitter",
                "region": "en",
                "domain": "twitter.com",
                "path": "@travalacom"
            },
            "title": "Q2 2023 Quarterly Business Update\n\nSee what\u2019s been happening at #Travala in Q2 2023 across key areas of the busines\u2026",
            "published_at": "2023-07-10T23:43:29Z",
            "slug": "Q2-2023-Quarterly-Business-Update-See-whats-been-happening-at-Travala-in-Q2-2023-across-key-areas-of-the-busines",
            "currencies": [
                {
                    "code": "AVA",
                    "title": "Travala.com",
                    "slug": "concierge-io",
                    "url": "https:\/\/cryptopanic.com\/news\/concierge-io\/"
                }
            ],
            "id": 18759434,
            "url": "https:\/\/cryptopanic.com\/news\/18759434\/Q2-2023-Quarterly-Business-Update-See-whats-been-happening-at-Travala-in-Q2-2023-across-key-areas-of-the-busines",
            "created_at": "2023-07-10T23:43:29Z",
            "votes": {
                "negative": 0,
                "positive": 0,
                "important": 0,
                "liked": 0,
                "disliked": 0,
                "lol": 0,
                "toxic": 0,
                "saved": 0,
                "comments": 0
            }
        },
        {
            "kind": "news",
            "domain": "@travalacom",
            "source": {
                "title": "Travala Twitter",
                "region": "en",
                "domain": "twitter.com",
                "path": "@travalacom"
            },
            "title": "Congratulations! ",
            "published_at": "2023-07-10T19:58:55Z",
            "slug": "Congratulations",
            "currencies": [
                {
                    "code": "AVA",
                    "title": "Travala.com",
                    "slug": "concierge-io",
                    "url": "https:\/\/cryptopanic.com\/news\/concierge-io\/"
                }
            ],
            "id": 18759435,
            "url": "https:\/\/cryptopanic.com\/news\/18759435\/Congratulations",
            "created_at": "2023-07-10T19:58:55Z",
            "votes": {
                "negative": 0,
                "positive": 0,
                "important": 0,
                "liked": 0,
                "disliked": 0,
                "lol": 0,
                "toxic": 0,
                "saved": 0,
                "comments": 0
            }
        },
        {
            "kind": "news",
            "domain": "@travalacom",
            "source": {
                "title": "Travala Twitter",
                "region": "en",
                "domain": "twitter.com",
                "path": "@travalacom"
            },
            "title": "Marriott Bonvoy Points Now Available to Earn via Concierge\n\nSmart Diamond members can now earn Marriott Bonvoy poin\u2026",
            "published_at": "2023-07-10T13:00:21Z",
            "slug": "Marriott-Bonvoy-Points-Now-Available-to-Earn-via-Concierge-Smart-Diamond-members-can-now-earn-Marriott-Bonvoy-poin",
            "currencies": [
                {
                    "code": "AVA",
                    "title": "Travala.com",
                    "slug": "concierge-io",
                    "url": "https:\/\/cryptopanic.com\/news\/concierge-io\/"
                }
            ],
            "id": 18759436,
            "url": "https:\/\/cryptopanic.com\/news\/18759436\/Marriott-Bonvoy-Points-Now-Available-to-Earn-via-Concierge-Smart-Diamond-members-can-now-earn-Marriott-Bonvoy-poin",
            "created_at": "2023-07-10T13:00:21Z",
            "votes": {
                "negative": 0,
                "positive": 0,
                "important": 0,
                "liked": 0,
                "disliked": 0,
                "lol": 0,
                "toxic": 0,
                "saved": 0,
                "comments": 0
            }
        },
        {
            "kind": "news",
            "domain": "@travalacom",
            "source": {
                "title": "Travala Twitter",
                "region": "en",
                "domain": "twitter.com",
                "path": "@travalacom"
            },
            "title": "Hey, @nano fans! \n\nJoin the #Travala Affiliate Program and earn while you explore! \n\nWho's ready for a trip with\u2026",
            "published_at": "2023-07-09T18:10:05Z",
            "slug": "Hey-nano-fans-Join-the-Travala-Affiliate-Program-and-earn-while-you-explore-Whos-ready-for-a-trip-with",
            "currencies": [
                {
                    "code": "AVA",
                    "title": "Travala.com",
                    "slug": "concierge-io",
                    "url": "https:\/\/cryptopanic.com\/news\/concierge-io\/"
                }
            ],
            "id": 18751773,
            "url": "https:\/\/cryptopanic.com\/news\/18751773\/Hey-nano-fans-Join-the-Travala-Affiliate-Program-and-earn-while-you-explore-Whos-ready-for-a-trip-with",
            "created_at": "2023-07-09T18:10:05Z",
            "votes": {
                "negative": 0,
                "positive": 0,
                "important": 0,
                "liked": 0,
                "disliked": 0,
                "lol": 0,
                "toxic": 0,
                "saved": 0,
                "comments": 0
            }
        },
        {
            "kind": "news",
            "domain": "@travalacom",
            "source": {
                "title": "Travala Twitter",
                "region": "en",
                "domain": "twitter.com",
                "path": "@travalacom"
            },
            "title": "RT @pablomosquera_:  Boom!\n\n@travalacom keeps dropping fantastic trips. Been trying to go to Australian Open for a while.\n\nWhat are the od\u2026",
            "published_at": "2023-07-08T13:50:47Z",
            "slug": "RT-pablomosquera_-Boom-travalacom-keeps-dropping-fantastic-trips-Been-trying-to-go-to-Australian-Open-for-a-while-What-are-the-od",
            "currencies": [
                {
                    "code": "AVA",
                    "title": "Travala.com",
                    "slug": "concierge-io",
                    "url": "https:\/\/cryptopanic.com\/news\/concierge-io\/"
                }
            ],
            "id": 18747173,
            "url": "https:\/\/cryptopanic.com\/news\/18747173\/RT-pablomosquera_-Boom-travalacom-keeps-dropping-fantastic-trips-Been-trying-to-go-to-Australian-Open-for-a-while-What-are-the-od",
            "created_at": "2023-07-08T13:50:47Z",
            "votes": {
                "negative": 0,
                "positive": 0,
                "important": 0,
                "liked": 0,
                "disliked": 0,
                "lol": 0,
                "toxic": 0,
                "saved": 0,
                "comments": 0
            }
        },
        {
            "kind": "news",
            "domain": "@travalacom",
            "source": {
                "title": "Travala Twitter",
                "region": "en",
                "domain": "twitter.com",
                "path": "@travalacom"
            },
            "title": "July is the perfect time to explore #Norway's stunning fjords. \n\nWarm weather, long days, breathtaking hikes - soun\u2026",
            "published_at": "2023-07-08T03:14:05Z",
            "slug": "July-is-the-perfect-time-to-explore-Norways-stunning-fjords-Warm-weather-long-days-breathtaking-hikes-soun",
            "currencies": [
                {
                    "code": "AVA",
                    "title": "Travala.com",
                    "slug": "concierge-io",
                    "url": "https:\/\/cryptopanic.com\/news\/concierge-io\/"
                }
            ],
            "id": 18742917,
            "url": "https:\/\/cryptopanic.com\/news\/18742917\/July-is-the-perfect-time-to-explore-Norways-stunning-fjords-Warm-weather-long-days-breathtaking-hikes-soun",
            "created_at": "2023-07-08T03:14:05Z",
            "votes": {
                "negative": 0,
                "positive": 0,
                "important": 0,
                "liked": 0,
                "disliked": 0,
                "lol": 0,
                "toxic": 0,
                "saved": 0,
                "comments": 0
            }
        },
        {
            "kind": "news",
            "domain": "@travalacom",
            "source": {
                "title": "Travala Twitter",
                "region": "en",
                "domain": "twitter.com",
                "path": "@travalacom"
            },
            "title": "RT @CryptoWalletcom: Hey #web3 travallers\n\nUnleash your #crypto's full potential with : you can buy, sell, and mana\u2026",
            "published_at": "2023-07-07T14:22:43Z",
            "slug": "RT-CryptoWalletcom-Hey-web3-travallers-Unleash-your-cryptos-full-potential-with-you-can-buy-sell-and-mana",
            "currencies": [
                {
                    "code": "AVA",
                    "title": "Travala.com",
                    "slug": "concierge-io",
                    "url": "https:\/\/cryptopanic.com\/news\/concierge-io\/"
                }
            ],
            "id": 18742918,
            "url": "https:\/\/cryptopanic.com\/news\/18742918\/RT-CryptoWalletcom-Hey-web3-travallers-Unleash-your-cryptos-full-potential-with-you-can-buy-sell-and-mana",
            "created_at": "2023-07-07T14:22:43Z",
            "votes": {
                "negative": 0,
                "positive": 0,
                "important": 0,
                "liked": 0,
                "disliked": 0,
                "lol": 0,
                "toxic": 0,
                "saved": 0,
                "comments": 0
            }
        },
        {
            "kind": "news",
            "domain": "@travalacom",
            "source": {
                "title": "Travala Twitter",
                "region": "en",
                "domain": "twitter.com",
                "path": "@travalacom"
            },
            "title": "Hello @SolarNetwork\n\nWith the #Travala SMART Program, your dream vacation is just a swipe away! \n\nWho's packed an\u2026",
            "published_at": "2023-07-07T13:15:06Z",
            "slug": "Hello-SolarNetwork-With-the-Travala-SMART-Program-your-dream-vacation-is-just-a-swipe-away-Whos-packed-an",
            "currencies": [
                {
                    "code": "AVA",
                    "title": "Travala.com",
                    "slug": "concierge-io",
                    "url": "https:\/\/cryptopanic.com\/news\/concierge-io\/"
                }
            ],
            "id": 18742919,
            "url": "https:\/\/cryptopanic.com\/news\/18742919\/Hello-SolarNetwork-With-the-Travala-SMART-Program-your-dream-vacation-is-just-a-swipe-away-Whos-packed-an",
            "created_at": "2023-07-07T13:15:06Z",
            "votes": {
                "negative": 0,
                "positive": 0,
                "important": 0,
                "liked": 0,
                "disliked": 0,
                "lol": 0,
                "toxic": 0,
                "saved": 0,
                "comments": 0
            }
        },
        {
            "kind": "news",
            "domain": "@travalacom",
            "source": {
                "title": "Travala Twitter",
                "region": "en",
                "domain": "twitter.com",
                "path": "@travalacom"
            },
            "title": "Travala\u2019s Concierge Service Joins Hilton\u2019s Impresario Program\n\nConcierge clients can now take advantage of exclusiv\u2026",
            "published_at": "2023-07-07T13:00:27Z",
            "slug": "Travalas-Concierge-Service-Joins-Hiltons-Impresario-Program-Concierge-clients-can-now-take-advantage-of-exclusiv",
            "currencies": [
                {
                    "code": "AVA",
                    "title": "Travala.com",
                    "slug": "concierge-io",
                    "url": "https:\/\/cryptopanic.com\/news\/concierge-io\/"
                }
            ],
            "id": 18742920,
            "url": "https:\/\/cryptopanic.com\/news\/18742920\/Travalas-Concierge-Service-Joins-Hiltons-Impresario-Program-Concierge-clients-can-now-take-advantage-of-exclusiv",
            "created_at": "2023-07-07T13:00:27Z",
            "votes": {
                "negative": 0,
                "positive": 0,
                "important": 0,
                "liked": 0,
                "disliked": 0,
                "lol": 0,
                "toxic": 0,
                "saved": 0,
                "comments": 0
            }
        },
        {
            "kind": "news",
            "domain": "@travalacom",
            "source": {
                "title": "Travala Twitter",
                "region": "en",
                "domain": "twitter.com",
                "path": "@travalacom"
            },
            "title": "Announcing the 6th #TravelDrop for #TravelTigerClub members...\ud83e\udd41\n\nThe #AusOpen in Melbourne! \ud83c\udde6\ud83c\uddfa \n\nOne lucky winner\u2026",
            "published_at": "2023-07-07T07:00:12Z",
            "slug": "Announcing-the-6th-TravelDrop-for-TravelTigerClub-members-The-AusOpen-in-Melbourne-One-lucky-winner",
            "currencies": [
                {
                    "code": "AVA",
                    "title": "Travala.com",
                    "slug": "concierge-io",
                    "url": "https:\/\/cryptopanic.com\/news\/concierge-io\/"
                }
            ],
            "id": 18735852,
            "url": "https:\/\/cryptopanic.com\/news\/18735852\/Announcing-the-6th-TravelDrop-for-TravelTigerClub-members-The-AusOpen-in-Melbourne-One-lucky-winner",
            "created_at": "2023-07-07T07:00:12Z",
            "votes": {
                "negative": 0,
                "positive": 0,
                "important": 0,
                "liked": 0,
                "disliked": 0,
                "lol": 0,
                "toxic": 0,
                "saved": 0,
                "comments": 0
            }
        },
        {
            "kind": "news",
            "domain": "@travalacom",
            "source": {
                "title": "Travala Twitter",
                "region": "en",
                "domain": "twitter.com",
                "path": "@travalacom"
            },
            "title": "Hola\ud83c\uddea\ud83c\uddf8\n\nHow about taking your @ethereum on a journey to the city of Gaudi? #ETHBarcelona, here we come! \n\nWith\u2026",
            "published_at": "2023-07-06T15:30:10Z",
            "slug": "Hola-How-about-taking-your-ethereum-on-a-journey-to-the-city-of-Gaudi-ETHBarcelona-here-we-come-With",
            "currencies": [
                {
                    "code": "AVA",
                    "title": "Travala.com",
                    "slug": "concierge-io",
                    "url": "https:\/\/cryptopanic.com\/news\/concierge-io\/"
                }
            ],
            "id": 18735853,
            "url": "https:\/\/cryptopanic.com\/news\/18735853\/Hola-How-about-taking-your-ethereum-on-a-journey-to-the-city-of-Gaudi-ETHBarcelona-here-we-come-With",
            "created_at": "2023-07-06T15:30:10Z",
            "votes": {
                "negative": 0,
                "positive": 0,
                "important": 0,
                "liked": 0,
                "disliked": 0,
                "lol": 0,
                "toxic": 0,
                "saved": 0,
                "comments": 0
            }
        },
        {
            "kind": "news",
            "domain": "@travalacom",
            "source": {
                "title": "Travala Twitter",
                "region": "en",
                "domain": "twitter.com",
                "path": "@travalacom"
            },
            "title": "RT @MartinK0x: Found #Travala in #Google #Hotels when search for JW Marriott Hotel Singapore South Beach",
            "published_at": "2023-07-06T14:38:59Z",
            "slug": "RT-MartinK0x-Found-Travala-in-Google-Hotels-when-search-for-JW-Marriott-Hotel-Singapore-South-Beach",
            "currencies": [
                {
                    "code": "AVA",
                    "title": "Travala.com",
                    "slug": "concierge-io",
                    "url": "https:\/\/cryptopanic.com\/news\/concierge-io\/"
                }
            ],
            "id": 18735854,
            "url": "https:\/\/cryptopanic.com\/news\/18735854\/RT-MartinK0x-Found-Travala-in-Google-Hotels-when-search-for-JW-Marriott-Hotel-Singapore-South-Beach",
            "created_at": "2023-07-06T14:38:59Z",
            "votes": {
                "negative": 0,
                "positive": 0,
                "important": 0,
                "liked": 0,
                "disliked": 0,
                "lol": 0,
                "toxic": 0,
                "saved": 0,
                "comments": 0
            }
        },
        {
            "kind": "news",
            "domain": "@travalacom",
            "source": {
                "title": "Travala Twitter",
                "region": "en",
                "domain": "twitter.com",
                "path": "@travalacom"
            },
            "title": "Write a funny comment!",
            "published_at": "2023-07-06T13:02:13Z",
            "slug": "Write-a-funny-comment",
            "currencies": [
                {
                    "code": "AVA",
                    "title": "Travala.com",
                    "slug": "concierge-io",
                    "url": "https:\/\/cryptopanic.com\/news\/concierge-io\/"
                }
            ],
            "id": 18735855,
            "url": "https:\/\/cryptopanic.com\/news\/18735855\/Write-a-funny-comment",
            "created_at": "2023-07-06T13:02:13Z",
            "votes": {
                "negative": 0,
                "positive": 0,
                "important": 0,
                "liked": 0,
                "disliked": 0,
                "lol": 0,
                "toxic": 0,
                "saved": 0,
                "comments": 0
            }
        },
        {
            "kind": "news",
            "domain": "@travalacom",
            "source": {
                "title": "Travala Twitter",
                "region": "en",
                "domain": "twitter.com",
                "path": "@travalacom"
            },
            "title": "We're thrilled to announce that we've joined @CoinMarketCap's Diamond Rewards Program! CMC users can now redeem fre\u2026",
            "published_at": "2023-07-06T02:59:17Z",
            "slug": "Were-thrilled-to-announce-that-weve-joined-CoinMarketCaps-Diamond-Rewards-Program-CMC-users-can-now-redeem-fre",
            "currencies": [
                {
                    "code": "AVA",
                    "title": "Travala.com",
                    "slug": "concierge-io",
                    "url": "https:\/\/cryptopanic.com\/news\/concierge-io\/"
                }
            ],
            "id": 18727276,
            "url": "https:\/\/cryptopanic.com\/news\/18727276\/Were-thrilled-to-announce-that-weve-joined-CoinMarketCaps-Diamond-Rewards-Program-CMC-users-can-now-redeem-fre",
            "created_at": "2023-07-06T02:59:17Z",
            "votes": {
                "negative": 0,
                "positive": 0,
                "important": 0,
                "liked": 0,
                "disliked": 0,
                "lol": 0,
                "toxic": 0,
                "saved": 0,
                "comments": 0
            }
        },
        {
            "kind": "news",
            "domain": "@travalacom",
            "source": {
                "title": "Travala Twitter",
                "region": "en",
                "domain": "twitter.com",
                "path": "@travalacom"
            },
            "title": "#Travala Monthly Report: June 2023\n\nMonthly revenue in excess of $5.1M. Over $70,000 in AVA travel giveback rewards\u2026",
            "published_at": "2023-07-06T02:01:12Z",
            "slug": "Travala-Monthly-Report-June-2023-Monthly-revenue-in-excess-of-51M-Over-70000-in-AVA-travel-giveback-rewards",
            "currencies": [
                {
                    "code": "AVA",
                    "title": "Travala.com",
                    "slug": "concierge-io",
                    "url": "https:\/\/cryptopanic.com\/news\/concierge-io\/"
                }
            ],
            "id": 18727277,
            "url": "https:\/\/cryptopanic.com\/news\/18727277\/Travala-Monthly-Report-June-2023-Monthly-revenue-in-excess-of-51M-Over-70000-in-AVA-travel-giveback-rewards",
            "created_at": "2023-07-06T02:01:12Z",
            "votes": {
                "negative": 0,
                "positive": 0,
                "important": 0,
                "liked": 0,
                "disliked": 0,
                "lol": 0,
                "toxic": 0,
                "saved": 0,
                "comments": 0
            }
        },
        {
            "kind": "news",
            "domain": "@Avatly_com",
            "source": {
                "title": "Avatly Twitter",
                "region": "en",
                "domain": "twitter.com",
                "path": "@avatly_com"
            },
            "title": "RT @CoinMarketCap: #KillerWhales is officially in production! \n\nLooking forward to meeting more #Whales coming into this special #SharkTan\u2026",
            "published_at": "2023-07-05T17:08:30Z",
            "slug": "RT-CoinMarketCap-KillerWhales-is-officially-in-production-Looking-forward-to-meeting-more-Whales-coming-into-this-special-SharkTan",
            "currencies": [
                {
                    "code": "AVA",
                    "title": "Avatly",
                    "slug": "avatly",
                    "url": "https:\/\/cryptopanic.com\/news\/avatly\/"
                }
            ],
            "id": 18722374,
            "url": "https:\/\/cryptopanic.com\/news\/18722374\/RT-CoinMarketCap-KillerWhales-is-officially-in-production-Looking-forward-to-meeting-more-Whales-coming-into-this-special-SharkTan",
            "created_at": "2023-07-05T17:08:30Z",
            "votes": {
                "negative": 0,
                "positive": 0,
                "important": 0,
                "liked": 0,
                "disliked": 0,
                "lol": 0,
                "toxic": 0,
                "saved": 0,
                "comments": 0
            }
        }
    ]
}
