{
    "count": 200,
    "next": "https:\/\/cryptopanic.com\/api\/v1\/posts\/?auth_token=01c356e89ffc1b8eba2127c81fc8c66ee0eace75&kind=news&currencies=JASMY&page=2",
    "previous": null,
    "results": [
        {
            "kind": "news",
            "domain": "@JasmyMGT",
            "source": {
                "title": "JasmyCoin Twitter",
                "region": "en",
                "domain": "twitter.com",
                "path": "@jasmymgt"
            },
            "title": "RT @Crypto_QueenBit: Cregis &amp; Jasmy are always the most friendly neighbors! @HARA_JasmyCFO @JasmyMGT \nNice to meet u, Hara San! (\u2229_\u2229)\n#Cre\u2026",
            "published_at": "2023-06-30T07:54:01Z",
            "slug": "RT-Crypto_QueenBit-Cregis-amp-Jasmy-are-always-the-most-friendly-neighbors-HARA_JasmyCFO-JasmyMGT-Nice-to-meet-u-Hara-San-_-Cre",
            "currencies": [
                {
                    "code": "JASMY",
                    "title": "JasmyCoin",
                    "slug": "jasmycoin",
                    "url": "https:\/\/cryptopanic.com\/news\/jasmycoin\/"
                }
            ],
            "id": 18694058,
            "url": "https:\/\/cryptopanic.com\/news\/18694058\/RT-Crypto_QueenBit-Cregis-amp-Jasmy-are-always-the-most-friendly-neighbors-HARA_JasmyCFO-JasmyMGT-Nice-to-meet-u-Hara-San-_-Cre",
            "created_at": "2023-06-30T07:54:01Z",
            "votes": {
                "negative": 0,
                "positive": 0,
                "important": 0,
                "liked": 0,
                "disliked": 0,
                "lol": 0,
                "toxic": 0,
                "saved": 0,
                "comments": 0
            }
        },
        {
            "kind": "news",
            "domain": "@JasmyMGT",
            "source": {
                "title": "JasmyCoin Twitter",
                "region": "en",
                "domain": "twitter.com",
                "path": "@jasmymgt"
            },
            "title": "RT @Akira28882: Today marks the end of Day 2 of @CyberConnectHQ ! I had the pleasure of meeting many wonderful people and learned a lot. Th\u2026",
            "published_at": "2023-06-29T16:15:21Z",
            "slug": "RT-Akira28882-Today-marks-the-end-of-Day-2-of-CyberConnectHQ-I-had-the-pleasure-of-meeting-many-wonderful-people-and-learned-a-lot-Th",
            "currencies": [
                {
                    "code": "JASMY",
                    "title": "JasmyCoin",
                    "slug": "jasmycoin",
                    "url": "https:\/\/cryptopanic.com\/news\/jasmycoin\/"
                }
            ],
            "id": 18686276,
            "url": "https:\/\/cryptopanic.com\/news\/18686276\/RT-Akira28882-Today-marks-the-end-of-Day-2-of-CyberConnectHQ-I-had-the-pleasure-of-meeting-many-wonderful-people-and-learned-a-lot-Th",
            "created_at": "2023-06-29T16:15:21Z",
            "votes": {
                "negative": 0,
                "positive": 0,
                "important": 0,
                "liked": 0,
                "disliked": 0,
                "lol": 0,
                "toxic": 0,
                "saved": 0,
                "comments": 0
            }
        },
        {
            "kind": "news",
            "domain": "@JasmyMGT",
            "source": {
                "title": "JasmyCoin Twitter",
                "region": "en",
                "domain": "twitter.com",
                "path": "@jasmymgt"
            },
            "title": "RT @Akira28882: The first day of @CyberConnectHQ has concluded! Tomorrow, during the hours of 15:00 to 17:00, we will be hosting surprise o\u2026",
            "published_at": "2023-06-28T18:23:42Z",
            "slug": "RT-Akira28882-The-first-day-of-CyberConnectHQ-has-concluded-Tomorrow-during-the-hours-of-1500-to-1700-we-will-be-hosting-surprise-o",
            "currencies": [
                {
                    "code": "JASMY",
                    "title": "JasmyCoin",
                    "slug": "jasmycoin",
                    "url": "https:\/\/cryptopanic.com\/news\/jasmycoin\/"
                }
            ],
            "id": 18678271,
            "url": "https:\/\/cryptopanic.com\/news\/18678271\/RT-Akira28882-The-first-day-of-CyberConnectHQ-has-concluded-Tomorrow-during-the-hours-of-1500-to-1700-we-will-be-hosting-surprise-o",
            "created_at": "2023-06-28T18:23:42Z",
            "votes": {
                "negative": 0,
                "positive": 0,
                "important": 0,
                "liked": 0,
                "disliked": 0,
                "lol": 0,
                "toxic": 0,
                "saved": 0,
                "comments": 0
            }
        },
        {
            "kind": "news",
            "domain": "@JasmyMGT",
            "source": {
                "title": "JasmyCoin Twitter",
                "region": "en",
                "domain": "twitter.com",
                "path": "@jasmymgt"
            },
            "title": "RT @Akira28882: @CyberConnectHQ is finally starting! It's #JasmyLab first booth exhibition! We'll also be doing some surprise events! Every\u2026",
            "published_at": "2023-06-28T02:05:44Z",
            "slug": "RT-Akira28882-CyberConnectHQ-is-finally-starting-Its-JasmyLab-first-booth-exhibition-Well-also-be-doing-some-surprise-events-Every",
            "currencies": [
                {
                    "code": "JASMY",
                    "title": "JasmyCoin",
                    "slug": "jasmycoin",
                    "url": "https:\/\/cryptopanic.com\/news\/jasmycoin\/"
                }
            ],
            "id": 18670053,
            "url": "https:\/\/cryptopanic.com\/news\/18670053\/RT-Akira28882-CyberConnectHQ-is-finally-starting-Its-JasmyLab-first-booth-exhibition-Well-also-be-doing-some-surprise-events-Every",
            "created_at": "2023-06-28T02:05:44Z",
            "votes": {
                "negative": 0,
                "positive": 0,
                "important": 0,
                "liked": 0,
                "disliked": 0,
                "lol": 0,
                "toxic": 0,
                "saved": 0,
                "comments": 0
            }
        },
        {
            "kind": "news",
            "domain": "@JasmyMGT",
            "source": {
                "title": "JasmyCoin Twitter",
                "region": "en",
                "domain": "twitter.com",
                "path": "@jasmymgt"
            },
            "title": "RT @Akira28882: Starting from tomorrow, the three-day #IVS2023KYOTO event will begin. We'll be waiting for you and @HARA_JasmyCFO at #Jasmy\u2026",
            "published_at": "2023-06-27T10:21:35Z",
            "slug": "RT-Akira28882-Starting-from-tomorrow-the-three-day-IVS2023KYOTO-event-will-begin-Well-be-waiting-for-you-and-HARA_JasmyCFO-at-Jasmy",
            "currencies": [
                {
                    "code": "JASMY",
                    "title": "JasmyCoin",
                    "slug": "jasmycoin",
                    "url": "https:\/\/cryptopanic.com\/news\/jasmycoin\/"
                }
            ],
            "id": 18670054,
            "url": "https:\/\/cryptopanic.com\/news\/18670054\/RT-Akira28882-Starting-from-tomorrow-the-three-day-IVS2023KYOTO-event-will-begin-Well-be-waiting-for-you-and-HARA_JasmyCFO-at-Jasmy",
            "created_at": "2023-06-27T10:21:35Z",
            "votes": {
                "negative": 0,
                "positive": 0,
                "important": 0,
                "liked": 0,
                "disliked": 0,
                "lol": 0,
                "toxic": 0,
                "saved": 0,
                "comments": 0
            }
        },
        {
            "kind": "news",
            "domain": "@JasmyMGT",
            "source": {
                "title": "JasmyCoin Twitter",
                "region": "en",
                "domain": "twitter.com",
                "path": "@jasmymgt"
            },
            "title": "RT @HARA_JasmyCFO: Supporting the Global #Carbon Neutral Challenge\n#Jasmy joins \"the Rice Crop Consortium\" to generate credits and promote\u2026",
            "published_at": "2023-06-21T16:16:01Z",
            "slug": "RT-HARA_JasmyCFO-Supporting-the-Global-Carbon-Neutral-Challenge-Jasmy-joins-the-Rice-Crop-Consortium-to-generate-credits-and-promote",
            "currencies": [
                {
                    "code": "JASMY",
                    "title": "JasmyCoin",
                    "slug": "jasmycoin",
                    "url": "https:\/\/cryptopanic.com\/news\/jasmycoin\/"
                }
            ],
            "id": 18628955,
            "url": "https:\/\/cryptopanic.com\/news\/18628955\/RT-HARA_JasmyCFO-Supporting-the-Global-Carbon-Neutral-Challenge-Jasmy-joins-the-Rice-Crop-Consortium-to-generate-credits-and-promote",
            "created_at": "2023-06-21T16:16:01Z",
            "votes": {
                "negative": 0,
                "positive": 0,
                "important": 0,
                "liked": 0,
                "disliked": 0,
                "lol": 0,
                "toxic": 0,
                "saved": 0,
                "comments": 0
            }
        },
        {
            "kind": "news",
            "domain": "@JasmyMGT",
            "source": {
                "title": "JasmyCoin Twitter",
                "region": "en",
                "domain": "twitter.com",
                "path": "@jasmymgt"
            },
            "title": "RT @blocklikecom: Blocklike #binancelive Coming Soon\uff01\n\n\ufe0fNext Focus: Grasp Web3 Users\n\u23f0June 21,8AM UTC\n\n\nStay tune\u2026",
            "published_at": "2023-06-20T06:39:10Z",
            "slug": "RT-blocklikecom-Blocklike-binancelive-Coming-Soon-Next-Focus-Grasp-Web3-Users-June-218AM-UTC-Stay-tune",
            "currencies": [
                {
                    "code": "JASMY",
                    "title": "JasmyCoin",
                    "slug": "jasmycoin",
                    "url": "https:\/\/cryptopanic.com\/news\/jasmycoin\/"
                }
            ],
            "id": 18612859,
            "url": "https:\/\/cryptopanic.com\/news\/18612859\/RT-blocklikecom-Blocklike-binancelive-Coming-Soon-Next-Focus-Grasp-Web3-Users-June-218AM-UTC-Stay-tune",
            "created_at": "2023-06-20T06:39:10Z",
            "votes": {
                "negative": 0,
                "positive": 0,
                "important": 0,
                "liked": 0,
                "disliked": 0,
                "lol": 0,
                "toxic": 0,
                "saved": 0,
                "comments": 0
            }
        },
        {
            "kind": "news",
            "domain": "@JasmyMGT",
            "source": {
                "title": "JasmyCoin Twitter",
                "region": "en",
                "domain": "twitter.com",
                "path": "@jasmymgt"
            },
            "title": "RT @blocklikecom: Blocklike #binancelive coming back!\n\n\ufe0fNext Focus: Grasp Web3 Users\n\u23f08:00AM UTC, June 21\n \n\nJoi\u2026",
            "published_at": "2023-06-19T10:17:14Z",
            "slug": "RT-blocklikecom-Blocklike-binancelive-coming-back-Next-Focus-Grasp-Web3-Users-800AM-UTC-June-21-Joi",
            "currencies": [
                {
                    "code": "JASMY",
                    "title": "JasmyCoin",
                    "slug": "jasmycoin",
                    "url": "https:\/\/cryptopanic.com\/news\/jasmycoin\/"
                }
            ],
            "id": 18612860,
            "url": "https:\/\/cryptopanic.com\/news\/18612860\/RT-blocklikecom-Blocklike-binancelive-coming-back-Next-Focus-Grasp-Web3-Users-800AM-UTC-June-21-Joi",
            "created_at": "2023-06-19T10:17:14Z",
            "votes": {
                "negative": 0,
                "positive": 0,
                "important": 0,
                "liked": 0,
                "disliked": 0,
                "lol": 0,
                "toxic": 0,
                "saved": 0,
                "comments": 0
            }
        },
        {
            "kind": "news",
            "domain": "@JasmyMGT",
            "source": {
                "title": "JasmyCoin Twitter",
                "region": "en",
                "domain": "twitter.com",
                "path": "@jasmymgt"
            },
            "title": "RT @HARA_JasmyCFO: $Jasmy has entered into a business alliance agreement with a major market maker.\nWe have discussed the terms and details\u2026",
            "published_at": "2023-06-19T07:31:27Z",
            "slug": "RT-HARA_JasmyCFO-Jasmy-has-entered-into-a-business-alliance-agreement-with-a-major-market-maker-We-have-discussed-the-terms-and-details",
            "currencies": [
                {
                    "code": "JASMY",
                    "title": "JasmyCoin",
                    "slug": "jasmycoin",
                    "url": "https:\/\/cryptopanic.com\/news\/jasmycoin\/"
                }
            ],
            "id": 18606255,
            "url": "https:\/\/cryptopanic.com\/news\/18606255\/RT-HARA_JasmyCFO-Jasmy-has-entered-into-a-business-alliance-agreement-with-a-major-market-maker-We-have-discussed-the-terms-and-details",
            "created_at": "2023-06-19T07:31:27Z",
            "votes": {
                "negative": 0,
                "positive": 0,
                "important": 0,
                "liked": 0,
                "disliked": 0,
                "lol": 0,
                "toxic": 0,
                "saved": 0,
                "comments": 0
            }
        },
        {
            "kind": "news",
            "domain": "@JasmyMGT",
            "votes": {
                "negative": 0,
                "positive": 1,
                "important": 0,
                "liked": 1,
                "disliked": 0,
                "lol": 0,
                "toxic": 0,
                "saved": 0,
                "comments": 0
            },
            "source": {
                "title": "JasmyCoin Twitter",
                "region": "en",
                "domain": "twitter.com",
                "path": "@jasmymgt"
            },
            "title": "RT @Akira28882: The next event is @IVS_Official !\n@HARA_JasmyCFO will also speak here.\nWe will talk passionately about #Jasmy,#JasmyLab, \u201cD\u2026",
            "published_at": "2023-06-12T03:26:28Z",
            "slug": "RT-Akira28882-The-next-event-is-IVS_Official-HARA_JasmyCFO-will-also-speak-here-We-will-talk-passionately-about-JasmyJasmyLab-D",
            "currencies": [
                {
                    "code": "JASMY",
                    "title": "JasmyCoin",
                    "slug": "jasmycoin",
                    "url": "https:\/\/cryptopanic.com\/news\/jasmycoin\/"
                }
            ],
            "id": 18556195,
            "url": "https:\/\/cryptopanic.com\/news\/18556195\/RT-Akira28882-The-next-event-is-IVS_Official-HARA_JasmyCFO-will-also-speak-here-We-will-talk-passionately-about-JasmyJasmyLab-D",
            "created_at": "2023-06-12T03:26:28Z"
        },
        {
            "kind": "news",
            "domain": "@JasmyMGT",
            "source": {
                "title": "JasmyCoin Twitter",
                "region": "en",
                "domain": "twitter.com",
                "path": "@jasmymgt"
            },
            "title": "RT @HARA_JasmyCFO: Great to attend the Taipei Computex and display our World First Blockchain Notebook !\n#avita\n$JASMY\n#jasmy",
            "published_at": "2023-05-31T14:29:50Z",
            "slug": "RT-HARA_JasmyCFO-Great-to-attend-the-Taipei-Computex-and-display-our-World-First-Blockchain-Notebook-avita-JASMY-jasmy",
            "currencies": [
                {
                    "code": "JASMY",
                    "title": "JasmyCoin",
                    "slug": "jasmycoin",
                    "url": "https:\/\/cryptopanic.com\/news\/jasmycoin\/"
                }
            ],
            "id": 18476436,
            "url": "https:\/\/cryptopanic.com\/news\/18476436\/RT-HARA_JasmyCFO-Great-to-attend-the-Taipei-Computex-and-display-our-World-First-Blockchain-Notebook-avita-JASMY-jasmy",
            "created_at": "2023-05-31T14:29:50Z",
            "votes": {
                "negative": 0,
                "positive": 0,
                "important": 0,
                "liked": 0,
                "disliked": 0,
                "lol": 0,
                "toxic": 0,
                "saved": 0,
                "comments": 0
            }
        },
        {
            "kind": "news",
            "domain": "@JasmyMGT",
            "source": {
                "title": "JasmyCoin Twitter",
                "region": "en",
                "domain": "twitter.com",
                "path": "@jasmymgt"
            },
            "title": "RT @HARA_JasmyCFO: We are pleased to announce the launch of the AVITA Blockchain PC with $Jasmy's #Blockchain Network at COMPUTEX TAIPEI in\u2026",
            "published_at": "2023-05-31T11:08:32Z",
            "slug": "RT-HARA_JasmyCFO-We-are-pleased-to-announce-the-launch-of-the-AVITA-Blockchain-PC-with-Jasmys-Blockchain-Network-at-COMPUTEX-TAIPEI-in",
            "currencies": [
                {
                    "code": "JASMY",
                    "title": "JasmyCoin",
                    "slug": "jasmycoin",
                    "url": "https:\/\/cryptopanic.com\/news\/jasmycoin\/"
                }
            ],
            "id": 18476437,
            "url": "https:\/\/cryptopanic.com\/news\/18476437\/RT-HARA_JasmyCFO-We-are-pleased-to-announce-the-launch-of-the-AVITA-Blockchain-PC-with-Jasmys-Blockchain-Network-at-COMPUTEX-TAIPEI-in",
            "created_at": "2023-05-31T11:08:32Z",
            "votes": {
                "negative": 0,
                "positive": 0,
                "important": 0,
                "liked": 0,
                "disliked": 0,
                "lol": 0,
                "toxic": 0,
                "saved": 0,
                "comments": 0
            }
        },
        {
            "kind": "news",
            "domain": "@JasmyMGT",
            "source": {
                "title": "JasmyCoin Twitter",
                "region": "en",
                "domain": "twitter.com",
                "path": "@jasmymgt"
            },
            "title": "RT @JasmyGrant: Congratulations to @Edohigan_NW for winning the second selected project on @JasmyGrant, a $100K grant awarded!\n\n@JasmyMGT\u2026",
            "published_at": "2023-05-30T11:09:52Z",
            "slug": "RT-JasmyGrant-Congratulations-to-Edohigan_NW-for-winning-the-second-selected-project-on-JasmyGrant-a-100K-grant-awarded-JasmyMGT",
            "currencies": [
                {
                    "code": "JASMY",
                    "title": "JasmyCoin",
                    "slug": "jasmycoin",
                    "url": "https:\/\/cryptopanic.com\/news\/jasmycoin\/"
                }
            ],
            "id": 18467776,
            "url": "https:\/\/cryptopanic.com\/news\/18467776\/RT-JasmyGrant-Congratulations-to-Edohigan_NW-for-winning-the-second-selected-project-on-JasmyGrant-a-100K-grant-awarded-JasmyMGT",
            "created_at": "2023-05-30T11:09:52Z",
            "votes": {
                "negative": 0,
                "positive": 0,
                "important": 0,
                "liked": 0,
                "disliked": 0,
                "lol": 0,
                "toxic": 0,
                "saved": 0,
                "comments": 0
            }
        },
        {
            "kind": "news",
            "domain": "@JasmyMGT",
            "source": {
                "title": "JasmyCoin Twitter",
                "region": "en",
                "domain": "twitter.com",
                "path": "@jasmymgt"
            },
            "title": "Thank you to @teamz_inc for inviting @JasmyMGT to the #TeamzWeb3Summit in Japan! \n\n#Jasmy is excited to have\u2026",
            "published_at": "2023-05-18T16:32:03Z",
            "slug": "Thank-you-to-teamz_inc-for-inviting-JasmyMGT-to-the-TeamzWeb3Summit-in-Japan-Jasmy-is-excited-to-have",
            "currencies": [
                {
                    "code": "JASMY",
                    "title": "JasmyCoin",
                    "slug": "jasmycoin",
                    "url": "https:\/\/cryptopanic.com\/news\/jasmycoin\/"
                }
            ],
            "id": 18378245,
            "url": "https:\/\/cryptopanic.com\/news\/18378245\/Thank-you-to-teamz_inc-for-inviting-JasmyMGT-to-the-TeamzWeb3Summit-in-Japan-Jasmy-is-excited-to-have",
            "created_at": "2023-05-18T16:32:03Z",
            "votes": {
                "negative": 0,
                "positive": 0,
                "important": 0,
                "liked": 0,
                "disliked": 0,
                "lol": 0,
                "toxic": 0,
                "saved": 0,
                "comments": 0
            }
        },
        {
            "kind": "news",
            "domain": "@JasmyMGT",
            "source": {
                "title": "JasmyCoin Twitter",
                "region": "en",
                "domain": "twitter.com",
                "path": "@jasmymgt"
            },
            "title": "RT @Akira28882: The second day of TeamZ Web3 Summit is about to begin!\nWe are waiting!\n@HARA_JasmyCFO @JasmyMGT @teamz_inc #BTC #Jasmy http\u2026",
            "published_at": "2023-05-18T01:22:02Z",
            "slug": "RT-Akira28882-The-second-day-of-TeamZ-Web3-Summit-is-about-to-begin-We-are-waiting-HARA_JasmyCFO-JasmyMGT-teamz_inc-BTC-Jasmy-http",
            "currencies": [
                {
                    "code": "JASMY",
                    "title": "JasmyCoin",
                    "slug": "jasmycoin",
                    "url": "https:\/\/cryptopanic.com\/news\/jasmycoin\/"
                }
            ],
            "id": 18368578,
            "url": "https:\/\/cryptopanic.com\/news\/18368578\/RT-Akira28882-The-second-day-of-TeamZ-Web3-Summit-is-about-to-begin-We-are-waiting-HARA_JasmyCFO-JasmyMGT-teamz_inc-BTC-Jasmy-http",
            "created_at": "2023-05-18T01:22:02Z",
            "votes": {
                "negative": 0,
                "positive": 0,
                "important": 0,
                "liked": 0,
                "disliked": 0,
                "lol": 0,
                "toxic": 0,
                "saved": 0,
                "comments": 0
            }
        },
        {
            "kind": "news",
            "domain": "@JasmyMGT",
            "source": {
                "title": "JasmyCoin Twitter",
                "region": "en",
                "domain": "twitter.com",
                "path": "@jasmymgt"
            },
            "title": "RT @Akira28882: There are many visitors! \nWe are waiting at the booth!!\n#Jasmy $Jasmy @JasmyMGT @HARA_JasmyCFO @JasmyGrant",
            "published_at": "2023-05-17T03:29:25Z",
            "slug": "RT-Akira28882-There-are-many-visitors-We-are-waiting-at-the-booth-Jasmy-Jasmy-JasmyMGT-HARA_JasmyCFO-JasmyGrant",
            "currencies": [
                {
                    "code": "JASMY",
                    "title": "JasmyCoin",
                    "slug": "jasmycoin",
                    "url": "https:\/\/cryptopanic.com\/news\/jasmycoin\/"
                }
            ],
            "id": 18359415,
            "url": "https:\/\/cryptopanic.com\/news\/18359415\/RT-Akira28882-There-are-many-visitors-We-are-waiting-at-the-booth-Jasmy-Jasmy-JasmyMGT-HARA_JasmyCFO-JasmyGrant",
            "created_at": "2023-05-17T03:29:25Z",
            "votes": {
                "negative": 0,
                "positive": 0,
                "important": 0,
                "liked": 0,
                "disliked": 0,
                "lol": 0,
                "toxic": 0,
                "saved": 0,
                "comments": 0
            }
        },
        {
            "kind": "news",
            "domain": "@JasmyMGT",
            "source": {
                "title": "JasmyCoin Twitter",
                "region": "en",
                "domain": "twitter.com",
                "path": "@jasmymgt"
            },
            "title": "RT @Akira28882: The Teamz Web3 Summit starts today!!\n#Jasmy will also have a booth!\nWe are also doing a stamp rally!\nIt will be an enjoyabl\u2026",
            "published_at": "2023-05-17T00:21:24Z",
            "slug": "RT-Akira28882-The-Teamz-Web3-Summit-starts-today-Jasmy-will-also-have-a-booth-We-are-also-doing-a-stamp-rally-It-will-be-an-enjoyabl",
            "currencies": [
                {
                    "code": "JASMY",
                    "title": "JasmyCoin",
                    "slug": "jasmycoin",
                    "url": "https:\/\/cryptopanic.com\/news\/jasmycoin\/"
                }
            ],
            "id": 18359416,
            "url": "https:\/\/cryptopanic.com\/news\/18359416\/RT-Akira28882-The-Teamz-Web3-Summit-starts-today-Jasmy-will-also-have-a-booth-We-are-also-doing-a-stamp-rally-It-will-be-an-enjoyabl",
            "created_at": "2023-05-17T00:21:24Z",
            "votes": {
                "negative": 0,
                "positive": 0,
                "important": 0,
                "liked": 0,
                "disliked": 0,
                "lol": 0,
                "toxic": 0,
                "saved": 0,
                "comments": 0
            }
        },
        {
            "kind": "news",
            "domain": "@JasmyMGT",
            "source": {
                "title": "JasmyCoin Twitter",
                "region": "en",
                "domain": "twitter.com",
                "path": "@jasmymgt"
            },
            "title": "RT @HARA_JasmyCFO: I will be speaking at the #TEAMZ web3 summit tomorrow. I will be presenting our new service. I look forward to meeting m\u2026",
            "published_at": "2023-05-16T12:54:14Z",
            "slug": "RT-HARA_JasmyCFO-I-will-be-speaking-at-the-TEAMZ-web3-summit-tomorrow-I-will-be-presenting-our-new-service-I-look-forward-to-meeting-m",
            "currencies": [
                {
                    "code": "JASMY",
                    "title": "JasmyCoin",
                    "slug": "jasmycoin",
                    "url": "https:\/\/cryptopanic.com\/news\/jasmycoin\/"
                }
            ],
            "id": 18359417,
            "url": "https:\/\/cryptopanic.com\/news\/18359417\/RT-HARA_JasmyCFO-I-will-be-speaking-at-the-TEAMZ-web3-summit-tomorrow-I-will-be-presenting-our-new-service-I-look-forward-to-meeting-m",
            "created_at": "2023-05-16T12:54:14Z",
            "votes": {
                "negative": 0,
                "positive": 0,
                "important": 0,
                "liked": 0,
                "disliked": 0,
                "lol": 0,
                "toxic": 0,
                "saved": 0,
                "comments": 0
            }
        },
        {
            "kind": "news",
            "domain": "@JasmyMGT",
            "source": {
                "title": "JasmyCoin Twitter",
                "region": "en",
                "domain": "twitter.com",
                "path": "@jasmymgt"
            },
            "title": "RT @Akira28882: This week is Teamz Summit week! \n@HARA_JasmyCFO speech is scheduled between 1:20 pm and 2:25 pm on May 17th.\nWe will also h\u2026",
            "published_at": "2023-05-16T08:07:30Z",
            "slug": "RT-Akira28882-This-week-is-Teamz-Summit-week-HARA_JasmyCFO-speech-is-scheduled-between-120-pm-and-225-pm-on-May-17th-We-will-also-h",
            "currencies": [
                {
                    "code": "JASMY",
                    "title": "JasmyCoin",
                    "slug": "jasmycoin",
                    "url": "https:\/\/cryptopanic.com\/news\/jasmycoin\/"
                }
            ],
            "id": 18359418,
            "url": "https:\/\/cryptopanic.com\/news\/18359418\/RT-Akira28882-This-week-is-Teamz-Summit-week-HARA_JasmyCFO-speech-is-scheduled-between-120-pm-and-225-pm-on-May-17th-We-will-also-h",
            "created_at": "2023-05-16T08:07:30Z",
            "votes": {
                "negative": 0,
                "positive": 0,
                "important": 0,
                "liked": 0,
                "disliked": 0,
                "lol": 0,
                "toxic": 0,
                "saved": 0,
                "comments": 0
            }
        },
        {
            "kind": "news",
            "domain": "@JasmyMGT",
            "source": {
                "title": "JasmyCoin Twitter",
                "region": "en",
                "domain": "twitter.com",
                "path": "@jasmymgt"
            },
            "title": "RT @HARA_JasmyCFO: \u300cTo BINANCE: Remove $JASMY from the Innovation Zone for its True Potential to Thrive\u300d via @chang\u2026",
            "published_at": "2023-05-15T03:32:56Z",
            "slug": "RT-HARA_JasmyCFO-To-BINANCE-Remove-JASMY-from-the-Innovation-Zone-for-its-True-Potential-to-Thrive-via-chang",
            "currencies": [
                {
                    "code": "JASMY",
                    "title": "JasmyCoin",
                    "slug": "jasmycoin",
                    "url": "https:\/\/cryptopanic.com\/news\/jasmycoin\/"
                }
            ],
            "id": 18342458,
            "url": "https:\/\/cryptopanic.com\/news\/18342458\/RT-HARA_JasmyCFO-To-BINANCE-Remove-JASMY-from-the-Innovation-Zone-for-its-True-Potential-to-Thrive-via-chang",
            "created_at": "2023-05-15T03:32:56Z",
            "votes": {
                "negative": 0,
                "positive": 0,
                "important": 0,
                "liked": 0,
                "disliked": 0,
                "lol": 0,
                "toxic": 0,
                "saved": 0,
                "comments": 0
            }
        }
    ]
}
