{
    "count": 200,
    "next": "https:\/\/cryptopanic.com\/api\/v1\/posts\/?auth_token=01c356e89ffc1b8eba2127c81fc8c66ee0eace75&kind=news&currencies=PSG&page=2",
    "previous": null,
    "results": [
        {
            "kind": "news",
            "domain": "@PSG_inside",
            "source": {
                "title": "Paris Saint-Germain Fan Token Twitter",
                "region": "en",
                "domain": "twitter.com",
                "path": "@psg_inside"
            },
            "title": " Welcome to Paris, Lucas! \n\n#WelcomeHern\u00e1ndez",
            "published_at": "2023-07-09T13:27:48Z",
            "slug": "Welcome-to-Paris-Lucas-WelcomeHernandez",
            "currencies": [
                {
                    "code": "PSG",
                    "title": "Paris Saint-Germain Fan Token",
                    "slug": "paris-saint-germain-fan-token",
                    "url": "https:\/\/cryptopanic.com\/news\/paris-saint-germain-fan-token\/"
                }
            ],
            "id": 18750922,
            "url": "https:\/\/cryptopanic.com\/news\/18750922\/Welcome-to-Paris-Lucas-WelcomeHernandez",
            "created_at": "2023-07-09T13:27:48Z",
            "votes": {
                "negative": 0,
                "positive": 0,
                "important": 0,
                "liked": 0,
                "disliked": 0,
                "lol": 0,
                "toxic": 0,
                "saved": 0,
                "comments": 0
            }
        },
        {
            "kind": "news",
            "domain": "@PSG_inside",
            "source": {
                "title": "Paris Saint-Germain Fan Token Twitter",
                "region": "en",
                "domain": "twitter.com",
                "path": "@psg_inside"
            },
            "title": "Let\u2019s make \ud835\udc07\ud835\udc08\ud835\udc12\ud835\udc13\ud835\udc0e\ud835\udc11\ud835\udc18 in Paris \n\n#WelcomeHern\u00e1ndez \ufe0f",
            "published_at": "2023-07-09T12:34:19Z",
            "slug": "Lets-make-HISTORY-in-Paris-WelcomeHernandez",
            "currencies": [
                {
                    "code": "PSG",
                    "title": "Paris Saint-Germain Fan Token",
                    "slug": "paris-saint-germain-fan-token",
                    "url": "https:\/\/cryptopanic.com\/news\/paris-saint-germain-fan-token\/"
                }
            ],
            "id": 18750923,
            "url": "https:\/\/cryptopanic.com\/news\/18750923\/Lets-make-HISTORY-in-Paris-WelcomeHernandez",
            "created_at": "2023-07-09T12:34:19Z",
            "votes": {
                "negative": 0,
                "positive": 0,
                "important": 0,
                "liked": 0,
                "disliked": 0,
                "lol": 0,
                "toxic": 0,
                "saved": 0,
                "comments": 0
            }
        },
        {
            "kind": "news",
            "domain": "@PSG_inside",
            "source": {
                "title": "Paris Saint-Germain Fan Token Twitter",
                "region": "en",
                "domain": "twitter.com",
                "path": "@psg_inside"
            },
            "title": "Let\u2019s make \ud835\udc07\ud835\udc08\ud835\udc12\ud835\udc13\ud835\udc0e\ud835\udc11\ud835\udc18 in Paris \n\n#WelcomeLeeKangIn \ufe0f",
            "published_at": "2023-07-08T18:37:23Z",
            "slug": "Lets-make-HISTORY-in-Paris-WelcomeLeeKangIn",
            "currencies": [
                {
                    "code": "PSG",
                    "title": "Paris Saint-Germain Fan Token",
                    "slug": "paris-saint-germain-fan-token",
                    "url": "https:\/\/cryptopanic.com\/news\/paris-saint-germain-fan-token\/"
                }
            ],
            "id": 18746546,
            "url": "https:\/\/cryptopanic.com\/news\/18746546\/Lets-make-HISTORY-in-Paris-WelcomeLeeKangIn",
            "created_at": "2023-07-08T18:37:23Z",
            "votes": {
                "negative": 0,
                "positive": 0,
                "important": 0,
                "liked": 0,
                "disliked": 0,
                "lol": 0,
                "toxic": 0,
                "saved": 0,
                "comments": 0
            }
        },
        {
            "kind": "news",
            "domain": "@PSG_inside",
            "source": {
                "title": "Paris Saint-Germain Fan Token Twitter",
                "region": "en",
                "domain": "twitter.com",
                "path": "@psg_inside"
            },
            "title": "Let\u2019s make \ud835\udc07\ud835\udc08\ud835\udc12\ud835\udc13\ud835\udc0e\ud835\udc11\ud835\udc18 in Paris \n\n#WelcomeUgarte \ufe0f",
            "published_at": "2023-07-07T13:12:39Z",
            "slug": "Lets-make-HISTORY-in-Paris-WelcomeUgarte",
            "currencies": [
                {
                    "code": "PSG",
                    "title": "Paris Saint-Germain Fan Token",
                    "slug": "paris-saint-germain-fan-token",
                    "url": "https:\/\/cryptopanic.com\/news\/paris-saint-germain-fan-token\/"
                }
            ],
            "id": 18741885,
            "url": "https:\/\/cryptopanic.com\/news\/18741885\/Lets-make-HISTORY-in-Paris-WelcomeUgarte",
            "created_at": "2023-07-07T13:12:39Z",
            "votes": {
                "negative": 0,
                "positive": 0,
                "important": 0,
                "liked": 0,
                "disliked": 0,
                "lol": 0,
                "toxic": 0,
                "saved": 0,
                "comments": 0
            }
        },
        {
            "kind": "news",
            "domain": "@PSG_inside",
            "source": {
                "title": "Paris Saint-Germain Fan Token Twitter",
                "region": "en",
                "domain": "twitter.com",
                "path": "@psg_inside"
            },
            "title": "Let\u2019s make \ud835\udc07\ud835\udc08\ud835\udc12\ud835\udc13\ud835\udc0e\ud835\udc11\ud835\udc18 in Paris! \n\n#WelcomeAsensio \ufe0f",
            "published_at": "2023-07-06T13:18:21Z",
            "slug": "Lets-make-HISTORY-in-Paris-WelcomeAsensio",
            "currencies": [
                {
                    "code": "PSG",
                    "title": "Paris Saint-Germain Fan Token",
                    "slug": "paris-saint-germain-fan-token",
                    "url": "https:\/\/cryptopanic.com\/news\/paris-saint-germain-fan-token\/"
                }
            ],
            "id": 18734491,
            "url": "https:\/\/cryptopanic.com\/news\/18734491\/Lets-make-HISTORY-in-Paris-WelcomeAsensio",
            "created_at": "2023-07-06T13:18:21Z",
            "votes": {
                "negative": 0,
                "positive": 0,
                "important": 0,
                "liked": 0,
                "disliked": 0,
                "lol": 0,
                "toxic": 0,
                "saved": 0,
                "comments": 0
            }
        },
        {
            "kind": "news",
            "domain": "@PSG_inside",
            "source": {
                "title": "Paris Saint-Germain Fan Token Twitter",
                "region": "en",
                "domain": "twitter.com",
                "path": "@psg_inside"
            },
            "title": "A new coach in town \ufe0f\n\n#WelcomeToParisLuisEnrique",
            "published_at": "2023-07-05T19:08:05Z",
            "slug": "A-new-coach-in-town-WelcomeToParisLuisEnrique",
            "currencies": [
                {
                    "code": "PSG",
                    "title": "Paris Saint-Germain Fan Token",
                    "slug": "paris-saint-germain-fan-token",
                    "url": "https:\/\/cryptopanic.com\/news\/paris-saint-germain-fan-token\/"
                }
            ],
            "id": 18725998,
            "url": "https:\/\/cryptopanic.com\/news\/18725998\/A-new-coach-in-town-WelcomeToParisLuisEnrique",
            "created_at": "2023-07-05T19:08:05Z",
            "votes": {
                "negative": 0,
                "positive": 0,
                "important": 0,
                "liked": 0,
                "disliked": 0,
                "lol": 0,
                "toxic": 0,
                "saved": 0,
                "comments": 0
            }
        },
        {
            "kind": "news",
            "domain": "@PSG_inside",
            "source": {
                "title": "Paris Saint-Germain Fan Token Twitter",
                "region": "en",
                "domain": "twitter.com",
                "path": "@psg_inside"
            },
            "title": "\ud83c\udd95\u2b1c\ufe0f\n\n\ud835\udc00\ud835\udc30\ud835\udc1a\ud835\udc32 23\/24 \ufe0f\n\n\ufe0f \n\n#\ud835\udc3c\ud835\udc36\ud835\udc3c\ud835\udc36\ud835\udc38\ud835\udc46\ud835\udc47\ud835\udc43\ud835\udc34\ud835\udc45\ud835\udc3c\ud835\udc46",
            "published_at": "2023-07-02T13:39:46Z",
            "slug": "Away-2324-ICICESTPARIS",
            "currencies": [
                {
                    "code": "PSG",
                    "title": "Paris Saint-Germain Fan Token",
                    "slug": "paris-saint-germain-fan-token",
                    "url": "https:\/\/cryptopanic.com\/news\/paris-saint-germain-fan-token\/"
                }
            ],
            "id": 18704003,
            "url": "https:\/\/cryptopanic.com\/news\/18704003\/Away-2324-ICICESTPARIS",
            "created_at": "2023-07-02T13:39:46Z",
            "votes": {
                "negative": 0,
                "positive": 0,
                "important": 0,
                "liked": 0,
                "disliked": 0,
                "lol": 0,
                "toxic": 0,
                "saved": 0,
                "comments": 0
            }
        },
        {
            "kind": "news",
            "domain": "@PSG_inside",
            "source": {
                "title": "Paris Saint-Germain Fan Token Twitter",
                "region": "en",
                "domain": "twitter.com",
                "path": "@psg_inside"
            },
            "title": " \ud835\udc0d\ud835\udc04\ud835\udc17\ud835\udc13 \ud835\udc06\ud835\udc00\ud835\udc0c\ud835\udc04\n\n\ud83c\udd9a Clermont\n\ufe0f 03\/06 - 21h\n\ufe0f Parc des Princes\n\n@visitrwanda_now I #PSGCF63",
            "published_at": "2023-06-02T08:21:45Z",
            "slug": "NEXT-GAME-Clermont-0306-21h-Parc-des-Princes-visitrwanda_now-I-PSGCF63",
            "currencies": [
                {
                    "code": "PSG",
                    "title": "Paris Saint-Germain Fan Token",
                    "slug": "paris-saint-germain-fan-token",
                    "url": "https:\/\/cryptopanic.com\/news\/paris-saint-germain-fan-token\/"
                }
            ],
            "id": 18486770,
            "url": "https:\/\/cryptopanic.com\/news\/18486770\/NEXT-GAME-Clermont-0306-21h-Parc-des-Princes-visitrwanda_now-I-PSGCF63",
            "created_at": "2023-06-02T08:21:45Z",
            "votes": {
                "negative": 0,
                "positive": 0,
                "important": 0,
                "liked": 0,
                "disliked": 0,
                "lol": 0,
                "toxic": 0,
                "saved": 0,
                "comments": 0
            }
        },
        {
            "kind": "news",
            "domain": "@PSG_inside",
            "source": {
                "title": "Paris Saint-Germain Fan Token Twitter",
                "region": "en",
                "domain": "twitter.com",
                "path": "@psg_inside"
            },
            "title": "RT @visitrwanda_now: Murakaza neza! Bienvenue!\n\n@PSG_inside Legend Pedro Pauleta has arrived in #Rwanda tonight as part of our unique partn\u2026",
            "published_at": "2023-05-26T20:44:25Z",
            "slug": "RT-visitrwanda_now-Murakaza-neza-Bienvenue-PSG_inside-Legend-Pedro-Pauleta-has-arrived-in-Rwanda-tonight-as-part-of-our-unique-partn",
            "currencies": [
                {
                    "code": "PSG",
                    "title": "Paris Saint-Germain Fan Token",
                    "slug": "paris-saint-germain-fan-token",
                    "url": "https:\/\/cryptopanic.com\/news\/paris-saint-germain-fan-token\/"
                }
            ],
            "id": 18443278,
            "url": "https:\/\/cryptopanic.com\/news\/18443278\/RT-visitrwanda_now-Murakaza-neza-Bienvenue-PSG_inside-Legend-Pedro-Pauleta-has-arrived-in-Rwanda-tonight-as-part-of-our-unique-partn",
            "created_at": "2023-05-26T20:44:25Z",
            "votes": {
                "negative": 0,
                "positive": 0,
                "important": 0,
                "liked": 0,
                "disliked": 0,
                "lol": 0,
                "toxic": 0,
                "saved": 0,
                "comments": 0
            }
        },
        {
            "kind": "news",
            "domain": "@PSG_inside",
            "source": {
                "title": "Paris Saint-Germain Fan Token Twitter",
                "region": "en",
                "domain": "twitter.com",
                "path": "@psg_inside"
            },
            "title": "\u23f1 75' - @donnarumma s'impose devant Hein !\n\n#AJAPSG 1-2 I #Ligue1",
            "published_at": "2023-05-21T20:19:42Z",
            "slug": "75-donnarumma-simpose-devant-Hein-AJAPSG-1-2-I-Ligue1",
            "currencies": [
                {
                    "code": "PSG",
                    "title": "Paris Saint-Germain Fan Token",
                    "slug": "paris-saint-germain-fan-token",
                    "url": "https:\/\/cryptopanic.com\/news\/paris-saint-germain-fan-token\/"
                }
            ],
            "id": 18398973,
            "url": "https:\/\/cryptopanic.com\/news\/18398973\/75-donnarumma-simpose-devant-Hein-AJAPSG-1-2-I-Ligue1",
            "created_at": "2023-05-21T20:19:42Z",
            "votes": {
                "negative": 0,
                "positive": 0,
                "important": 0,
                "liked": 0,
                "disliked": 0,
                "lol": 0,
                "toxic": 0,
                "saved": 0,
                "comments": 0
            }
        },
        {
            "kind": "news",
            "domain": "@PSG_inside",
            "source": {
                "title": "Paris Saint-Germain Fan Token Twitter",
                "region": "en",
                "domain": "twitter.com",
                "path": "@psg_inside"
            },
            "title": "\ud835\udc75\ud835\udc86\ud835\udc98 \ud835\udc94\ud835\udc96\ud835\udc84\ud835\udc84\ud835\udc86\ud835\udc94\ud835\udc94 \ud835\udc96\ud835\udc8f\ud835\udc8d\ud835\udc90\ud835\udc84\ud835\udc8c\ud835\udc86\ud835\udc85! \n\n#Marquinhos2028",
            "published_at": "2023-05-19T12:34:20Z",
            "slug": "New-success-unlocked-Marquinhos2028",
            "currencies": [
                {
                    "code": "PSG",
                    "title": "Paris Saint-Germain Fan Token",
                    "slug": "paris-saint-germain-fan-token",
                    "url": "https:\/\/cryptopanic.com\/news\/paris-saint-germain-fan-token\/"
                }
            ],
            "id": 18387918,
            "url": "https:\/\/cryptopanic.com\/news\/18387918\/New-success-unlocked-Marquinhos2028",
            "created_at": "2023-05-19T12:34:20Z",
            "votes": {
                "negative": 0,
                "positive": 0,
                "important": 0,
                "liked": 0,
                "disliked": 0,
                "lol": 0,
                "toxic": 0,
                "saved": 0,
                "comments": 0
            }
        },
        {
            "kind": "news",
            "domain": "@PSG_inside",
            "source": {
                "title": "Paris Saint-Germain Fan Token Twitter",
                "region": "en",
                "domain": "twitter.com",
                "path": "@psg_inside"
            },
            "title": "RT @PSG_English:  Did you know: Road injuries is the number 1 cause of death for ages 5-19 worldwide? Let\u2019s prioritize safe &amp; sustainable\u2026",
            "published_at": "2023-05-16T12:13:13Z",
            "slug": "RT-PSG_English-Did-you-know-Road-injuries-is-the-number-1-cause-of-death-for-ages-5-19-worldwide-Lets-prioritize-safe-amp-sustainable",
            "currencies": [
                {
                    "code": "PSG",
                    "title": "Paris Saint-Germain Fan Token",
                    "slug": "paris-saint-germain-fan-token",
                    "url": "https:\/\/cryptopanic.com\/news\/paris-saint-germain-fan-token\/"
                }
            ],
            "id": 18360866,
            "url": "https:\/\/cryptopanic.com\/news\/18360866\/RT-PSG_English-Did-you-know-Road-injuries-is-the-number-1-cause-of-death-for-ages-5-19-worldwide-Lets-prioritize-safe-amp-sustainable",
            "created_at": "2023-05-16T12:13:13Z",
            "votes": {
                "negative": 0,
                "positive": 0,
                "important": 0,
                "liked": 0,
                "disliked": 0,
                "lol": 0,
                "toxic": 0,
                "saved": 0,
                "comments": 0
            }
        },
        {
            "kind": "news",
            "domain": "@PSG_inside",
            "source": {
                "title": "Paris Saint-Germain Fan Token Twitter",
                "region": "en",
                "domain": "twitter.com",
                "path": "@psg_inside"
            },
            "title": " \ud835\udc0d\ud835\udc04\ud835\udc17\ud835\udc13 \ud835\udc06\ud835\udc00\ud835\udc0c\ud835\udc04  \n\n\ud83c\udd9a Ajaccio\n 13\/05 - 21h\n \ud835\udc0f\ud835\udc1a\ud835\udc2b\ud835\udc1c \ud835\udc1d\ud835\udc1e\ud835\udc2c \ud835\udc0f\ud835\udc2b\ud835\udc22\ud835\udc27\ud835\udc1c\ud835\udc1e\ud835\udc2c\n\n@visitrwanda_now I #PSGACA",
            "published_at": "2023-05-11T17:58:00Z",
            "slug": "NEXT-GAME-Ajaccio-1305-21h-Parc-des-Princes-visitrwanda_now-I-PSGACA",
            "currencies": [
                {
                    "code": "PSG",
                    "title": "Paris Saint-Germain Fan Token",
                    "slug": "paris-saint-germain-fan-token",
                    "url": "https:\/\/cryptopanic.com\/news\/paris-saint-germain-fan-token\/"
                }
            ],
            "id": 18323902,
            "url": "https:\/\/cryptopanic.com\/news\/18323902\/NEXT-GAME-Ajaccio-1305-21h-Parc-des-Princes-visitrwanda_now-I-PSGACA",
            "created_at": "2023-05-11T17:58:00Z",
            "votes": {
                "negative": 0,
                "positive": 0,
                "important": 0,
                "liked": 0,
                "disliked": 0,
                "lol": 0,
                "toxic": 0,
                "saved": 0,
                "comments": 0
            }
        },
        {
            "kind": "news",
            "domain": "@PSG_inside",
            "source": {
                "title": "Paris Saint-Germain Fan Token Twitter",
                "region": "en",
                "domain": "twitter.com",
                "path": "@psg_inside"
            },
            "title": "3\u20e3 minutes\n\n#\ud835\udc04\ud835\udc12\ud835\udc13\ud835\udc00\ud835\udc02\ud835\udc0f\ud835\udc12\ud835\udc06 | \ud835\udfcf-\ud835\udfd1",
            "published_at": "2023-05-07T20:33:42Z",
            "slug": "3-minutes-ESTACPSG-1-3",
            "currencies": [
                {
                    "code": "PSG",
                    "title": "Paris Saint-Germain Fan Token",
                    "slug": "paris-saint-germain-fan-token",
                    "url": "https:\/\/cryptopanic.com\/news\/paris-saint-germain-fan-token\/"
                }
            ],
            "id": 18288974,
            "url": "https:\/\/cryptopanic.com\/news\/18288974\/3-minutes-ESTACPSG-1-3",
            "created_at": "2023-05-07T20:33:42Z",
            "votes": {
                "negative": 0,
                "positive": 0,
                "important": 0,
                "liked": 0,
                "disliked": 0,
                "lol": 0,
                "toxic": 0,
                "saved": 0,
                "comments": 0
            }
        },
        {
            "kind": "news",
            "domain": "@PSG_inside",
            "source": {
                "title": "Paris Saint-Germain Fan Token Twitter",
                "region": "en",
                "domain": "twitter.com",
                "path": "@psg_inside"
            },
            "title": "\u23f1\ufe0f 89'\n\nLorient fait le break. \n\n#Ligue1\u00a0I #PSGFCL 1-3",
            "published_at": "2023-04-30T16:52:59Z",
            "slug": "89-Lorient-fait-le-break-Ligue1-I-PSGFCL-1-3",
            "currencies": [
                {
                    "code": "PSG",
                    "title": "Paris Saint-Germain Fan Token",
                    "slug": "paris-saint-germain-fan-token",
                    "url": "https:\/\/cryptopanic.com\/news\/paris-saint-germain-fan-token\/"
                }
            ],
            "id": 18236155,
            "url": "https:\/\/cryptopanic.com\/news\/18236155\/89-Lorient-fait-le-break-Ligue1-I-PSGFCL-1-3",
            "created_at": "2023-04-30T16:52:59Z",
            "votes": {
                "negative": 0,
                "positive": 0,
                "important": 0,
                "liked": 0,
                "disliked": 0,
                "lol": 0,
                "toxic": 0,
                "saved": 0,
                "comments": 0
            }
        },
        {
            "kind": "news",
            "domain": "@PSG_inside",
            "source": {
                "title": "Paris Saint-Germain Fan Token Twitter",
                "region": "en",
                "domain": "twitter.com",
                "path": "@psg_inside"
            },
            "title": " \ud835\udc0d\ud835\udc04\ud835\udc17\ud835\udc13 \ud835\udc06\ud835\udc00\ud835\udc0c\ud835\udc04\n\n\ud83c\udd9a Lorient\n\ufe0f 30\/04 - 17h05\n\ufe0f Parc des Princes\n\n@visitrwanda_now I #PSGFCL",
            "published_at": "2023-04-28T18:00:00Z",
            "slug": "NEXT-GAME-Lorient-3004-17h05-Parc-des-Princes-visitrwanda_now-I-PSGFCL",
            "currencies": [
                {
                    "code": "PSG",
                    "title": "Paris Saint-Germain Fan Token",
                    "slug": "paris-saint-germain-fan-token",
                    "url": "https:\/\/cryptopanic.com\/news\/paris-saint-germain-fan-token\/"
                }
            ],
            "id": 18225613,
            "url": "https:\/\/cryptopanic.com\/news\/18225613\/NEXT-GAME-Lorient-3004-17h05-Parc-des-Princes-visitrwanda_now-I-PSGFCL",
            "created_at": "2023-04-28T18:00:00Z",
            "votes": {
                "negative": 0,
                "positive": 0,
                "important": 0,
                "liked": 0,
                "disliked": 0,
                "lol": 0,
                "toxic": 0,
                "saved": 0,
                "comments": 0
            }
        },
        {
            "kind": "news",
            "domain": "@PSG_inside",
            "source": {
                "title": "Paris Saint-Germain Fan Token Twitter",
                "region": "en",
                "domain": "twitter.com",
                "path": "@psg_inside"
            },
            "title": "RT @socios: Another day, another epic @PSG_English pennant! ",
            "published_at": "2023-04-27T16:26:43Z",
            "slug": "RT-socios-Another-day-another-epic-PSG_English-pennant",
            "currencies": [
                {
                    "code": "PSG",
                    "title": "Paris Saint-Germain Fan Token",
                    "slug": "paris-saint-germain-fan-token",
                    "url": "https:\/\/cryptopanic.com\/news\/paris-saint-germain-fan-token\/"
                }
            ],
            "id": 18217307,
            "url": "https:\/\/cryptopanic.com\/news\/18217307\/RT-socios-Another-day-another-epic-PSG_English-pennant",
            "created_at": "2023-04-27T16:26:43Z",
            "votes": {
                "negative": 0,
                "positive": 0,
                "important": 0,
                "liked": 0,
                "disliked": 0,
                "lol": 0,
                "toxic": 0,
                "saved": 0,
                "comments": 0
            }
        },
        {
            "kind": "news",
            "domain": "@PSG_inside",
            "source": {
                "title": "Paris Saint-Germain Fan Token Twitter",
                "region": "en",
                "domain": "twitter.com",
                "path": "@psg_inside"
            },
            "title": "\ufe0f #OnThisDay - 1998\n\nLes adieux d'une #PSGLegend au Parc des Princes. \ufe0f\n\nLe dernier match de \ud835\udde5\ud835\uddee\ud835\uddf6\u0301 dans son jard\u2026",
            "published_at": "2023-04-25T11:54:47Z",
            "slug": "OnThisDay-1998-Les-adieux-dune-PSGLegend-au-Parc-des-Princes-Le-dernier-match-de-Rai-dans-son-jard",
            "currencies": [
                {
                    "code": "PSG",
                    "title": "Paris Saint-Germain Fan Token",
                    "slug": "paris-saint-germain-fan-token",
                    "url": "https:\/\/cryptopanic.com\/news\/paris-saint-germain-fan-token\/"
                }
            ],
            "id": 18198323,
            "url": "https:\/\/cryptopanic.com\/news\/18198323\/OnThisDay-1998-Les-adieux-dune-PSGLegend-au-Parc-des-Princes-Le-dernier-match-de-Rai-dans-son-jard",
            "created_at": "2023-04-25T11:54:47Z",
            "votes": {
                "negative": 0,
                "positive": 0,
                "important": 0,
                "liked": 0,
                "disliked": 0,
                "lol": 0,
                "toxic": 0,
                "saved": 0,
                "comments": 0
            }
        },
        {
            "kind": "news",
            "domain": "@PSG_inside",
            "source": {
                "title": "Paris Saint-Germain Fan Token Twitter",
                "region": "en",
                "domain": "twitter.com",
                "path": "@psg_inside"
            },
            "title": "RT @socios: The first @PSG_English digital collectible has officially DROPPED! \n\nOwn the Fan Token Holder-designed #MarseillePSG pennant N\u2026",
            "published_at": "2023-04-24T13:27:27Z",
            "slug": "RT-socios-The-first-PSG_English-digital-collectible-has-officially-DROPPED-Own-the-Fan-Token-Holder-designed-MarseillePSG-pennant-N",
            "currencies": [
                {
                    "code": "PSG",
                    "title": "Paris Saint-Germain Fan Token",
                    "slug": "paris-saint-germain-fan-token",
                    "url": "https:\/\/cryptopanic.com\/news\/paris-saint-germain-fan-token\/"
                }
            ],
            "id": 18189490,
            "url": "https:\/\/cryptopanic.com\/news\/18189490\/RT-socios-The-first-PSG_English-digital-collectible-has-officially-DROPPED-Own-the-Fan-Token-Holder-designed-MarseillePSG-pennant-N",
            "created_at": "2023-04-24T13:27:27Z",
            "votes": {
                "negative": 0,
                "positive": 0,
                "important": 0,
                "liked": 0,
                "disliked": 0,
                "lol": 0,
                "toxic": 0,
                "saved": 0,
                "comments": 0
            }
        },
        {
            "kind": "news",
            "domain": "@PSG_inside",
            "source": {
                "title": "Paris Saint-Germain Fan Token Twitter",
                "region": "en",
                "domain": "twitter.com",
                "path": "@psg_inside"
            },
            "title": "\ud835\udc6d\ufe0f\ud835\udc6a\ud835\udc7c\ud835\udc7a \n\n#SCOPSG",
            "published_at": "2023-04-19T11:38:29Z",
            "slug": "FCUS-SCOPSG",
            "currencies": [
                {
                    "code": "PSG",
                    "title": "Paris Saint-Germain Fan Token",
                    "slug": "paris-saint-germain-fan-token",
                    "url": "https:\/\/cryptopanic.com\/news\/paris-saint-germain-fan-token\/"
                }
            ],
            "id": 18153615,
            "url": "https:\/\/cryptopanic.com\/news\/18153615\/FCUS-SCOPSG",
            "created_at": "2023-04-19T11:38:29Z",
            "votes": {
                "negative": 0,
                "positive": 0,
                "important": 0,
                "liked": 0,
                "disliked": 0,
                "lol": 0,
                "toxic": 0,
                "saved": 0,
                "comments": 0
            }
        }
    ]
}
