{
    "count": 200,
    "next": "https:\/\/cryptopanic.com\/api\/v1\/posts\/?auth_token=01c356e89ffc1b8eba2127c81fc8c66ee0eace75&kind=news&currencies=ARKM&page=2",
    "previous": null,
    "results": [
        {
            "kind": "news",
            "domain": "@ArkhamIntel",
            "source": {
                "title": "Arkham Twitter",
                "region": "en",
                "domain": "twitter.com",
                "path": "@arkhamintel"
            },
            "title": "RT @BNBCHAIN: big news from our friends at @ArkhamIntel ",
            "published_at": "2023-07-11T23:05:41Z",
            "slug": "RT-BNBCHAIN-big-news-from-our-friends-at-ArkhamIntel",
            "currencies": [
                {
                    "code": "ARKM",
                    "title": "Arkham",
                    "slug": "arkham",
                    "url": "https:\/\/cryptopanic.com\/news\/arkham\/"
                }
            ],
            "id": 18762029,
            "url": "https:\/\/cryptopanic.com\/news\/18762029\/RT-BNBCHAIN-big-news-from-our-friends-at-ArkhamIntel",
            "created_at": "2023-07-11T23:05:41Z",
            "votes": {
                "negative": 0,
                "positive": 0,
                "important": 0,
                "liked": 0,
                "disliked": 0,
                "lol": 0,
                "toxic": 0,
                "saved": 0,
                "comments": 0
            }
        },
        {
            "kind": "news",
            "domain": "@ArkhamIntel",
            "source": {
                "title": "Arkham Twitter",
                "region": "en",
                "domain": "twitter.com",
                "path": "@arkhamintel"
            },
            "title": "RT @RealMiguelMorel: Given our discussions about privacy and transparency, I\u2019ll lead by example and do what few founders or influencers in\u2026",
            "published_at": "2023-07-11T21:31:54Z",
            "slug": "RT-RealMiguelMorel-Given-our-discussions-about-privacy-and-transparency-Ill-lead-by-example-and-do-what-few-founders-or-influencers-in",
            "currencies": [
                {
                    "code": "ARKM",
                    "title": "Arkham",
                    "slug": "arkham",
                    "url": "https:\/\/cryptopanic.com\/news\/arkham\/"
                }
            ],
            "id": 18762032,
            "url": "https:\/\/cryptopanic.com\/news\/18762032\/RT-RealMiguelMorel-Given-our-discussions-about-privacy-and-transparency-Ill-lead-by-example-and-do-what-few-founders-or-influencers-in",
            "created_at": "2023-07-11T21:31:54Z",
            "votes": {
                "negative": 0,
                "positive": 0,
                "important": 0,
                "liked": 0,
                "disliked": 0,
                "lol": 0,
                "toxic": 0,
                "saved": 0,
                "comments": 0
            }
        },
        {
            "kind": "news",
            "domain": "@ArkhamIntel",
            "source": {
                "title": "Arkham Twitter",
                "region": "en",
                "domain": "twitter.com",
                "path": "@arkhamintel"
            },
            "title": "RT @RealMiguelMorel: I'll be joining the @MarioNawfal CryptoTownHall at 14:45 UTC to have an open discussion about Arkham and our new Inte\u2026",
            "published_at": "2023-07-11T13:44:19Z",
            "slug": "RT-RealMiguelMorel-Ill-be-joining-the-MarioNawfal-CryptoTownHall-at-1445-UTC-to-have-an-open-discussion-about-Arkham-and-our-new-Inte",
            "currencies": [
                {
                    "code": "ARKM",
                    "title": "Arkham",
                    "slug": "arkham",
                    "url": "https:\/\/cryptopanic.com\/news\/arkham\/"
                }
            ],
            "id": 18762034,
            "url": "https:\/\/cryptopanic.com\/news\/18762034\/RT-RealMiguelMorel-Ill-be-joining-the-MarioNawfal-CryptoTownHall-at-1445-UTC-to-have-an-open-discussion-about-Arkham-and-our-new-Inte",
            "created_at": "2023-07-11T13:44:19Z",
            "votes": {
                "negative": 0,
                "positive": 0,
                "important": 0,
                "liked": 0,
                "disliked": 0,
                "lol": 0,
                "toxic": 0,
                "saved": 0,
                "comments": 0
            }
        },
        {
            "kind": "news",
            "domain": "@ArkhamIntel",
            "source": {
                "title": "Arkham Twitter",
                "region": "en",
                "domain": "twitter.com",
                "path": "@arkhamintel"
            },
            "title": "In addition to legitimate discussion, which we welcome, there\u2019s been a lot of inaccurate reporting, doctored images\u2026",
            "published_at": "2023-07-11T13:42:43Z",
            "slug": "In-addition-to-legitimate-discussion-which-we-welcome-theres-been-a-lot-of-inaccurate-reporting-doctored-images",
            "currencies": [
                {
                    "code": "ARKM",
                    "title": "Arkham",
                    "slug": "arkham",
                    "url": "https:\/\/cryptopanic.com\/news\/arkham\/"
                }
            ],
            "id": 18762036,
            "url": "https:\/\/cryptopanic.com\/news\/18762036\/In-addition-to-legitimate-discussion-which-we-welcome-theres-been-a-lot-of-inaccurate-reporting-doctored-images",
            "created_at": "2023-07-11T13:42:43Z",
            "votes": {
                "negative": 0,
                "positive": 0,
                "important": 0,
                "liked": 0,
                "disliked": 0,
                "lol": 0,
                "toxic": 0,
                "saved": 0,
                "comments": 0
            }
        },
        {
            "kind": "news",
            "domain": "@ArkhamIntel",
            "source": {
                "title": "Arkham Twitter",
                "region": "en",
                "domain": "twitter.com",
                "path": "@arkhamintel"
            },
            "title": "Our Founder and CEO @realmiguelmorel will be joining a Twitter space with @MarioNawfal at 14:45 UTC to have an open\u2026",
            "published_at": "2023-07-11T13:42:32Z",
            "slug": "Our-Founder-and-CEO-realmiguelmorel-will-be-joining-a-Twitter-space-with-MarioNawfal-at-1445-UTC-to-have-an-open",
            "currencies": [
                {
                    "code": "ARKM",
                    "title": "Arkham",
                    "slug": "arkham",
                    "url": "https:\/\/cryptopanic.com\/news\/arkham\/"
                }
            ],
            "id": 18762039,
            "url": "https:\/\/cryptopanic.com\/news\/18762039\/Our-Founder-and-CEO-realmiguelmorel-will-be-joining-a-Twitter-space-with-MarioNawfal-at-1445-UTC-to-have-an-open",
            "created_at": "2023-07-11T13:42:32Z",
            "votes": {
                "negative": 0,
                "positive": 0,
                "important": 0,
                "liked": 0,
                "disliked": 0,
                "lol": 0,
                "toxic": 0,
                "saved": 0,
                "comments": 0
            }
        },
        {
            "kind": "news",
            "domain": "@ArkhamIntel",
            "source": {
                "title": "Arkham Twitter",
                "region": "en",
                "domain": "twitter.com",
                "path": "@arkhamintel"
            },
            "title": "RT @ArkhamIntel: Our Founder and CEO @realmiguelmorel will be joining a Twitter space with @MarioNawfal at 14:15 UTC to have an open discus\u2026",
            "published_at": "2023-07-11T13:37:59Z",
            "slug": "RT-ArkhamIntel-Our-Founder-and-CEO-realmiguelmorel-will-be-joining-a-Twitter-space-with-MarioNawfal-at-1415-UTC-to-have-an-open-discus",
            "currencies": [
                {
                    "code": "ARKM",
                    "title": "Arkham",
                    "slug": "arkham",
                    "url": "https:\/\/cryptopanic.com\/news\/arkham\/"
                }
            ],
            "id": 18762042,
            "url": "https:\/\/cryptopanic.com\/news\/18762042\/RT-ArkhamIntel-Our-Founder-and-CEO-realmiguelmorel-will-be-joining-a-Twitter-space-with-MarioNawfal-at-1415-UTC-to-have-an-open-discus",
            "created_at": "2023-07-11T13:37:59Z",
            "votes": {
                "negative": 0,
                "positive": 0,
                "important": 0,
                "liked": 0,
                "disliked": 0,
                "lol": 0,
                "toxic": 0,
                "saved": 0,
                "comments": 0
            }
        },
        {
            "kind": "news",
            "domain": "@ArkhamIntel",
            "source": {
                "title": "Arkham Twitter",
                "region": "en",
                "domain": "twitter.com",
                "path": "@arkhamintel"
            },
            "title": "RT @ArkhamIntel: Announcing The Arkham Airdrop: a distribution of rewards to our early users!\n\nUsers can now convert their points exclusive\u2026",
            "published_at": "2023-07-11T03:20:04Z",
            "slug": "RT-ArkhamIntel-Announcing-The-Arkham-Airdrop-a-distribution-of-rewards-to-our-early-users-Users-can-now-convert-their-points-exclusive",
            "currencies": [
                {
                    "code": "ARKM",
                    "title": "Arkham",
                    "slug": "arkham",
                    "url": "https:\/\/cryptopanic.com\/news\/arkham\/"
                }
            ],
            "id": 18762045,
            "url": "https:\/\/cryptopanic.com\/news\/18762045\/RT-ArkhamIntel-Announcing-The-Arkham-Airdrop-a-distribution-of-rewards-to-our-early-users-Users-can-now-convert-their-points-exclusive",
            "created_at": "2023-07-11T03:20:04Z",
            "votes": {
                "negative": 0,
                "positive": 0,
                "important": 0,
                "liked": 0,
                "disliked": 0,
                "lol": 0,
                "toxic": 0,
                "saved": 0,
                "comments": 0
            }
        },
        {
            "kind": "news",
            "domain": "@ArkhamIntel",
            "source": {
                "title": "Arkham Twitter",
                "region": "en",
                "domain": "twitter.com",
                "path": "@arkhamintel"
            },
            "title": "RT @RealMiguelMorel: On Ref Links\n\nBecause of our upcoming launch, we\u2019ve had millions of people engage with our platform and hundreds of th\u2026",
            "published_at": "2023-07-10T22:22:11Z",
            "slug": "RT-RealMiguelMorel-On-Ref-Links-Because-of-our-upcoming-launch-weve-had-millions-of-people-engage-with-our-platform-and-hundreds-of-th",
            "currencies": [
                {
                    "code": "ARKM",
                    "title": "Arkham",
                    "slug": "arkham",
                    "url": "https:\/\/cryptopanic.com\/news\/arkham\/"
                }
            ],
            "id": 18762048,
            "url": "https:\/\/cryptopanic.com\/news\/18762048\/RT-RealMiguelMorel-On-Ref-Links-Because-of-our-upcoming-launch-weve-had-millions-of-people-engage-with-our-platform-and-hundreds-of-th",
            "created_at": "2023-07-10T22:22:11Z",
            "votes": {
                "negative": 0,
                "positive": 0,
                "important": 0,
                "liked": 0,
                "disliked": 0,
                "lol": 0,
                "toxic": 0,
                "saved": 0,
                "comments": 0
            }
        },
        {
            "kind": "news",
            "domain": "@ArkhamIntel",
            "source": {
                "title": "Arkham Twitter",
                "region": "en",
                "domain": "twitter.com",
                "path": "@arkhamintel"
            },
            "title": "RT @OnchainDataNerd: [IN 20 MINS] ARKHAM WORKSHOP TO BE LIVE ON TWITTER SPACE \n\nWith the heat of @ArkhamIntel coming to @binance Launchpa\u2026",
            "published_at": "2023-07-10T15:44:18Z",
            "slug": "RT-OnchainDataNerd-IN-20-MINS-ARKHAM-WORKSHOP-TO-BE-LIVE-ON-TWITTER-SPACE-With-the-heat-of-ArkhamIntel-coming-to-binance-Launchpa",
            "currencies": [
                {
                    "code": "ARKM",
                    "title": "Arkham",
                    "slug": "arkham",
                    "url": "https:\/\/cryptopanic.com\/news\/arkham\/"
                }
            ],
            "id": 18762051,
            "url": "https:\/\/cryptopanic.com\/news\/18762051\/RT-OnchainDataNerd-IN-20-MINS-ARKHAM-WORKSHOP-TO-BE-LIVE-ON-TWITTER-SPACE-With-the-heat-of-ArkhamIntel-coming-to-binance-Launchpa",
            "created_at": "2023-07-10T15:44:18Z",
            "votes": {
                "negative": 0,
                "positive": 0,
                "important": 0,
                "liked": 0,
                "disliked": 0,
                "lol": 0,
                "toxic": 0,
                "saved": 0,
                "comments": 0
            }
        },
        {
            "kind": "news",
            "domain": "@ArkhamIntel",
            "source": {
                "title": "Arkham Twitter",
                "region": "en",
                "domain": "twitter.com",
                "path": "@arkhamintel"
            },
            "title": "RT @inversebrah: arkham to teh rescue",
            "published_at": "2023-07-10T15:44:01Z",
            "slug": "RT-inversebrah-arkham-to-teh-rescue",
            "currencies": [
                {
                    "code": "ARKM",
                    "title": "Arkham",
                    "slug": "arkham",
                    "url": "https:\/\/cryptopanic.com\/news\/arkham\/"
                }
            ],
            "id": 18762053,
            "url": "https:\/\/cryptopanic.com\/news\/18762053\/RT-inversebrah-arkham-to-teh-rescue",
            "created_at": "2023-07-10T15:44:01Z",
            "votes": {
                "negative": 0,
                "positive": 0,
                "important": 0,
                "liked": 0,
                "disliked": 0,
                "lol": 0,
                "toxic": 0,
                "saved": 0,
                "comments": 0
            }
        },
        {
            "kind": "news",
            "domain": "@ArkhamIntel",
            "source": {
                "title": "Arkham Twitter",
                "region": "en",
                "domain": "twitter.com",
                "path": "@arkhamintel"
            },
            "title": "Announcing The Arkham Airdrop: a distribution of rewards to our early users!\n\nUsers can now convert their points ex\u2026",
            "published_at": "2023-07-10T15:16:19Z",
            "slug": "Announcing-The-Arkham-Airdrop-a-distribution-of-rewards-to-our-early-users-Users-can-now-convert-their-points-ex",
            "currencies": [
                {
                    "code": "ARKM",
                    "title": "Arkham",
                    "slug": "arkham",
                    "url": "https:\/\/cryptopanic.com\/news\/arkham\/"
                }
            ],
            "id": 18762056,
            "url": "https:\/\/cryptopanic.com\/news\/18762056\/Announcing-The-Arkham-Airdrop-a-distribution-of-rewards-to-our-early-users-Users-can-now-convert-their-points-ex",
            "created_at": "2023-07-10T15:16:19Z",
            "votes": {
                "negative": 0,
                "positive": 0,
                "important": 0,
                "liked": 0,
                "disliked": 0,
                "lol": 0,
                "toxic": 0,
                "saved": 0,
                "comments": 0
            }
        },
        {
            "kind": "news",
            "domain": "@ArkhamIntel",
            "source": {
                "title": "Arkham Twitter",
                "region": "en",
                "domain": "twitter.com",
                "path": "@arkhamintel"
            },
            "title": "RT @RealMiguelMorel: Would be happy to discuss on the podcast.",
            "published_at": "2023-07-10T14:59:30Z",
            "slug": "RT-RealMiguelMorel-Would-be-happy-to-discuss-on-the-podcast",
            "currencies": [
                {
                    "code": "ARKM",
                    "title": "Arkham",
                    "slug": "arkham",
                    "url": "https:\/\/cryptopanic.com\/news\/arkham\/"
                }
            ],
            "id": 18762618,
            "url": "https:\/\/cryptopanic.com\/news\/18762618\/RT-RealMiguelMorel-Would-be-happy-to-discuss-on-the-podcast",
            "created_at": "2023-07-10T14:59:30Z",
            "votes": {
                "negative": 0,
                "positive": 0,
                "important": 0,
                "liked": 0,
                "disliked": 0,
                "lol": 0,
                "toxic": 0,
                "saved": 0,
                "comments": 0
            }
        }
    ]
}
