{
    "count": 200,
    "next": "https:\/\/cryptopanic.com\/api\/v1\/posts\/?auth_token=01c356e89ffc1b8eba2127c81fc8c66ee0eace75&kind=news&currencies=ID&page=2",
    "previous": null,
    "results": [
        {
            "kind": "news",
            "domain": "@SpaceIDProtocol",
            "source": {
                "title": "Space ID Twitter",
                "region": "en",
                "domain": "twitter.com",
                "path": "@spaceidprotocol"
            },
            "title": "Thrilled to share that we're bringing Web3 Name SDK to touch down on @Phemex_official, the most efficient crypto tr\u2026",
            "published_at": "2023-07-12T09:25:00Z",
            "slug": "Thrilled-to-share-that-were-bringing-Web3-Name-SDK-to-touch-down-on-Phemex_official-the-most-efficient-crypto-tr",
            "currencies": [
                {
                    "code": "ID",
                    "title": "SPACE ID",
                    "slug": "space-id",
                    "url": "https:\/\/cryptopanic.com\/news\/space-id\/"
                }
            ],
            "id": 18767205,
            "url": "https:\/\/cryptopanic.com\/news\/18767205\/Thrilled-to-share-that-were-bringing-Web3-Name-SDK-to-touch-down-on-Phemex_official-the-most-efficient-crypto-tr",
            "created_at": "2023-07-12T09:25:00Z",
            "votes": {
                "negative": 0,
                "positive": 0,
                "important": 0,
                "liked": 0,
                "disliked": 0,
                "lol": 0,
                "toxic": 0,
                "saved": 0,
                "comments": 0
            }
        },
        {
            "kind": "news",
            "domain": "@SpaceIDProtocol",
            "source": {
                "title": "Space ID Twitter",
                "region": "en",
                "domain": "twitter.com",
                "path": "@spaceidprotocol"
            },
            "title": "Welcome our integration partner @bscstation to join the #SPACEID Weekly AMA\n\nLet's learn everything about this worl\u2026",
            "published_at": "2023-07-12T08:09:34Z",
            "slug": "Welcome-our-integration-partner-bscstation-to-join-the-SPACEID-Weekly-AMA-Lets-learn-everything-about-this-worl",
            "currencies": [
                {
                    "code": "ID",
                    "title": "SPACE ID",
                    "slug": "space-id",
                    "url": "https:\/\/cryptopanic.com\/news\/space-id\/"
                }
            ],
            "id": 18767206,
            "url": "https:\/\/cryptopanic.com\/news\/18767206\/Welcome-our-integration-partner-bscstation-to-join-the-SPACEID-Weekly-AMA-Lets-learn-everything-about-this-worl",
            "created_at": "2023-07-12T08:09:34Z",
            "votes": {
                "negative": 0,
                "positive": 0,
                "important": 0,
                "liked": 0,
                "disliked": 0,
                "lol": 0,
                "toxic": 0,
                "saved": 0,
                "comments": 0
            }
        },
        {
            "kind": "news",
            "domain": "@SpaceIDProtocol",
            "source": {
                "title": "Space ID Twitter",
                "region": "en",
                "domain": "twitter.com",
                "path": "@spaceidprotocol"
            },
            "title": "RT @SID_sei_name: Your .sei names registered on #Sei Testnet is now available on @BlueMove_OA!\n\nCheck it out: \n\nGet\u2026",
            "published_at": "2023-07-11T20:08:42Z",
            "slug": "RT-SID_sei_name-Your-sei-names-registered-on-Sei-Testnet-is-now-available-on-BlueMove_OA-Check-it-out-Get",
            "currencies": [
                {
                    "code": "ID",
                    "title": "SPACE ID",
                    "slug": "space-id",
                    "url": "https:\/\/cryptopanic.com\/news\/space-id\/"
                }
            ],
            "id": 18767207,
            "url": "https:\/\/cryptopanic.com\/news\/18767207\/RT-SID_sei_name-Your-sei-names-registered-on-Sei-Testnet-is-now-available-on-BlueMove_OA-Check-it-out-Get",
            "created_at": "2023-07-11T20:08:42Z",
            "votes": {
                "negative": 0,
                "positive": 0,
                "important": 0,
                "liked": 0,
                "disliked": 0,
                "lol": 0,
                "toxic": 0,
                "saved": 0,
                "comments": 0
            }
        },
        {
            "kind": "news",
            "domain": "@SpaceIDProtocol",
            "source": {
                "title": "Space ID Twitter",
                "region": "en",
                "domain": "twitter.com",
                "path": "@spaceidprotocol"
            },
            "title": "RT @thisisannsophie: Another outstanding project on Pitch Perfect: @SpaceIDProtocol, massively simplifying the identity infrastructure with\u2026",
            "published_at": "2023-07-11T20:00:13Z",
            "slug": "RT-thisisannsophie-Another-outstanding-project-on-Pitch-Perfect-SpaceIDProtocol-massively-simplifying-the-identity-infrastructure-with",
            "currencies": [
                {
                    "code": "ID",
                    "title": "SPACE ID",
                    "slug": "space-id",
                    "url": "https:\/\/cryptopanic.com\/news\/space-id\/"
                }
            ],
            "id": 18767208,
            "url": "https:\/\/cryptopanic.com\/news\/18767208\/RT-thisisannsophie-Another-outstanding-project-on-Pitch-Perfect-SpaceIDProtocol-massively-simplifying-the-identity-infrastructure-with",
            "created_at": "2023-07-11T20:00:13Z",
            "votes": {
                "negative": 0,
                "positive": 0,
                "important": 0,
                "liked": 0,
                "disliked": 0,
                "lol": 0,
                "toxic": 0,
                "saved": 0,
                "comments": 0
            }
        },
        {
            "kind": "news",
            "domain": "@EverestDotOrg",
            "source": {
                "title": "Everest Twitter",
                "region": "en",
                "domain": "twitter.com",
                "path": "@everestdotorg"
            },
            "title": " Lightning fast LOGIN is now live in #EverWallet!\n\nWe're thrilled to begin the rollout of our new &amp; improved login\u2026",
            "published_at": "2023-07-11T18:33:57Z",
            "slug": "Lightning-fast-LOGIN-is-now-live-in-EverWallet-Were-thrilled-to-begin-the-rollout-of-our-new-amp-improved-login",
            "currencies": [
                {
                    "code": "ID",
                    "title": "Everest",
                    "slug": "everid",
                    "url": "https:\/\/cryptopanic.com\/news\/everid\/"
                }
            ],
            "id": 18764154,
            "url": "https:\/\/cryptopanic.com\/news\/18764154\/Lightning-fast-LOGIN-is-now-live-in-EverWallet-Were-thrilled-to-begin-the-rollout-of-our-new-amp-improved-login",
            "created_at": "2023-07-11T18:33:57Z",
            "votes": {
                "negative": 0,
                "positive": 0,
                "important": 0,
                "liked": 0,
                "disliked": 0,
                "lol": 0,
                "toxic": 0,
                "saved": 0,
                "comments": 0
            }
        },
        {
            "kind": "news",
            "domain": "@EverestDotOrg",
            "source": {
                "title": "Everest Twitter",
                "region": "en",
                "domain": "twitter.com",
                "path": "@everestdotorg"
            },
            "title": "You wanted \u201cregulatory clarity\u201d? Well here\u2019s a great start...",
            "published_at": "2023-07-11T18:15:22Z",
            "slug": "You-wanted-regulatory-clarity-Well-heres-a-great-start",
            "currencies": [
                {
                    "code": "ID",
                    "title": "Everest",
                    "slug": "everid",
                    "url": "https:\/\/cryptopanic.com\/news\/everid\/"
                }
            ],
            "id": 18764155,
            "url": "https:\/\/cryptopanic.com\/news\/18764155\/You-wanted-regulatory-clarity-Well-heres-a-great-start",
            "created_at": "2023-07-11T18:15:22Z",
            "votes": {
                "negative": 0,
                "positive": 0,
                "important": 0,
                "liked": 0,
                "disliked": 0,
                "lol": 0,
                "toxic": 0,
                "saved": 0,
                "comments": 0
            }
        },
        {
            "kind": "news",
            "domain": "@SpaceIDProtocol",
            "source": {
                "title": "Space ID Twitter",
                "region": "en",
                "domain": "twitter.com",
                "path": "@spaceidprotocol"
            },
            "title": "RT @SID_bnb: Starting off the week with a Web3 Name SDK integration, &amp; @NextmeOne is now supporting your .bnb names!\n\nLet's celebrate the c\u2026",
            "published_at": "2023-07-11T04:27:38Z",
            "slug": "RT-SID_bnb-Starting-off-the-week-with-a-Web3-Name-SDK-integration-amp-NextmeOne-is-now-supporting-your-bnb-names-Lets-celebrate-the-c",
            "currencies": [
                {
                    "code": "ID",
                    "title": "SPACE ID",
                    "slug": "space-id",
                    "url": "https:\/\/cryptopanic.com\/news\/space-id\/"
                }
            ],
            "id": 18758945,
            "url": "https:\/\/cryptopanic.com\/news\/18758945\/RT-SID_bnb-Starting-off-the-week-with-a-Web3-Name-SDK-integration-amp-NextmeOne-is-now-supporting-your-bnb-names-Lets-celebrate-the-c",
            "created_at": "2023-07-11T04:27:38Z",
            "votes": {
                "negative": 0,
                "positive": 0,
                "important": 0,
                "liked": 0,
                "disliked": 0,
                "lol": 0,
                "toxic": 0,
                "saved": 0,
                "comments": 0
            }
        },
        {
            "kind": "news",
            "domain": "@SpaceIDProtocol",
            "source": {
                "title": "Space ID Twitter",
                "region": "en",
                "domain": "twitter.com",
                "path": "@spaceidprotocol"
            },
            "title": "RT @NextmeOne: Nextme supported .bnb domain.\n\nAfter integrating the Web3 Name SDK powered by @SpaceIDProtocol, your @SID_bnb .bnb name por\u2026",
            "published_at": "2023-07-11T03:51:32Z",
            "slug": "RT-NextmeOne-Nextme-supported-bnb-domain-After-integrating-the-Web3-Name-SDK-powered-by-SpaceIDProtocol-your-SID_bnb-bnb-name-por",
            "currencies": [
                {
                    "code": "ID",
                    "title": "SPACE ID",
                    "slug": "space-id",
                    "url": "https:\/\/cryptopanic.com\/news\/space-id\/"
                }
            ],
            "id": 18758946,
            "url": "https:\/\/cryptopanic.com\/news\/18758946\/RT-NextmeOne-Nextme-supported-bnb-domain-After-integrating-the-Web3-Name-SDK-powered-by-SpaceIDProtocol-your-SID_bnb-bnb-name-por",
            "created_at": "2023-07-11T03:51:32Z",
            "votes": {
                "negative": 0,
                "positive": 0,
                "important": 0,
                "liked": 0,
                "disliked": 0,
                "lol": 0,
                "toxic": 0,
                "saved": 0,
                "comments": 0
            }
        },
        {
            "kind": "news",
            "domain": "@SpaceIDProtocol",
            "source": {
                "title": "Space ID Twitter",
                "region": "en",
                "domain": "twitter.com",
                "path": "@spaceidprotocol"
            },
            "title": "RT @SID_bnb: GM\n\nAs always",
            "published_at": "2023-07-10T23:47:40Z",
            "slug": "RT-SID_bnb-GM-As-always",
            "currencies": [
                {
                    "code": "ID",
                    "title": "SPACE ID",
                    "slug": "space-id",
                    "url": "https:\/\/cryptopanic.com\/news\/space-id\/"
                }
            ],
            "id": 18758947,
            "url": "https:\/\/cryptopanic.com\/news\/18758947\/RT-SID_bnb-GM-As-always",
            "created_at": "2023-07-10T23:47:40Z",
            "votes": {
                "negative": 0,
                "positive": 0,
                "important": 0,
                "liked": 0,
                "disliked": 0,
                "lol": 0,
                "toxic": 0,
                "saved": 0,
                "comments": 0
            }
        },
        {
            "kind": "news",
            "domain": "@EverestDotOrg",
            "source": {
                "title": "Everest Twitter",
                "region": "en",
                "domain": "twitter.com",
                "path": "@everestdotorg"
            },
            "title": "RT @bobreideverest: With MiCA 1.0 as law of the land as of June 30, what does MiCA 2.0 look like? Y'all wanted regulatory clarity, and it's\u2026",
            "published_at": "2023-07-10T22:08:03Z",
            "slug": "RT-bobreideverest-With-MiCA-10-as-law-of-the-land-as-of-June-30-what-does-MiCA-20-look-like-Yall-wanted-regulatory-clarity-and-its",
            "currencies": [
                {
                    "code": "ID",
                    "title": "Everest",
                    "slug": "everid",
                    "url": "https:\/\/cryptopanic.com\/news\/everid\/"
                }
            ],
            "id": 18756052,
            "url": "https:\/\/cryptopanic.com\/news\/18756052\/RT-bobreideverest-With-MiCA-10-as-law-of-the-land-as-of-June-30-what-does-MiCA-20-look-like-Yall-wanted-regulatory-clarity-and-its",
            "created_at": "2023-07-10T22:08:03Z",
            "votes": {
                "negative": 0,
                "positive": 0,
                "important": 0,
                "liked": 0,
                "disliked": 0,
                "lol": 0,
                "toxic": 0,
                "saved": 0,
                "comments": 0
            }
        },
        {
            "kind": "news",
            "domain": "@SpaceIDProtocol",
            "source": {
                "title": "Space ID Twitter",
                "region": "en",
                "domain": "twitter.com",
                "path": "@spaceidprotocol"
            },
            "title": "RT @SID_sei_name: .sei Name Service x @Bril_Finance\n\nGlad to share the partnership with Bril Finance. Bril actively optimizes your portfol\u2026",
            "published_at": "2023-07-10T16:58:57Z",
            "slug": "RT-SID_sei_name-sei-Name-Service-x-Bril_Finance-Glad-to-share-the-partnership-with-Bril-Finance-Bril-actively-optimizes-your-portfol",
            "currencies": [
                {
                    "code": "ID",
                    "title": "SPACE ID",
                    "slug": "space-id",
                    "url": "https:\/\/cryptopanic.com\/news\/space-id\/"
                }
            ],
            "id": 18758948,
            "url": "https:\/\/cryptopanic.com\/news\/18758948\/RT-SID_sei_name-sei-Name-Service-x-Bril_Finance-Glad-to-share-the-partnership-with-Bril-Finance-Bril-actively-optimizes-your-portfol",
            "created_at": "2023-07-10T16:58:57Z",
            "votes": {
                "negative": 0,
                "positive": 0,
                "important": 0,
                "liked": 0,
                "disliked": 0,
                "lol": 0,
                "toxic": 0,
                "saved": 0,
                "comments": 0
            }
        },
        {
            "kind": "news",
            "domain": "@SpaceIDProtocol",
            "source": {
                "title": "Space ID Twitter",
                "region": "en",
                "domain": "twitter.com",
                "path": "@spaceidprotocol"
            },
            "title": "Let's end the week with our latest #SPACEID Grant Program qualifier!\n\nIntroducing @naboxwallet, the Multi-Chain DID\u2026",
            "published_at": "2023-07-07T21:47:03Z",
            "slug": "Lets-end-the-week-with-our-latest-SPACEID-Grant-Program-qualifier-Introducing-naboxwallet-the-Multi-Chain-DID",
            "currencies": [
                {
                    "code": "ID",
                    "title": "SPACE ID",
                    "slug": "space-id",
                    "url": "https:\/\/cryptopanic.com\/news\/space-id\/"
                }
            ],
            "id": 18742557,
            "url": "https:\/\/cryptopanic.com\/news\/18742557\/Lets-end-the-week-with-our-latest-SPACEID-Grant-Program-qualifier-Introducing-naboxwallet-the-Multi-Chain-DID",
            "created_at": "2023-07-07T21:47:03Z",
            "votes": {
                "negative": 0,
                "positive": 0,
                "important": 0,
                "liked": 0,
                "disliked": 0,
                "lol": 0,
                "toxic": 0,
                "saved": 0,
                "comments": 0
            }
        },
        {
            "kind": "news",
            "domain": "@SpaceIDProtocol",
            "source": {
                "title": "Space ID Twitter",
                "region": "en",
                "domain": "twitter.com",
                "path": "@spaceidprotocol"
            },
            "title": "RT @SID_arb: Happy weekend .arb squad!\n\nHere's an end-of-the-week recap of all the new platforms you get to use your .arb names on. \n\nExpe\u2026",
            "published_at": "2023-07-07T21:41:32Z",
            "slug": "RT-SID_arb-Happy-weekend-arb-squad-Heres-an-end-of-the-week-recap-of-all-the-new-platforms-you-get-to-use-your-arb-names-on-Expe",
            "currencies": [
                {
                    "code": "ID",
                    "title": "SPACE ID",
                    "slug": "space-id",
                    "url": "https:\/\/cryptopanic.com\/news\/space-id\/"
                }
            ],
            "id": 18742558,
            "url": "https:\/\/cryptopanic.com\/news\/18742558\/RT-SID_arb-Happy-weekend-arb-squad-Heres-an-end-of-the-week-recap-of-all-the-new-platforms-you-get-to-use-your-arb-names-on-Expe",
            "created_at": "2023-07-07T21:41:32Z",
            "votes": {
                "negative": 0,
                "positive": 0,
                "important": 0,
                "liked": 0,
                "disliked": 0,
                "lol": 0,
                "toxic": 0,
                "saved": 0,
                "comments": 0
            }
        },
        {
            "kind": "news",
            "domain": "@SpaceIDProtocol",
            "source": {
                "title": "Space ID Twitter",
                "region": "en",
                "domain": "twitter.com",
                "path": "@spaceidprotocol"
            },
            "title": "RT @SID_bnb: Just another fruitful weeks for us .bnb fams!\ud83e\udd51\n\nCheck out all the new integrations you can leverage your one of one .bnb names\u2026",
            "published_at": "2023-07-07T21:41:20Z",
            "slug": "RT-SID_bnb-Just-another-fruitful-weeks-for-us-bnb-fams-Check-out-all-the-new-integrations-you-can-leverage-your-one-of-one-bnb-names",
            "currencies": [
                {
                    "code": "ID",
                    "title": "SPACE ID",
                    "slug": "space-id",
                    "url": "https:\/\/cryptopanic.com\/news\/space-id\/"
                }
            ],
            "id": 18742559,
            "url": "https:\/\/cryptopanic.com\/news\/18742559\/RT-SID_bnb-Just-another-fruitful-weeks-for-us-bnb-fams-Check-out-all-the-new-integrations-you-can-leverage-your-one-of-one-bnb-names",
            "created_at": "2023-07-07T21:41:20Z",
            "votes": {
                "negative": 0,
                "positive": 0,
                "important": 0,
                "liked": 0,
                "disliked": 0,
                "lol": 0,
                "toxic": 0,
                "saved": 0,
                "comments": 0
            }
        },
        {
            "kind": "news",
            "domain": "@SpaceIDProtocol",
            "source": {
                "title": "Space ID Twitter",
                "region": "en",
                "domain": "twitter.com",
                "path": "@spaceidprotocol"
            },
            "title": "Happy to announce that @cctip_com has joined the #SPACEID family &amp; received a grant from our Grant Program.\ud83e\ude90\n\nCwall\u2026",
            "published_at": "2023-07-07T08:06:05Z",
            "slug": "Happy-to-announce-that-cctip_com-has-joined-the-SPACEID-family-amp-received-a-grant-from-our-Grant-Program-Cwall",
            "currencies": [
                {
                    "code": "ID",
                    "title": "SPACE ID",
                    "slug": "space-id",
                    "url": "https:\/\/cryptopanic.com\/news\/space-id\/"
                }
            ],
            "id": 18735365,
            "url": "https:\/\/cryptopanic.com\/news\/18735365\/Happy-to-announce-that-cctip_com-has-joined-the-SPACEID-family-amp-received-a-grant-from-our-Grant-Program-Cwall",
            "created_at": "2023-07-07T08:06:05Z",
            "votes": {
                "negative": 0,
                "positive": 0,
                "important": 0,
                "liked": 0,
                "disliked": 0,
                "lol": 0,
                "toxic": 0,
                "saved": 0,
                "comments": 0
            }
        },
        {
            "kind": "news",
            "domain": "@SpaceIDProtocol",
            "source": {
                "title": "Space ID Twitter",
                "region": "en",
                "domain": "twitter.com",
                "path": "@spaceidprotocol"
            },
            "title": "Welcome another proud qualifier of #SPACEID Grant Program: @ChainbaseHQ, an all-in-one Web3 Data Infra for accessin\u2026",
            "published_at": "2023-07-07T07:45:01Z",
            "slug": "Welcome-another-proud-qualifier-of-SPACEID-Grant-Program-ChainbaseHQ-an-all-in-one-Web3-Data-Infra-for-accessin",
            "currencies": [
                {
                    "code": "ID",
                    "title": "SPACE ID",
                    "slug": "space-id",
                    "url": "https:\/\/cryptopanic.com\/news\/space-id\/"
                }
            ],
            "id": 18735366,
            "url": "https:\/\/cryptopanic.com\/news\/18735366\/Welcome-another-proud-qualifier-of-SPACEID-Grant-Program-ChainbaseHQ-an-all-in-one-Web3-Data-Infra-for-accessin",
            "created_at": "2023-07-07T07:45:01Z",
            "votes": {
                "negative": 0,
                "positive": 0,
                "important": 0,
                "liked": 0,
                "disliked": 0,
                "lol": 0,
                "toxic": 0,
                "saved": 0,
                "comments": 0
            }
        },
        {
            "kind": "news",
            "domain": "@SpaceIDProtocol",
            "source": {
                "title": "Space ID Twitter",
                "region": "en",
                "domain": "twitter.com",
                "path": "@spaceidprotocol"
            },
            "title": "What could be a more exciting time than growing w\/ #SPACEID!\ud83e\udd42\n\nI'm sure most of y'all witnessed the grand end of Vo\u2026",
            "published_at": "2023-07-07T07:05:17Z",
            "slug": "What-could-be-a-more-exciting-time-than-growing-w-SPACEID-Im-sure-most-of-yall-witnessed-the-grand-end-of-Vo",
            "currencies": [
                {
                    "code": "ID",
                    "title": "SPACE ID",
                    "slug": "space-id",
                    "url": "https:\/\/cryptopanic.com\/news\/space-id\/"
                }
            ],
            "id": 18735367,
            "url": "https:\/\/cryptopanic.com\/news\/18735367\/What-could-be-a-more-exciting-time-than-growing-w-SPACEID-Im-sure-most-of-yall-witnessed-the-grand-end-of-Vo",
            "created_at": "2023-07-07T07:05:17Z",
            "votes": {
                "negative": 0,
                "positive": 0,
                "important": 0,
                "liked": 0,
                "disliked": 0,
                "lol": 0,
                "toxic": 0,
                "saved": 0,
                "comments": 0
            }
        },
        {
            "kind": "news",
            "domain": "@SpaceIDProtocol",
            "source": {
                "title": "Space ID Twitter",
                "region": "en",
                "domain": "twitter.com",
                "path": "@spaceidprotocol"
            },
            "title": "RT @SID_sei_name: GM\n\nBehold! .sei army is loaded\ud83e\uddbe",
            "published_at": "2023-07-06T19:41:26Z",
            "slug": "RT-SID_sei_name-GM-Behold-sei-army-is-loaded",
            "currencies": [
                {
                    "code": "ID",
                    "title": "SPACE ID",
                    "slug": "space-id",
                    "url": "https:\/\/cryptopanic.com\/news\/space-id\/"
                }
            ],
            "id": 18735368,
            "url": "https:\/\/cryptopanic.com\/news\/18735368\/RT-SID_sei_name-GM-Behold-sei-army-is-loaded",
            "created_at": "2023-07-06T19:41:26Z",
            "votes": {
                "negative": 0,
                "positive": 0,
                "important": 0,
                "liked": 0,
                "disliked": 0,
                "lol": 0,
                "toxic": 0,
                "saved": 0,
                "comments": 0
            }
        },
        {
            "kind": "news",
            "domain": "@SpaceIDProtocol",
            "source": {
                "title": "Space ID Twitter",
                "region": "en",
                "domain": "twitter.com",
                "path": "@spaceidprotocol"
            },
            "title": "We had a blast during our Twitter Space, but let's make it happen again on the Discord Weekly AMA.\n\nJoin us w\/\u2026",
            "published_at": "2023-07-06T04:44:53Z",
            "slug": "We-had-a-blast-during-our-Twitter-Space-but-lets-make-it-happen-again-on-the-Discord-Weekly-AMA-Join-us-w",
            "currencies": [
                {
                    "code": "ID",
                    "title": "SPACE ID",
                    "slug": "space-id",
                    "url": "https:\/\/cryptopanic.com\/news\/space-id\/"
                }
            ],
            "id": 18726803,
            "url": "https:\/\/cryptopanic.com\/news\/18726803\/We-had-a-blast-during-our-Twitter-Space-but-lets-make-it-happen-again-on-the-Discord-Weekly-AMA-Join-us-w",
            "created_at": "2023-07-06T04:44:53Z",
            "votes": {
                "negative": 0,
                "positive": 0,
                "important": 0,
                "liked": 0,
                "disliked": 0,
                "lol": 0,
                "toxic": 0,
                "saved": 0,
                "comments": 0
            }
        },
        {
            "kind": "news",
            "domain": "@SpaceIDProtocol",
            "source": {
                "title": "Space ID Twitter",
                "region": "en",
                "domain": "twitter.com",
                "path": "@spaceidprotocol"
            },
            "title": "RT @InfinityWallet: We have added @SpaceIDProtocol (a platform for trading and managing web3 domains) to the @InfinityWallet Web3 Browser D\u2026",
            "published_at": "2023-07-05T17:30:28Z",
            "slug": "RT-InfinityWallet-We-have-added-SpaceIDProtocol-a-platform-for-trading-and-managing-web3-domains-to-the-InfinityWallet-Web3-Browser-D",
            "currencies": [
                {
                    "code": "ID",
                    "title": "SPACE ID",
                    "slug": "space-id",
                    "url": "https:\/\/cryptopanic.com\/news\/space-id\/"
                }
            ],
            "id": 18726804,
            "url": "https:\/\/cryptopanic.com\/news\/18726804\/RT-InfinityWallet-We-have-added-SpaceIDProtocol-a-platform-for-trading-and-managing-web3-domains-to-the-InfinityWallet-Web3-Browser-D",
            "created_at": "2023-07-05T17:30:28Z",
            "votes": {
                "negative": 0,
                "positive": 0,
                "important": 0,
                "liked": 0,
                "disliked": 0,
                "lol": 0,
                "toxic": 0,
                "saved": 0,
                "comments": 0
            }
        }
    ]
}
