{
    "count": 200,
    "next": "https:\/\/cryptopanic.com\/api\/v1\/posts\/?auth_token=01c356e89ffc1b8eba2127c81fc8c66ee0eace75&kind=news&currencies=DAR&page=2",
    "previous": null,
    "results": [
        {
            "kind": "news",
            "domain": "@MinesOfDalarnia",
            "source": {
                "title": "Mines of Dalarnia Twitter",
                "region": "en",
                "domain": "twitter.com",
                "path": "@minesofdalarnia"
            },
            "title": "Dalarnians! \ufe0f\n\nHere's the summary of our Astrolab Fixed-Gear Competitions Week 8.\n\nCongratulations to all winners\u2026",
            "published_at": "2023-07-11T13:01:00Z",
            "slug": "Dalarnians-Heres-the-summary-of-our-Astrolab-Fixed-Gear-Competitions-Week-8-Congratulations-to-all-winners",
            "currencies": [
                {
                    "code": "DAR",
                    "title": "Mines of Dalarnia",
                    "slug": "mines-of-dalarnia",
                    "url": "https:\/\/cryptopanic.com\/news\/mines-of-dalarnia\/"
                }
            ],
            "id": 18765772,
            "url": "https:\/\/cryptopanic.com\/news\/18765772\/Dalarnians-Heres-the-summary-of-our-Astrolab-Fixed-Gear-Competitions-Week-8-Congratulations-to-all-winners",
            "created_at": "2023-07-11T13:01:00Z",
            "votes": {
                "negative": 0,
                "positive": 0,
                "important": 0,
                "liked": 0,
                "disliked": 0,
                "lol": 0,
                "toxic": 0,
                "saved": 0,
                "comments": 0
            }
        },
        {
            "kind": "news",
            "domain": "@MinesOfDalarnia",
            "source": {
                "title": "Mines of Dalarnia Twitter",
                "region": "en",
                "domain": "twitter.com",
                "path": "@minesofdalarnia"
            },
            "title": "Great Monday, Dalarnians! \ufe0f \n\nGet ready to showcase your mining skills and conquer the leaderboards once again in\u2026",
            "published_at": "2023-07-10T14:00:09Z",
            "slug": "Great-Monday-Dalarnians-Get-ready-to-showcase-your-mining-skills-and-conquer-the-leaderboards-once-again-in",
            "currencies": [
                {
                    "code": "DAR",
                    "title": "Mines of Dalarnia",
                    "slug": "mines-of-dalarnia",
                    "url": "https:\/\/cryptopanic.com\/news\/mines-of-dalarnia\/"
                }
            ],
            "id": 18757609,
            "url": "https:\/\/cryptopanic.com\/news\/18757609\/Great-Monday-Dalarnians-Get-ready-to-showcase-your-mining-skills-and-conquer-the-leaderboards-once-again-in",
            "created_at": "2023-07-10T14:00:09Z",
            "votes": {
                "negative": 0,
                "positive": 0,
                "important": 0,
                "liked": 0,
                "disliked": 0,
                "lol": 0,
                "toxic": 0,
                "saved": 0,
                "comments": 0
            }
        },
        {
            "kind": "news",
            "domain": "@MinesOfDalarnia",
            "source": {
                "title": "Mines of Dalarnia Twitter",
                "region": "en",
                "domain": "twitter.com",
                "path": "@minesofdalarnia"
            },
            "title": "Our first Monthly Ape Quest just ended and we hope our Ape Holders had an exhilarating adventure! \ud83e\udda7\n\nWith this, we\u2026",
            "published_at": "2023-07-05T14:30:10Z",
            "slug": "Our-first-Monthly-Ape-Quest-just-ended-and-we-hope-our-Ape-Holders-had-an-exhilarating-adventure-With-this-we",
            "currencies": [
                {
                    "code": "DAR",
                    "title": "Mines of Dalarnia",
                    "slug": "mines-of-dalarnia",
                    "url": "https:\/\/cryptopanic.com\/news\/mines-of-dalarnia\/"
                }
            ],
            "id": 18725411,
            "url": "https:\/\/cryptopanic.com\/news\/18725411\/Our-first-Monthly-Ape-Quest-just-ended-and-we-hope-our-Ape-Holders-had-an-exhilarating-adventure-With-this-we",
            "created_at": "2023-07-05T14:30:10Z",
            "votes": {
                "negative": 0,
                "positive": 0,
                "important": 0,
                "liked": 0,
                "disliked": 0,
                "lol": 0,
                "toxic": 0,
                "saved": 0,
                "comments": 0
            }
        },
        {
            "kind": "news",
            "domain": "@MinesOfDalarnia",
            "source": {
                "title": "Mines of Dalarnia Twitter",
                "region": "en",
                "domain": "twitter.com",
                "path": "@minesofdalarnia"
            },
            "title": "We're glad to share an update about our rechaining to BNB Network and the details of our upcoming #MoD Update 1.4!\u2026",
            "published_at": "2023-07-04T15:01:02Z",
            "slug": "Were-glad-to-share-an-update-about-our-rechaining-to-BNB-Network-and-the-details-of-our-upcoming-MoD-Update-14",
            "currencies": [
                {
                    "code": "DAR",
                    "title": "Mines of Dalarnia",
                    "slug": "mines-of-dalarnia",
                    "url": "https:\/\/cryptopanic.com\/news\/mines-of-dalarnia\/"
                }
            ],
            "id": 18717535,
            "url": "https:\/\/cryptopanic.com\/news\/18717535\/Were-glad-to-share-an-update-about-our-rechaining-to-BNB-Network-and-the-details-of-our-upcoming-MoD-Update-14",
            "created_at": "2023-07-04T15:01:02Z",
            "votes": {
                "negative": 0,
                "positive": 0,
                "important": 0,
                "liked": 0,
                "disliked": 0,
                "lol": 0,
                "toxic": 0,
                "saved": 0,
                "comments": 0
            }
        },
        {
            "kind": "news",
            "domain": "@MinesOfDalarnia",
            "source": {
                "title": "Mines of Dalarnia Twitter",
                "region": "en",
                "domain": "twitter.com",
                "path": "@minesofdalarnia"
            },
            "title": "Hello, Dalarnians!\n\nLet's give a big round of applause to DRDUMP for topping the leaderboards three times in a row!\u2026",
            "published_at": "2023-07-04T14:00:06Z",
            "slug": "Hello-Dalarnians-Lets-give-a-big-round-of-applause-to-DRDUMP-for-topping-the-leaderboards-three-times-in-a-row",
            "currencies": [
                {
                    "code": "DAR",
                    "title": "Mines of Dalarnia",
                    "slug": "mines-of-dalarnia",
                    "url": "https:\/\/cryptopanic.com\/news\/mines-of-dalarnia\/"
                }
            ],
            "id": 18717536,
            "url": "https:\/\/cryptopanic.com\/news\/18717536\/Hello-Dalarnians-Lets-give-a-big-round-of-applause-to-DRDUMP-for-topping-the-leaderboards-three-times-in-a-row",
            "created_at": "2023-07-04T14:00:06Z",
            "votes": {
                "negative": 0,
                "positive": 0,
                "important": 0,
                "liked": 0,
                "disliked": 0,
                "lol": 0,
                "toxic": 0,
                "saved": 0,
                "comments": 0
            }
        },
        {
            "kind": "news",
            "domain": "@MinesOfDalarnia",
            "source": {
                "title": "Mines of Dalarnia Twitter",
                "region": "en",
                "domain": "twitter.com",
                "path": "@minesofdalarnia"
            },
            "title": "Great day, Dalarnians! \n\nWelcome to another exciting Monday, marking the beginning of a fresh week and a new month\u2026",
            "published_at": "2023-07-03T14:00:14Z",
            "slug": "Great-day-Dalarnians-Welcome-to-another-exciting-Monday-marking-the-beginning-of-a-fresh-week-and-a-new-month",
            "currencies": [
                {
                    "code": "DAR",
                    "title": "Mines of Dalarnia",
                    "slug": "mines-of-dalarnia",
                    "url": "https:\/\/cryptopanic.com\/news\/mines-of-dalarnia\/"
                }
            ],
            "id": 18710376,
            "url": "https:\/\/cryptopanic.com\/news\/18710376\/Great-day-Dalarnians-Welcome-to-another-exciting-Monday-marking-the-beginning-of-a-fresh-week-and-a-new-month",
            "created_at": "2023-07-03T14:00:14Z",
            "votes": {
                "negative": 0,
                "positive": 0,
                "important": 0,
                "liked": 0,
                "disliked": 0,
                "lol": 0,
                "toxic": 0,
                "saved": 0,
                "comments": 0
            }
        },
        {
            "kind": "news",
            "domain": "@MinesOfDalarnia",
            "source": {
                "title": "Mines of Dalarnia Twitter",
                "region": "en",
                "domain": "twitter.com",
                "path": "@minesofdalarnia"
            },
            "title": "Servers are up, Dalarnians! \n\nWith the latest update, the #MoD client now supports WalletConnect 2.0.\n\nTo access t\u2026",
            "published_at": "2023-06-28T19:46:18Z",
            "slug": "Servers-are-up-Dalarnians-With-the-latest-update-the-MoD-client-now-supports-WalletConnect-20-To-access-t",
            "currencies": [
                {
                    "code": "DAR",
                    "title": "Mines of Dalarnia",
                    "slug": "mines-of-dalarnia",
                    "url": "https:\/\/cryptopanic.com\/news\/mines-of-dalarnia\/"
                }
            ],
            "id": 18679009,
            "url": "https:\/\/cryptopanic.com\/news\/18679009\/Servers-are-up-Dalarnians-With-the-latest-update-the-MoD-client-now-supports-WalletConnect-20-To-access-t",
            "created_at": "2023-06-28T19:46:18Z",
            "votes": {
                "negative": 0,
                "positive": 0,
                "important": 0,
                "liked": 0,
                "disliked": 0,
                "lol": 0,
                "toxic": 0,
                "saved": 0,
                "comments": 0
            }
        },
        {
            "kind": "news",
            "domain": "@MinesOfDalarnia",
            "source": {
                "title": "Mines of Dalarnia Twitter",
                "region": "en",
                "domain": "twitter.com",
                "path": "@minesofdalarnia"
            },
            "title": "Dalarnians!  \n \nThis week's maintenance will be done earlier and will run today from 2PM-6PM UTC. \n \nThe downtime\u2026",
            "published_at": "2023-06-28T13:18:00Z",
            "slug": "Dalarnians-This-weeks-maintenance-will-be-done-earlier-and-will-run-today-from-2PM-6PM-UTC-The-downtime",
            "currencies": [
                {
                    "code": "DAR",
                    "title": "Mines of Dalarnia",
                    "slug": "mines-of-dalarnia",
                    "url": "https:\/\/cryptopanic.com\/news\/mines-of-dalarnia\/"
                }
            ],
            "id": 18679010,
            "url": "https:\/\/cryptopanic.com\/news\/18679010\/Dalarnians-This-weeks-maintenance-will-be-done-earlier-and-will-run-today-from-2PM-6PM-UTC-The-downtime",
            "created_at": "2023-06-28T13:18:00Z",
            "votes": {
                "negative": 0,
                "positive": 0,
                "important": 0,
                "liked": 0,
                "disliked": 0,
                "lol": 0,
                "toxic": 0,
                "saved": 0,
                "comments": 0
            }
        },
        {
            "kind": "news",
            "domain": "@MinesOfDalarnia",
            "source": {
                "title": "Mines of Dalarnia Twitter",
                "region": "en",
                "domain": "twitter.com",
                "path": "@minesofdalarnia"
            },
            "title": "Attention, Dalarnians! \ufe0f\n\nThis week's update is rescheduled for tomorrow, Wednesday, instead of our usual Thursday\u2026",
            "published_at": "2023-06-27T14:00:08Z",
            "slug": "Attention-Dalarnians-This-weeks-update-is-rescheduled-for-tomorrow-Wednesday-instead-of-our-usual-Thursday",
            "currencies": [
                {
                    "code": "DAR",
                    "title": "Mines of Dalarnia",
                    "slug": "mines-of-dalarnia",
                    "url": "https:\/\/cryptopanic.com\/news\/mines-of-dalarnia\/"
                }
            ],
            "id": 18670809,
            "url": "https:\/\/cryptopanic.com\/news\/18670809\/Attention-Dalarnians-This-weeks-update-is-rescheduled-for-tomorrow-Wednesday-instead-of-our-usual-Thursday",
            "created_at": "2023-06-27T14:00:08Z",
            "votes": {
                "negative": 0,
                "positive": 0,
                "important": 0,
                "liked": 0,
                "disliked": 0,
                "lol": 0,
                "toxic": 0,
                "saved": 0,
                "comments": 0
            }
        },
        {
            "kind": "news",
            "domain": "@MinesOfDalarnia",
            "source": {
                "title": "Mines of Dalarnia Twitter",
                "region": "en",
                "domain": "twitter.com",
                "path": "@minesofdalarnia"
            },
            "title": "Good Day, Dalarnians!\n\nIt's time for another Fixed-Gear Astrolab Competition Summary. Congratulations to everyone w\u2026",
            "published_at": "2023-06-27T13:00:41Z",
            "slug": "Good-Day-Dalarnians-Its-time-for-another-Fixed-Gear-Astrolab-Competition-Summary-Congratulations-to-everyone-w",
            "currencies": [
                {
                    "code": "DAR",
                    "title": "Mines of Dalarnia",
                    "slug": "mines-of-dalarnia",
                    "url": "https:\/\/cryptopanic.com\/news\/mines-of-dalarnia\/"
                }
            ],
            "id": 18670810,
            "url": "https:\/\/cryptopanic.com\/news\/18670810\/Good-Day-Dalarnians-Its-time-for-another-Fixed-Gear-Astrolab-Competition-Summary-Congratulations-to-everyone-w",
            "created_at": "2023-06-27T13:00:41Z",
            "votes": {
                "negative": 0,
                "positive": 0,
                "important": 0,
                "liked": 0,
                "disliked": 0,
                "lol": 0,
                "toxic": 0,
                "saved": 0,
                "comments": 0
            }
        },
        {
            "kind": "news",
            "domain": "@MinesOfDalarnia",
            "source": {
                "title": "Mines of Dalarnia Twitter",
                "region": "en",
                "domain": "twitter.com",
                "path": "@minesofdalarnia"
            },
            "title": "It's the last week of June and your chance to dominate the fixed-gear Astrolab Competitions Week 7! \ufe0f\n\nDon't miss\u2026",
            "published_at": "2023-06-26T13:00:02Z",
            "slug": "Its-the-last-week-of-June-and-your-chance-to-dominate-the-fixed-gear-Astrolab-Competitions-Week-7-Dont-miss",
            "currencies": [
                {
                    "code": "DAR",
                    "title": "Mines of Dalarnia",
                    "slug": "mines-of-dalarnia",
                    "url": "https:\/\/cryptopanic.com\/news\/mines-of-dalarnia\/"
                }
            ],
            "id": 18662535,
            "url": "https:\/\/cryptopanic.com\/news\/18662535\/Its-the-last-week-of-June-and-your-chance-to-dominate-the-fixed-gear-Astrolab-Competitions-Week-7-Dont-miss",
            "created_at": "2023-06-26T13:00:02Z",
            "votes": {
                "negative": 0,
                "positive": 0,
                "important": 0,
                "liked": 0,
                "disliked": 0,
                "lol": 0,
                "toxic": 0,
                "saved": 0,
                "comments": 0
            }
        },
        {
            "kind": "news",
            "domain": "@MinesOfDalarnia",
            "source": {
                "title": "Mines of Dalarnia Twitter",
                "region": "en",
                "domain": "twitter.com",
                "path": "@minesofdalarnia"
            },
            "title": "SERVERS ARE UP! \u2b06\ufe0f \n\nTo compensate for the unplanned extended downtime, we have increased the Thursday Competition\u2026",
            "published_at": "2023-06-22T20:18:35Z",
            "slug": "SERVERS-ARE-UP-To-compensate-for-the-unplanned-extended-downtime-we-have-increased-the-Thursday-Competition",
            "currencies": [
                {
                    "code": "DAR",
                    "title": "Mines of Dalarnia",
                    "slug": "mines-of-dalarnia",
                    "url": "https:\/\/cryptopanic.com\/news\/mines-of-dalarnia\/"
                }
            ],
            "id": 18638264,
            "url": "https:\/\/cryptopanic.com\/news\/18638264\/SERVERS-ARE-UP-To-compensate-for-the-unplanned-extended-downtime-we-have-increased-the-Thursday-Competition",
            "created_at": "2023-06-22T20:18:35Z",
            "votes": {
                "negative": 0,
                "positive": 0,
                "important": 0,
                "liked": 0,
                "disliked": 0,
                "lol": 0,
                "toxic": 0,
                "saved": 0,
                "comments": 0
            }
        },
        {
            "kind": "news",
            "domain": "@MinesOfDalarnia",
            "source": {
                "title": "Mines of Dalarnia Twitter",
                "region": "en",
                "domain": "twitter.com",
                "path": "@minesofdalarnia"
            },
            "title": "Dalarnians! \ufe0f\n\nDowntime will be from 2 PM - 6 PM UTC as usual to launch a new validation server located in Norther\u2026",
            "published_at": "2023-06-22T12:00:02Z",
            "slug": "Dalarnians-Downtime-will-be-from-2-PM-6-PM-UTC-as-usual-to-launch-a-new-validation-server-located-in-Norther",
            "currencies": [
                {
                    "code": "DAR",
                    "title": "Mines of Dalarnia",
                    "slug": "mines-of-dalarnia",
                    "url": "https:\/\/cryptopanic.com\/news\/mines-of-dalarnia\/"
                }
            ],
            "id": 18638265,
            "url": "https:\/\/cryptopanic.com\/news\/18638265\/Dalarnians-Downtime-will-be-from-2-PM-6-PM-UTC-as-usual-to-launch-a-new-validation-server-located-in-Norther",
            "created_at": "2023-06-22T12:00:02Z",
            "votes": {
                "negative": 0,
                "positive": 0,
                "important": 0,
                "liked": 0,
                "disliked": 0,
                "lol": 0,
                "toxic": 0,
                "saved": 0,
                "comments": 0
            }
        },
        {
            "kind": "news",
            "domain": "@MinesOfDalarnia",
            "source": {
                "title": "Mines of Dalarnia Twitter",
                "region": "en",
                "domain": "twitter.com",
                "path": "@minesofdalarnia"
            },
            "title": "Great day, Dalarnians!\n\nLast week's competition summary is out. \n\nAnd today, we want to shine the spotlight on Ahn\u2026",
            "published_at": "2023-06-20T13:30:50Z",
            "slug": "Great-day-Dalarnians-Last-weeks-competition-summary-is-out-And-today-we-want-to-shine-the-spotlight-on-Ahn",
            "currencies": [
                {
                    "code": "DAR",
                    "title": "Mines of Dalarnia",
                    "slug": "mines-of-dalarnia",
                    "url": "https:\/\/cryptopanic.com\/news\/mines-of-dalarnia\/"
                }
            ],
            "id": 18621702,
            "url": "https:\/\/cryptopanic.com\/news\/18621702\/Great-day-Dalarnians-Last-weeks-competition-summary-is-out-And-today-we-want-to-shine-the-spotlight-on-Ahn",
            "created_at": "2023-06-20T13:30:50Z",
            "votes": {
                "negative": 0,
                "positive": 0,
                "important": 0,
                "liked": 0,
                "disliked": 0,
                "lol": 0,
                "toxic": 0,
                "saved": 0,
                "comments": 0
            }
        },
        {
            "kind": "news",
            "domain": "@MinesOfDalarnia",
            "source": {
                "title": "Mines of Dalarnia Twitter",
                "region": "en",
                "domain": "twitter.com",
                "path": "@minesofdalarnia"
            },
            "title": "It's time to shine and conquer the leaderboards once more! \ufe0f\n\nHere are the details of our Astrolab Fixed Gear Com\u2026",
            "published_at": "2023-06-19T13:00:02Z",
            "slug": "Its-time-to-shine-and-conquer-the-leaderboards-once-more-Here-are-the-details-of-our-Astrolab-Fixed-Gear-Com",
            "currencies": [
                {
                    "code": "DAR",
                    "title": "Mines of Dalarnia",
                    "slug": "mines-of-dalarnia",
                    "url": "https:\/\/cryptopanic.com\/news\/mines-of-dalarnia\/"
                }
            ],
            "id": 18613605,
            "url": "https:\/\/cryptopanic.com\/news\/18613605\/Its-time-to-shine-and-conquer-the-leaderboards-once-more-Here-are-the-details-of-our-Astrolab-Fixed-Gear-Com",
            "created_at": "2023-06-19T13:00:02Z",
            "votes": {
                "negative": 0,
                "positive": 0,
                "important": 0,
                "liked": 0,
                "disliked": 0,
                "lol": 0,
                "toxic": 0,
                "saved": 0,
                "comments": 0
            }
        },
        {
            "kind": "news",
            "domain": "@MinesOfDalarnia",
            "source": {
                "title": "Mines of Dalarnia Twitter",
                "region": "en",
                "domain": "twitter.com",
                "path": "@minesofdalarnia"
            },
            "title": " Attention, Dalarnians!  \n \nToday, we have a significant update to share regarding the migration plans and futur\u2026",
            "published_at": "2023-06-16T14:30:07Z",
            "slug": "Attention-Dalarnians-Today-we-have-a-significant-update-to-share-regarding-the-migration-plans-and-futur",
            "currencies": [
                {
                    "code": "DAR",
                    "title": "Mines of Dalarnia",
                    "slug": "mines-of-dalarnia",
                    "url": "https:\/\/cryptopanic.com\/news\/mines-of-dalarnia\/"
                }
            ],
            "id": 18597149,
            "url": "https:\/\/cryptopanic.com\/news\/18597149\/Attention-Dalarnians-Today-we-have-a-significant-update-to-share-regarding-the-migration-plans-and-futur",
            "created_at": "2023-06-16T14:30:07Z",
            "votes": {
                "negative": 0,
                "positive": 0,
                "important": 0,
                "liked": 0,
                "disliked": 0,
                "lol": 0,
                "toxic": 0,
                "saved": 0,
                "comments": 0
            }
        },
        {
            "kind": "news",
            "domain": "@MinesOfDalarnia",
            "source": {
                "title": "Mines of Dalarnia Twitter",
                "region": "en",
                "domain": "twitter.com",
                "path": "@minesofdalarnia"
            },
            "title": "Servers are up, Dalarnians! \n \nDuring today's downtime, we've introduced a new experimental Competition Mode: Indi\u2026",
            "published_at": "2023-06-15T18:01:56Z",
            "slug": "Servers-are-up-Dalarnians-During-todays-downtime-weve-introduced-a-new-experimental-Competition-Mode-Indi",
            "currencies": [
                {
                    "code": "DAR",
                    "title": "Mines of Dalarnia",
                    "slug": "mines-of-dalarnia",
                    "url": "https:\/\/cryptopanic.com\/news\/mines-of-dalarnia\/"
                }
            ],
            "id": 18588559,
            "url": "https:\/\/cryptopanic.com\/news\/18588559\/Servers-are-up-Dalarnians-During-todays-downtime-weve-introduced-a-new-experimental-Competition-Mode-Indi",
            "created_at": "2023-06-15T18:01:56Z",
            "votes": {
                "negative": 0,
                "positive": 0,
                "important": 0,
                "liked": 0,
                "disliked": 0,
                "lol": 0,
                "toxic": 0,
                "saved": 0,
                "comments": 0
            }
        },
        {
            "kind": "news",
            "domain": "@MinesOfDalarnia",
            "source": {
                "title": "Mines of Dalarnia Twitter",
                "region": "en",
                "domain": "twitter.com",
                "path": "@minesofdalarnia"
            },
            "title": "Heads up, Dalarnians! \n\nToday's server downtime will run from 2 PM to 6 PM UTC as usual to enable per wallet-seede\u2026",
            "published_at": "2023-06-15T12:00:45Z",
            "slug": "Heads-up-Dalarnians-Todays-server-downtime-will-run-from-2-PM-to-6-PM-UTC-as-usual-to-enable-per-wallet-seede",
            "currencies": [
                {
                    "code": "DAR",
                    "title": "Mines of Dalarnia",
                    "slug": "mines-of-dalarnia",
                    "url": "https:\/\/cryptopanic.com\/news\/mines-of-dalarnia\/"
                }
            ],
            "id": 18588560,
            "url": "https:\/\/cryptopanic.com\/news\/18588560\/Heads-up-Dalarnians-Todays-server-downtime-will-run-from-2-PM-to-6-PM-UTC-as-usual-to-enable-per-wallet-seede",
            "created_at": "2023-06-15T12:00:45Z",
            "votes": {
                "negative": 0,
                "positive": 0,
                "important": 0,
                "liked": 0,
                "disliked": 0,
                "lol": 0,
                "toxic": 0,
                "saved": 0,
                "comments": 0
            }
        },
        {
            "kind": "news",
            "domain": "@MinesOfDalarnia",
            "source": {
                "title": "Mines of Dalarnia Twitter",
                "region": "en",
                "domain": "twitter.com",
                "path": "@minesofdalarnia"
            },
            "title": "Hey, Dalarnians! \n \nToday, let's acknowledge our miners who made it to the leaderboards last week. And a special me\u2026",
            "published_at": "2023-06-13T13:01:46Z",
            "slug": "Hey-Dalarnians-Today-lets-acknowledge-our-miners-who-made-it-to-the-leaderboards-last-week-And-a-special-me",
            "currencies": [
                {
                    "code": "DAR",
                    "title": "Mines of Dalarnia",
                    "slug": "mines-of-dalarnia",
                    "url": "https:\/\/cryptopanic.com\/news\/mines-of-dalarnia\/"
                }
            ],
            "id": 18572181,
            "url": "https:\/\/cryptopanic.com\/news\/18572181\/Hey-Dalarnians-Today-lets-acknowledge-our-miners-who-made-it-to-the-leaderboards-last-week-And-a-special-me",
            "created_at": "2023-06-13T13:01:46Z",
            "votes": {
                "negative": 0,
                "positive": 0,
                "important": 0,
                "liked": 0,
                "disliked": 0,
                "lol": 0,
                "toxic": 0,
                "saved": 0,
                "comments": 0
            }
        },
        {
            "kind": "news",
            "domain": "@MinesOfDalarnia",
            "source": {
                "title": "Mines of Dalarnia Twitter",
                "region": "en",
                "domain": "twitter.com",
                "path": "@minesofdalarnia"
            },
            "title": "Happy Monday, Dalarnians! \n\nA new week means another chance to top the leaderboards!\n\nHowever, our Week 5 of Astrol\u2026",
            "published_at": "2023-06-12T13:00:01Z",
            "slug": "Happy-Monday-Dalarnians-A-new-week-means-another-chance-to-top-the-leaderboards-However-our-Week-5-of-Astrol",
            "currencies": [
                {
                    "code": "DAR",
                    "title": "Mines of Dalarnia",
                    "slug": "mines-of-dalarnia",
                    "url": "https:\/\/cryptopanic.com\/news\/mines-of-dalarnia\/"
                }
            ],
            "id": 18563900,
            "url": "https:\/\/cryptopanic.com\/news\/18563900\/Happy-Monday-Dalarnians-A-new-week-means-another-chance-to-top-the-leaderboards-However-our-Week-5-of-Astrol",
            "created_at": "2023-06-12T13:00:01Z",
            "votes": {
                "negative": 0,
                "positive": 0,
                "important": 0,
                "liked": 0,
                "disliked": 0,
                "lol": 0,
                "toxic": 0,
                "saved": 0,
                "comments": 0
            }
        }
    ]
}
