{
    "count": 200,
    "next": "https:\/\/cryptopanic.com\/api\/v1\/posts\/?auth_token=01c356e89ffc1b8eba2127c81fc8c66ee0eace75&kind=news&currencies=STEEM&page=2",
    "previous": null,
    "results": [
        {
            "kind": "news",
            "domain": "cointelegraph.com",
            "source": {
                "title": "CoinTelegraph",
                "region": "en",
                "domain": "cointelegraph.com",
                "path": null
            },
            "title": "7 blockchain-based platforms for content creators",
            "published_at": "2023-07-14T12:07:00Z",
            "slug": "7-blockchain-based-platforms-for-content-creators",
            "currencies": [
                {
                    "code": "STEEM",
                    "title": "Steem",
                    "slug": "steem",
                    "url": "https:\/\/cryptopanic.com\/news\/steem\/"
                }
            ],
            "id": 18774182,
            "url": "https:\/\/cryptopanic.com\/news\/18774182\/7-blockchain-based-platforms-for-content-creators",
            "created_at": "2023-07-14T12:07:00Z",
            "votes": {
                "negative": 0,
                "positive": 0,
                "important": 0,
                "liked": 0,
                "disliked": 0,
                "lol": 0,
                "toxic": 0,
                "saved": 0,
                "comments": 0
            }
        },
        {
            "kind": "news",
            "domain": "cointelegraph.com",
            "votes": {
                "negative": 0,
                "positive": 0,
                "important": 0,
                "liked": 0,
                "disliked": 0,
                "lol": 0,
                "toxic": 0,
                "saved": 1,
                "comments": 1
            },
            "source": {
                "title": "CoinTelegraph",
                "region": "en",
                "domain": "cointelegraph.com",
                "path": null
            },
            "title": "5 blockchain-based social media platforms to know",
            "published_at": "2023-07-03T11:07:00Z",
            "slug": "5-blockchain-based-social-media-platforms-to-know",
            "currencies": [
                {
                    "code": "STEEM",
                    "title": "Steem",
                    "slug": "steem",
                    "url": "https:\/\/cryptopanic.com\/news\/steem\/"
                }
            ],
            "id": 18705431,
            "url": "https:\/\/cryptopanic.com\/news\/18705431\/5-blockchain-based-social-media-platforms-to-know",
            "created_at": "2023-07-03T11:07:00Z"
        },
        {
            "kind": "news",
            "domain": "@steemchain",
            "source": {
                "title": "Steem Twitter",
                "region": "en",
                "domain": "twitter.com",
                "path": "@steemchain"
            },
            "title": "RT @alicegamedotxyz: My journey ends today. But it's not really the end, it's just the beginning. Thank you for being a part of my story.\u2026",
            "published_at": "2023-06-17T13:23:26Z",
            "slug": "RT-alicegamedotxyz-My-journey-ends-today-But-its-not-really-the-end-its-just-the-beginning-Thank-you-for-being-a-part-of-my-story",
            "currencies": [
                {
                    "code": "STEEM",
                    "title": "Steem",
                    "slug": "steem",
                    "url": "https:\/\/cryptopanic.com\/news\/steem\/"
                }
            ],
            "id": 18603035,
            "url": "https:\/\/cryptopanic.com\/news\/18603035\/RT-alicegamedotxyz-My-journey-ends-today-But-its-not-really-the-end-its-just-the-beginning-Thank-you-for-being-a-part-of-my-story",
            "created_at": "2023-06-17T13:23:26Z",
            "votes": {
                "negative": 0,
                "positive": 0,
                "important": 0,
                "liked": 0,
                "disliked": 0,
                "lol": 0,
                "toxic": 0,
                "saved": 0,
                "comments": 0
            }
        },
        {
            "kind": "news",
            "domain": "@steemchain",
            "source": {
                "title": "Steem Twitter",
                "region": "en",
                "domain": "twitter.com",
                "path": "@steemchain"
            },
            "title": "RT @ngmisl: Discover the secret to unlocking over 90% successful task completion with our top 5 ChatGPT prompts.\n\nGet the guide now  https\u2026",
            "published_at": "2023-06-17T13:23:19Z",
            "slug": "RT-ngmisl-Discover-the-secret-to-unlocking-over-90-successful-task-completion-with-our-top-5-ChatGPT-prompts-Get-the-guide-now-https",
            "currencies": [
                {
                    "code": "STEEM",
                    "title": "Steem",
                    "slug": "steem",
                    "url": "https:\/\/cryptopanic.com\/news\/steem\/"
                }
            ],
            "id": 18603036,
            "url": "https:\/\/cryptopanic.com\/news\/18603036\/RT-ngmisl-Discover-the-secret-to-unlocking-over-90-successful-task-completion-with-our-top-5-ChatGPT-prompts-Get-the-guide-now-https",
            "created_at": "2023-06-17T13:23:19Z",
            "votes": {
                "negative": 0,
                "positive": 0,
                "important": 0,
                "liked": 0,
                "disliked": 0,
                "lol": 0,
                "toxic": 0,
                "saved": 0,
                "comments": 0
            }
        },
        {
            "kind": "news",
            "domain": "@steemchain",
            "source": {
                "title": "Steem Twitter",
                "region": "en",
                "domain": "twitter.com",
                "path": "@steemchain"
            },
            "title": "RT @MintWorldGG: gm Players,\n\nWondering how to level up your NFT Monsters in MintWorldGame? Get all your questions answered in our upcoming\u2026",
            "published_at": "2023-06-16T07:12:12Z",
            "slug": "RT-MintWorldGG-gm-Players-Wondering-how-to-level-up-your-NFT-Monsters-in-MintWorldGame-Get-all-your-questions-answered-in-our-upcoming",
            "currencies": [
                {
                    "code": "STEEM",
                    "title": "Steem",
                    "slug": "steem",
                    "url": "https:\/\/cryptopanic.com\/news\/steem\/"
                }
            ],
            "id": 18590183,
            "url": "https:\/\/cryptopanic.com\/news\/18590183\/RT-MintWorldGG-gm-Players-Wondering-how-to-level-up-your-NFT-Monsters-in-MintWorldGame-Get-all-your-questions-answered-in-our-upcoming",
            "created_at": "2023-06-16T07:12:12Z",
            "votes": {
                "negative": 0,
                "positive": 0,
                "important": 0,
                "liked": 0,
                "disliked": 0,
                "lol": 0,
                "toxic": 0,
                "saved": 0,
                "comments": 0
            }
        },
        {
            "kind": "news",
            "domain": "@steemchain",
            "source": {
                "title": "Steem Twitter",
                "region": "en",
                "domain": "twitter.com",
                "path": "@steemchain"
            },
            "title": "RT @alicegamedotxyz: Another encounter with the mysterious girl. Her words are like a mirror, reflecting my own thoughts. \n\n#AliceGame #Ref\u2026",
            "published_at": "2023-06-02T13:33:39Z",
            "slug": "RT-alicegamedotxyz-Another-encounter-with-the-mysterious-girl-Her-words-are-like-a-mirror-reflecting-my-own-thoughts-AliceGame-Ref",
            "currencies": [
                {
                    "code": "STEEM",
                    "title": "Steem",
                    "slug": "steem",
                    "url": "https:\/\/cryptopanic.com\/news\/steem\/"
                }
            ],
            "id": 18495601,
            "url": "https:\/\/cryptopanic.com\/news\/18495601\/RT-alicegamedotxyz-Another-encounter-with-the-mysterious-girl-Her-words-are-like-a-mirror-reflecting-my-own-thoughts-AliceGame-Ref",
            "created_at": "2023-06-02T13:33:39Z",
            "votes": {
                "negative": 0,
                "positive": 0,
                "important": 0,
                "liked": 0,
                "disliked": 0,
                "lol": 0,
                "toxic": 0,
                "saved": 0,
                "comments": 0
            }
        },
        {
            "kind": "news",
            "domain": "@steemchain",
            "source": {
                "title": "Steem Twitter",
                "region": "en",
                "domain": "twitter.com",
                "path": "@steemchain"
            },
            "title": "RT @ngmisl: Just launched: The Ultimate 5 ChatGPT Prompts! Unlock the full potential of ChatGPT with this no-nonsense guide.\n\nGet it now, f\u2026",
            "published_at": "2023-05-08T09:58:32Z",
            "slug": "RT-ngmisl-Just-launched-The-Ultimate-5-ChatGPT-Prompts-Unlock-the-full-potential-of-ChatGPT-with-this-no-nonsense-guide-Get-it-now-f",
            "currencies": [
                {
                    "code": "STEEM",
                    "title": "Steem",
                    "slug": "steem",
                    "url": "https:\/\/cryptopanic.com\/news\/steem\/"
                }
            ],
            "id": 18297663,
            "url": "https:\/\/cryptopanic.com\/news\/18297663\/RT-ngmisl-Just-launched-The-Ultimate-5-ChatGPT-Prompts-Unlock-the-full-potential-of-ChatGPT-with-this-no-nonsense-guide-Get-it-now-f",
            "created_at": "2023-05-08T09:58:32Z",
            "votes": {
                "negative": 0,
                "positive": 0,
                "important": 0,
                "liked": 0,
                "disliked": 0,
                "lol": 0,
                "toxic": 0,
                "saved": 0,
                "comments": 0
            }
        },
        {
            "kind": "news",
            "domain": "@steemchain",
            "source": {
                "title": "Steem Twitter",
                "region": "en",
                "domain": "twitter.com",
                "path": "@steemchain"
            },
            "title": "RT @ngmisl: What's cooking in today's #Crypto and #Blockchain news:\n\nAI is the top concern for most Americans when it comes to privacy and\u2026",
            "published_at": "2023-04-21T07:47:26Z",
            "slug": "RT-ngmisl-Whats-cooking-in-todays-Crypto-and-Blockchain-news-AI-is-the-top-concern-for-most-Americans-when-it-comes-to-privacy-and",
            "currencies": [
                {
                    "code": "STEEM",
                    "title": "Steem",
                    "slug": "steem",
                    "url": "https:\/\/cryptopanic.com\/news\/steem\/"
                }
            ],
            "id": 18163508,
            "url": "https:\/\/cryptopanic.com\/news\/18163508\/RT-ngmisl-Whats-cooking-in-todays-Crypto-and-Blockchain-news-AI-is-the-top-concern-for-most-Americans-when-it-comes-to-privacy-and",
            "created_at": "2023-04-21T07:47:26Z",
            "votes": {
                "negative": 0,
                "positive": 0,
                "important": 0,
                "liked": 0,
                "disliked": 0,
                "lol": 0,
                "toxic": 0,
                "saved": 0,
                "comments": 0
            }
        },
        {
            "kind": "news",
            "domain": "@steemchain",
            "source": {
                "title": "Steem Twitter",
                "region": "en",
                "domain": "twitter.com",
                "path": "@steemchain"
            },
            "title": "RT @Tisieo: Still a lot to do, but making good progress\n\nDo you like the new @cantometaverse ?\n\n#canto #cantoverse",
            "published_at": "2023-04-19T19:33:14Z",
            "slug": "RT-Tisieo-Still-a-lot-to-do-but-making-good-progress-Do-you-like-the-new-cantometaverse-canto-cantoverse",
            "currencies": [
                {
                    "code": "STEEM",
                    "title": "Steem",
                    "slug": "steem",
                    "url": "https:\/\/cryptopanic.com\/news\/steem\/"
                }
            ],
            "id": 18154767,
            "url": "https:\/\/cryptopanic.com\/news\/18154767\/RT-Tisieo-Still-a-lot-to-do-but-making-good-progress-Do-you-like-the-new-cantometaverse-canto-cantoverse",
            "created_at": "2023-04-19T19:33:14Z",
            "votes": {
                "negative": 0,
                "positive": 0,
                "important": 0,
                "liked": 0,
                "disliked": 0,
                "lol": 0,
                "toxic": 0,
                "saved": 0,
                "comments": 0
            }
        },
        {
            "kind": "news",
            "domain": "@steemchain",
            "source": {
                "title": "Steem Twitter",
                "region": "en",
                "domain": "twitter.com",
                "path": "@steemchain"
            },
            "title": "RT @Tisieo: You can play to the demo of MintWorld deployed in Canto Testnet that I submitted to @theCOH_ \n\nLink in discord Announcements\n\ufe0f\u2026",
            "published_at": "2023-04-05T08:40:14Z",
            "slug": "RT-Tisieo-You-can-play-to-the-demo-of-MintWorld-deployed-in-Canto-Testnet-that-I-submitted-to-theCOH_-Link-in-discord-Announcements",
            "currencies": [
                {
                    "code": "STEEM",
                    "title": "Steem",
                    "slug": "steem",
                    "url": "https:\/\/cryptopanic.com\/news\/steem\/"
                }
            ],
            "id": 18042641,
            "url": "https:\/\/cryptopanic.com\/news\/18042641\/RT-Tisieo-You-can-play-to-the-demo-of-MintWorld-deployed-in-Canto-Testnet-that-I-submitted-to-theCOH_-Link-in-discord-Announcements",
            "created_at": "2023-04-05T08:40:14Z",
            "votes": {
                "negative": 0,
                "positive": 0,
                "important": 0,
                "liked": 0,
                "disliked": 0,
                "lol": 0,
                "toxic": 0,
                "saved": 0,
                "comments": 0
            }
        },
        {
            "kind": "news",
            "domain": "@steemchain",
            "source": {
                "title": "Steem Twitter",
                "region": "en",
                "domain": "twitter.com",
                "path": "@steemchain"
            },
            "title": "RT @cantometaverse: GM Cantoversians,\n\nit's weekend, which means a new CantoMaze Cantoverse Raffle \ud83e\udd73\n\nTo enter\n\n Follow @cantometaverse\n\u2026",
            "published_at": "2023-04-01T13:50:53Z",
            "slug": "RT-cantometaverse-GM-Cantoversians-its-weekend-which-means-a-new-CantoMaze-Cantoverse-Raffle-To-enter-Follow-cantometaverse",
            "currencies": [
                {
                    "code": "STEEM",
                    "title": "Steem",
                    "slug": "steem",
                    "url": "https:\/\/cryptopanic.com\/news\/steem\/"
                }
            ],
            "id": 18020976,
            "url": "https:\/\/cryptopanic.com\/news\/18020976\/RT-cantometaverse-GM-Cantoversians-its-weekend-which-means-a-new-CantoMaze-Cantoverse-Raffle-To-enter-Follow-cantometaverse",
            "created_at": "2023-04-01T13:50:53Z",
            "votes": {
                "negative": 0,
                "positive": 0,
                "important": 0,
                "liked": 0,
                "disliked": 0,
                "lol": 0,
                "toxic": 0,
                "saved": 0,
                "comments": 0
            }
        },
        {
            "kind": "news",
            "domain": "@steemchain",
            "source": {
                "title": "Steem Twitter",
                "region": "en",
                "domain": "twitter.com",
                "path": "@steemchain"
            },
            "title": "RT @btsfav: #DeFinitely 154 \u2013 The News in #DeFi",
            "published_at": "2023-04-01T13:50:46Z",
            "slug": "RT-btsfav-DeFinitely-154-The-News-in-DeFi",
            "currencies": [
                {
                    "code": "STEEM",
                    "title": "Steem",
                    "slug": "steem",
                    "url": "https:\/\/cryptopanic.com\/news\/steem\/"
                }
            ],
            "id": 18020977,
            "url": "https:\/\/cryptopanic.com\/news\/18020977\/RT-btsfav-DeFinitely-154-The-News-in-DeFi",
            "created_at": "2023-04-01T13:50:46Z",
            "votes": {
                "negative": 0,
                "positive": 0,
                "important": 0,
                "liked": 0,
                "disliked": 0,
                "lol": 0,
                "toxic": 0,
                "saved": 0,
                "comments": 0
            }
        },
        {
            "kind": "news",
            "domain": "@steemchain",
            "source": {
                "title": "Steem Twitter",
                "region": "en",
                "domain": "twitter.com",
                "path": "@steemchain"
            },
            "title": "RT @btsfav: #DeFinitely 153 \u2013 The News in #DeFi -",
            "published_at": "2023-03-27T10:37:26Z",
            "slug": "RT-btsfav-DeFinitely-153-The-News-in-DeFi-",
            "currencies": [
                {
                    "code": "STEEM",
                    "title": "Steem",
                    "slug": "steem",
                    "url": "https:\/\/cryptopanic.com\/news\/steem\/"
                }
            ],
            "id": 17981290,
            "url": "https:\/\/cryptopanic.com\/news\/17981290\/RT-btsfav-DeFinitely-153-The-News-in-DeFi-",
            "created_at": "2023-03-27T10:37:26Z",
            "votes": {
                "negative": 0,
                "positive": 0,
                "important": 0,
                "liked": 0,
                "disliked": 0,
                "lol": 0,
                "toxic": 0,
                "saved": 0,
                "comments": 0
            }
        },
        {
            "kind": "news",
            "domain": "@steemchain",
            "source": {
                "title": "Steem Twitter",
                "region": "en",
                "domain": "twitter.com",
                "path": "@steemchain"
            },
            "title": "RT @cantometaverse:  Introducing Enter The Maze: Dive into the depths of CantoMaze Cantoverse NFTs!  Embark on a fantastical journey fill\u2026",
            "published_at": "2023-03-27T10:32:54Z",
            "slug": "RT-cantometaverse-Introducing-Enter-The-Maze-Dive-into-the-depths-of-CantoMaze-Cantoverse-NFTs-Embark-on-a-fantastical-journey-fill",
            "currencies": [
                {
                    "code": "STEEM",
                    "title": "Steem",
                    "slug": "steem",
                    "url": "https:\/\/cryptopanic.com\/news\/steem\/"
                }
            ],
            "id": 17981291,
            "url": "https:\/\/cryptopanic.com\/news\/17981291\/RT-cantometaverse-Introducing-Enter-The-Maze-Dive-into-the-depths-of-CantoMaze-Cantoverse-NFTs-Embark-on-a-fantastical-journey-fill",
            "created_at": "2023-03-27T10:32:54Z",
            "votes": {
                "negative": 0,
                "positive": 0,
                "important": 0,
                "liked": 0,
                "disliked": 0,
                "lol": 0,
                "toxic": 0,
                "saved": 0,
                "comments": 0
            }
        },
        {
            "kind": "news",
            "domain": "@steemchain",
            "source": {
                "title": "Steem Twitter",
                "region": "en",
                "domain": "twitter.com",
                "path": "@steemchain"
            },
            "title": "RT @Tisieo: Preview of my project for @theCOH_ season 6\nClaiming the starter Mintmon\n\n#hackathon #canto @MintWorldGG",
            "published_at": "2023-03-27T10:32:50Z",
            "slug": "RT-Tisieo-Preview-of-my-project-for-theCOH_-season-6-Claiming-the-starter-Mintmon-hackathon-canto-MintWorldGG",
            "currencies": [
                {
                    "code": "STEEM",
                    "title": "Steem",
                    "slug": "steem",
                    "url": "https:\/\/cryptopanic.com\/news\/steem\/"
                }
            ],
            "id": 17981292,
            "url": "https:\/\/cryptopanic.com\/news\/17981292\/RT-Tisieo-Preview-of-my-project-for-theCOH_-season-6-Claiming-the-starter-Mintmon-hackathon-canto-MintWorldGG",
            "created_at": "2023-03-27T10:32:50Z",
            "votes": {
                "negative": 0,
                "positive": 0,
                "important": 0,
                "liked": 0,
                "disliked": 0,
                "lol": 0,
                "toxic": 0,
                "saved": 0,
                "comments": 0
            }
        },
        {
            "kind": "news",
            "domain": "@steemchain",
            "source": {
                "title": "Steem Twitter",
                "region": "en",
                "domain": "twitter.com",
                "path": "@steemchain"
            },
            "title": "RT @btsfav: #DeFinitely 152 \u2013 The News in #DeFi",
            "published_at": "2023-03-19T20:32:53Z",
            "slug": "RT-btsfav-DeFinitely-152-The-News-in-DeFi",
            "currencies": [
                {
                    "code": "STEEM",
                    "title": "Steem",
                    "slug": "steem",
                    "url": "https:\/\/cryptopanic.com\/news\/steem\/"
                }
            ],
            "id": 17919967,
            "url": "https:\/\/cryptopanic.com\/news\/17919967\/RT-btsfav-DeFinitely-152-The-News-in-DeFi",
            "created_at": "2023-03-19T20:32:53Z",
            "votes": {
                "negative": 0,
                "positive": 0,
                "important": 0,
                "liked": 0,
                "disliked": 0,
                "lol": 0,
                "toxic": 0,
                "saved": 0,
                "comments": 0
            }
        },
        {
            "kind": "news",
            "domain": "@steemchain",
            "source": {
                "title": "Steem Twitter",
                "region": "en",
                "domain": "twitter.com",
                "path": "@steemchain"
            },
            "title": "RT @btsfav: #DeFinitely 151 \u2013 The News in #DeFi \n\n\n\n\"Mark Mobius expresses his inability to withdraw his money from\u2026",
            "published_at": "2023-03-12T19:36:50Z",
            "slug": "RT-btsfav-DeFinitely-151-The-News-in-DeFi-Mark-Mobius-expresses-his-inability-to-withdraw-his-money-from",
            "currencies": [
                {
                    "code": "STEEM",
                    "title": "Steem",
                    "slug": "steem",
                    "url": "https:\/\/cryptopanic.com\/news\/steem\/"
                }
            ],
            "id": 17860178,
            "url": "https:\/\/cryptopanic.com\/news\/17860178\/RT-btsfav-DeFinitely-151-The-News-in-DeFi-Mark-Mobius-expresses-his-inability-to-withdraw-his-money-from",
            "created_at": "2023-03-12T19:36:50Z",
            "votes": {
                "negative": 0,
                "positive": 0,
                "important": 0,
                "liked": 0,
                "disliked": 0,
                "lol": 0,
                "toxic": 0,
                "saved": 0,
                "comments": 0
            }
        },
        {
            "kind": "news",
            "domain": "@steemchain",
            "source": {
                "title": "Steem Twitter",
                "region": "en",
                "domain": "twitter.com",
                "path": "@steemchain"
            },
            "title": "RT @MintWorldGG: gm Players,\n\ntime for a smol recap \u2935\ufe0f\n\n Website Updated\n Docs Updated\n Game Updated\n Landsale Launched\n MayorDAOs Int\u2026",
            "published_at": "2023-03-04T19:15:31Z",
            "slug": "RT-MintWorldGG-gm-Players-time-for-a-smol-recap-Website-Updated-Docs-Updated-Game-Updated-Landsale-Launched-MayorDAOs-Int",
            "currencies": [
                {
                    "code": "STEEM",
                    "title": "Steem",
                    "slug": "steem",
                    "url": "https:\/\/cryptopanic.com\/news\/steem\/"
                }
            ],
            "id": 17794509,
            "url": "https:\/\/cryptopanic.com\/news\/17794509\/RT-MintWorldGG-gm-Players-time-for-a-smol-recap-Website-Updated-Docs-Updated-Game-Updated-Landsale-Launched-MayorDAOs-Int",
            "created_at": "2023-03-04T19:15:31Z",
            "votes": {
                "negative": 0,
                "positive": 0,
                "important": 0,
                "liked": 0,
                "disliked": 0,
                "lol": 0,
                "toxic": 0,
                "saved": 0,
                "comments": 0
            }
        },
        {
            "kind": "news",
            "domain": "@steemchain",
            "source": {
                "title": "Steem Twitter",
                "region": "en",
                "domain": "twitter.com",
                "path": "@steemchain"
            },
            "title": "RT @btsfav: #DeFinitely 150 \u2013 The News in #DeFi",
            "published_at": "2023-03-04T19:15:10Z",
            "slug": "RT-btsfav-DeFinitely-150-The-News-in-DeFi",
            "currencies": [
                {
                    "code": "STEEM",
                    "title": "Steem",
                    "slug": "steem",
                    "url": "https:\/\/cryptopanic.com\/news\/steem\/"
                }
            ],
            "id": 17794508,
            "url": "https:\/\/cryptopanic.com\/news\/17794508\/RT-btsfav-DeFinitely-150-The-News-in-DeFi",
            "created_at": "2023-03-04T19:15:10Z",
            "votes": {
                "negative": 0,
                "positive": 0,
                "important": 0,
                "liked": 0,
                "disliked": 0,
                "lol": 0,
                "toxic": 0,
                "saved": 0,
                "comments": 0
            }
        },
        {
            "kind": "news",
            "domain": "@steemchain",
            "source": {
                "title": "Steem Twitter",
                "region": "en",
                "domain": "twitter.com",
                "path": "@steemchain"
            },
            "title": "RT @btsfav: #DeFinitely 149 \u2013 The News in #DeFi -",
            "published_at": "2023-02-26T20:04:45Z",
            "slug": "RT-btsfav-DeFinitely-149-The-News-in-DeFi-",
            "currencies": [
                {
                    "code": "STEEM",
                    "title": "Steem",
                    "slug": "steem",
                    "url": "https:\/\/cryptopanic.com\/news\/steem\/"
                }
            ],
            "id": 17739218,
            "url": "https:\/\/cryptopanic.com\/news\/17739218\/RT-btsfav-DeFinitely-149-The-News-in-DeFi-",
            "created_at": "2023-02-26T20:04:45Z",
            "votes": {
                "negative": 0,
                "positive": 0,
                "important": 0,
                "liked": 0,
                "disliked": 0,
                "lol": 0,
                "toxic": 0,
                "saved": 0,
                "comments": 0
            }
        }
    ]
}
