{
    "count": 200,
    "next": "https:\/\/cryptopanic.com\/api\/v1\/posts\/?auth_token=01c356e89ffc1b8eba2127c81fc8c66ee0eace75&kind=news&currencies=COS&page=2",
    "previous": null,
    "results": [
        {
            "kind": "news",
            "domain": "@contentosio",
            "source": {
                "title": "Contentos Twitter",
                "region": "en",
                "domain": "twitter.com",
                "path": "@contentosio"
            },
            "title": "Beware of scams claiming to be Contentos on other sites. Protect your digital assets and stay secure by only access\u2026",
            "published_at": "2023-07-11T01:38:58Z",
            "slug": "Beware-of-scams-claiming-to-be-Contentos-on-other-sites-Protect-your-digital-assets-and-stay-secure-by-only-access",
            "currencies": [
                {
                    "code": "COS",
                    "title": "Contentos",
                    "slug": "contentos",
                    "url": "https:\/\/cryptopanic.com\/news\/contentos\/"
                }
            ],
            "id": 18755310,
            "url": "https:\/\/cryptopanic.com\/news\/18755310\/Beware-of-scams-claiming-to-be-Contentos-on-other-sites-Protect-your-digital-assets-and-stay-secure-by-only-access",
            "created_at": "2023-07-11T01:38:58Z",
            "votes": {
                "negative": 0,
                "positive": 0,
                "important": 0,
                "liked": 0,
                "disliked": 0,
                "lol": 0,
                "toxic": 0,
                "saved": 0,
                "comments": 0
            }
        },
        {
            "kind": "news",
            "domain": "@contentosio",
            "source": {
                "title": "Contentos Twitter",
                "region": "en",
                "domain": "twitter.com",
                "path": "@contentosio"
            },
            "title": "RT @RealCOSTV: Thank you Brazil\/LATAM community for celebrating 4th anniversary! \n\nYour support and enthusiasm\u2026",
            "published_at": "2023-07-11T01:23:18Z",
            "slug": "RT-RealCOSTV-Thank-you-BrazilLATAM-community-for-celebrating-4th-anniversary-Your-support-and-enthusiasm",
            "currencies": [
                {
                    "code": "COS",
                    "title": "Contentos",
                    "slug": "contentos",
                    "url": "https:\/\/cryptopanic.com\/news\/contentos\/"
                }
            ],
            "id": 18755311,
            "url": "https:\/\/cryptopanic.com\/news\/18755311\/RT-RealCOSTV-Thank-you-BrazilLATAM-community-for-celebrating-4th-anniversary-Your-support-and-enthusiasm",
            "created_at": "2023-07-11T01:23:18Z",
            "votes": {
                "negative": 0,
                "positive": 0,
                "important": 0,
                "liked": 0,
                "disliked": 0,
                "lol": 0,
                "toxic": 0,
                "saved": 0,
                "comments": 0
            }
        },
        {
            "kind": "news",
            "domain": "@contentosio",
            "source": {
                "title": "Contentos Twitter",
                "region": "en",
                "domain": "twitter.com",
                "path": "@contentosio"
            },
            "title": "RT @RealCOSTV: COSers! Which #AI tool should we add on next?\n\n1. Follow @RealCOSTV &amp;\u00a0@contentosio\n2. Retweet &amp; shar\u2026",
            "published_at": "2023-07-06T02:38:10Z",
            "slug": "RT-RealCOSTV-COSers-Which-AI-tool-should-we-add-on-next-1-Follow-RealCOSTV-amp-contentosio-2-Retweet-amp-shar",
            "currencies": [
                {
                    "code": "COS",
                    "title": "Contentos",
                    "slug": "contentos",
                    "url": "https:\/\/cryptopanic.com\/news\/contentos\/"
                }
            ],
            "id": 18723066,
            "url": "https:\/\/cryptopanic.com\/news\/18723066\/RT-RealCOSTV-COSers-Which-AI-tool-should-we-add-on-next-1-Follow-RealCOSTV-amp-contentosio-2-Retweet-amp-shar",
            "created_at": "2023-07-06T02:38:10Z",
            "votes": {
                "negative": 0,
                "positive": 0,
                "important": 0,
                "liked": 0,
                "disliked": 0,
                "lol": 0,
                "toxic": 0,
                "saved": 0,
                "comments": 0
            }
        },
        {
            "kind": "news",
            "domain": "@contentosio",
            "source": {
                "title": "Contentos Twitter",
                "region": "en",
                "domain": "twitter.com",
                "path": "@contentosio"
            },
            "title": "June updates for #Contentos are out!\n1\ufe0f\u20e3 Reality expands VR device support \n2\ufe0f\u20e3\u2026",
            "published_at": "2023-07-01T04:21:33Z",
            "slug": "June-updates-for-Contentos-are-out-1-Reality-expands-VR-device-support-2",
            "currencies": [
                {
                    "code": "COS",
                    "title": "Contentos",
                    "slug": "contentos",
                    "url": "https:\/\/cryptopanic.com\/news\/contentos\/"
                }
            ],
            "id": 18692641,
            "url": "https:\/\/cryptopanic.com\/news\/18692641\/June-updates-for-Contentos-are-out-1-Reality-expands-VR-device-support-2",
            "created_at": "2023-07-01T04:21:33Z",
            "votes": {
                "negative": 0,
                "positive": 0,
                "important": 0,
                "liked": 0,
                "disliked": 0,
                "lol": 0,
                "toxic": 0,
                "saved": 0,
                "comments": 0
            }
        },
        {
            "kind": "news",
            "domain": "@CradleOfSins",
            "source": {
                "title": "Cradle of Sins Twitter",
                "region": "en",
                "domain": "twitter.com",
                "path": "@cradleofsins"
            },
            "title": "Cradle Of Sins Update #VR \n- New Launch Timeframe: Q3 2023, \n\nAs you all know, we announced earlier this month that\u2026",
            "published_at": "2023-06-30T21:25:02Z",
            "slug": "Cradle-Of-Sins-Update-VR-New-Launch-Timeframe-Q3-2023-As-you-all-know-we-announced-earlier-this-month-that",
            "currencies": [
                {
                    "code": "COS",
                    "title": "Cradle of Sins",
                    "slug": "cradle-of-sins",
                    "url": "https:\/\/cryptopanic.com\/news\/cradle-of-sins\/"
                }
            ],
            "id": 18692691,
            "url": "https:\/\/cryptopanic.com\/news\/18692691\/Cradle-Of-Sins-Update-VR-New-Launch-Timeframe-Q3-2023-As-you-all-know-we-announced-earlier-this-month-that",
            "created_at": "2023-06-30T21:25:02Z",
            "votes": {
                "negative": 0,
                "positive": 0,
                "important": 0,
                "liked": 0,
                "disliked": 0,
                "lol": 0,
                "toxic": 0,
                "saved": 0,
                "comments": 0
            }
        },
        {
            "kind": "news",
            "domain": "@contentosio",
            "source": {
                "title": "Contentos Twitter",
                "region": "en",
                "domain": "twitter.com",
                "path": "@contentosio"
            },
            "title": "COSers! Get ready for another VEST loan event! \n\nBid for a VEST loan for VEST rewards on",
            "published_at": "2023-06-30T01:48:59Z",
            "slug": "COSers-Get-ready-for-another-VEST-loan-event-Bid-for-a-VEST-loan-for-VEST-rewards-on",
            "currencies": [
                {
                    "code": "COS",
                    "title": "Contentos",
                    "slug": "contentos",
                    "url": "https:\/\/cryptopanic.com\/news\/contentos\/"
                }
            ],
            "id": 18684705,
            "url": "https:\/\/cryptopanic.com\/news\/18684705\/COSers-Get-ready-for-another-VEST-loan-event-Bid-for-a-VEST-loan-for-VEST-rewards-on",
            "created_at": "2023-06-30T01:48:59Z",
            "votes": {
                "negative": 0,
                "positive": 0,
                "important": 0,
                "liked": 0,
                "disliked": 0,
                "lol": 0,
                "toxic": 0,
                "saved": 0,
                "comments": 0
            }
        },
        {
            "kind": "news",
            "domain": "@contentosio",
            "source": {
                "title": "Contentos Twitter",
                "region": "en",
                "domain": "twitter.com",
                "path": "@contentosio"
            },
            "title": "RT @Seraph_crypto: #SERAPH x @contentosio + @RealCOSTV \ud83e\udd1d\n\nWe're happy to announce a strategic partnership with Contentos.\n\n Partnership Su\u2026",
            "published_at": "2023-06-28T03:21:21Z",
            "slug": "RT-Seraph_crypto-SERAPH-x-contentosio-RealCOSTV-Were-happy-to-announce-a-strategic-partnership-with-Contentos-Partnership-Su",
            "currencies": [
                {
                    "code": "COS",
                    "title": "Contentos",
                    "slug": "contentos",
                    "url": "https:\/\/cryptopanic.com\/news\/contentos\/"
                }
            ],
            "id": 18668393,
            "url": "https:\/\/cryptopanic.com\/news\/18668393\/RT-Seraph_crypto-SERAPH-x-contentosio-RealCOSTV-Were-happy-to-announce-a-strategic-partnership-with-Contentos-Partnership-Su",
            "created_at": "2023-06-28T03:21:21Z",
            "votes": {
                "negative": 0,
                "positive": 0,
                "important": 0,
                "liked": 0,
                "disliked": 0,
                "lol": 0,
                "toxic": 0,
                "saved": 0,
                "comments": 0
            }
        },
        {
            "kind": "news",
            "domain": "@contentosio",
            "source": {
                "title": "Contentos Twitter",
                "region": "en",
                "domain": "twitter.com",
                "path": "@contentosio"
            },
            "title": "We're partnering with @Seraph_crypto, an Action RPG #NFT Equipment Collect &amp; Loot Game by Actoz Tech! \ufe0f\n\n#Seraph\u2026",
            "published_at": "2023-06-28T03:15:40Z",
            "slug": "Were-partnering-with-Seraph_crypto-an-Action-RPG-NFT-Equipment-Collect-amp-Loot-Game-by-Actoz-Tech-Seraph",
            "currencies": [
                {
                    "code": "COS",
                    "title": "Contentos",
                    "slug": "contentos",
                    "url": "https:\/\/cryptopanic.com\/news\/contentos\/"
                }
            ],
            "id": 18668394,
            "url": "https:\/\/cryptopanic.com\/news\/18668394\/Were-partnering-with-Seraph_crypto-an-Action-RPG-NFT-Equipment-Collect-amp-Loot-Game-by-Actoz-Tech-Seraph",
            "created_at": "2023-06-28T03:15:40Z",
            "votes": {
                "negative": 0,
                "positive": 0,
                "important": 0,
                "liked": 0,
                "disliked": 0,
                "lol": 0,
                "toxic": 0,
                "saved": 0,
                "comments": 0
            }
        },
        {
            "kind": "news",
            "domain": "@contentosio",
            "source": {
                "title": "Contentos Twitter",
                "region": "en",
                "domain": "twitter.com",
                "path": "@contentosio"
            },
            "title": "We're excited to announce that we'll soon be joining @CoinMarketCap CMC-Community! \ud83e\udd29\n\nStay tuned for updates on ho\u2026",
            "published_at": "2023-06-28T02:41:49Z",
            "slug": "Were-excited-to-announce-that-well-soon-be-joining-CoinMarketCap-CMC-Community-Stay-tuned-for-updates-on-ho",
            "currencies": [
                {
                    "code": "COS",
                    "title": "Contentos",
                    "slug": "contentos",
                    "url": "https:\/\/cryptopanic.com\/news\/contentos\/"
                }
            ],
            "id": 18668395,
            "url": "https:\/\/cryptopanic.com\/news\/18668395\/Were-excited-to-announce-that-well-soon-be-joining-CoinMarketCap-CMC-Community-Stay-tuned-for-updates-on-ho",
            "created_at": "2023-06-28T02:41:49Z",
            "votes": {
                "negative": 0,
                "positive": 0,
                "important": 0,
                "liked": 0,
                "disliked": 0,
                "lol": 0,
                "toxic": 0,
                "saved": 0,
                "comments": 0
            }
        },
        {
            "kind": "news",
            "domain": "@contentosio",
            "source": {
                "title": "Contentos Twitter",
                "region": "en",
                "domain": "twitter.com",
                "path": "@contentosio"
            },
            "title": "We've hit 50K followers! \n\nThank you #Contentos community for your support and making this milestone possible! \u2026",
            "published_at": "2023-06-26T23:16:24Z",
            "slug": "Weve-hit-50K-followers-Thank-you-Contentos-community-for-your-support-and-making-this-milestone-possible",
            "currencies": [
                {
                    "code": "COS",
                    "title": "Contentos",
                    "slug": "contentos",
                    "url": "https:\/\/cryptopanic.com\/news\/contentos\/"
                }
            ],
            "id": 18660135,
            "url": "https:\/\/cryptopanic.com\/news\/18660135\/Weve-hit-50K-followers-Thank-you-Contentos-community-for-your-support-and-making-this-milestone-possible",
            "created_at": "2023-06-26T23:16:24Z",
            "votes": {
                "negative": 0,
                "positive": 0,
                "important": 0,
                "liked": 0,
                "disliked": 0,
                "lol": 0,
                "toxic": 0,
                "saved": 0,
                "comments": 0
            }
        },
        {
            "kind": "news",
            "domain": "@contentosio",
            "source": {
                "title": "Contentos Twitter",
                "region": "en",
                "domain": "twitter.com",
                "path": "@contentosio"
            },
            "title": "RT @RealCOSTV: Calling all English Creators! \n\nIf you produce original English content on you can apply to get a v\u2026",
            "published_at": "2023-06-21T12:37:41Z",
            "slug": "RT-RealCOSTV-Calling-all-English-Creators-If-you-produce-original-English-content-on-you-can-apply-to-get-a-v",
            "currencies": [
                {
                    "code": "COS",
                    "title": "Contentos",
                    "slug": "contentos",
                    "url": "https:\/\/cryptopanic.com\/news\/contentos\/"
                }
            ],
            "id": 18627284,
            "url": "https:\/\/cryptopanic.com\/news\/18627284\/RT-RealCOSTV-Calling-all-English-Creators-If-you-produce-original-English-content-on-you-can-apply-to-get-a-v",
            "created_at": "2023-06-21T12:37:41Z",
            "votes": {
                "negative": 0,
                "positive": 0,
                "important": 0,
                "liked": 0,
                "disliked": 0,
                "lol": 0,
                "toxic": 0,
                "saved": 0,
                "comments": 0
            }
        },
        {
            "kind": "news",
            "domain": "@CradleOfSins",
            "source": {
                "title": "Cradle of Sins Twitter",
                "region": "en",
                "domain": "twitter.com",
                "path": "@cradleofsins"
            },
            "title": "With the anticipation of our forthcoming update, we're delighted to unveil our new development vlog series!\n- Make\u2026",
            "published_at": "2023-06-21T12:26:21Z",
            "slug": "With-the-anticipation-of-our-forthcoming-update-were-delighted-to-unveil-our-new-development-vlog-series-Make",
            "currencies": [
                {
                    "code": "COS",
                    "title": "Cradle of Sins",
                    "slug": "cradle-of-sins",
                    "url": "https:\/\/cryptopanic.com\/news\/cradle-of-sins\/"
                }
            ],
            "id": 18627329,
            "url": "https:\/\/cryptopanic.com\/news\/18627329\/With-the-anticipation-of-our-forthcoming-update-were-delighted-to-unveil-our-new-development-vlog-series-Make",
            "created_at": "2023-06-21T12:26:21Z",
            "votes": {
                "negative": 0,
                "positive": 0,
                "important": 0,
                "liked": 0,
                "disliked": 0,
                "lol": 0,
                "toxic": 0,
                "saved": 0,
                "comments": 0
            }
        },
        {
            "kind": "news",
            "domain": "@contentosio",
            "source": {
                "title": "Contentos Twitter",
                "region": "en",
                "domain": "twitter.com",
                "path": "@contentosio"
            },
            "title": "RT @binance: #Binance Simple Earn launches two new promotions for $COS Locked Products, where you can get up to 1,000 #COS in rewards!\n\nGet\u2026",
            "published_at": "2023-06-21T09:17:11Z",
            "slug": "RT-binance-Binance-Simple-Earn-launches-two-new-promotions-for-COS-Locked-Products-where-you-can-get-up-to-1000-COS-in-rewards-Get",
            "currencies": [
                {
                    "code": "COS",
                    "title": "Contentos",
                    "slug": "contentos",
                    "url": "https:\/\/cryptopanic.com\/news\/contentos\/"
                }
            ],
            "id": 18627285,
            "url": "https:\/\/cryptopanic.com\/news\/18627285\/RT-binance-Binance-Simple-Earn-launches-two-new-promotions-for-COS-Locked-Products-where-you-can-get-up-to-1000-COS-in-rewards-Get",
            "created_at": "2023-06-21T09:17:11Z",
            "votes": {
                "negative": 0,
                "positive": 0,
                "important": 0,
                "liked": 0,
                "disliked": 0,
                "lol": 0,
                "toxic": 0,
                "saved": 0,
                "comments": 0
            }
        },
        {
            "kind": "news",
            "domain": "@contentosio",
            "source": {
                "title": "Contentos Twitter",
                "region": "en",
                "domain": "twitter.com",
                "path": "@contentosio"
            },
            "title": "Share the #Binance Auto-Invest $COS promotion with friends and win $USDT rewards! \ud83e\udd29\n\n1\u20e3 Follow @contentosio\u2026",
            "published_at": "2023-06-21T03:20:03Z",
            "slug": "Share-the-Binance-Auto-Invest-COS-promotion-with-friends-and-win-USDT-rewards-1-Follow-contentosio",
            "currencies": [
                {
                    "code": "COS",
                    "title": "Contentos",
                    "slug": "contentos",
                    "url": "https:\/\/cryptopanic.com\/news\/contentos\/"
                }
            ],
            "id": 18619280,
            "url": "https:\/\/cryptopanic.com\/news\/18619280\/Share-the-Binance-Auto-Invest-COS-promotion-with-friends-and-win-USDT-rewards-1-Follow-contentosio",
            "created_at": "2023-06-21T03:20:03Z",
            "votes": {
                "negative": 0,
                "positive": 0,
                "important": 0,
                "liked": 0,
                "disliked": 0,
                "lol": 0,
                "toxic": 0,
                "saved": 0,
                "comments": 0
            }
        },
        {
            "kind": "news",
            "domain": "@contentosio",
            "source": {
                "title": "Contentos Twitter",
                "region": "en",
                "domain": "twitter.com",
                "path": "@contentosio"
            },
            "title": "RT @binance: Complete our latest #Binance Auto-Invest quiz and subscribe to get up to 10 $USDT in token vouchers and a free Auto-Invest $CO\u2026",
            "published_at": "2023-06-20T11:55:12Z",
            "slug": "RT-binance-Complete-our-latest-Binance-Auto-Invest-quiz-and-subscribe-to-get-up-to-10-USDT-in-token-vouchers-and-a-free-Auto-Invest-CO",
            "currencies": [
                {
                    "code": "COS",
                    "title": "Contentos",
                    "slug": "contentos",
                    "url": "https:\/\/cryptopanic.com\/news\/contentos\/"
                }
            ],
            "id": 18619281,
            "url": "https:\/\/cryptopanic.com\/news\/18619281\/RT-binance-Complete-our-latest-Binance-Auto-Invest-quiz-and-subscribe-to-get-up-to-10-USDT-in-token-vouchers-and-a-free-Auto-Invest-CO",
            "created_at": "2023-06-20T11:55:12Z",
            "votes": {
                "negative": 0,
                "positive": 0,
                "important": 0,
                "liked": 0,
                "disliked": 0,
                "lol": 0,
                "toxic": 0,
                "saved": 0,
                "comments": 0
            }
        },
        {
            "kind": "news",
            "domain": "@contentosio",
            "source": {
                "title": "Contentos Twitter",
                "region": "en",
                "domain": "twitter.com",
                "path": "@contentosio"
            },
            "title": "Auto-Invest Adds $COS: Complete a Quiz to Receive a Free Auto-Invest COS Trial Plan &amp; Subscribe to Auto-Invest to E\u2026",
            "published_at": "2023-06-20T04:45:35Z",
            "slug": "Auto-Invest-Adds-COS-Complete-a-Quiz-to-Receive-a-Free-Auto-Invest-COS-Trial-Plan-amp-Subscribe-to-Auto-Invest-to-E",
            "currencies": [
                {
                    "code": "COS",
                    "title": "Contentos",
                    "slug": "contentos",
                    "url": "https:\/\/cryptopanic.com\/news\/contentos\/"
                }
            ],
            "id": 18611282,
            "url": "https:\/\/cryptopanic.com\/news\/18611282\/Auto-Invest-Adds-COS-Complete-a-Quiz-to-Receive-a-Free-Auto-Invest-COS-Trial-Plan-amp-Subscribe-to-Auto-Invest-to-E",
            "created_at": "2023-06-20T04:45:35Z",
            "votes": {
                "negative": 0,
                "positive": 0,
                "important": 0,
                "liked": 0,
                "disliked": 0,
                "lol": 0,
                "toxic": 0,
                "saved": 0,
                "comments": 0
            }
        },
        {
            "kind": "news",
            "domain": "@contentosio",
            "source": {
                "title": "Contentos Twitter",
                "region": "en",
                "domain": "twitter.com",
                "path": "@contentosio"
            },
            "title": "RT @RealCOSTV: Celebrate 4th anniversary with us! \n\nJoin our \"Sharing\" Event Series and earn $COS rewards! \u2026",
            "published_at": "2023-06-20T01:35:09Z",
            "slug": "RT-RealCOSTV-Celebrate-4th-anniversary-with-us-Join-our-Sharing-Event-Series-and-earn-COS-rewards",
            "currencies": [
                {
                    "code": "COS",
                    "title": "Contentos",
                    "slug": "contentos",
                    "url": "https:\/\/cryptopanic.com\/news\/contentos\/"
                }
            ],
            "id": 18611283,
            "url": "https:\/\/cryptopanic.com\/news\/18611283\/RT-RealCOSTV-Celebrate-4th-anniversary-with-us-Join-our-Sharing-Event-Series-and-earn-COS-rewards",
            "created_at": "2023-06-20T01:35:09Z",
            "votes": {
                "negative": 0,
                "positive": 0,
                "important": 0,
                "liked": 0,
                "disliked": 0,
                "lol": 0,
                "toxic": 0,
                "saved": 0,
                "comments": 0
            }
        },
        {
            "kind": "news",
            "domain": "@contentosio",
            "source": {
                "title": "Contentos Twitter",
                "region": "en",
                "domain": "twitter.com",
                "path": "@contentosio"
            },
            "title": "RT @RealCOSTV: We've added 3 new #NFT PFPs on !\n\n3 popular #NFT projects are now whitelisted on",
            "published_at": "2023-06-15T02:09:27Z",
            "slug": "RT-RealCOSTV-Weve-added-3-new-NFT-PFPs-on-3-popular-NFT-projects-are-now-whitelisted-on",
            "currencies": [
                {
                    "code": "COS",
                    "title": "Contentos",
                    "slug": "contentos",
                    "url": "https:\/\/cryptopanic.com\/news\/contentos\/"
                }
            ],
            "id": 18578271,
            "url": "https:\/\/cryptopanic.com\/news\/18578271\/RT-RealCOSTV-Weve-added-3-new-NFT-PFPs-on-3-popular-NFT-projects-are-now-whitelisted-on",
            "created_at": "2023-06-15T02:09:27Z",
            "votes": {
                "negative": 0,
                "positive": 0,
                "important": 0,
                "liked": 0,
                "disliked": 0,
                "lol": 0,
                "toxic": 0,
                "saved": 0,
                "comments": 0
            }
        },
        {
            "kind": "news",
            "domain": "@CradleOfSins",
            "source": {
                "title": "Cradle of Sins Twitter",
                "region": "en",
                "domain": "twitter.com",
                "path": "@cradleofsins"
            },
            "title": "RT @indiegamesdevel: @CradleOfSins is a PC &amp; VR #crossplay #action #adventure game set in a dark world of strange creatures. Gear with your\u2026",
            "published_at": "2023-06-10T19:19:21Z",
            "slug": "RT-indiegamesdevel-CradleOfSins-is-a-PC-amp-VR-crossplay-action-adventure-game-set-in-a-dark-world-of-strange-creatures-Gear-with-your",
            "currencies": [
                {
                    "code": "COS",
                    "title": "Cradle of Sins",
                    "slug": "cradle-of-sins",
                    "url": "https:\/\/cryptopanic.com\/news\/cradle-of-sins\/"
                }
            ],
            "id": 18550755,
            "url": "https:\/\/cryptopanic.com\/news\/18550755\/RT-indiegamesdevel-CradleOfSins-is-a-PC-amp-VR-crossplay-action-adventure-game-set-in-a-dark-world-of-strange-creatures-Gear-with-your",
            "created_at": "2023-06-10T19:19:21Z",
            "votes": {
                "negative": 0,
                "positive": 0,
                "important": 0,
                "liked": 0,
                "disliked": 0,
                "lol": 0,
                "toxic": 0,
                "saved": 0,
                "comments": 0
            }
        },
        {
            "kind": "news",
            "domain": "@CradleOfSins",
            "source": {
                "title": "Cradle of Sins Twitter",
                "region": "en",
                "domain": "twitter.com",
                "path": "@cradleofsins"
            },
            "title": "Cradle Of Sins - #VR Development Update!\n- Good morning everyone, we are here to share with you a few of the things\u2026",
            "published_at": "2023-06-02T12:15:04Z",
            "slug": "Cradle-Of-Sins-VR-Development-Update-Good-morning-everyone-we-are-here-to-share-with-you-a-few-of-the-things",
            "currencies": [
                {
                    "code": "COS",
                    "title": "Cradle of Sins",
                    "slug": "cradle-of-sins",
                    "url": "https:\/\/cryptopanic.com\/news\/cradle-of-sins\/"
                }
            ],
            "id": 18491833,
            "url": "https:\/\/cryptopanic.com\/news\/18491833\/Cradle-Of-Sins-VR-Development-Update-Good-morning-everyone-we-are-here-to-share-with-you-a-few-of-the-things",
            "created_at": "2023-06-02T12:15:04Z",
            "votes": {
                "negative": 0,
                "positive": 0,
                "important": 0,
                "liked": 0,
                "disliked": 0,
                "lol": 0,
                "toxic": 0,
                "saved": 0,
                "comments": 0
            }
        }
    ]
}
