{
    "count": 200,
    "next": "https:\/\/cryptopanic.com\/api\/v1\/posts\/?auth_token=01c356e89ffc1b8eba2127c81fc8c66ee0eace75&kind=news&currencies=MOB&page=2",
    "previous": null,
    "results": [
        {
            "kind": "news",
            "domain": "@MobInuToken",
            "source": {
                "title": "Mob Inu Twitter",
                "region": "en",
                "domain": "twitter.com",
                "path": "@mobinutoken"
            },
            "title": "ESPER BATTLE 6!  $200 #BNB\/#ETH up for grabs!\n$100 to the top two high scores in Psycho Loon! \ufe0f\n\nTo compete: go t\u2026",
            "published_at": "2021-11-27T22:26:06Z",
            "slug": "ESPER-BATTLE-6-200-BNBETH-up-for-grabs-100-to-the-top-two-high-scores-in-Psycho-Loon-To-compete-go-t",
            "currencies": [
                {
                    "code": "MOB",
                    "title": "Mob Inu",
                    "slug": null,
                    "url": "https:\/\/cryptopanic.com\/news\/None\/"
                }
            ],
            "id": 13489339,
            "url": "https:\/\/cryptopanic.com\/news\/13489339\/ESPER-BATTLE-6-200-BNBETH-up-for-grabs-100-to-the-top-two-high-scores-in-Psycho-Loon-To-compete-go-t",
            "created_at": "2021-11-27T22:26:06Z",
            "votes": {
                "negative": 0,
                "positive": 0,
                "important": 0,
                "liked": 0,
                "disliked": 0,
                "lol": 0,
                "toxic": 0,
                "saved": 0,
                "comments": 0
            }
        },
        {
            "kind": "news",
            "domain": "@MobInuToken",
            "source": {
                "title": "Mob Inu Twitter",
                "region": "en",
                "domain": "twitter.com",
                "path": "@mobinutoken"
            },
            "title": "$MOB Inu is going cross chain &amp; launching on @PancakeSwap this Saturday, November 27th!\n\nJoin our TG for more detai\u2026",
            "published_at": "2021-11-23T01:22:09Z",
            "slug": "MOB-Inu-is-going-cross-chain-amp-launching-on-PancakeSwap-this-Saturday-November-27th-Join-our-TG-for-more-detai",
            "currencies": [
                {
                    "code": "MOB",
                    "title": "Mob Inu",
                    "slug": null,
                    "url": "https:\/\/cryptopanic.com\/news\/None\/"
                },
                {
                    "code": "XCN",
                    "title": "Onyxcoin",
                    "slug": "chain-2",
                    "url": "https:\/\/cryptopanic.com\/news\/chain-2\/"
                }
            ],
            "id": 13430544,
            "url": "https:\/\/cryptopanic.com\/news\/13430544\/MOB-Inu-is-going-cross-chain-amp-launching-on-PancakeSwap-this-Saturday-November-27th-Join-our-TG-for-more-detai",
            "created_at": "2021-11-23T01:22:09Z",
            "votes": {
                "negative": 0,
                "positive": 0,
                "important": 0,
                "liked": 0,
                "disliked": 0,
                "lol": 0,
                "toxic": 0,
                "saved": 0,
                "comments": 0
            }
        },
        {
            "kind": "news",
            "domain": "@MobInuToken",
            "source": {
                "title": "Mob Inu Twitter",
                "region": "en",
                "domain": "twitter.com",
                "path": "@mobinutoken"
            },
            "title": " SATURDAY NIGHT  ESPER BATTLE 5! \n$300 ETH prize! - $150 ETH to the 2 highest scores in Psycho Loon on\u2026",
            "published_at": "2021-11-21T04:35:40Z",
            "slug": "SATURDAY-NIGHT-ESPER-BATTLE-5-300-ETH-prize-150-ETH-to-the-2-highest-scores-in-Psycho-Loon-on",
            "currencies": [
                {
                    "code": "MOB",
                    "title": "Mob Inu",
                    "slug": null,
                    "url": "https:\/\/cryptopanic.com\/news\/None\/"
                }
            ],
            "id": 13410581,
            "url": "https:\/\/cryptopanic.com\/news\/13410581\/SATURDAY-NIGHT-ESPER-BATTLE-5-300-ETH-prize-150-ETH-to-the-2-highest-scores-in-Psycho-Loon-on",
            "created_at": "2021-11-21T04:35:40Z",
            "votes": {
                "negative": 0,
                "positive": 0,
                "important": 0,
                "liked": 0,
                "disliked": 0,
                "lol": 0,
                "toxic": 0,
                "saved": 0,
                "comments": 0
            }
        },
        {
            "kind": "news",
            "domain": "@MobInuToken",
            "source": {
                "title": "Mob Inu Twitter",
                "region": "en",
                "domain": "twitter.com",
                "path": "@mobinutoken"
            },
            "title": "RT @MobInuToken: $MOB Inu is live on @ShibaSwapDEX! One of many steps on our journey to connect the espers of the world! \n\n#JoinTheMob htt\u2026",
            "published_at": "2021-11-20T13:56:37Z",
            "slug": "RT-MobInuToken-MOB-Inu-is-live-on-ShibaSwapDEX-One-of-many-steps-on-our-journey-to-connect-the-espers-of-the-world-JoinTheMob-htt",
            "currencies": [
                {
                    "code": "MOB",
                    "title": "Mob Inu",
                    "slug": null,
                    "url": "https:\/\/cryptopanic.com\/news\/None\/"
                }
            ],
            "id": 13410582,
            "url": "https:\/\/cryptopanic.com\/news\/13410582\/RT-MobInuToken-MOB-Inu-is-live-on-ShibaSwapDEX-One-of-many-steps-on-our-journey-to-connect-the-espers-of-the-world-JoinTheMob-htt",
            "created_at": "2021-11-20T13:56:37Z",
            "votes": {
                "negative": 0,
                "positive": 0,
                "important": 0,
                "liked": 0,
                "disliked": 0,
                "lol": 0,
                "toxic": 0,
                "saved": 0,
                "comments": 0
            }
        },
        {
            "kind": "news",
            "domain": "@MobInuToken",
            "source": {
                "title": "Mob Inu Twitter",
                "region": "en",
                "domain": "twitter.com",
                "path": "@mobinutoken"
            },
            "title": " #JoinTheMob \n\n \n\ud83c\udde8\ud83c\uddf3 \n\ud83c\uddee\ud83c\uddf9 \n\n$MOB #SAITAMA\u2026",
            "published_at": "2021-11-20T08:28:50Z",
            "slug": "JoinTheMob-MOB-SAITAMA",
            "currencies": [
                {
                    "code": "MOB",
                    "title": "Mob Inu",
                    "slug": null,
                    "url": "https:\/\/cryptopanic.com\/news\/None\/"
                }
            ],
            "id": 13410583,
            "url": "https:\/\/cryptopanic.com\/news\/13410583\/JoinTheMob-MOB-SAITAMA",
            "created_at": "2021-11-20T08:28:50Z",
            "votes": {
                "negative": 0,
                "positive": 0,
                "important": 0,
                "liked": 0,
                "disliked": 0,
                "lol": 0,
                "toxic": 0,
                "saved": 0,
                "comments": 0
            }
        },
        {
            "kind": "news",
            "domain": "@MobInuToken",
            "source": {
                "title": "Mob Inu Twitter",
                "region": "en",
                "domain": "twitter.com",
                "path": "@mobinutoken"
            },
            "title": "$MOB Inu is proud to announce we're @CoinMarketCap listed! Be sure to like &amp; upvote espers! \n\n\u2026",
            "published_at": "2021-11-20T04:52:14Z",
            "slug": "MOB-Inu-is-proud-to-announce-were-CoinMarketCap-listed-Be-sure-to-like-amp-upvote-espers",
            "currencies": [
                {
                    "code": "MOB",
                    "title": "Mob Inu",
                    "slug": null,
                    "url": "https:\/\/cryptopanic.com\/news\/None\/"
                }
            ],
            "id": 13401832,
            "url": "https:\/\/cryptopanic.com\/news\/13401832\/MOB-Inu-is-proud-to-announce-were-CoinMarketCap-listed-Be-sure-to-like-amp-upvote-espers",
            "created_at": "2021-11-20T04:52:14Z",
            "votes": {
                "negative": 0,
                "positive": 0,
                "important": 0,
                "liked": 0,
                "disliked": 0,
                "lol": 0,
                "toxic": 0,
                "saved": 0,
                "comments": 0
            }
        },
        {
            "kind": "news",
            "domain": "@MobInuToken",
            "source": {
                "title": "Mob Inu Twitter",
                "region": "en",
                "domain": "twitter.com",
                "path": "@mobinutoken"
            },
            "title": "$MOB Inu is live on @ShibaSwapDEX! One of many steps on our journey to connect the espers of the world! \u2026",
            "published_at": "2021-11-20T03:35:29Z",
            "slug": "MOB-Inu-is-live-on-ShibaSwapDEX-One-of-many-steps-on-our-journey-to-connect-the-espers-of-the-world",
            "currencies": [
                {
                    "code": "MOB",
                    "title": "Mob Inu",
                    "slug": null,
                    "url": "https:\/\/cryptopanic.com\/news\/None\/"
                }
            ],
            "id": 13401833,
            "url": "https:\/\/cryptopanic.com\/news\/13401833\/MOB-Inu-is-live-on-ShibaSwapDEX-One-of-many-steps-on-our-journey-to-connect-the-espers-of-the-world",
            "created_at": "2021-11-20T03:35:29Z",
            "votes": {
                "negative": 0,
                "positive": 0,
                "important": 0,
                "liked": 0,
                "disliked": 0,
                "lol": 0,
                "toxic": 0,
                "saved": 0,
                "comments": 0
            }
        },
        {
            "kind": "news",
            "domain": "@MobInuToken",
            "source": {
                "title": "Mob Inu Twitter",
                "region": "en",
                "domain": "twitter.com",
                "path": "@mobinutoken"
            },
            "title": "Experiencing some TG issues. Join this one for now! $MOB",
            "published_at": "2021-11-19T23:33:28Z",
            "slug": "Experiencing-some-TG-issues-Join-this-one-for-now-MOB",
            "currencies": [
                {
                    "code": "MOB",
                    "title": "Mob Inu",
                    "slug": null,
                    "url": "https:\/\/cryptopanic.com\/news\/None\/"
                }
            ],
            "id": 13401834,
            "url": "https:\/\/cryptopanic.com\/news\/13401834\/Experiencing-some-TG-issues-Join-this-one-for-now-MOB",
            "created_at": "2021-11-19T23:33:28Z",
            "votes": {
                "negative": 0,
                "positive": 0,
                "important": 0,
                "liked": 0,
                "disliked": 0,
                "lol": 0,
                "toxic": 0,
                "saved": 0,
                "comments": 0
            }
        },
        {
            "kind": "news",
            "domain": "@MobInuToken",
            "source": {
                "title": "Mob Inu Twitter",
                "region": "en",
                "domain": "twitter.com",
                "path": "@mobinutoken"
            },
            "title": "ESPER BATTLE 4! DEMON MODE $250 ETH goes to the highest score in Psycho Loon! \ufe0f Available for play at\u2026",
            "published_at": "2021-11-19T04:45:24Z",
            "slug": "ESPER-BATTLE-4-DEMON-MODE-250-ETH-goes-to-the-highest-score-in-Psycho-Loon-Available-for-play-at",
            "currencies": [
                {
                    "code": "MOB",
                    "title": "Mob Inu",
                    "slug": null,
                    "url": "https:\/\/cryptopanic.com\/news\/None\/"
                }
            ],
            "id": 13390330,
            "url": "https:\/\/cryptopanic.com\/news\/13390330\/ESPER-BATTLE-4-DEMON-MODE-250-ETH-goes-to-the-highest-score-in-Psycho-Loon-Available-for-play-at",
            "created_at": "2021-11-19T04:45:24Z",
            "votes": {
                "negative": 0,
                "positive": 0,
                "important": 0,
                "liked": 0,
                "disliked": 0,
                "lol": 0,
                "toxic": 0,
                "saved": 0,
                "comments": 0
            }
        },
        {
            "kind": "news",
            "domain": "@MobInuToken",
            "source": {
                "title": "Mob Inu Twitter",
                "region": "en",
                "domain": "twitter.com",
                "path": "@mobinutoken"
            },
            "title": "$MOB Inu is live on @ShibaSwapDEX! One of many steps on our journey to connect the espers of the world! \u2026",
            "published_at": "2021-11-18T19:17:40Z",
            "slug": "MOB-Inu-is-live-on-ShibaSwapDEX-One-of-many-steps-on-our-journey-to-connect-the-espers-of-the-world",
            "currencies": [
                {
                    "code": "MOB",
                    "title": "Mob Inu",
                    "slug": "mob-inu",
                    "url": "https:\/\/cryptopanic.com\/news\/mob-inu\/"
                }
            ],
            "id": 13390331,
            "url": "https:\/\/cryptopanic.com\/news\/13390331\/MOB-Inu-is-live-on-ShibaSwapDEX-One-of-many-steps-on-our-journey-to-connect-the-espers-of-the-world",
            "created_at": "2021-11-18T19:17:40Z",
            "votes": {
                "negative": 0,
                "positive": 0,
                "important": 0,
                "liked": 0,
                "disliked": 0,
                "lol": 0,
                "toxic": 0,
                "saved": 0,
                "comments": 0
            }
        },
        {
            "kind": "news",
            "domain": "@MobInuToken",
            "source": {
                "title": "Mob Inu Twitter",
                "region": "en",
                "domain": "twitter.com",
                "path": "@mobinutoken"
            },
            "title": "CONGRATULATIONS to winners Max, Uzi &amp; Zeref of the 3rd #Mobiverse Arcade competition! \ufe0f\n\n$MOB Inu is a coin offer\u2026",
            "published_at": "2021-11-18T17:55:55Z",
            "slug": "CONGRATULATIONS-to-winners-Max-Uzi-amp-Zeref-of-the-3rd-Mobiverse-Arcade-competition-MOB-Inu-is-a-coin-offer",
            "currencies": [
                {
                    "code": "MOB",
                    "title": "Mob Inu",
                    "slug": "mob-inu",
                    "url": "https:\/\/cryptopanic.com\/news\/mob-inu\/"
                }
            ],
            "id": 13390332,
            "url": "https:\/\/cryptopanic.com\/news\/13390332\/CONGRATULATIONS-to-winners-Max-Uzi-amp-Zeref-of-the-3rd-Mobiverse-Arcade-competition-MOB-Inu-is-a-coin-offer",
            "created_at": "2021-11-18T17:55:55Z",
            "votes": {
                "negative": 0,
                "positive": 0,
                "important": 0,
                "liked": 0,
                "disliked": 0,
                "lol": 0,
                "toxic": 0,
                "saved": 0,
                "comments": 0
            }
        },
        {
            "kind": "news",
            "domain": "@MobInuToken",
            "source": {
                "title": "Mob Inu Twitter",
                "region": "en",
                "domain": "twitter.com",
                "path": "@mobinutoken"
            },
            "title": "ESPER BATTLE 3 BEGINS! \ufe0f With a total of $500 ETH in prizes!! \n\n#JoinTheMob to learn how to win!\u2026",
            "published_at": "2021-11-17T21:23:39Z",
            "slug": "ESPER-BATTLE-3-BEGINS-With-a-total-of-500-ETH-in-prizes-JoinTheMob-to-learn-how-to-win",
            "currencies": [
                {
                    "code": "MOB",
                    "title": "Mob Inu",
                    "slug": null,
                    "url": "https:\/\/cryptopanic.com\/news\/None\/"
                }
            ],
            "id": 13379825,
            "url": "https:\/\/cryptopanic.com\/news\/13379825\/ESPER-BATTLE-3-BEGINS-With-a-total-of-500-ETH-in-prizes-JoinTheMob-to-learn-how-to-win",
            "created_at": "2021-11-17T21:23:39Z",
            "votes": {
                "negative": 0,
                "positive": 0,
                "important": 0,
                "liked": 0,
                "disliked": 0,
                "lol": 0,
                "toxic": 0,
                "saved": 0,
                "comments": 0
            }
        },
        {
            "kind": "news",
            "domain": "@MobInuToken",
            "source": {
                "title": "Mob Inu Twitter",
                "region": "en",
                "domain": "twitter.com",
                "path": "@mobinutoken"
            },
            "title": "RT @NomicsUpdates: Mob Inu $MOB is live on Nomics with a price of $1.3237913e-06, and volume of $259,808.49 @MobInuToken",
            "published_at": "2021-11-17T19:55:47Z",
            "slug": "RT-NomicsUpdates-Mob-Inu-MOB-is-live-on-Nomics-with-a-price-of-13237913e-06-and-volume-of-25980849-MobInuToken",
            "currencies": [
                {
                    "code": "MOB",
                    "title": "Mob Inu",
                    "slug": null,
                    "url": "https:\/\/cryptopanic.com\/news\/None\/"
                }
            ],
            "id": 13379827,
            "url": "https:\/\/cryptopanic.com\/news\/13379827\/RT-NomicsUpdates-Mob-Inu-MOB-is-live-on-Nomics-with-a-price-of-13237913e-06-and-volume-of-25980849-MobInuToken",
            "created_at": "2021-11-17T19:55:47Z",
            "votes": {
                "negative": 0,
                "positive": 0,
                "important": 0,
                "liked": 0,
                "disliked": 0,
                "lol": 0,
                "toxic": 0,
                "saved": 0,
                "comments": 0
            }
        },
        {
            "kind": "news",
            "domain": "@MobInuToken",
            "source": {
                "title": "Mob Inu Twitter",
                "region": "en",
                "domain": "twitter.com",
                "path": "@mobinutoken"
            },
            "title": "$MOB Inu is officially listed on @CoinGecko! \ud83e\udd8e\n\nCongrats #MobFam! Our quest to assemble the world's strongest esper\u2026",
            "published_at": "2021-11-17T18:15:26Z",
            "slug": "MOB-Inu-is-officially-listed-on-CoinGecko-Congrats-MobFam-Our-quest-to-assemble-the-worlds-strongest-esper",
            "currencies": [
                {
                    "code": "MOB",
                    "title": "Mob Inu",
                    "slug": null,
                    "url": "https:\/\/cryptopanic.com\/news\/None\/"
                }
            ],
            "id": 13379829,
            "url": "https:\/\/cryptopanic.com\/news\/13379829\/MOB-Inu-is-officially-listed-on-CoinGecko-Congrats-MobFam-Our-quest-to-assemble-the-worlds-strongest-esper",
            "created_at": "2021-11-17T18:15:26Z",
            "votes": {
                "negative": 0,
                "positive": 0,
                "important": 0,
                "liked": 0,
                "disliked": 0,
                "lol": 0,
                "toxic": 0,
                "saved": 0,
                "comments": 0
            }
        },
        {
            "kind": "news",
            "domain": "@MobInuToken",
            "source": {
                "title": "Mob Inu Twitter",
                "region": "en",
                "domain": "twitter.com",
                "path": "@mobinutoken"
            },
            "title": "CONGRATULATIONS to winners Hendrik &amp; Max of the 2nd #Mobiverse Arcade competition! \ufe0f\n\nEspers who play together, w\u2026",
            "published_at": "2021-11-17T17:05:09Z",
            "slug": "CONGRATULATIONS-to-winners-Hendrik-amp-Max-of-the-2nd-Mobiverse-Arcade-competition-Espers-who-play-together-w",
            "currencies": [
                {
                    "code": "MOB",
                    "title": "Mob Inu",
                    "slug": null,
                    "url": "https:\/\/cryptopanic.com\/news\/None\/"
                }
            ],
            "id": 13379831,
            "url": "https:\/\/cryptopanic.com\/news\/13379831\/CONGRATULATIONS-to-winners-Hendrik-amp-Max-of-the-2nd-Mobiverse-Arcade-competition-Espers-who-play-together-w",
            "created_at": "2021-11-17T17:05:09Z",
            "votes": {
                "negative": 0,
                "positive": 0,
                "important": 0,
                "liked": 0,
                "disliked": 0,
                "lol": 0,
                "toxic": 0,
                "saved": 0,
                "comments": 0
            }
        },
        {
            "kind": "news",
            "domain": "@MobInuToken",
            "source": {
                "title": "Mob Inu Twitter",
                "region": "en",
                "domain": "twitter.com",
                "path": "@mobinutoken"
            },
            "title": "RT @MobInuToken: This is only the beginning!  $MOB Inu launched game ready with ZERO presale and 5% auto-liquidity, meaning our floor is c\u2026",
            "published_at": "2021-11-17T15:09:54Z",
            "slug": "RT-MobInuToken-This-is-only-the-beginning-MOB-Inu-launched-game-ready-with-ZERO-presale-and-5-auto-liquidity-meaning-our-floor-is-c",
            "currencies": [
                {
                    "code": "MOB",
                    "title": "Mob Inu",
                    "slug": null,
                    "url": "https:\/\/cryptopanic.com\/news\/None\/"
                }
            ],
            "id": 13379834,
            "url": "https:\/\/cryptopanic.com\/news\/13379834\/RT-MobInuToken-This-is-only-the-beginning-MOB-Inu-launched-game-ready-with-ZERO-presale-and-5-auto-liquidity-meaning-our-floor-is-c",
            "created_at": "2021-11-17T15:09:54Z",
            "votes": {
                "negative": 0,
                "positive": 0,
                "important": 0,
                "liked": 0,
                "disliked": 0,
                "lol": 0,
                "toxic": 0,
                "saved": 0,
                "comments": 0
            }
        },
        {
            "kind": "news",
            "domain": "@MobInuToken",
            "source": {
                "title": "Mob Inu Twitter",
                "region": "en",
                "domain": "twitter.com",
                "path": "@mobinutoken"
            },
            "title": "RT @coinlistings: \ud83c\udd95 New CoinGecko Listing: $MOB",
            "published_at": "2021-11-17T06:44:54Z",
            "slug": "RT-coinlistings-New-CoinGecko-Listing-MOB",
            "currencies": [
                {
                    "code": "MOB",
                    "title": "Mob Inu",
                    "slug": null,
                    "url": "https:\/\/cryptopanic.com\/news\/None\/"
                }
            ],
            "id": 13379840,
            "url": "https:\/\/cryptopanic.com\/news\/13379840\/RT-coinlistings-New-CoinGecko-Listing-MOB",
            "created_at": "2021-11-17T06:44:54Z",
            "votes": {
                "negative": 0,
                "positive": 0,
                "important": 0,
                "liked": 0,
                "disliked": 0,
                "lol": 0,
                "toxic": 0,
                "saved": 0,
                "comments": 0
            }
        },
        {
            "kind": "news",
            "domain": "@MobInuToken",
            "source": {
                "title": "Mob Inu Twitter",
                "region": "en",
                "domain": "twitter.com",
                "path": "@mobinutoken"
            },
            "title": "This is only the beginning!  $MOB Inu launched game ready with ZERO presale and 5% auto-liquidity, meaning our flo\u2026",
            "published_at": "2021-11-17T02:27:13Z",
            "slug": "This-is-only-the-beginning-MOB-Inu-launched-game-ready-with-ZERO-presale-and-5-auto-liquidity-meaning-our-flo",
            "currencies": [
                {
                    "code": "MOB",
                    "title": "Mob Inu",
                    "slug": null,
                    "url": "https:\/\/cryptopanic.com\/news\/None\/"
                }
            ],
            "id": 13379843,
            "url": "https:\/\/cryptopanic.com\/news\/13379843\/This-is-only-the-beginning-MOB-Inu-launched-game-ready-with-ZERO-presale-and-5-auto-liquidity-meaning-our-flo",
            "created_at": "2021-11-17T02:27:13Z",
            "votes": {
                "negative": 0,
                "positive": 0,
                "important": 0,
                "liked": 0,
                "disliked": 0,
                "lol": 0,
                "toxic": 0,
                "saved": 0,
                "comments": 0
            }
        },
        {
            "kind": "news",
            "domain": "@MobInuToken",
            "source": {
                "title": "Mob Inu Twitter",
                "region": "en",
                "domain": "twitter.com",
                "path": "@mobinutoken"
            },
            "title": "Our second esper battle is underway! $400 ETH is up for grabs to the two top scorers in Psycho Loon! \ufe0f $250 ETH fo\u2026",
            "published_at": "2021-11-16T18:36:24Z",
            "slug": "Our-second-esper-battle-is-underway-400-ETH-is-up-for-grabs-to-the-two-top-scorers-in-Psycho-Loon-250-ETH-fo",
            "currencies": [
                {
                    "code": "MOB",
                    "title": "Mob Inu",
                    "slug": "mob-inu",
                    "url": "https:\/\/cryptopanic.com\/news\/mob-inu\/"
                }
            ],
            "id": 13379846,
            "url": "https:\/\/cryptopanic.com\/news\/13379846\/Our-second-esper-battle-is-underway-400-ETH-is-up-for-grabs-to-the-two-top-scorers-in-Psycho-Loon-250-ETH-fo",
            "created_at": "2021-11-16T18:36:24Z",
            "votes": {
                "negative": 0,
                "positive": 0,
                "important": 0,
                "liked": 0,
                "disliked": 0,
                "lol": 0,
                "toxic": 0,
                "saved": 0,
                "comments": 0
            }
        },
        {
            "kind": "news",
            "domain": "@MobInuToken",
            "source": {
                "title": "Mob Inu Twitter",
                "region": "en",
                "domain": "twitter.com",
                "path": "@mobinutoken"
            },
            "title": "$MOB Inu is pleased to announce our verification with @SafeSolidity! We're happy to bring added trust to our fast g\u2026",
            "published_at": "2021-11-16T16:18:24Z",
            "slug": "MOB-Inu-is-pleased-to-announce-our-verification-with-SafeSolidity-Were-happy-to-bring-added-trust-to-our-fast-g",
            "currencies": [
                {
                    "code": "MOB",
                    "title": "Mob Inu",
                    "slug": "mob-inu",
                    "url": "https:\/\/cryptopanic.com\/news\/mob-inu\/"
                }
            ],
            "id": 13379848,
            "url": "https:\/\/cryptopanic.com\/news\/13379848\/MOB-Inu-is-pleased-to-announce-our-verification-with-SafeSolidity-Were-happy-to-bring-added-trust-to-our-fast-g",
            "created_at": "2021-11-16T16:18:24Z",
            "votes": {
                "negative": 0,
                "positive": 0,
                "important": 0,
                "liked": 0,
                "disliked": 0,
                "lol": 0,
                "toxic": 0,
                "saved": 0,
                "comments": 0
            }
        }
    ]
}
