{
    "count": 200,
    "next": "https:\/\/cryptopanic.com\/api\/v1\/posts\/?auth_token=01c356e89ffc1b8eba2127c81fc8c66ee0eace75&kind=news&currencies=JUV&page=2",
    "previous": null,
    "results": [
        {
            "kind": "news",
            "domain": "@juventusfcen",
            "source": {
                "title": "Juventus Fan Token Twitter",
                "region": "en",
                "domain": "twitter.com",
                "path": "@juventusfcen"
            },
            "title": "The return of our Polish stars \ud83c\uddf5\ud83c\uddf1",
            "published_at": "2023-07-12T07:27:12Z",
            "slug": "The-return-of-our-Polish-stars",
            "currencies": [
                {
                    "code": "JUV",
                    "title": "Juventus Fan Token",
                    "slug": "juventus-fan-token",
                    "url": "https:\/\/cryptopanic.com\/news\/juventus-fan-token\/"
                }
            ],
            "id": 18765111,
            "url": "https:\/\/cryptopanic.com\/news\/18765111\/The-return-of-our-Polish-stars",
            "created_at": "2023-07-12T07:27:12Z",
            "votes": {
                "negative": 0,
                "positive": 0,
                "important": 0,
                "liked": 0,
                "disliked": 0,
                "lol": 0,
                "toxic": 0,
                "saved": 0,
                "comments": 0
            }
        },
        {
            "kind": "news",
            "domain": "@juventusfcen",
            "source": {
                "title": "Juventus Fan Token Twitter",
                "region": "en",
                "domain": "twitter.com",
                "path": "@juventusfcen"
            },
            "title": "Ciao guys! \n\nWait for Tek \ud83e\udd23",
            "published_at": "2023-07-12T06:50:31Z",
            "slug": "Ciao-guys-Wait-for-Tek",
            "currencies": [
                {
                    "code": "JUV",
                    "title": "Juventus Fan Token",
                    "slug": "juventus-fan-token",
                    "url": "https:\/\/cryptopanic.com\/news\/juventus-fan-token\/"
                }
            ],
            "id": 18765112,
            "url": "https:\/\/cryptopanic.com\/news\/18765112\/Ciao-guys-Wait-for-Tek",
            "created_at": "2023-07-12T06:50:31Z",
            "votes": {
                "negative": 0,
                "positive": 0,
                "important": 0,
                "liked": 0,
                "disliked": 0,
                "lol": 0,
                "toxic": 0,
                "saved": 0,
                "comments": 0
            }
        },
        {
            "kind": "news",
            "domain": "@juventusfcen",
            "source": {
                "title": "Juventus Fan Token Twitter",
                "region": "en",
                "domain": "twitter.com",
                "path": "@juventusfcen"
            },
            "title": "More Bianconeri reporting  to base \ud83e\udee1",
            "published_at": "2023-07-12T06:27:01Z",
            "slug": "More-Bianconeri-reporting-to-base",
            "currencies": [
                {
                    "code": "JUV",
                    "title": "Juventus Fan Token",
                    "slug": "juventus-fan-token",
                    "url": "https:\/\/cryptopanic.com\/news\/juventus-fan-token\/"
                }
            ],
            "id": 18765113,
            "url": "https:\/\/cryptopanic.com\/news\/18765113\/More-Bianconeri-reporting-to-base",
            "created_at": "2023-07-12T06:27:01Z",
            "votes": {
                "negative": 0,
                "positive": 0,
                "important": 0,
                "liked": 0,
                "disliked": 0,
                "lol": 0,
                "toxic": 0,
                "saved": 0,
                "comments": 0
            }
        },
        {
            "kind": "news",
            "domain": "@juventusfcen",
            "source": {
                "title": "Juventus Fan Token Twitter",
                "region": "en",
                "domain": "twitter.com",
                "path": "@juventusfcen"
            },
            "title": "Ready to go again ",
            "published_at": "2023-07-11T19:30:00Z",
            "slug": "Ready-to-go-again",
            "currencies": [
                {
                    "code": "JUV",
                    "title": "Juventus Fan Token",
                    "slug": "juventus-fan-token",
                    "url": "https:\/\/cryptopanic.com\/news\/juventus-fan-token\/"
                }
            ],
            "id": 18765114,
            "url": "https:\/\/cryptopanic.com\/news\/18765114\/Ready-to-go-again",
            "created_at": "2023-07-11T19:30:00Z",
            "votes": {
                "negative": 0,
                "positive": 0,
                "important": 0,
                "liked": 0,
                "disliked": 0,
                "lol": 0,
                "toxic": 0,
                "saved": 0,
                "comments": 0
            }
        },
        {
            "kind": "news",
            "domain": "@juventusfcen",
            "source": {
                "title": "Juventus Fan Token Twitter",
                "region": "en",
                "domain": "twitter.com",
                "path": "@juventusfcen"
            },
            "title": " Pre-season officially got underway today! \ud83d\udfe2",
            "published_at": "2023-07-11T18:45:00Z",
            "slug": "Pre-season-officially-got-underway-today",
            "currencies": [
                {
                    "code": "JUV",
                    "title": "Juventus Fan Token",
                    "slug": "juventus-fan-token",
                    "url": "https:\/\/cryptopanic.com\/news\/juventus-fan-token\/"
                }
            ],
            "id": 18765115,
            "url": "https:\/\/cryptopanic.com\/news\/18765115\/Pre-season-officially-got-underway-today",
            "created_at": "2023-07-11T18:45:00Z",
            "votes": {
                "negative": 0,
                "positive": 0,
                "important": 0,
                "liked": 0,
                "disliked": 0,
                "lol": 0,
                "toxic": 0,
                "saved": 0,
                "comments": 0
            }
        },
        {
            "kind": "news",
            "domain": "@juventusfcen",
            "source": {
                "title": "Juventus Fan Token Twitter",
                "region": "en",
                "domain": "twitter.com",
                "path": "@juventusfcen"
            },
            "title": "First day back at the office \ufe0f\u200d\ufe0f",
            "published_at": "2023-07-11T18:15:06Z",
            "slug": "First-day-back-at-the-office",
            "currencies": [
                {
                    "code": "JUV",
                    "title": "Juventus Fan Token",
                    "slug": "juventus-fan-token",
                    "url": "https:\/\/cryptopanic.com\/news\/juventus-fan-token\/"
                }
            ],
            "id": 18765116,
            "url": "https:\/\/cryptopanic.com\/news\/18765116\/First-day-back-at-the-office",
            "created_at": "2023-07-11T18:15:06Z",
            "votes": {
                "negative": 0,
                "positive": 0,
                "important": 0,
                "liked": 0,
                "disliked": 0,
                "lol": 0,
                "toxic": 0,
                "saved": 0,
                "comments": 0
            }
        },
        {
            "kind": "news",
            "domain": "@juventusfcen",
            "source": {
                "title": "Juventus Fan Token Twitter",
                "region": "en",
                "domain": "twitter.com",
                "path": "@juventusfcen"
            },
            "title": "\ud83c\udd95 \ud835\uddd4\ud835\uddea\ud835\uddd4\ud835\uddec \n\n @adidasfootball ",
            "published_at": "2023-07-11T14:00:02Z",
            "slug": "AWAY-adidasfootball",
            "currencies": [
                {
                    "code": "JUV",
                    "title": "Juventus Fan Token",
                    "slug": "juventus-fan-token",
                    "url": "https:\/\/cryptopanic.com\/news\/juventus-fan-token\/"
                }
            ],
            "id": 18765117,
            "url": "https:\/\/cryptopanic.com\/news\/18765117\/AWAY-adidasfootball",
            "created_at": "2023-07-11T14:00:02Z",
            "votes": {
                "negative": 0,
                "positive": 0,
                "important": 0,
                "liked": 0,
                "disliked": 0,
                "lol": 0,
                "toxic": 0,
                "saved": 0,
                "comments": 0
            }
        },
        {
            "kind": "news",
            "domain": "@juventusfcen",
            "source": {
                "title": "Juventus Fan Token Twitter",
                "region": "en",
                "domain": "twitter.com",
                "path": "@juventusfcen"
            },
            "title": "RT @JuventusFCWomen: A dream debut and some stunning strikes \ud83e\udd0d\n\nLooking back at all of Sofi's goals and assists from the 2022\/23 season \u2935",
            "published_at": "2023-07-11T13:00:55Z",
            "slug": "RT-JuventusFCWomen-A-dream-debut-and-some-stunning-strikes-Looking-back-at-all-of-Sofis-goals-and-assists-from-the-202223-season",
            "currencies": [
                {
                    "code": "JUV",
                    "title": "Juventus Fan Token",
                    "slug": "juventus-fan-token",
                    "url": "https:\/\/cryptopanic.com\/news\/juventus-fan-token\/"
                }
            ],
            "id": 18765118,
            "url": "https:\/\/cryptopanic.com\/news\/18765118\/RT-JuventusFCWomen-A-dream-debut-and-some-stunning-strikes-Looking-back-at-all-of-Sofis-goals-and-assists-from-the-202223-season",
            "created_at": "2023-07-11T13:00:55Z",
            "votes": {
                "negative": 0,
                "positive": 0,
                "important": 0,
                "liked": 0,
                "disliked": 0,
                "lol": 0,
                "toxic": 0,
                "saved": 0,
                "comments": 0
            }
        },
        {
            "kind": "news",
            "domain": "@juventusfcen",
            "source": {
                "title": "Juventus Fan Token Twitter",
                "region": "en",
                "domain": "twitter.com",
                "path": "@juventusfcen"
            },
            "title": "As cool as @Cristiano, on both occasions \ud83e\udd76\n\n#GoalOfTheDay",
            "published_at": "2023-07-11T12:00:03Z",
            "slug": "As-cool-as-Cristiano-on-both-occasions-GoalOfTheDay",
            "currencies": [
                {
                    "code": "JUV",
                    "title": "Juventus Fan Token",
                    "slug": "juventus-fan-token",
                    "url": "https:\/\/cryptopanic.com\/news\/juventus-fan-token\/"
                }
            ],
            "id": 18765119,
            "url": "https:\/\/cryptopanic.com\/news\/18765119\/As-cool-as-Cristiano-on-both-occasions-GoalOfTheDay",
            "created_at": "2023-07-11T12:00:03Z",
            "votes": {
                "negative": 0,
                "positive": 0,
                "important": 0,
                "liked": 0,
                "disliked": 0,
                "lol": 0,
                "toxic": 0,
                "saved": 0,
                "comments": 0
            }
        },
        {
            "kind": "news",
            "domain": "@juventusfcen",
            "source": {
                "title": "Juventus Fan Token Twitter",
                "region": "en",
                "domain": "twitter.com",
                "path": "@juventusfcen"
            },
            "title": "Getting the motors going again \ufe0f",
            "published_at": "2023-07-11T10:30:00Z",
            "slug": "Getting-the-motors-going-again",
            "currencies": [
                {
                    "code": "JUV",
                    "title": "Juventus Fan Token",
                    "slug": "juventus-fan-token",
                    "url": "https:\/\/cryptopanic.com\/news\/juventus-fan-token\/"
                }
            ],
            "id": 18765120,
            "url": "https:\/\/cryptopanic.com\/news\/18765120\/Getting-the-motors-going-again",
            "created_at": "2023-07-11T10:30:00Z",
            "votes": {
                "negative": 0,
                "positive": 0,
                "important": 0,
                "liked": 0,
                "disliked": 0,
                "lol": 0,
                "toxic": 0,
                "saved": 0,
                "comments": 0
            }
        },
        {
            "kind": "news",
            "domain": "@juventusfcen",
            "source": {
                "title": "Juventus Fan Token Twitter",
                "region": "en",
                "domain": "twitter.com",
                "path": "@juventusfcen"
            },
            "title": " at it! ",
            "published_at": "2023-07-11T10:15:00Z",
            "slug": "at-it",
            "currencies": [
                {
                    "code": "JUV",
                    "title": "Juventus Fan Token",
                    "slug": "juventus-fan-token",
                    "url": "https:\/\/cryptopanic.com\/news\/juventus-fan-token\/"
                }
            ],
            "id": 18765121,
            "url": "https:\/\/cryptopanic.com\/news\/18765121\/at-it",
            "created_at": "2023-07-11T10:15:00Z",
            "votes": {
                "negative": 0,
                "positive": 0,
                "important": 0,
                "liked": 0,
                "disliked": 0,
                "lol": 0,
                "toxic": 0,
                "saved": 0,
                "comments": 0
            }
        },
        {
            "kind": "news",
            "domain": "@juventusfcen",
            "source": {
                "title": "Juventus Fan Token Twitter",
                "region": "en",
                "domain": "twitter.com",
                "path": "@juventusfcen"
            },
            "title": " This morning at J|Medical ",
            "published_at": "2023-07-11T10:00:02Z",
            "slug": "This-morning-at-JMedical",
            "currencies": [
                {
                    "code": "JUV",
                    "title": "Juventus Fan Token",
                    "slug": "juventus-fan-token",
                    "url": "https:\/\/cryptopanic.com\/news\/juventus-fan-token\/"
                }
            ],
            "id": 18765122,
            "url": "https:\/\/cryptopanic.com\/news\/18765122\/This-morning-at-JMedical",
            "created_at": "2023-07-11T10:00:02Z",
            "votes": {
                "negative": 0,
                "positive": 0,
                "important": 0,
                "liked": 0,
                "disliked": 0,
                "lol": 0,
                "toxic": 0,
                "saved": 0,
                "comments": 0
            }
        },
        {
            "kind": "news",
            "domain": "@juventusfcen",
            "source": {
                "title": "Juventus Fan Token Twitter",
                "region": "en",
                "domain": "twitter.com",
                "path": "@juventusfcen"
            },
            "title": " @paulpogba and Nico have arrived! ",
            "published_at": "2023-07-11T09:31:31Z",
            "slug": "paulpogba-and-Nico-have-arrived",
            "currencies": [
                {
                    "code": "JUV",
                    "title": "Juventus Fan Token",
                    "slug": "juventus-fan-token",
                    "url": "https:\/\/cryptopanic.com\/news\/juventus-fan-token\/"
                }
            ],
            "id": 18765123,
            "url": "https:\/\/cryptopanic.com\/news\/18765123\/paulpogba-and-Nico-have-arrived",
            "created_at": "2023-07-11T09:31:31Z",
            "votes": {
                "negative": 0,
                "positive": 0,
                "important": 0,
                "liked": 0,
                "disliked": 0,
                "lol": 0,
                "toxic": 0,
                "saved": 0,
                "comments": 0
            }
        },
        {
            "kind": "news",
            "domain": "@juventusfcen",
            "source": {
                "title": "Juventus Fan Token Twitter",
                "region": "en",
                "domain": "twitter.com",
                "path": "@juventusfcen"
            },
            "title": "Day 2\u20e3 of J|Medical visits for our Bianconeri ",
            "published_at": "2023-07-11T07:37:33Z",
            "slug": "Day-2-of-JMedical-visits-for-our-Bianconeri",
            "currencies": [
                {
                    "code": "JUV",
                    "title": "Juventus Fan Token",
                    "slug": "juventus-fan-token",
                    "url": "https:\/\/cryptopanic.com\/news\/juventus-fan-token\/"
                }
            ],
            "id": 18756941,
            "url": "https:\/\/cryptopanic.com\/news\/18756941\/Day-2-of-JMedical-visits-for-our-Bianconeri",
            "created_at": "2023-07-11T07:37:33Z",
            "votes": {
                "negative": 0,
                "positive": 0,
                "important": 0,
                "liked": 0,
                "disliked": 0,
                "lol": 0,
                "toxic": 0,
                "saved": 0,
                "comments": 0
            }
        },
        {
            "kind": "news",
            "domain": "@juventusfcen",
            "source": {
                "title": "Juventus Fan Token Twitter",
                "region": "en",
                "domain": "twitter.com",
                "path": "@juventusfcen"
            },
            "title": "Gd morning, Bianconeri! ",
            "published_at": "2023-07-11T06:16:15Z",
            "slug": "Gd-morning-Bianconeri",
            "currencies": [
                {
                    "code": "JUV",
                    "title": "Juventus Fan Token",
                    "slug": "juventus-fan-token",
                    "url": "https:\/\/cryptopanic.com\/news\/juventus-fan-token\/"
                }
            ],
            "id": 18756942,
            "url": "https:\/\/cryptopanic.com\/news\/18756942\/Gd-morning-Bianconeri",
            "created_at": "2023-07-11T06:16:15Z",
            "votes": {
                "negative": 0,
                "positive": 0,
                "important": 0,
                "liked": 0,
                "disliked": 0,
                "lol": 0,
                "toxic": 0,
                "saved": 0,
                "comments": 0
            }
        },
        {
            "kind": "news",
            "domain": "@juventusfcen",
            "source": {
                "title": "Juventus Fan Token Twitter",
                "region": "en",
                "domain": "twitter.com",
                "path": "@juventusfcen"
            },
            "title": "\ufe0f\ufe0f Bianconero hugs and high-fives \ud83e\udec2",
            "published_at": "2023-07-10T18:30:00Z",
            "slug": "Bianconero-hugs-and-high-fives",
            "currencies": [
                {
                    "code": "JUV",
                    "title": "Juventus Fan Token",
                    "slug": "juventus-fan-token",
                    "url": "https:\/\/cryptopanic.com\/news\/juventus-fan-token\/"
                }
            ],
            "id": 18756943,
            "url": "https:\/\/cryptopanic.com\/news\/18756943\/Bianconero-hugs-and-high-fives",
            "created_at": "2023-07-10T18:30:00Z",
            "votes": {
                "negative": 0,
                "positive": 0,
                "important": 0,
                "liked": 0,
                "disliked": 0,
                "lol": 0,
                "toxic": 0,
                "saved": 0,
                "comments": 0
            }
        },
        {
            "kind": "news",
            "domain": "@juventusfcen",
            "source": {
                "title": "Juventus Fan Token Twitter",
                "region": "en",
                "domain": "twitter.com",
                "path": "@juventusfcen"
            },
            "title": "Reunited \ud83e\udde4\ufe0f",
            "published_at": "2023-07-10T17:15:19Z",
            "slug": "Reunited",
            "currencies": [
                {
                    "code": "JUV",
                    "title": "Juventus Fan Token",
                    "slug": "juventus-fan-token",
                    "url": "https:\/\/cryptopanic.com\/news\/juventus-fan-token\/"
                }
            ],
            "id": 18756944,
            "url": "https:\/\/cryptopanic.com\/news\/18756944\/Reunited",
            "created_at": "2023-07-10T17:15:19Z",
            "votes": {
                "negative": 0,
                "positive": 0,
                "important": 0,
                "liked": 0,
                "disliked": 0,
                "lol": 0,
                "toxic": 0,
                "saved": 0,
                "comments": 0
            }
        },
        {
            "kind": "news",
            "domain": "@juventusfcen",
            "source": {
                "title": "Juventus Fan Token Twitter",
                "region": "en",
                "domain": "twitter.com",
                "path": "@juventusfcen"
            },
            "title": "Reporting  to base \ud83e\udee1",
            "published_at": "2023-07-10T16:00:02Z",
            "slug": "Reporting-to-base",
            "currencies": [
                {
                    "code": "JUV",
                    "title": "Juventus Fan Token",
                    "slug": "juventus-fan-token",
                    "url": "https:\/\/cryptopanic.com\/news\/juventus-fan-token\/"
                }
            ],
            "id": 18756945,
            "url": "https:\/\/cryptopanic.com\/news\/18756945\/Reporting-to-base",
            "created_at": "2023-07-10T16:00:02Z",
            "votes": {
                "negative": 0,
                "positive": 0,
                "important": 0,
                "liked": 0,
                "disliked": 0,
                "lol": 0,
                "toxic": 0,
                "saved": 0,
                "comments": 0
            }
        },
        {
            "kind": "news",
            "domain": "@juventusfcen",
            "source": {
                "title": "Juventus Fan Token Twitter",
                "region": "en",
                "domain": "twitter.com",
                "path": "@juventusfcen"
            },
            "title": "Smiles all arund ",
            "published_at": "2023-07-10T14:30:00Z",
            "slug": "Smiles-all-arund",
            "currencies": [
                {
                    "code": "JUV",
                    "title": "Juventus Fan Token",
                    "slug": "juventus-fan-token",
                    "url": "https:\/\/cryptopanic.com\/news\/juventus-fan-token\/"
                }
            ],
            "id": 18756946,
            "url": "https:\/\/cryptopanic.com\/news\/18756946\/Smiles-all-arund",
            "created_at": "2023-07-10T14:30:00Z",
            "votes": {
                "negative": 0,
                "positive": 0,
                "important": 0,
                "liked": 0,
                "disliked": 0,
                "lol": 0,
                "toxic": 0,
                "saved": 0,
                "comments": 0
            }
        },
        {
            "kind": "news",
            "domain": "@juventusfcen",
            "source": {
                "title": "Juventus Fan Token Twitter",
                "region": "en",
                "domain": "twitter.com",
                "path": "@juventusfcen"
            },
            "title": "Great to see you again, lads! ",
            "published_at": "2023-07-10T14:15:25Z",
            "slug": "Great-to-see-you-again-lads",
            "currencies": [
                {
                    "code": "JUV",
                    "title": "Juventus Fan Token",
                    "slug": "juventus-fan-token",
                    "url": "https:\/\/cryptopanic.com\/news\/juventus-fan-token\/"
                }
            ],
            "id": 18756947,
            "url": "https:\/\/cryptopanic.com\/news\/18756947\/Great-to-see-you-again-lads",
            "created_at": "2023-07-10T14:15:25Z",
            "votes": {
                "negative": 0,
                "positive": 0,
                "important": 0,
                "liked": 0,
                "disliked": 0,
                "lol": 0,
                "toxic": 0,
                "saved": 0,
                "comments": 0
            }
        }
    ]
}
