{
    "count": 200,
    "next": "https:\/\/cryptopanic.com\/api\/v1\/posts\/?auth_token=01c356e89ffc1b8eba2127c81fc8c66ee0eace75&kind=news&currencies=STORJ&page=2",
    "previous": null,
    "results": [
        {
            "kind": "news",
            "domain": "@storj",
            "source": {
                "title": "Storj Twitter",
                "region": "en",
                "domain": "twitter.com",
                "path": "@storj"
            },
            "title": "We love seeing the cool things customers build on Storj!\n\nOur partners @kinomakesmovies are taking you behind the s\u2026",
            "published_at": "2023-07-10T16:02:51Z",
            "slug": "We-love-seeing-the-cool-things-customers-build-on-Storj-Our-partners-kinomakesmovies-are-taking-you-behind-the-s",
            "currencies": [
                {
                    "code": "STORJ",
                    "title": "Storj",
                    "slug": "storj",
                    "url": "https:\/\/cryptopanic.com\/news\/storj\/"
                }
            ],
            "id": 18759089,
            "url": "https:\/\/cryptopanic.com\/news\/18759089\/We-love-seeing-the-cool-things-customers-build-on-Storj-Our-partners-kinomakesmovies-are-taking-you-behind-the-s",
            "created_at": "2023-07-10T16:02:51Z",
            "votes": {
                "negative": 0,
                "positive": 0,
                "important": 0,
                "liked": 0,
                "disliked": 0,
                "lol": 0,
                "toxic": 0,
                "saved": 0,
                "comments": 0
            }
        },
        {
            "kind": "news",
            "domain": "@storj",
            "source": {
                "title": "Storj Twitter",
                "region": "en",
                "domain": "twitter.com",
                "path": "@storj"
            },
            "title": "Chainsnap saves you time and money, while also providing top-notch security and reliability for your blockchain pro\u2026",
            "published_at": "2023-07-06T18:01:00Z",
            "slug": "Chainsnap-saves-you-time-and-money-while-also-providing-top-notch-security-and-reliability-for-your-blockchain-pro",
            "currencies": [
                {
                    "code": "STORJ",
                    "title": "Storj",
                    "slug": "storj",
                    "url": "https:\/\/cryptopanic.com\/news\/storj\/"
                }
            ],
            "id": 18735514,
            "url": "https:\/\/cryptopanic.com\/news\/18735514\/Chainsnap-saves-you-time-and-money-while-also-providing-top-notch-security-and-reliability-for-your-blockchain-pro",
            "created_at": "2023-07-06T18:01:00Z",
            "votes": {
                "negative": 0,
                "positive": 0,
                "important": 0,
                "liked": 0,
                "disliked": 0,
                "lol": 0,
                "toxic": 0,
                "saved": 0,
                "comments": 0
            }
        },
        {
            "kind": "news",
            "domain": "@storj",
            "source": {
                "title": "Storj Twitter",
                "region": "en",
                "domain": "twitter.com",
                "path": "@storj"
            },
            "title": "RT @amove_inc: We've tested with over 60 object cloud storage services and very few compare to the speeds of @storj.\n\nCDN like performance\u2026",
            "published_at": "2023-07-06T02:24:49Z",
            "slug": "RT-amove_inc-Weve-tested-with-over-60-object-cloud-storage-services-and-very-few-compare-to-the-speeds-of-storj-CDN-like-performance",
            "currencies": [
                {
                    "code": "STORJ",
                    "title": "Storj",
                    "slug": "storj",
                    "url": "https:\/\/cryptopanic.com\/news\/storj\/"
                }
            ],
            "id": 18726943,
            "url": "https:\/\/cryptopanic.com\/news\/18726943\/RT-amove_inc-Weve-tested-with-over-60-object-cloud-storage-services-and-very-few-compare-to-the-speeds-of-storj-CDN-like-performance",
            "created_at": "2023-07-06T02:24:49Z",
            "votes": {
                "negative": 0,
                "positive": 0,
                "important": 0,
                "liked": 0,
                "disliked": 0,
                "lol": 0,
                "toxic": 0,
                "saved": 0,
                "comments": 0
            }
        },
        {
            "kind": "news",
            "domain": "@storj",
            "source": {
                "title": "Storj Twitter",
                "region": "en",
                "domain": "twitter.com",
                "path": "@storj"
            },
            "title": "RT @BitMartExchange: AMA Alert\n\nJoin our #AMA hosted by @MetaEra_Media and us &amp; co-hosted by @oortech to learn how #crypto builders forge\u2026",
            "published_at": "2023-07-05T16:08:39Z",
            "slug": "RT-BitMartExchange-AMA-Alert-Join-our-AMA-hosted-by-MetaEra_Media-and-us-amp-co-hosted-by-oortech-to-learn-how-crypto-builders-forge",
            "currencies": [
                {
                    "code": "STORJ",
                    "title": "Storj",
                    "slug": "storj",
                    "url": "https:\/\/cryptopanic.com\/news\/storj\/"
                }
            ],
            "id": 18726944,
            "url": "https:\/\/cryptopanic.com\/news\/18726944\/RT-BitMartExchange-AMA-Alert-Join-our-AMA-hosted-by-MetaEra_Media-and-us-amp-co-hosted-by-oortech-to-learn-how-crypto-builders-forge",
            "created_at": "2023-07-05T16:08:39Z",
            "votes": {
                "negative": 0,
                "positive": 0,
                "important": 0,
                "liked": 0,
                "disliked": 0,
                "lol": 0,
                "toxic": 0,
                "saved": 0,
                "comments": 0
            }
        },
        {
            "kind": "news",
            "domain": "@storj",
            "source": {
                "title": "Storj Twitter",
                "region": "en",
                "domain": "twitter.com",
                "path": "@storj"
            },
            "title": "Happy #IndependenceDay \ud83c\uddfa\ud83c\uddf8! Today marks the adoption of the Declaration of Independence, officially separating the U\u2026",
            "published_at": "2023-07-04T18:07:01Z",
            "slug": "Happy-IndependenceDay-Today-marks-the-adoption-of-the-Declaration-of-Independence-officially-separating-the-U",
            "currencies": [
                {
                    "code": "STORJ",
                    "title": "Storj",
                    "slug": "storj",
                    "url": "https:\/\/cryptopanic.com\/news\/storj\/"
                }
            ],
            "id": 18718901,
            "url": "https:\/\/cryptopanic.com\/news\/18718901\/Happy-IndependenceDay-Today-marks-the-adoption-of-the-Declaration-of-Independence-officially-separating-the-U",
            "created_at": "2023-07-04T18:07:01Z",
            "votes": {
                "negative": 0,
                "positive": 0,
                "important": 0,
                "liked": 0,
                "disliked": 0,
                "lol": 0,
                "toxic": 0,
                "saved": 0,
                "comments": 0
            }
        },
        {
            "kind": "news",
            "domain": "@storj",
            "source": {
                "title": "Storj Twitter",
                "region": "en",
                "domain": "twitter.com",
                "path": "@storj"
            },
            "title": "Worried about Wasabi and other cloud providers raising their prices?\u00a0\n\nStorj has you covered! \n- Multiregion by de\u2026",
            "published_at": "2023-06-30T17:51:30Z",
            "slug": "Worried-about-Wasabi-and-other-cloud-providers-raising-their-prices-Storj-has-you-covered-Multiregion-by-de",
            "currencies": [
                {
                    "code": "STORJ",
                    "title": "Storj",
                    "slug": "storj",
                    "url": "https:\/\/cryptopanic.com\/news\/storj\/"
                }
            ],
            "id": 18695858,
            "url": "https:\/\/cryptopanic.com\/news\/18695858\/Worried-about-Wasabi-and-other-cloud-providers-raising-their-prices-Storj-has-you-covered-Multiregion-by-de",
            "created_at": "2023-06-30T17:51:30Z",
            "votes": {
                "negative": 0,
                "positive": 0,
                "important": 0,
                "liked": 0,
                "disliked": 0,
                "lol": 0,
                "toxic": 0,
                "saved": 0,
                "comments": 0
            }
        },
        {
            "kind": "news",
            "domain": "@storj",
            "source": {
                "title": "Storj Twitter",
                "region": "en",
                "domain": "twitter.com",
                "path": "@storj"
            },
            "title": "The #Storj team had a fantastic time at the @InternetArchive DWeb Camp this past week! From leading &amp; listening to\u2026",
            "published_at": "2023-06-30T15:06:15Z",
            "slug": "The-Storj-team-had-a-fantastic-time-at-the-InternetArchive-DWeb-Camp-this-past-week-From-leading-amp-listening-to",
            "currencies": [
                {
                    "code": "STORJ",
                    "title": "Storj",
                    "slug": "storj",
                    "url": "https:\/\/cryptopanic.com\/news\/storj\/"
                }
            ],
            "id": 18695859,
            "url": "https:\/\/cryptopanic.com\/news\/18695859\/The-Storj-team-had-a-fantastic-time-at-the-InternetArchive-DWeb-Camp-this-past-week-From-leading-amp-listening-to",
            "created_at": "2023-06-30T15:06:15Z",
            "votes": {
                "negative": 0,
                "positive": 0,
                "important": 0,
                "liked": 0,
                "disliked": 0,
                "lol": 0,
                "toxic": 0,
                "saved": 0,
                "comments": 0
            }
        },
        {
            "kind": "news",
            "domain": "@storj",
            "source": {
                "title": "Storj Twitter",
                "region": "en",
                "domain": "twitter.com",
                "path": "@storj"
            },
            "title": "Storj's distributed cloud storage model reduces carbon emissions by up to 83% compared to other providers.  Learn\u2026",
            "published_at": "2023-06-29T20:49:43Z",
            "slug": "Storjs-distributed-cloud-storage-model-reduces-carbon-emissions-by-up-to-83-compared-to-other-providers-Learn",
            "currencies": [
                {
                    "code": "STORJ",
                    "title": "Storj",
                    "slug": "storj",
                    "url": "https:\/\/cryptopanic.com\/news\/storj\/"
                }
            ],
            "id": 18688500,
            "url": "https:\/\/cryptopanic.com\/news\/18688500\/Storjs-distributed-cloud-storage-model-reduces-carbon-emissions-by-up-to-83-compared-to-other-providers-Learn",
            "created_at": "2023-06-29T20:49:43Z",
            "votes": {
                "negative": 0,
                "positive": 0,
                "important": 0,
                "liked": 0,
                "disliked": 0,
                "lol": 0,
                "toxic": 0,
                "saved": 0,
                "comments": 0
            }
        },
        {
            "kind": "news",
            "domain": "@storj",
            "source": {
                "title": "Storj Twitter",
                "region": "en",
                "domain": "twitter.com",
                "path": "@storj"
            },
            "title": "If you want to stay on top of the latest blockchain developments, you need Chainsnap - the fastest and most reliabl\u2026",
            "published_at": "2023-06-28T20:47:00Z",
            "slug": "If-you-want-to-stay-on-top-of-the-latest-blockchain-developments-you-need-Chainsnap-the-fastest-and-most-reliabl",
            "currencies": [
                {
                    "code": "STORJ",
                    "title": "Storj",
                    "slug": "storj",
                    "url": "https:\/\/cryptopanic.com\/news\/storj\/"
                }
            ],
            "id": 18680572,
            "url": "https:\/\/cryptopanic.com\/news\/18680572\/If-you-want-to-stay-on-top-of-the-latest-blockchain-developments-you-need-Chainsnap-the-fastest-and-most-reliabl",
            "created_at": "2023-06-28T20:47:00Z",
            "votes": {
                "negative": 0,
                "positive": 0,
                "important": 0,
                "liked": 0,
                "disliked": 0,
                "lol": 0,
                "toxic": 0,
                "saved": 0,
                "comments": 0
            }
        },
        {
            "kind": "news",
            "domain": "@storj",
            "source": {
                "title": "Storj Twitter",
                "region": "en",
                "domain": "twitter.com",
                "path": "@storj"
            },
            "title": "Today, we welcome TOMORROW!\n\nThe internet we rely on is shutting down for the day, and we will run @DWeb on the\u2026",
            "published_at": "2023-06-24T16:55:01Z",
            "slug": "Today-we-welcome-TOMORROW-The-internet-we-rely-on-is-shutting-down-for-the-day-and-we-will-run-DWeb-on-the",
            "currencies": [
                {
                    "code": "STORJ",
                    "title": "Storj",
                    "slug": "storj",
                    "url": "https:\/\/cryptopanic.com\/news\/storj\/"
                }
            ],
            "id": 18651682,
            "url": "https:\/\/cryptopanic.com\/news\/18651682\/Today-we-welcome-TOMORROW-The-internet-we-rely-on-is-shutting-down-for-the-day-and-we-will-run-DWeb-on-the",
            "created_at": "2023-06-24T16:55:01Z",
            "votes": {
                "negative": 0,
                "positive": 0,
                "important": 0,
                "liked": 0,
                "disliked": 0,
                "lol": 0,
                "toxic": 0,
                "saved": 0,
                "comments": 0
            }
        },
        {
            "kind": "news",
            "domain": "@storj",
            "source": {
                "title": "Storj Twitter",
                "region": "en",
                "domain": "twitter.com",
                "path": "@storj"
            },
            "title": "How are enterprise video streaming and back-up recovery companies overcoming the dirty secret of the cloud?",
            "published_at": "2023-06-23T15:09:10Z",
            "slug": "How-are-enterprise-video-streaming-and-back-up-recovery-companies-overcoming-the-dirty-secret-of-the-cloud",
            "currencies": [
                {
                    "code": "STORJ",
                    "title": "Storj",
                    "slug": "storj",
                    "url": "https:\/\/cryptopanic.com\/news\/storj\/"
                }
            ],
            "id": 18647052,
            "url": "https:\/\/cryptopanic.com\/news\/18647052\/How-are-enterprise-video-streaming-and-back-up-recovery-companies-overcoming-the-dirty-secret-of-the-cloud",
            "created_at": "2023-06-23T15:09:10Z",
            "votes": {
                "negative": 0,
                "positive": 0,
                "important": 0,
                "liked": 0,
                "disliked": 0,
                "lol": 0,
                "toxic": 0,
                "saved": 0,
                "comments": 0
            }
        },
        {
            "kind": "news",
            "domain": "@storj",
            "source": {
                "title": "Storj Twitter",
                "region": "en",
                "domain": "twitter.com",
                "path": "@storj"
            },
            "title": "Today, @_dominickmarino, @kristaxox_, and @jggleeson led back-to-back presentations at @GETDWeb, showing off the Gr\u2026",
            "published_at": "2023-06-23T00:42:02Z",
            "slug": "Today-_dominickmarino-kristaxox_-and-jggleeson-led-back-to-back-presentations-at-GETDWeb-showing-off-the-Gr",
            "currencies": [
                {
                    "code": "STORJ",
                    "title": "Storj",
                    "slug": "storj",
                    "url": "https:\/\/cryptopanic.com\/news\/storj\/"
                }
            ],
            "id": 18639886,
            "url": "https:\/\/cryptopanic.com\/news\/18639886\/Today-_dominickmarino-kristaxox_-and-jggleeson-led-back-to-back-presentations-at-GETDWeb-showing-off-the-Gr",
            "created_at": "2023-06-23T00:42:02Z",
            "votes": {
                "negative": 0,
                "positive": 0,
                "important": 0,
                "liked": 0,
                "disliked": 0,
                "lol": 0,
                "toxic": 0,
                "saved": 0,
                "comments": 0
            }
        },
        {
            "kind": "news",
            "domain": "@storj",
            "source": {
                "title": "Storj Twitter",
                "region": "en",
                "domain": "twitter.com",
                "path": "@storj"
            },
            "title": "Thanks to everyone who came out to @kleffew94's session, we had a great time\ud83e\udd16.\u00a0 Especially starstruck with the atte\u2026",
            "published_at": "2023-06-22T18:55:32Z",
            "slug": "Thanks-to-everyone-who-came-out-to-kleffew94s-session-we-had-a-great-time-Especially-starstruck-with-the-atte",
            "currencies": [
                {
                    "code": "STORJ",
                    "title": "Storj",
                    "slug": "storj",
                    "url": "https:\/\/cryptopanic.com\/news\/storj\/"
                }
            ],
            "id": 18639887,
            "url": "https:\/\/cryptopanic.com\/news\/18639887\/Thanks-to-everyone-who-came-out-to-kleffew94s-session-we-had-a-great-time-Especially-starstruck-with-the-atte",
            "created_at": "2023-06-22T18:55:32Z",
            "votes": {
                "negative": 0,
                "positive": 0,
                "important": 0,
                "liked": 0,
                "disliked": 0,
                "lol": 0,
                "toxic": 0,
                "saved": 0,
                "comments": 0
            }
        },
        {
            "kind": "news",
            "domain": "@storj",
            "source": {
                "title": "Storj Twitter",
                "region": "en",
                "domain": "twitter.com",
                "path": "@storj"
            },
            "title": "Don't let slow and unreliable downloads get in the way of your blockchain projects. Try Chainsnap today and experie\u2026",
            "published_at": "2023-06-21T20:50:00Z",
            "slug": "Dont-let-slow-and-unreliable-downloads-get-in-the-way-of-your-blockchain-projects-Try-Chainsnap-today-and-experie",
            "currencies": [
                {
                    "code": "STORJ",
                    "title": "Storj",
                    "slug": "storj",
                    "url": "https:\/\/cryptopanic.com\/news\/storj\/"
                }
            ],
            "id": 18631408,
            "url": "https:\/\/cryptopanic.com\/news\/18631408\/Dont-let-slow-and-unreliable-downloads-get-in-the-way-of-your-blockchain-projects-Try-Chainsnap-today-and-experie",
            "created_at": "2023-06-21T20:50:00Z",
            "votes": {
                "negative": 0,
                "positive": 0,
                "important": 0,
                "liked": 0,
                "disliked": 0,
                "lol": 0,
                "toxic": 0,
                "saved": 0,
                "comments": 0
            }
        },
        {
            "kind": "news",
            "domain": "@storj",
            "source": {
                "title": "Storj Twitter",
                "region": "en",
                "domain": "twitter.com",
                "path": "@storj"
            },
            "title": "We're excited to have 3 Storjlings selected to present at this week's @internetarchive event, @GETDWeb!\u2026",
            "published_at": "2023-06-20T21:17:34Z",
            "slug": "Were-excited-to-have-3-Storjlings-selected-to-present-at-this-weeks-internetarchive-event-GETDWeb",
            "currencies": [
                {
                    "code": "STORJ",
                    "title": "Storj",
                    "slug": "storj",
                    "url": "https:\/\/cryptopanic.com\/news\/storj\/"
                }
            ],
            "id": 18623329,
            "url": "https:\/\/cryptopanic.com\/news\/18623329\/Were-excited-to-have-3-Storjlings-selected-to-present-at-this-weeks-internetarchive-event-GETDWeb",
            "created_at": "2023-06-20T21:17:34Z",
            "votes": {
                "negative": 0,
                "positive": 0,
                "important": 0,
                "liked": 0,
                "disliked": 0,
                "lol": 0,
                "toxic": 0,
                "saved": 0,
                "comments": 0
            }
        },
        {
            "kind": "news",
            "domain": "@storj",
            "source": {
                "title": "Storj Twitter",
                "region": "en",
                "domain": "twitter.com",
                "path": "@storj"
            },
            "title": "Join our expert, JTOlio, Chief Architect at Storj on June 22nd at Noon ET\/9 PT for insights on how robust data encr\u2026",
            "published_at": "2023-06-20T15:07:00Z",
            "slug": "Join-our-expert-JTOlio-Chief-Architect-at-Storj-on-June-22nd-at-Noon-ET9-PT-for-insights-on-how-robust-data-encr",
            "currencies": [
                {
                    "code": "STORJ",
                    "title": "Storj",
                    "slug": "storj",
                    "url": "https:\/\/cryptopanic.com\/news\/storj\/"
                }
            ],
            "id": 18623330,
            "url": "https:\/\/cryptopanic.com\/news\/18623330\/Join-our-expert-JTOlio-Chief-Architect-at-Storj-on-June-22nd-at-Noon-ET9-PT-for-insights-on-how-robust-data-encr",
            "created_at": "2023-06-20T15:07:00Z",
            "votes": {
                "negative": 0,
                "positive": 0,
                "important": 0,
                "liked": 0,
                "disliked": 0,
                "lol": 0,
                "toxic": 0,
                "saved": 0,
                "comments": 0
            }
        },
        {
            "kind": "news",
            "domain": "@storj",
            "source": {
                "title": "Storj Twitter",
                "region": "en",
                "domain": "twitter.com",
                "path": "@storj"
            },
            "title": "Tribe Social and Gabb Wireless are getting fast, secure, reliable and sustainable cloud storage at a fraction of th\u2026",
            "published_at": "2023-06-16T20:46:59Z",
            "slug": "Tribe-Social-and-Gabb-Wireless-are-getting-fast-secure-reliable-and-sustainable-cloud-storage-at-a-fraction-of-th",
            "currencies": [
                {
                    "code": "STORJ",
                    "title": "Storj",
                    "slug": "storj",
                    "url": "https:\/\/cryptopanic.com\/news\/storj\/"
                }
            ],
            "id": 18598480,
            "url": "https:\/\/cryptopanic.com\/news\/18598480\/Tribe-Social-and-Gabb-Wireless-are-getting-fast-secure-reliable-and-sustainable-cloud-storage-at-a-fraction-of-th",
            "created_at": "2023-06-16T20:46:59Z",
            "votes": {
                "negative": 0,
                "positive": 0,
                "important": 0,
                "liked": 0,
                "disliked": 0,
                "lol": 0,
                "toxic": 0,
                "saved": 0,
                "comments": 0
            }
        },
        {
            "kind": "news",
            "domain": "@storj",
            "source": {
                "title": "Storj Twitter",
                "region": "en",
                "domain": "twitter.com",
                "path": "@storj"
            },
            "title": "RT @Santiag78758327: There are very few real, utility driven projects that help to drive decentralization of the compute stack. I can say w\u2026",
            "published_at": "2023-06-15T20:47:38Z",
            "slug": "RT-Santiag78758327-There-are-very-few-real-utility-driven-projects-that-help-to-drive-decentralization-of-the-compute-stack-I-can-say-w",
            "currencies": [
                {
                    "code": "STORJ",
                    "title": "Storj",
                    "slug": "storj",
                    "url": "https:\/\/cryptopanic.com\/news\/storj\/"
                }
            ],
            "id": 18590212,
            "url": "https:\/\/cryptopanic.com\/news\/18590212\/RT-Santiag78758327-There-are-very-few-real-utility-driven-projects-that-help-to-drive-decentralization-of-the-compute-stack-I-can-say-w",
            "created_at": "2023-06-15T20:47:38Z",
            "votes": {
                "negative": 0,
                "positive": 0,
                "important": 0,
                "liked": 0,
                "disliked": 0,
                "lol": 0,
                "toxic": 0,
                "saved": 0,
                "comments": 0
            }
        },
        {
            "kind": "news",
            "domain": "@storj",
            "source": {
                "title": "Storj Twitter",
                "region": "en",
                "domain": "twitter.com",
                "path": "@storj"
            },
            "title": "Save yourself time and hassle: download the latest blockchain state with Chainsnap - the fastest, most secure snaps\u2026",
            "published_at": "2023-06-15T15:10:14Z",
            "slug": "Save-yourself-time-and-hassle-download-the-latest-blockchain-state-with-Chainsnap-the-fastest-most-secure-snaps",
            "currencies": [
                {
                    "code": "STORJ",
                    "title": "Storj",
                    "slug": "storj",
                    "url": "https:\/\/cryptopanic.com\/news\/storj\/"
                }
            ],
            "id": 18590213,
            "url": "https:\/\/cryptopanic.com\/news\/18590213\/Save-yourself-time-and-hassle-download-the-latest-blockchain-state-with-Chainsnap-the-fastest-most-secure-snaps",
            "created_at": "2023-06-15T15:10:14Z",
            "votes": {
                "negative": 0,
                "positive": 0,
                "important": 0,
                "liked": 0,
                "disliked": 0,
                "lol": 0,
                "toxic": 0,
                "saved": 0,
                "comments": 0
            }
        },
        {
            "kind": "news",
            "domain": "@storj",
            "source": {
                "title": "Storj Twitter",
                "region": "en",
                "domain": "twitter.com",
                "path": "@storj"
            },
            "title": "What is an acceptable risk in data storage? Join JT Olio on June 22nd at Noon ET\/9 PT as he takes a deep dive into\u2026",
            "published_at": "2023-06-14T15:08:01Z",
            "slug": "What-is-an-acceptable-risk-in-data-storage-Join-JT-Olio-on-June-22nd-at-Noon-ET9-PT-as-he-takes-a-deep-dive-into",
            "currencies": [
                {
                    "code": "STORJ",
                    "title": "Storj",
                    "slug": "storj",
                    "url": "https:\/\/cryptopanic.com\/news\/storj\/"
                }
            ],
            "id": 18590214,
            "url": "https:\/\/cryptopanic.com\/news\/18590214\/What-is-an-acceptable-risk-in-data-storage-Join-JT-Olio-on-June-22nd-at-Noon-ET9-PT-as-he-takes-a-deep-dive-into",
            "created_at": "2023-06-14T15:08:01Z",
            "votes": {
                "negative": 0,
                "positive": 0,
                "important": 0,
                "liked": 0,
                "disliked": 0,
                "lol": 0,
                "toxic": 0,
                "saved": 0,
                "comments": 0
            }
        }
    ]
}
