{
    "count": 200,
    "next": "https:\/\/cryptopanic.com\/api\/v1\/posts\/?auth_token=01c356e89ffc1b8eba2127c81fc8c66ee0eace75&kind=news&currencies=BAR&page=2",
    "previous": null,
    "results": [
        {
            "kind": "news",
            "domain": "@hierocoin",
            "source": {
                "title": "Hierocoin Twitter",
                "region": "en",
                "domain": "twitter.com",
                "path": "@hierocoin"
            },
            "title": "RT @psy_Odd_still: 2nd round of nfts are live on !!\nso many to choose from, and they getting scooped up fast @hieroc\u2026",
            "published_at": "2022-03-04T18:31:06Z",
            "slug": "RT-psy_Odd_still-2nd-round-of-nfts-are-live-on-so-many-to-choose-from-and-they-getting-scooped-up-fast-hieroc",
            "currencies": [
                {
                    "code": "BAR",
                    "title": "Hierocoin",
                    "slug": null,
                    "url": "https:\/\/cryptopanic.com\/news\/None\/"
                }
            ],
            "id": 14481159,
            "url": "https:\/\/cryptopanic.com\/news\/14481159\/RT-psy_Odd_still-2nd-round-of-nfts-are-live-on-so-many-to-choose-from-and-they-getting-scooped-up-fast-hieroc",
            "created_at": "2022-03-04T18:31:06Z",
            "votes": {
                "negative": 0,
                "positive": 0,
                "important": 0,
                "liked": 0,
                "disliked": 0,
                "lol": 0,
                "toxic": 0,
                "saved": 0,
                "comments": 0
            }
        },
        {
            "kind": "news",
            "domain": "@hierocoin",
            "source": {
                "title": "Hierocoin Twitter",
                "region": "en",
                "domain": "twitter.com",
                "path": "@hierocoin"
            },
            "title": "RT @michaelgetmore: I'm discussing \u201cOpen $BAR Talk Crypto Comedy Show\u201d with @joblockchain, @WALASIA, @psy_Odd_still, and Hierocoin $BAR to\u2026",
            "published_at": "2022-02-24T19:00:09Z",
            "slug": "RT-michaelgetmore-Im-discussing-Open-BAR-Talk-Crypto-Comedy-Show-with-joblockchain-WALASIA-psy_Odd_still-and-Hierocoin-BAR-to",
            "currencies": [
                {
                    "code": "BAR",
                    "title": "Hierocoin",
                    "slug": "hierocoin",
                    "url": "https:\/\/cryptopanic.com\/news\/hierocoin\/"
                }
            ],
            "id": 14401772,
            "url": "https:\/\/cryptopanic.com\/news\/14401772\/RT-michaelgetmore-Im-discussing-Open-BAR-Talk-Crypto-Comedy-Show-with-joblockchain-WALASIA-psy_Odd_still-and-Hierocoin-BAR-to",
            "created_at": "2022-02-24T19:00:09Z",
            "votes": {
                "negative": 0,
                "positive": 0,
                "important": 0,
                "liked": 0,
                "disliked": 0,
                "lol": 0,
                "toxic": 0,
                "saved": 0,
                "comments": 0
            }
        },
        {
            "kind": "news",
            "domain": "@hierocoin",
            "source": {
                "title": "Hierocoin Twitter",
                "region": "en",
                "domain": "twitter.com",
                "path": "@hierocoin"
            },
            "title": "RT @HieroImperium: The first 100 Hiero Heads NFTs can be purchased with $BEATS only. This is to reward holders who have been staking their\u2026",
            "published_at": "2022-02-23T19:49:56Z",
            "slug": "RT-HieroImperium-The-first-100-Hiero-Heads-NFTs-can-be-purchased-with-BEATS-only-This-is-to-reward-holders-who-have-been-staking-their",
            "currencies": [
                {
                    "code": "BAR",
                    "title": "Hierocoin",
                    "slug": null,
                    "url": "https:\/\/cryptopanic.com\/news\/None\/"
                }
            ],
            "id": 14401773,
            "url": "https:\/\/cryptopanic.com\/news\/14401773\/RT-HieroImperium-The-first-100-Hiero-Heads-NFTs-can-be-purchased-with-BEATS-only-This-is-to-reward-holders-who-have-been-staking-their",
            "created_at": "2022-02-23T19:49:56Z",
            "votes": {
                "negative": 0,
                "positive": 0,
                "important": 0,
                "liked": 0,
                "disliked": 0,
                "lol": 0,
                "toxic": 0,
                "saved": 0,
                "comments": 0
            }
        },
        {
            "kind": "news",
            "domain": "@hierocoin",
            "source": {
                "title": "Hierocoin Twitter",
                "region": "en",
                "domain": "twitter.com",
                "path": "@hierocoin"
            },
            "title": "The first 100 Hiero Heads NFTs can be purchased with $BEATS only. This is to reward holders who have been staking t\u2026",
            "published_at": "2022-02-23T17:08:14Z",
            "slug": "The-first-100-Hiero-Heads-NFTs-can-be-purchased-with-BEATS-only-This-is-to-reward-holders-who-have-been-staking-t",
            "currencies": [
                {
                    "code": "BAR",
                    "title": "Hierocoin",
                    "slug": null,
                    "url": "https:\/\/cryptopanic.com\/news\/None\/"
                }
            ],
            "id": 14401774,
            "url": "https:\/\/cryptopanic.com\/news\/14401774\/The-first-100-Hiero-Heads-NFTs-can-be-purchased-with-BEATS-only-This-is-to-reward-holders-who-have-been-staking-t",
            "created_at": "2022-02-23T17:08:14Z",
            "votes": {
                "negative": 0,
                "positive": 0,
                "important": 0,
                "liked": 0,
                "disliked": 0,
                "lol": 0,
                "toxic": 0,
                "saved": 0,
                "comments": 0
            }
        },
        {
            "kind": "news",
            "domain": "@hierocoin",
            "source": {
                "title": "Hierocoin Twitter",
                "region": "en",
                "domain": "twitter.com",
                "path": "@hierocoin"
            },
            "title": "RT @RapNoir: The end goal is a paradigm shift where artists and lovers of the arts can support each other PERPETUALLY instead of relying up\u2026",
            "published_at": "2022-02-21T21:28:15Z",
            "slug": "RT-RapNoir-The-end-goal-is-a-paradigm-shift-where-artists-and-lovers-of-the-arts-can-support-each-other-PERPETUALLY-instead-of-relying-up",
            "currencies": [
                {
                    "code": "BAR",
                    "title": "Hierocoin",
                    "slug": null,
                    "url": "https:\/\/cryptopanic.com\/news\/None\/"
                }
            ],
            "id": 14367411,
            "url": "https:\/\/cryptopanic.com\/news\/14367411\/RT-RapNoir-The-end-goal-is-a-paradigm-shift-where-artists-and-lovers-of-the-arts-can-support-each-other-PERPETUALLY-instead-of-relying-up",
            "created_at": "2022-02-21T21:28:15Z",
            "votes": {
                "negative": 0,
                "positive": 0,
                "important": 0,
                "liked": 0,
                "disliked": 0,
                "lol": 0,
                "toxic": 0,
                "saved": 0,
                "comments": 0
            }
        },
        {
            "kind": "news",
            "domain": "@hierocoin",
            "source": {
                "title": "Hierocoin Twitter",
                "region": "en",
                "domain": "twitter.com",
                "path": "@hierocoin"
            },
            "title": "RT @RapNoir: Hierocoin $BAR was created to fund the first DAO for the arts. Once established, this DAO will enable artists to get funding f\u2026",
            "published_at": "2022-02-21T19:51:34Z",
            "slug": "RT-RapNoir-Hierocoin-BAR-was-created-to-fund-the-first-DAO-for-the-arts-Once-established-this-DAO-will-enable-artists-to-get-funding-f",
            "currencies": [
                {
                    "code": "BAR",
                    "title": "Hierocoin",
                    "slug": null,
                    "url": "https:\/\/cryptopanic.com\/news\/None\/"
                }
            ],
            "id": 14367412,
            "url": "https:\/\/cryptopanic.com\/news\/14367412\/RT-RapNoir-Hierocoin-BAR-was-created-to-fund-the-first-DAO-for-the-arts-Once-established-this-DAO-will-enable-artists-to-get-funding-f",
            "created_at": "2022-02-21T19:51:34Z",
            "votes": {
                "negative": 0,
                "positive": 0,
                "important": 0,
                "liked": 0,
                "disliked": 0,
                "lol": 0,
                "toxic": 0,
                "saved": 0,
                "comments": 0
            }
        },
        {
            "kind": "news",
            "domain": "@hierocoin",
            "source": {
                "title": "Hierocoin Twitter",
                "region": "en",
                "domain": "twitter.com",
                "path": "@hierocoin"
            },
            "title": "How to Buy #HieroCoin via",
            "published_at": "2022-02-21T19:43:22Z",
            "slug": "How-to-Buy-HieroCoin-via",
            "currencies": [
                {
                    "code": "BAR",
                    "title": "Hierocoin",
                    "slug": null,
                    "url": "https:\/\/cryptopanic.com\/news\/None\/"
                }
            ],
            "id": 14367413,
            "url": "https:\/\/cryptopanic.com\/news\/14367413\/How-to-Buy-HieroCoin-via",
            "created_at": "2022-02-21T19:43:22Z",
            "votes": {
                "negative": 0,
                "positive": 0,
                "important": 0,
                "liked": 0,
                "disliked": 0,
                "lol": 0,
                "toxic": 0,
                "saved": 0,
                "comments": 0
            }
        },
        {
            "kind": "news",
            "domain": "@hierocoin",
            "source": {
                "title": "Hierocoin Twitter",
                "region": "en",
                "domain": "twitter.com",
                "path": "@hierocoin"
            },
            "title": "RT @JoinOurCoin: #Hierocoin set the $BAR high &amp; $BEATS the competition, so we had to $JOIN forces with the best!!\n\n#Blackchain #Blockchain",
            "published_at": "2022-02-21T19:40:11Z",
            "slug": "RT-JoinOurCoin-Hierocoin-set-the-BAR-high-amp-BEATS-the-competition-so-we-had-to-JOIN-forces-with-the-best-Blackchain-Blockchain",
            "currencies": [
                {
                    "code": "BAR",
                    "title": "Hierocoin",
                    "slug": null,
                    "url": "https:\/\/cryptopanic.com\/news\/None\/"
                }
            ],
            "id": 14367414,
            "url": "https:\/\/cryptopanic.com\/news\/14367414\/RT-JoinOurCoin-Hierocoin-set-the-BAR-high-amp-BEATS-the-competition-so-we-had-to-JOIN-forces-with-the-best-Blackchain-Blockchain",
            "created_at": "2022-02-21T19:40:11Z",
            "votes": {
                "negative": 0,
                "positive": 0,
                "important": 0,
                "liked": 0,
                "disliked": 0,
                "lol": 0,
                "toxic": 0,
                "saved": 0,
                "comments": 0
            }
        },
        {
            "kind": "news",
            "domain": "@hierocoin",
            "source": {
                "title": "Hierocoin Twitter",
                "region": "en",
                "domain": "twitter.com",
                "path": "@hierocoin"
            },
            "title": "RT @SherronShabazz: Check out my interview with @smashrockwell! He talks about starting Hierocoin, why he\u2019s a rapper\u2019s rapper, working with\u2026",
            "published_at": "2022-02-21T19:40:05Z",
            "slug": "RT-SherronShabazz-Check-out-my-interview-with-smashrockwell-He-talks-about-starting-Hierocoin-why-hes-a-rappers-rapper-working-with",
            "currencies": [
                {
                    "code": "BAR",
                    "title": "Hierocoin",
                    "slug": null,
                    "url": "https:\/\/cryptopanic.com\/news\/None\/"
                }
            ],
            "id": 14367415,
            "url": "https:\/\/cryptopanic.com\/news\/14367415\/RT-SherronShabazz-Check-out-my-interview-with-smashrockwell-He-talks-about-starting-Hierocoin-why-hes-a-rappers-rapper-working-with",
            "created_at": "2022-02-21T19:40:05Z",
            "votes": {
                "negative": 0,
                "positive": 0,
                "important": 0,
                "liked": 0,
                "disliked": 0,
                "lol": 0,
                "toxic": 0,
                "saved": 0,
                "comments": 0
            }
        },
        {
            "kind": "news",
            "domain": "@hierocoin",
            "source": {
                "title": "Hierocoin Twitter",
                "region": "en",
                "domain": "twitter.com",
                "path": "@hierocoin"
            },
            "title": "RT @Seen9five: Stay ahead of the game w\/ @hierocoin",
            "published_at": "2022-02-21T15:25:15Z",
            "slug": "RT-Seen9five-Stay-ahead-of-the-game-w-hierocoin",
            "currencies": [
                {
                    "code": "BAR",
                    "title": "Hierocoin",
                    "slug": null,
                    "url": "https:\/\/cryptopanic.com\/news\/None\/"
                }
            ],
            "id": 14367416,
            "url": "https:\/\/cryptopanic.com\/news\/14367416\/RT-Seen9five-Stay-ahead-of-the-game-w-hierocoin",
            "created_at": "2022-02-21T15:25:15Z",
            "votes": {
                "negative": 0,
                "positive": 0,
                "important": 0,
                "liked": 0,
                "disliked": 0,
                "lol": 0,
                "toxic": 0,
                "saved": 0,
                "comments": 0
            }
        },
        {
            "kind": "news",
            "domain": "@hierocoin",
            "source": {
                "title": "Hierocoin Twitter",
                "region": "en",
                "domain": "twitter.com",
                "path": "@hierocoin"
            },
            "title": "RT @Smashrockwell: Follow @JoinOurCoin Get down with the collective!",
            "published_at": "2022-02-20T17:41:50Z",
            "slug": "RT-Smashrockwell-Follow-JoinOurCoin-Get-down-with-the-collective",
            "currencies": [
                {
                    "code": "BAR",
                    "title": "Hierocoin",
                    "slug": null,
                    "url": "https:\/\/cryptopanic.com\/news\/None\/"
                }
            ],
            "id": 14357854,
            "url": "https:\/\/cryptopanic.com\/news\/14357854\/RT-Smashrockwell-Follow-JoinOurCoin-Get-down-with-the-collective",
            "created_at": "2022-02-20T17:41:50Z",
            "votes": {
                "negative": 0,
                "positive": 0,
                "important": 0,
                "liked": 0,
                "disliked": 0,
                "lol": 0,
                "toxic": 0,
                "saved": 0,
                "comments": 0
            }
        },
        {
            "kind": "news",
            "domain": "@hierocoin",
            "source": {
                "title": "Hierocoin Twitter",
                "region": "en",
                "domain": "twitter.com",
                "path": "@hierocoin"
            },
            "title": "RT @hierocoin: - Road Map and How to Buy Guide\n\nHieroCoin on @poocoinapp \n\nHieroCoin on @Pan\u2026",
            "published_at": "2022-02-19T18:30:57Z",
            "slug": "RT-hierocoin-Road-Map-and-How-to-Buy-Guide-HieroCoin-on-poocoinapp-HieroCoin-on-Pan",
            "currencies": [
                {
                    "code": "BAR",
                    "title": "Hierocoin",
                    "slug": null,
                    "url": "https:\/\/cryptopanic.com\/news\/None\/"
                }
            ],
            "id": 14350786,
            "url": "https:\/\/cryptopanic.com\/news\/14350786\/RT-hierocoin-Road-Map-and-How-to-Buy-Guide-HieroCoin-on-poocoinapp-HieroCoin-on-Pan",
            "created_at": "2022-02-19T18:30:57Z",
            "votes": {
                "negative": 0,
                "positive": 0,
                "important": 0,
                "liked": 0,
                "disliked": 0,
                "lol": 0,
                "toxic": 0,
                "saved": 0,
                "comments": 0
            }
        },
        {
            "kind": "news",
            "domain": "@hierocoin",
            "source": {
                "title": "Hierocoin Twitter",
                "region": "en",
                "domain": "twitter.com",
                "path": "@hierocoin"
            },
            "title": "RT @LigteV: @AltcoinWorldcom Hierocoin $BAR\n#ForTheCulture \nHieroglyphics is the crew. $BAR is the community token on the BSC. Help bui\u2026",
            "published_at": "2022-02-19T18:30:33Z",
            "slug": "RT-LigteV-AltcoinWorldcom-Hierocoin-BAR-ForTheCulture-Hieroglyphics-is-the-crew-BAR-is-the-community-token-on-the-BSC-Help-bui",
            "currencies": [
                {
                    "code": "BAR",
                    "title": "Hierocoin",
                    "slug": null,
                    "url": "https:\/\/cryptopanic.com\/news\/None\/"
                }
            ],
            "id": 14350787,
            "url": "https:\/\/cryptopanic.com\/news\/14350787\/RT-LigteV-AltcoinWorldcom-Hierocoin-BAR-ForTheCulture-Hieroglyphics-is-the-crew-BAR-is-the-community-token-on-the-BSC-Help-bui",
            "created_at": "2022-02-19T18:30:33Z",
            "votes": {
                "negative": 0,
                "positive": 0,
                "important": 0,
                "liked": 0,
                "disliked": 0,
                "lol": 0,
                "toxic": 0,
                "saved": 0,
                "comments": 0
            }
        },
        {
            "kind": "news",
            "domain": "@hierocoin",
            "source": {
                "title": "Hierocoin Twitter",
                "region": "en",
                "domain": "twitter.com",
                "path": "@hierocoin"
            },
            "title": "RT @cryptoassassn: $BAR $BEATS #HIEROCOIN",
            "published_at": "2022-02-19T18:30:21Z",
            "slug": "RT-cryptoassassn-BAR-BEATS-HIEROCOIN",
            "currencies": [
                {
                    "code": "BAR",
                    "title": "Hierocoin",
                    "slug": null,
                    "url": "https:\/\/cryptopanic.com\/news\/None\/"
                }
            ],
            "id": 14350788,
            "url": "https:\/\/cryptopanic.com\/news\/14350788\/RT-cryptoassassn-BAR-BEATS-HIEROCOIN",
            "created_at": "2022-02-19T18:30:21Z",
            "votes": {
                "negative": 0,
                "positive": 0,
                "important": 0,
                "liked": 0,
                "disliked": 0,
                "lol": 0,
                "toxic": 0,
                "saved": 0,
                "comments": 0
            }
        },
        {
            "kind": "news",
            "domain": "@hierocoin",
            "source": {
                "title": "Hierocoin Twitter",
                "region": "en",
                "domain": "twitter.com",
                "path": "@hierocoin"
            },
            "title": "RT @seen9five: Organic growth in process #HODL $BAR \u2066@hierocoin\u2069",
            "published_at": "2022-02-19T18:29:04Z",
            "slug": "RT-seen9five-Organic-growth-in-process-HODL-BAR-hierocoin",
            "currencies": [
                {
                    "code": "BAR",
                    "title": "Hierocoin",
                    "slug": null,
                    "url": "https:\/\/cryptopanic.com\/news\/None\/"
                }
            ],
            "id": 14350789,
            "url": "https:\/\/cryptopanic.com\/news\/14350789\/RT-seen9five-Organic-growth-in-process-HODL-BAR-hierocoin",
            "created_at": "2022-02-19T18:29:04Z",
            "votes": {
                "negative": 0,
                "positive": 0,
                "important": 0,
                "liked": 0,
                "disliked": 0,
                "lol": 0,
                "toxic": 0,
                "saved": 0,
                "comments": 0
            }
        },
        {
            "kind": "news",
            "domain": "@hierocoin",
            "source": {
                "title": "Hierocoin Twitter",
                "region": "en",
                "domain": "twitter.com",
                "path": "@hierocoin"
            },
            "title": "RT @seen9five: Grab yourself some $BAR and get some $BEATS \u2066@hierocoin\u2069 is an opportunity you do not want to miss out on",
            "published_at": "2022-02-19T18:28:52Z",
            "slug": "RT-seen9five-Grab-yourself-some-BAR-and-get-some-BEATS-hierocoin-is-an-opportunity-you-do-not-want-to-miss-out-on",
            "currencies": [
                {
                    "code": "BAR",
                    "title": "Hierocoin",
                    "slug": null,
                    "url": "https:\/\/cryptopanic.com\/news\/None\/"
                }
            ],
            "id": 14350790,
            "url": "https:\/\/cryptopanic.com\/news\/14350790\/RT-seen9five-Grab-yourself-some-BAR-and-get-some-BEATS-hierocoin-is-an-opportunity-you-do-not-want-to-miss-out-on",
            "created_at": "2022-02-19T18:28:52Z",
            "votes": {
                "negative": 0,
                "positive": 0,
                "important": 0,
                "liked": 0,
                "disliked": 0,
                "lol": 0,
                "toxic": 0,
                "saved": 0,
                "comments": 0
            }
        },
        {
            "kind": "news",
            "domain": "@hierocoin",
            "source": {
                "title": "Hierocoin Twitter",
                "region": "en",
                "domain": "twitter.com",
                "path": "@hierocoin"
            },
            "title": "I'm discussing \u201cOpen $BAR Talk\u201d with @michaelgetmore, @psy_Odd_still, and Hierocoin $BAR token for Indie arts DAO.\u2026",
            "published_at": "2022-02-18T03:01:09Z",
            "slug": "Im-discussing-Open-BAR-Talk-with-michaelgetmore-psy_Odd_still-and-Hierocoin-BAR-token-for-Indie-arts-DAO",
            "currencies": [
                {
                    "code": "BAR",
                    "title": "Hierocoin",
                    "slug": null,
                    "url": "https:\/\/cryptopanic.com\/news\/None\/"
                }
            ],
            "id": 14331698,
            "url": "https:\/\/cryptopanic.com\/news\/14331698\/Im-discussing-Open-BAR-Talk-with-michaelgetmore-psy_Odd_still-and-Hierocoin-BAR-token-for-Indie-arts-DAO",
            "created_at": "2022-02-18T03:01:09Z",
            "votes": {
                "negative": 0,
                "positive": 0,
                "important": 0,
                "liked": 0,
                "disliked": 0,
                "lol": 0,
                "toxic": 0,
                "saved": 0,
                "comments": 0
            }
        },
        {
            "kind": "news",
            "domain": "@hierocoin",
            "source": {
                "title": "Hierocoin Twitter",
                "region": "en",
                "domain": "twitter.com",
                "path": "@hierocoin"
            },
            "title": "RT @ernieNFT: Hierocoin $BAR is a BEP20 token branded after the music group Hieroglyphics !! $BAR is a community token on the Binance Smar\u2026",
            "published_at": "2022-02-17T20:22:07Z",
            "slug": "RT-ernieNFT-Hierocoin-BAR-is-a-BEP20-token-branded-after-the-music-group-Hieroglyphics-BAR-is-a-community-token-on-the-Binance-Smar",
            "currencies": [
                {
                    "code": "BAR",
                    "title": "Hierocoin",
                    "slug": null,
                    "url": "https:\/\/cryptopanic.com\/news\/None\/"
                }
            ],
            "id": 14331699,
            "url": "https:\/\/cryptopanic.com\/news\/14331699\/RT-ernieNFT-Hierocoin-BAR-is-a-BEP20-token-branded-after-the-music-group-Hieroglyphics-BAR-is-a-community-token-on-the-Binance-Smar",
            "created_at": "2022-02-17T20:22:07Z",
            "votes": {
                "negative": 0,
                "positive": 0,
                "important": 0,
                "liked": 0,
                "disliked": 0,
                "lol": 0,
                "toxic": 0,
                "saved": 0,
                "comments": 0
            }
        },
        {
            "kind": "news",
            "domain": "@hierocoin",
            "source": {
                "title": "Hierocoin Twitter",
                "region": "en",
                "domain": "twitter.com",
                "path": "@hierocoin"
            },
            "title": "RT @hierocoin: please join us this Thursday evening on the @Clubhouse app 8 pm pacific time with hosts @michaelgetm\u2026",
            "published_at": "2022-02-17T16:57:55Z",
            "slug": "RT-hierocoin-please-join-us-this-Thursday-evening-on-the-Clubhouse-app-8-pm-pacific-time-with-hosts-michaelgetm",
            "currencies": [
                {
                    "code": "BAR",
                    "title": "Hierocoin",
                    "slug": "hierocoin",
                    "url": "https:\/\/cryptopanic.com\/news\/hierocoin\/"
                }
            ],
            "id": 14331700,
            "url": "https:\/\/cryptopanic.com\/news\/14331700\/RT-hierocoin-please-join-us-this-Thursday-evening-on-the-Clubhouse-app-8-pm-pacific-time-with-hosts-michaelgetm",
            "created_at": "2022-02-17T16:57:55Z",
            "votes": {
                "negative": 0,
                "positive": 0,
                "important": 0,
                "liked": 0,
                "disliked": 0,
                "lol": 0,
                "toxic": 0,
                "saved": 0,
                "comments": 0
            }
        },
        {
            "kind": "news",
            "domain": "@hierocoin",
            "source": {
                "title": "Hierocoin Twitter",
                "region": "en",
                "domain": "twitter.com",
                "path": "@hierocoin"
            },
            "title": "RT @seen9five: Buy $BAR stack $BEATS get involved with @hierocoin this is just the beginning!",
            "published_at": "2022-02-17T16:57:18Z",
            "slug": "RT-seen9five-Buy-BAR-stack-BEATS-get-involved-with-hierocoin-this-is-just-the-beginning",
            "currencies": [
                {
                    "code": "BAR",
                    "title": "Hierocoin",
                    "slug": "hierocoin",
                    "url": "https:\/\/cryptopanic.com\/news\/hierocoin\/"
                }
            ],
            "id": 14331701,
            "url": "https:\/\/cryptopanic.com\/news\/14331701\/RT-seen9five-Buy-BAR-stack-BEATS-get-involved-with-hierocoin-this-is-just-the-beginning",
            "created_at": "2022-02-17T16:57:18Z",
            "votes": {
                "negative": 0,
                "positive": 0,
                "important": 0,
                "liked": 0,
                "disliked": 0,
                "lol": 0,
                "toxic": 0,
                "saved": 0,
                "comments": 0
            }
        }
    ]
}
