{
    "count": 200,
    "next": "https:\/\/cryptopanic.com\/api\/v1\/posts\/?auth_token=01c356e89ffc1b8eba2127c81fc8c66ee0eace75&kind=news&currencies=STPT&page=2",
    "previous": null,
    "results": [
        {
            "kind": "news",
            "domain": "@STP_Networks",
            "source": {
                "title": "STPT Twitter",
                "region": "en",
                "domain": "twitter.com",
                "path": "@stp_networks"
            },
            "title": "RT @zetablockchain:  Omnichain DAOs powered by @STP_Networks is live on the ZetaChain testnet. Crypto users will soon have the ability to\u2026",
            "published_at": "2023-04-30T07:56:30Z",
            "slug": "RT-zetablockchain-Omnichain-DAOs-powered-by-STP_Networks-is-live-on-the-ZetaChain-testnet-Crypto-users-will-soon-have-the-ability-to",
            "currencies": [
                {
                    "code": "STPT",
                    "title": "STP",
                    "slug": "stp-network",
                    "url": "https:\/\/cryptopanic.com\/news\/stp-network\/"
                }
            ],
            "id": 18231406,
            "url": "https:\/\/cryptopanic.com\/news\/18231406\/RT-zetablockchain-Omnichain-DAOs-powered-by-STP_Networks-is-live-on-the-ZetaChain-testnet-Crypto-users-will-soon-have-the-ability-to",
            "created_at": "2023-04-30T07:56:30Z",
            "votes": {
                "negative": 0,
                "positive": 0,
                "important": 0,
                "liked": 0,
                "disliked": 0,
                "lol": 0,
                "toxic": 0,
                "saved": 0,
                "comments": 0
            }
        },
        {
            "kind": "news",
            "domain": "@STP_Networks",
            "source": {
                "title": "STPT Twitter",
                "region": "en",
                "domain": "twitter.com",
                "path": "@stp_networks"
            },
            "title": "STP\u2019s dApp Clique now integrated with @zetablockchain Athens Testnet, a fully explorable network for developers to\u2026",
            "published_at": "2023-04-28T03:20:52Z",
            "slug": "STPs-dApp-Clique-now-integrated-with-zetablockchain-Athens-Testnet-a-fully-explorable-network-for-developers-to",
            "currencies": [
                {
                    "code": "STPT",
                    "title": "STP",
                    "slug": "stp-network",
                    "url": "https:\/\/cryptopanic.com\/news\/stp-network\/"
                }
            ],
            "id": 18217960,
            "url": "https:\/\/cryptopanic.com\/news\/18217960\/STPs-dApp-Clique-now-integrated-with-zetablockchain-Athens-Testnet-a-fully-explorable-network-for-developers-to",
            "created_at": "2023-04-28T03:20:52Z",
            "votes": {
                "negative": 0,
                "positive": 0,
                "important": 0,
                "liked": 0,
                "disliked": 0,
                "lol": 0,
                "toxic": 0,
                "saved": 0,
                "comments": 0
            }
        },
        {
            "kind": "news",
            "domain": "@STP_Networks",
            "source": {
                "title": "STPT Twitter",
                "region": "en",
                "domain": "twitter.com",
                "path": "@stp_networks"
            },
            "title": " STP has now fully unlocked its STPT token supply! \n\nThis significant step now enables complete governance of the\u2026",
            "published_at": "2023-04-27T04:00:41Z",
            "slug": "STP-has-now-fully-unlocked-its-STPT-token-supply-This-significant-step-now-enables-complete-governance-of-the",
            "currencies": [
                {
                    "code": "STPT",
                    "title": "STP",
                    "slug": "stp-network",
                    "url": "https:\/\/cryptopanic.com\/news\/stp-network\/"
                }
            ],
            "id": 18208129,
            "url": "https:\/\/cryptopanic.com\/news\/18208129\/STP-has-now-fully-unlocked-its-STPT-token-supply-This-significant-step-now-enables-complete-governance-of-the",
            "created_at": "2023-04-27T04:00:41Z",
            "votes": {
                "negative": 0,
                "positive": 0,
                "important": 0,
                "liked": 0,
                "disliked": 0,
                "lol": 0,
                "toxic": 0,
                "saved": 0,
                "comments": 0
            }
        },
        {
            "kind": "news",
            "domain": "@STP_Networks",
            "source": {
                "title": "STPT Twitter",
                "region": "en",
                "domain": "twitter.com",
                "path": "@stp_networks"
            },
            "title": "We are beyond excited to announce Clique V3, which will include the Web3 Workspace, DApp Store, and SDK \ud83e\udd73\n\nThe firs\u2026",
            "published_at": "2023-04-26T03:08:40Z",
            "slug": "We-are-beyond-excited-to-announce-Clique-V3-which-will-include-the-Web3-Workspace-DApp-Store-and-SDK-The-firs",
            "currencies": [
                {
                    "code": "STPT",
                    "title": "STP",
                    "slug": "stp-network",
                    "url": "https:\/\/cryptopanic.com\/news\/stp-network\/"
                }
            ],
            "id": 18198968,
            "url": "https:\/\/cryptopanic.com\/news\/18198968\/We-are-beyond-excited-to-announce-Clique-V3-which-will-include-the-Web3-Workspace-DApp-Store-and-SDK-The-firs",
            "created_at": "2023-04-26T03:08:40Z",
            "votes": {
                "negative": 0,
                "positive": 0,
                "important": 0,
                "liked": 0,
                "disliked": 0,
                "lol": 0,
                "toxic": 0,
                "saved": 0,
                "comments": 0
            }
        },
        {
            "kind": "news",
            "domain": "@STP_Networks",
            "source": {
                "title": "STPT Twitter",
                "region": "en",
                "domain": "twitter.com",
                "path": "@stp_networks"
            },
            "title": "Most blockchain games are currently Web2.5 not Web3 but how do they make the push into Web3 and why? How do DAOs ta\u2026",
            "published_at": "2023-04-21T03:04:12Z",
            "slug": "Most-blockchain-games-are-currently-Web25-not-Web3-but-how-do-they-make-the-push-into-Web3-and-why-How-do-DAOs-ta",
            "currencies": [
                {
                    "code": "STPT",
                    "title": "STP",
                    "slug": "stp-network",
                    "url": "https:\/\/cryptopanic.com\/news\/stp-network\/"
                }
            ],
            "id": 18163114,
            "url": "https:\/\/cryptopanic.com\/news\/18163114\/Most-blockchain-games-are-currently-Web25-not-Web3-but-how-do-they-make-the-push-into-Web3-and-why-How-do-DAOs-ta",
            "created_at": "2023-04-21T03:04:12Z",
            "votes": {
                "negative": 0,
                "positive": 0,
                "important": 0,
                "liked": 0,
                "disliked": 0,
                "lol": 0,
                "toxic": 0,
                "saved": 0,
                "comments": 0
            }
        },
        {
            "kind": "news",
            "domain": "@STP_Networks",
            "source": {
                "title": "STPT Twitter",
                "region": "en",
                "domain": "twitter.com",
                "path": "@stp_networks"
            },
            "title": "RT @cryptocom: STP is listed in the App  \nBuy $STPT at true cost with USD, EUR, GBP, and 20+ fiat currencies.\n\nDow\u2026",
            "published_at": "2023-04-17T15:45:58Z",
            "slug": "RT-cryptocom-STP-is-listed-in-the-App-Buy-STPT-at-true-cost-with-USD-EUR-GBP-and-20-fiat-currencies-Dow",
            "currencies": [
                {
                    "code": "STPT",
                    "title": "STP",
                    "slug": "stp-network",
                    "url": "https:\/\/cryptopanic.com\/news\/stp-network\/"
                }
            ],
            "id": 18136432,
            "url": "https:\/\/cryptopanic.com\/news\/18136432\/RT-cryptocom-STP-is-listed-in-the-App-Buy-STPT-at-true-cost-with-USD-EUR-GBP-and-20-fiat-currencies-Dow",
            "created_at": "2023-04-17T15:45:58Z",
            "votes": {
                "negative": 0,
                "positive": 0,
                "important": 0,
                "liked": 0,
                "disliked": 0,
                "lol": 0,
                "toxic": 0,
                "saved": 0,
                "comments": 0
            }
        },
        {
            "kind": "news",
            "domain": "@STP_Networks",
            "source": {
                "title": "STPT Twitter",
                "region": "en",
                "domain": "twitter.com",
                "path": "@stp_networks"
            },
            "title": "Clique integrated with Polygon to benefit from the extremely low-cost gas fees for DAO governance activities \ud83e\udd29",
            "published_at": "2023-04-08T03:52:33Z",
            "slug": "Clique-integrated-with-Polygon-to-benefit-from-the-extremely-low-cost-gas-fees-for-DAO-governance-activities",
            "currencies": [
                {
                    "code": "STPT",
                    "title": "STP",
                    "slug": "stp-network",
                    "url": "https:\/\/cryptopanic.com\/news\/stp-network\/"
                },
                {
                    "code": "MATIC",
                    "title": "Polygon",
                    "slug": "matic-network",
                    "url": "https:\/\/cryptopanic.com\/news\/matic-network\/"
                }
            ],
            "id": 18066848,
            "url": "https:\/\/cryptopanic.com\/news\/18066848\/Clique-integrated-with-Polygon-to-benefit-from-the-extremely-low-cost-gas-fees-for-DAO-governance-activities",
            "created_at": "2023-04-08T03:52:33Z",
            "votes": {
                "negative": 0,
                "positive": 0,
                "important": 0,
                "liked": 0,
                "disliked": 0,
                "lol": 0,
                "toxic": 0,
                "saved": 0,
                "comments": 0
            }
        },
        {
            "kind": "news",
            "domain": "@STP_Networks",
            "source": {
                "title": "STPT Twitter",
                "region": "en",
                "domain": "twitter.com",
                "path": "@stp_networks"
            },
            "title": "$STPT will be added to the KRW market on @BithumbOfficial!",
            "published_at": "2023-04-06T01:47:16Z",
            "slug": "STPT-will-be-added-to-the-KRW-market-on-BithumbOfficial",
            "currencies": [
                {
                    "code": "STPT",
                    "title": "STP",
                    "slug": "stp-network",
                    "url": "https:\/\/cryptopanic.com\/news\/stp-network\/"
                }
            ],
            "id": 18050825,
            "url": "https:\/\/cryptopanic.com\/news\/18050825\/STPT-will-be-added-to-the-KRW-market-on-BithumbOfficial",
            "created_at": "2023-04-06T01:47:16Z",
            "votes": {
                "negative": 0,
                "positive": 0,
                "important": 0,
                "liked": 0,
                "disliked": 0,
                "lol": 0,
                "toxic": 0,
                "saved": 0,
                "comments": 0
            }
        },
        {
            "kind": "news",
            "domain": "@STP_Networks",
            "source": {
                "title": "STPT Twitter",
                "region": "en",
                "domain": "twitter.com",
                "path": "@stp_networks"
            },
            "title": "Verse Network by STP Integrates All-In-One DAO Tool Clique with @0xPolygon zkEVM \n\nDAOs and members can now benefi\u2026",
            "published_at": "2023-03-31T02:00:45Z",
            "slug": "Verse-Network-by-STP-Integrates-All-In-One-DAO-Tool-Clique-with-0xPolygon-zkEVM-DAOs-and-members-can-now-benefi",
            "currencies": [
                {
                    "code": "STPT",
                    "title": "STP",
                    "slug": "stp-network",
                    "url": "https:\/\/cryptopanic.com\/news\/stp-network\/"
                }
            ],
            "id": 18007227,
            "url": "https:\/\/cryptopanic.com\/news\/18007227\/Verse-Network-by-STP-Integrates-All-In-One-DAO-Tool-Clique-with-0xPolygon-zkEVM-DAOs-and-members-can-now-benefi",
            "created_at": "2023-03-31T02:00:45Z",
            "votes": {
                "negative": 0,
                "positive": 0,
                "important": 0,
                "liked": 0,
                "disliked": 0,
                "lol": 0,
                "toxic": 0,
                "saved": 0,
                "comments": 0
            }
        },
        {
            "kind": "news",
            "domain": "@STP_Networks",
            "source": {
                "title": "STPT Twitter",
                "region": "en",
                "domain": "twitter.com",
                "path": "@stp_networks"
            },
            "title": "Learn about Verse Network by STP \ud83e\udd29",
            "published_at": "2023-03-29T13:46:26Z",
            "slug": "Learn-about-Verse-Network-by-STP",
            "currencies": [
                {
                    "code": "STPT",
                    "title": "STP",
                    "slug": "stp-network",
                    "url": "https:\/\/cryptopanic.com\/news\/stp-network\/"
                }
            ],
            "id": 17998118,
            "url": "https:\/\/cryptopanic.com\/news\/17998118\/Learn-about-Verse-Network-by-STP",
            "created_at": "2023-03-29T13:46:26Z",
            "votes": {
                "negative": 0,
                "positive": 0,
                "important": 0,
                "liked": 0,
                "disliked": 0,
                "lol": 0,
                "toxic": 0,
                "saved": 0,
                "comments": 0
            }
        },
        {
            "kind": "news",
            "domain": "@STP_Networks",
            "source": {
                "title": "STPT Twitter",
                "region": "en",
                "domain": "twitter.com",
                "path": "@stp_networks"
            },
            "title": "How would zero knowledge proof transform the DAO ecosystem? \n\nTo answer that question, here is a research piece on\u2026",
            "published_at": "2023-03-22T03:10:26Z",
            "slug": "How-would-zero-knowledge-proof-transform-the-DAO-ecosystem-To-answer-that-question-here-is-a-research-piece-on",
            "currencies": [
                {
                    "code": "STPT",
                    "title": "STP",
                    "slug": "stp-network",
                    "url": "https:\/\/cryptopanic.com\/news\/stp-network\/"
                }
            ],
            "id": 17936435,
            "url": "https:\/\/cryptopanic.com\/news\/17936435\/How-would-zero-knowledge-proof-transform-the-DAO-ecosystem-To-answer-that-question-here-is-a-research-piece-on",
            "created_at": "2023-03-22T03:10:26Z",
            "votes": {
                "negative": 0,
                "positive": 0,
                "important": 0,
                "liked": 0,
                "disliked": 0,
                "lol": 0,
                "toxic": 0,
                "saved": 0,
                "comments": 0
            }
        },
        {
            "kind": "news",
            "domain": "@STP_Networks",
            "source": {
                "title": "STPT Twitter",
                "region": "en",
                "domain": "twitter.com",
                "path": "@stp_networks"
            },
            "title": "Turkey Disaster Relief DAO on Clique has raised over $10,000 for those who were affected in the devastating earthqu\u2026",
            "published_at": "2023-02-21T02:15:52Z",
            "slug": "Turkey-Disaster-Relief-DAO-on-Clique-has-raised-over-10000-for-those-who-were-affected-in-the-devastating-earthqu",
            "currencies": [
                {
                    "code": "STPT",
                    "title": "STP",
                    "slug": "stp-network",
                    "url": "https:\/\/cryptopanic.com\/news\/stp-network\/"
                }
            ],
            "id": 17693820,
            "url": "https:\/\/cryptopanic.com\/news\/17693820\/Turkey-Disaster-Relief-DAO-on-Clique-has-raised-over-10000-for-those-who-were-affected-in-the-devastating-earthqu",
            "created_at": "2023-02-21T02:15:52Z",
            "votes": {
                "negative": 0,
                "positive": 0,
                "important": 0,
                "liked": 0,
                "disliked": 0,
                "lol": 0,
                "toxic": 0,
                "saved": 0,
                "comments": 0
            }
        },
        {
            "kind": "news",
            "domain": "@STP_Networks",
            "source": {
                "title": "STPT Twitter",
                "region": "en",
                "domain": "twitter.com",
                "path": "@stp_networks"
            },
            "title": "The Turkey Disaster Relief DAO launched by a STP community member, aims to help the Turkish people affected by the\u2026",
            "published_at": "2023-02-15T04:28:00Z",
            "slug": "The-Turkey-Disaster-Relief-DAO-launched-by-a-STP-community-member-aims-to-help-the-Turkish-people-affected-by-the",
            "currencies": [
                {
                    "code": "STPT",
                    "title": "STP",
                    "slug": "stp-network",
                    "url": "https:\/\/cryptopanic.com\/news\/stp-network\/"
                }
            ],
            "id": 17644177,
            "url": "https:\/\/cryptopanic.com\/news\/17644177\/The-Turkey-Disaster-Relief-DAO-launched-by-a-STP-community-member-aims-to-help-the-Turkish-people-affected-by-the",
            "created_at": "2023-02-15T04:28:00Z",
            "votes": {
                "negative": 0,
                "positive": 0,
                "important": 0,
                "liked": 0,
                "disliked": 0,
                "lol": 0,
                "toxic": 0,
                "saved": 0,
                "comments": 0
            }
        },
        {
            "kind": "news",
            "domain": "@STP_Networks",
            "source": {
                "title": "STPT Twitter",
                "region": "en",
                "domain": "twitter.com",
                "path": "@stp_networks"
            },
            "title": "ChatGPT attracted 100 million users in a mere two months and drew attention to artificial intelligence but how coul\u2026",
            "published_at": "2023-02-14T03:16:13Z",
            "slug": "ChatGPT-attracted-100-million-users-in-a-mere-two-months-and-drew-attention-to-artificial-intelligence-but-how-coul",
            "currencies": [
                {
                    "code": "STPT",
                    "title": "STP",
                    "slug": "stp-network",
                    "url": "https:\/\/cryptopanic.com\/news\/stp-network\/"
                }
            ],
            "id": 17634169,
            "url": "https:\/\/cryptopanic.com\/news\/17634169\/ChatGPT-attracted-100-million-users-in-a-mere-two-months-and-drew-attention-to-artificial-intelligence-but-how-coul",
            "created_at": "2023-02-14T03:16:13Z",
            "votes": {
                "negative": 0,
                "positive": 0,
                "important": 0,
                "liked": 0,
                "disliked": 0,
                "lol": 0,
                "toxic": 0,
                "saved": 0,
                "comments": 0
            }
        },
        {
            "kind": "news",
            "domain": "@STP_Networks",
            "source": {
                "title": "STPT Twitter",
                "region": "en",
                "domain": "twitter.com",
                "path": "@stp_networks"
            },
            "title": "2023 is going to be a new and exciting year for @STP_Networks!\n\nCheck out our 2023 roadmap to learn about plans for\u2026",
            "published_at": "2023-02-10T04:42:29Z",
            "slug": "2023-is-going-to-be-a-new-and-exciting-year-for-STP_Networks-Check-out-our-2023-roadmap-to-learn-about-plans-for",
            "currencies": [
                {
                    "code": "STPT",
                    "title": "STP",
                    "slug": "stp-network",
                    "url": "https:\/\/cryptopanic.com\/news\/stp-network\/"
                }
            ],
            "id": 17604177,
            "url": "https:\/\/cryptopanic.com\/news\/17604177\/2023-is-going-to-be-a-new-and-exciting-year-for-STP_Networks-Check-out-our-2023-roadmap-to-learn-about-plans-for",
            "created_at": "2023-02-10T04:42:29Z",
            "votes": {
                "negative": 0,
                "positive": 0,
                "important": 0,
                "liked": 0,
                "disliked": 0,
                "lol": 0,
                "toxic": 0,
                "saved": 0,
                "comments": 0
            }
        },
        {
            "kind": "news",
            "domain": "@STP_Networks",
            "source": {
                "title": "STPT Twitter",
                "region": "en",
                "domain": "twitter.com",
                "path": "@stp_networks"
            },
            "title": "The first AI-governed DAO has launched on Clique! Below is the first proposal of ChatGPT DAO.\u2026",
            "published_at": "2023-02-09T02:34:17Z",
            "slug": "The-first-AI-governed-DAO-has-launched-on-Clique-Below-is-the-first-proposal-of-ChatGPT-DAO",
            "currencies": [
                {
                    "code": "STPT",
                    "title": "STP",
                    "slug": "stp-network",
                    "url": "https:\/\/cryptopanic.com\/news\/stp-network\/"
                }
            ],
            "id": 17593976,
            "url": "https:\/\/cryptopanic.com\/news\/17593976\/The-first-AI-governed-DAO-has-launched-on-Clique-Below-is-the-first-proposal-of-ChatGPT-DAO",
            "created_at": "2023-02-09T02:34:17Z",
            "votes": {
                "negative": 0,
                "positive": 0,
                "important": 0,
                "liked": 0,
                "disliked": 0,
                "lol": 0,
                "toxic": 0,
                "saved": 0,
                "comments": 0
            }
        },
        {
            "kind": "news",
            "domain": "@STP_Networks",
            "source": {
                "title": "STPT Twitter",
                "region": "en",
                "domain": "twitter.com",
                "path": "@stp_networks"
            },
            "title": "2022 was an eventful year for @STP_Networks \n\nRead about our achievements in 2022",
            "published_at": "2023-01-12T03:12:40Z",
            "slug": "2022-was-an-eventful-year-for-STP_Networks-Read-about-our-achievements-in-2022",
            "currencies": [
                {
                    "code": "STPT",
                    "title": "STP",
                    "slug": "stp-network",
                    "url": "https:\/\/cryptopanic.com\/news\/stp-network\/"
                }
            ],
            "id": 17361967,
            "url": "https:\/\/cryptopanic.com\/news\/17361967\/2022-was-an-eventful-year-for-STP_Networks-Read-about-our-achievements-in-2022",
            "created_at": "2023-01-12T03:12:40Z",
            "votes": {
                "negative": 0,
                "positive": 0,
                "important": 0,
                "liked": 0,
                "disliked": 0,
                "lol": 0,
                "toxic": 0,
                "saved": 0,
                "comments": 0
            }
        },
        {
            "kind": "news",
            "domain": "@STP_Networks",
            "source": {
                "title": "STPT Twitter",
                "region": "en",
                "domain": "twitter.com",
                "path": "@stp_networks"
            },
            "title": "The wait is over! @STP_Networks's all-in-one DAO tool Clique integrates with @klaytn_official, South Korea's leadin\u2026",
            "published_at": "2022-11-23T03:14:37Z",
            "slug": "The-wait-is-over-STP_Networkss-all-in-one-DAO-tool-Clique-integrates-with-klaytn_official-South-Koreas-leadin",
            "currencies": [
                {
                    "code": "STPT",
                    "title": "STP",
                    "slug": "stp-network",
                    "url": "https:\/\/cryptopanic.com\/news\/stp-network\/"
                }
            ],
            "id": 16973210,
            "url": "https:\/\/cryptopanic.com\/news\/16973210\/The-wait-is-over-STP_Networkss-all-in-one-DAO-tool-Clique-integrates-with-klaytn_official-South-Koreas-leadin",
            "created_at": "2022-11-23T03:14:37Z",
            "votes": {
                "negative": 0,
                "positive": 0,
                "important": 0,
                "liked": 0,
                "disliked": 0,
                "lol": 0,
                "toxic": 0,
                "saved": 0,
                "comments": 0
            }
        },
        {
            "kind": "news",
            "domain": "@STP_Networks",
            "source": {
                "title": "STPT Twitter",
                "region": "en",
                "domain": "twitter.com",
                "path": "@stp_networks"
            },
            "title": "RT @zetablockchain:  Today we announce a partnership with @STP_Networks to enable for the first time the creation of Omnichain DAOs: \n\nhtt\u2026",
            "published_at": "2022-11-09T16:03:38Z",
            "slug": "RT-zetablockchain-Today-we-announce-a-partnership-with-STP_Networks-to-enable-for-the-first-time-the-creation-of-Omnichain-DAOs-htt",
            "currencies": [
                {
                    "code": "STPT",
                    "title": "STP",
                    "slug": "stp-network",
                    "url": "https:\/\/cryptopanic.com\/news\/stp-network\/"
                }
            ],
            "id": 16856160,
            "url": "https:\/\/cryptopanic.com\/news\/16856160\/RT-zetablockchain-Today-we-announce-a-partnership-with-STP_Networks-to-enable-for-the-first-time-the-creation-of-Omnichain-DAOs-htt",
            "created_at": "2022-11-09T16:03:38Z",
            "votes": {
                "negative": 0,
                "positive": 0,
                "important": 0,
                "liked": 0,
                "disliked": 0,
                "lol": 0,
                "toxic": 0,
                "saved": 0,
                "comments": 0
            }
        },
        {
            "kind": "news",
            "domain": "@STP_Networks",
            "source": {
                "title": "STPT Twitter",
                "region": "en",
                "domain": "twitter.com",
                "path": "@stp_networks"
            },
            "title": "We\u2019re excited to announce a partnership with @zetablockchain to create the first omnichain DAO!",
            "published_at": "2022-11-09T16:02:56Z",
            "slug": "Were-excited-to-announce-a-partnership-with-zetablockchain-to-create-the-first-omnichain-DAO",
            "currencies": [
                {
                    "code": "STPT",
                    "title": "STP",
                    "slug": "stp-network",
                    "url": "https:\/\/cryptopanic.com\/news\/stp-network\/"
                }
            ],
            "id": 16856161,
            "url": "https:\/\/cryptopanic.com\/news\/16856161\/Were-excited-to-announce-a-partnership-with-zetablockchain-to-create-the-first-omnichain-DAO",
            "created_at": "2022-11-09T16:02:56Z",
            "votes": {
                "negative": 0,
                "positive": 0,
                "important": 0,
                "liked": 0,
                "disliked": 0,
                "lol": 0,
                "toxic": 0,
                "saved": 0,
                "comments": 0
            }
        }
    ]
}
