{
    "count": 200,
    "next": "https:\/\/cryptopanic.com\/api\/v1\/posts\/?auth_token=01c356e89ffc1b8eba2127c81fc8c66ee0eace75&kind=news&currencies=POLYX&page=2",
    "previous": null,
    "results": [
        {
            "kind": "news",
            "domain": "@PolymeshNetwork",
            "source": {
                "title": "Polymesh Twitter",
                "region": "en",
                "domain": "twitter.com",
                "path": "@polymeshnetwork"
            },
            "title": "RT @Super_Dave____: @PolymeshNetwork\n$POLYX\nPolymesh Network is the first Blockchain built ground up for #RWA tokenization and compliance.\u2026",
            "published_at": "2023-07-10T22:56:09Z",
            "slug": "RT-Super_Dave____-PolymeshNetwork-POLYX-Polymesh-Network-is-the-first-Blockchain-built-ground-up-for-RWA-tokenization-and-compliance",
            "currencies": [
                {
                    "code": "POLYX",
                    "title": "Polymesh",
                    "slug": "polymesh",
                    "url": "https:\/\/cryptopanic.com\/news\/polymesh\/"
                }
            ],
            "id": 18758388,
            "url": "https:\/\/cryptopanic.com\/news\/18758388\/RT-Super_Dave____-PolymeshNetwork-POLYX-Polymesh-Network-is-the-first-Blockchain-built-ground-up-for-RWA-tokenization-and-compliance",
            "created_at": "2023-07-10T22:56:09Z",
            "votes": {
                "negative": 0,
                "positive": 0,
                "important": 0,
                "liked": 0,
                "disliked": 0,
                "lol": 0,
                "toxic": 0,
                "saved": 0,
                "comments": 0
            }
        },
        {
            "kind": "news",
            "domain": "@PolymeshNetwork",
            "source": {
                "title": "Polymesh Twitter",
                "region": "en",
                "domain": "twitter.com",
                "path": "@polymeshnetwork"
            },
            "title": "it's hannenin",
            "published_at": "2023-07-09T16:26:20Z",
            "slug": "its-hannenin",
            "currencies": [
                {
                    "code": "POLYX",
                    "title": "Polymesh",
                    "slug": "polymesh",
                    "url": "https:\/\/cryptopanic.com\/news\/polymesh\/"
                }
            ],
            "id": 18751065,
            "url": "https:\/\/cryptopanic.com\/news\/18751065\/its-hannenin",
            "created_at": "2023-07-09T16:26:20Z",
            "votes": {
                "negative": 0,
                "positive": 0,
                "important": 0,
                "liked": 0,
                "disliked": 0,
                "lol": 0,
                "toxic": 0,
                "saved": 0,
                "comments": 0
            }
        },
        {
            "kind": "news",
            "domain": "@PolymeshNetwork",
            "source": {
                "title": "Polymesh Twitter",
                "region": "en",
                "domain": "twitter.com",
                "path": "@polymeshnetwork"
            },
            "title": "ahhhhhhhh i'm revolutioniizzziinnngg finnnaaannccee",
            "published_at": "2023-07-07T14:31:27Z",
            "slug": "ahhhhhhhh-im-revolutioniizzziinnngg-finnnaaannccee",
            "currencies": [
                {
                    "code": "POLYX",
                    "title": "Polymesh",
                    "slug": "polymesh",
                    "url": "https:\/\/cryptopanic.com\/news\/polymesh\/"
                }
            ],
            "id": 18742019,
            "url": "https:\/\/cryptopanic.com\/news\/18742019\/ahhhhhhhh-im-revolutioniizzziinnngg-finnnaaannccee",
            "created_at": "2023-07-07T14:31:27Z",
            "votes": {
                "negative": 0,
                "positive": 0,
                "important": 0,
                "liked": 0,
                "disliked": 0,
                "lol": 0,
                "toxic": 0,
                "saved": 0,
                "comments": 0
            }
        },
        {
            "kind": "news",
            "domain": "@PolymeshNetwork",
            "source": {
                "title": "Polymesh Twitter",
                "region": "en",
                "domain": "twitter.com",
                "path": "@polymeshnetwork"
            },
            "title": "Ahhhhhh Meshy threadiiiinnngggggg",
            "published_at": "2023-07-07T14:21:40Z",
            "slug": "Ahhhhhh-Meshy-threadiiiinnngggggg",
            "currencies": [
                {
                    "code": "POLYX",
                    "title": "Polymesh",
                    "slug": "polymesh",
                    "url": "https:\/\/cryptopanic.com\/news\/polymesh\/"
                }
            ],
            "id": 18742020,
            "url": "https:\/\/cryptopanic.com\/news\/18742020\/Ahhhhhh-Meshy-threadiiiinnngggggg",
            "created_at": "2023-07-07T14:21:40Z",
            "votes": {
                "negative": 0,
                "positive": 0,
                "important": 0,
                "liked": 0,
                "disliked": 0,
                "lol": 0,
                "toxic": 0,
                "saved": 0,
                "comments": 0
            }
        },
        {
            "kind": "news",
            "domain": "@PolymeshNetwork",
            "source": {
                "title": "Polymesh Twitter",
                "region": "en",
                "domain": "twitter.com",
                "path": "@polymeshnetwork"
            },
            "title": " Another announcement!  \n\nIn anticipation of the newly released Polymesh Portal, we also improved the Polymesh on\u2026",
            "published_at": "2023-07-07T13:30:43Z",
            "slug": "Another-announcement-In-anticipation-of-the-newly-released-Polymesh-Portal-we-also-improved-the-Polymesh-on",
            "currencies": [
                {
                    "code": "POLYX",
                    "title": "Polymesh",
                    "slug": "polymesh",
                    "url": "https:\/\/cryptopanic.com\/news\/polymesh\/"
                }
            ],
            "id": 18742021,
            "url": "https:\/\/cryptopanic.com\/news\/18742021\/Another-announcement-In-anticipation-of-the-newly-released-Polymesh-Portal-we-also-improved-the-Polymesh-on",
            "created_at": "2023-07-07T13:30:43Z",
            "votes": {
                "negative": 0,
                "positive": 0,
                "important": 0,
                "liked": 0,
                "disliked": 0,
                "lol": 0,
                "toxic": 0,
                "saved": 0,
                "comments": 0
            }
        },
        {
            "kind": "news",
            "domain": "@PolymeshNetwork",
            "source": {
                "title": "Polymesh Twitter",
                "region": "en",
                "domain": "twitter.com",
                "path": "@polymeshnetwork"
            },
            "title": " NOW LIVE: THE POLYMESH PORTAL \n\nIntroducing the Polymesh Portal   \na new interface for interacting with an ac\u2026",
            "published_at": "2023-07-06T13:00:38Z",
            "slug": "NOW-LIVE-THE-POLYMESH-PORTAL-Introducing-the-Polymesh-Portal-a-new-interface-for-interacting-with-an-ac",
            "currencies": [
                {
                    "code": "POLYX",
                    "title": "Polymesh",
                    "slug": "polymesh",
                    "url": "https:\/\/cryptopanic.com\/news\/polymesh\/"
                }
            ],
            "id": 18734694,
            "url": "https:\/\/cryptopanic.com\/news\/18734694\/NOW-LIVE-THE-POLYMESH-PORTAL-Introducing-the-Polymesh-Portal-a-new-interface-for-interacting-with-an-ac",
            "created_at": "2023-07-06T13:00:38Z",
            "votes": {
                "negative": 0,
                "positive": 0,
                "important": 0,
                "liked": 0,
                "disliked": 0,
                "lol": 0,
                "toxic": 0,
                "saved": 0,
                "comments": 0
            }
        },
        {
            "kind": "news",
            "domain": "@PolymeshNetwork",
            "source": {
                "title": "Polymesh Twitter",
                "region": "en",
                "domain": "twitter.com",
                "path": "@polymeshnetwork"
            },
            "title": "RT @HaileyLennonBTC: Excited to have @MooreGrams joining me on my podcast the Bitcoin Verdict this week.\n\nWe'll be discussing all things pr\u2026",
            "published_at": "2023-07-05T23:57:06Z",
            "slug": "RT-HaileyLennonBTC-Excited-to-have-MooreGrams-joining-me-on-my-podcast-the-Bitcoin-Verdict-this-week-Well-be-discussing-all-things-pr",
            "currencies": [
                {
                    "code": "POLYX",
                    "title": "Polymesh",
                    "slug": "polymesh",
                    "url": "https:\/\/cryptopanic.com\/news\/polymesh\/"
                }
            ],
            "id": 18726188,
            "url": "https:\/\/cryptopanic.com\/news\/18726188\/RT-HaileyLennonBTC-Excited-to-have-MooreGrams-joining-me-on-my-podcast-the-Bitcoin-Verdict-this-week-Well-be-discussing-all-things-pr",
            "created_at": "2023-07-05T23:57:06Z",
            "votes": {
                "negative": 0,
                "positive": 0,
                "important": 0,
                "liked": 0,
                "disliked": 0,
                "lol": 0,
                "toxic": 0,
                "saved": 0,
                "comments": 0
            }
        },
        {
            "kind": "news",
            "domain": "@PolymeshNetwork",
            "source": {
                "title": "Polymesh Twitter",
                "region": "en",
                "domain": "twitter.com",
                "path": "@polymeshnetwork"
            },
            "title": "RT @MooreGrams: it me",
            "published_at": "2023-07-05T23:56:58Z",
            "slug": "RT-MooreGrams-it-me",
            "currencies": [
                {
                    "code": "POLYX",
                    "title": "Polymesh",
                    "slug": "polymesh",
                    "url": "https:\/\/cryptopanic.com\/news\/polymesh\/"
                }
            ],
            "id": 18726189,
            "url": "https:\/\/cryptopanic.com\/news\/18726189\/RT-MooreGrams-it-me",
            "created_at": "2023-07-05T23:56:58Z",
            "votes": {
                "negative": 0,
                "positive": 0,
                "important": 0,
                "liked": 0,
                "disliked": 0,
                "lol": 0,
                "toxic": 0,
                "saved": 0,
                "comments": 0
            }
        },
        {
            "kind": "news",
            "domain": "@PolymeshNetwork",
            "source": {
                "title": "Polymesh Twitter",
                "region": "en",
                "domain": "twitter.com",
                "path": "@polymeshnetwork"
            },
            "title": "Missed last week's AMA? We have ya covered \ud83e\udee1\n\nWatch the recording on our Youtube channel  and get caught up on\u2026",
            "published_at": "2023-07-03T19:22:45Z",
            "slug": "Missed-last-weeks-AMA-We-have-ya-covered-Watch-the-recording-on-our-Youtube-channel-and-get-caught-up-on",
            "currencies": [
                {
                    "code": "POLYX",
                    "title": "Polymesh",
                    "slug": "polymesh",
                    "url": "https:\/\/cryptopanic.com\/news\/polymesh\/"
                }
            ],
            "id": 18711150,
            "url": "https:\/\/cryptopanic.com\/news\/18711150\/Missed-last-weeks-AMA-We-have-ya-covered-Watch-the-recording-on-our-Youtube-channel-and-get-caught-up-on",
            "created_at": "2023-07-03T19:22:45Z",
            "votes": {
                "negative": 0,
                "positive": 0,
                "important": 0,
                "liked": 0,
                "disliked": 0,
                "lol": 0,
                "toxic": 0,
                "saved": 0,
                "comments": 0
            }
        },
        {
            "kind": "news",
            "domain": "@PolymeshNetwork",
            "source": {
                "title": "Polymesh Twitter",
                "region": "en",
                "domain": "twitter.com",
                "path": "@polymeshnetwork"
            },
            "title": "What do real estate, private equity, and carbon credits have in common?",
            "published_at": "2023-07-03T17:30:24Z",
            "slug": "What-do-real-estate-private-equity-and-carbon-credits-have-in-common",
            "currencies": [
                {
                    "code": "POLYX",
                    "title": "Polymesh",
                    "slug": "polymesh",
                    "url": "https:\/\/cryptopanic.com\/news\/polymesh\/"
                }
            ],
            "id": 18711151,
            "url": "https:\/\/cryptopanic.com\/news\/18711151\/What-do-real-estate-private-equity-and-carbon-credits-have-in-common",
            "created_at": "2023-07-03T17:30:24Z",
            "votes": {
                "negative": 0,
                "positive": 0,
                "important": 0,
                "liked": 0,
                "disliked": 0,
                "lol": 0,
                "toxic": 0,
                "saved": 0,
                "comments": 0
            }
        },
        {
            "kind": "news",
            "domain": "@PolymeshNetwork",
            "source": {
                "title": "Polymesh Twitter",
                "region": "en",
                "domain": "twitter.com",
                "path": "@polymeshnetwork"
            },
            "title": "Polymesh stats to date!  \n\n40M POLY bridged to $POLYX and 5 new tickers since our last update (05\/23)  \n\nLinks to\u2026",
            "published_at": "2023-07-03T15:51:58Z",
            "slug": "Polymesh-stats-to-date-40M-POLY-bridged-to-POLYX-and-5-new-tickers-since-our-last-update-0523-Links-to",
            "currencies": [
                {
                    "code": "POLYX",
                    "title": "Polymesh",
                    "slug": "polymesh",
                    "url": "https:\/\/cryptopanic.com\/news\/polymesh\/"
                }
            ],
            "id": 18711152,
            "url": "https:\/\/cryptopanic.com\/news\/18711152\/Polymesh-stats-to-date-40M-POLY-bridged-to-POLYX-and-5-new-tickers-since-our-last-update-0523-Links-to",
            "created_at": "2023-07-03T15:51:58Z",
            "votes": {
                "negative": 0,
                "positive": 0,
                "important": 0,
                "liked": 0,
                "disliked": 0,
                "lol": 0,
                "toxic": 0,
                "saved": 0,
                "comments": 0
            }
        },
        {
            "kind": "news",
            "domain": "@PolymeshNetwork",
            "source": {
                "title": "Polymesh Twitter",
                "region": "en",
                "domain": "twitter.com",
                "path": "@polymeshnetwork"
            },
            "title": " Polymesh has been upgraded to 5.4.1! \n\n\ud83e\udef0Transaction fees and protocol fees will now go 100% to Node Operators\u2026",
            "published_at": "2023-06-28T19:13:43Z",
            "slug": "Polymesh-has-been-upgraded-to-541-Transaction-fees-and-protocol-fees-will-now-go-100-to-Node-Operators",
            "currencies": [
                {
                    "code": "POLYX",
                    "title": "Polymesh",
                    "slug": "polymesh",
                    "url": "https:\/\/cryptopanic.com\/news\/polymesh\/"
                }
            ],
            "id": 18679808,
            "url": "https:\/\/cryptopanic.com\/news\/18679808\/Polymesh-has-been-upgraded-to-541-Transaction-fees-and-protocol-fees-will-now-go-100-to-Node-Operators",
            "created_at": "2023-06-28T19:13:43Z",
            "votes": {
                "negative": 0,
                "positive": 0,
                "important": 0,
                "liked": 0,
                "disliked": 0,
                "lol": 0,
                "toxic": 0,
                "saved": 0,
                "comments": 0
            }
        },
        {
            "kind": "news",
            "domain": "@PolymeshNetwork",
            "source": {
                "title": "Polymesh Twitter",
                "region": "en",
                "domain": "twitter.com",
                "path": "@polymeshnetwork"
            },
            "title": " New announcement just dropped! \n\nThe POLY to $POLYX Upgrade Bridge is intended to close on January 31, 2024 \n\n\u2026",
            "published_at": "2023-06-28T14:25:55Z",
            "slug": "New-announcement-just-dropped-The-POLY-to-POLYX-Upgrade-Bridge-is-intended-to-close-on-January-31-2024",
            "currencies": [
                {
                    "code": "POLYX",
                    "title": "Polymesh",
                    "slug": "polymesh",
                    "url": "https:\/\/cryptopanic.com\/news\/polymesh\/"
                }
            ],
            "id": 18679811,
            "url": "https:\/\/cryptopanic.com\/news\/18679811\/New-announcement-just-dropped-The-POLY-to-POLYX-Upgrade-Bridge-is-intended-to-close-on-January-31-2024",
            "created_at": "2023-06-28T14:25:55Z",
            "votes": {
                "negative": 0,
                "positive": 0,
                "important": 0,
                "liked": 0,
                "disliked": 0,
                "lol": 0,
                "toxic": 0,
                "saved": 0,
                "comments": 0
            }
        },
        {
            "kind": "news",
            "domain": "@PolymeshNetwork",
            "source": {
                "title": "Polymesh Twitter",
                "region": "en",
                "domain": "twitter.com",
                "path": "@polymeshnetwork"
            },
            "title": " STARTING NOW \u2013 POLYMESH AMA AND SURPRISE REVEAL \n\n\ufe0fTune in now and hear @MooreGrams answer YOUR questions about\u2026",
            "published_at": "2023-06-28T14:03:45Z",
            "slug": "STARTING-NOW-POLYMESH-AMA-AND-SURPRISE-REVEAL-Tune-in-now-and-hear-MooreGrams-answer-YOUR-questions-about",
            "currencies": [
                {
                    "code": "POLYX",
                    "title": "Polymesh",
                    "slug": "polymesh",
                    "url": "https:\/\/cryptopanic.com\/news\/polymesh\/"
                }
            ],
            "id": 18679812,
            "url": "https:\/\/cryptopanic.com\/news\/18679812\/STARTING-NOW-POLYMESH-AMA-AND-SURPRISE-REVEAL-Tune-in-now-and-hear-MooreGrams-answer-YOUR-questions-about",
            "created_at": "2023-06-28T14:03:45Z",
            "votes": {
                "negative": 0,
                "positive": 0,
                "important": 0,
                "liked": 0,
                "disliked": 0,
                "lol": 0,
                "toxic": 0,
                "saved": 0,
                "comments": 0
            }
        },
        {
            "kind": "news",
            "domain": "@PolymeshNetwork",
            "source": {
                "title": "Polymesh Twitter",
                "region": "en",
                "domain": "twitter.com",
                "path": "@polymeshnetwork"
            },
            "title": " Don't forget! \n\n Polymesh AMA (+ surprise ) is tomorrow Wednesday June 28th, 10 AM ET on Youtube \n\nPush \ud83c\udd7f\ufe0f and\u2026",
            "published_at": "2023-06-27T22:25:15Z",
            "slug": "Dont-forget-Polymesh-AMA-surprise-is-tomorrow-Wednesday-June-28th-10-AM-ET-on-Youtube-Push-and",
            "currencies": [
                {
                    "code": "POLYX",
                    "title": "Polymesh",
                    "slug": "polymesh",
                    "url": "https:\/\/cryptopanic.com\/news\/polymesh\/"
                }
            ],
            "id": 18671637,
            "url": "https:\/\/cryptopanic.com\/news\/18671637\/Dont-forget-Polymesh-AMA-surprise-is-tomorrow-Wednesday-June-28th-10-AM-ET-on-Youtube-Push-and",
            "created_at": "2023-06-27T22:25:15Z",
            "votes": {
                "negative": 0,
                "positive": 0,
                "important": 0,
                "liked": 0,
                "disliked": 0,
                "lol": 0,
                "toxic": 0,
                "saved": 0,
                "comments": 0
            }
        },
        {
            "kind": "news",
            "domain": "@PolymeshNetwork",
            "source": {
                "title": "Polymesh Twitter",
                "region": "en",
                "domain": "twitter.com",
                "path": "@polymeshnetwork"
            },
            "title": "Who wants to live in the Polymesh Citadel (this castle is literally the Polymesh Citadel (confirmed) (real))",
            "published_at": "2023-06-27T15:35:31Z",
            "slug": "Who-wants-to-live-in-the-Polymesh-Citadel-this-castle-is-literally-the-Polymesh-Citadel-confirmed-real",
            "currencies": [
                {
                    "code": "POLYX",
                    "title": "Polymesh",
                    "slug": "polymesh",
                    "url": "https:\/\/cryptopanic.com\/news\/polymesh\/"
                }
            ],
            "id": 18671638,
            "url": "https:\/\/cryptopanic.com\/news\/18671638\/Who-wants-to-live-in-the-Polymesh-Citadel-this-castle-is-literally-the-Polymesh-Citadel-confirmed-real",
            "created_at": "2023-06-27T15:35:31Z",
            "votes": {
                "negative": 0,
                "positive": 0,
                "important": 0,
                "liked": 0,
                "disliked": 0,
                "lol": 0,
                "toxic": 0,
                "saved": 0,
                "comments": 0
            }
        },
        {
            "kind": "news",
            "domain": "@PolymeshNetwork",
            "source": {
                "title": "Polymesh Twitter",
                "region": "en",
                "domain": "twitter.com",
                "path": "@polymeshnetwork"
            },
            "title": "The private vs. public blockchain debate gets it wrong\n\nNew article from @MooreGrams in @Blockworks_ \n\n\"Most people\u2026",
            "published_at": "2023-06-27T15:30:06Z",
            "slug": "The-private-vs-public-blockchain-debate-gets-it-wrong-New-article-from-MooreGrams-in-Blockworks_-Most-people",
            "currencies": [
                {
                    "code": "POLYX",
                    "title": "Polymesh",
                    "slug": "polymesh",
                    "url": "https:\/\/cryptopanic.com\/news\/polymesh\/"
                }
            ],
            "id": 18671639,
            "url": "https:\/\/cryptopanic.com\/news\/18671639\/The-private-vs-public-blockchain-debate-gets-it-wrong-New-article-from-MooreGrams-in-Blockworks_-Most-people",
            "created_at": "2023-06-27T15:30:06Z",
            "votes": {
                "negative": 0,
                "positive": 0,
                "important": 0,
                "liked": 0,
                "disliked": 0,
                "lol": 0,
                "toxic": 0,
                "saved": 0,
                "comments": 0
            }
        },
        {
            "kind": "news",
            "domain": "@PolymeshNetwork",
            "source": {
                "title": "Polymesh Twitter",
                "region": "en",
                "domain": "twitter.com",
                "path": "@polymeshnetwork"
            },
            "title": "That's a wrap! \ud83e\uded4 The AMA question form has closed.\n\nThx for tons of great Qs about Polymesh, $POLYX, institutions,\u2026",
            "published_at": "2023-06-26T19:51:06Z",
            "slug": "Thats-a-wrap-The-AMA-question-form-has-closed-Thx-for-tons-of-great-Qs-about-Polymesh-POLYX-institutions",
            "currencies": [
                {
                    "code": "POLYX",
                    "title": "Polymesh",
                    "slug": "polymesh",
                    "url": "https:\/\/cryptopanic.com\/news\/polymesh\/"
                }
            ],
            "id": 18663335,
            "url": "https:\/\/cryptopanic.com\/news\/18663335\/Thats-a-wrap-The-AMA-question-form-has-closed-Thx-for-tons-of-great-Qs-about-Polymesh-POLYX-institutions",
            "created_at": "2023-06-26T19:51:06Z",
            "votes": {
                "negative": 0,
                "positive": 0,
                "important": 0,
                "liked": 0,
                "disliked": 0,
                "lol": 0,
                "toxic": 0,
                "saved": 0,
                "comments": 0
            }
        },
        {
            "kind": "news",
            "domain": "@PolymeshNetwork",
            "source": {
                "title": "Polymesh Twitter",
                "region": "en",
                "domain": "twitter.com",
                "path": "@polymeshnetwork"
            },
            "title": "LAST CHANCE TO SUBMIT QUESTIONS!\n\nQuestion form closes at 12 PM ET today. \n\n\n\nAsk away ",
            "published_at": "2023-06-26T13:34:25Z",
            "slug": "LAST-CHANCE-TO-SUBMIT-QUESTIONS-Question-form-closes-at-12-PM-ET-today-Ask-away",
            "currencies": [
                {
                    "code": "POLYX",
                    "title": "Polymesh",
                    "slug": "polymesh",
                    "url": "https:\/\/cryptopanic.com\/news\/polymesh\/"
                }
            ],
            "id": 18663336,
            "url": "https:\/\/cryptopanic.com\/news\/18663336\/LAST-CHANCE-TO-SUBMIT-QUESTIONS-Question-form-closes-at-12-PM-ET-today-Ask-away",
            "created_at": "2023-06-26T13:34:25Z",
            "votes": {
                "negative": 0,
                "positive": 0,
                "important": 0,
                "liked": 0,
                "disliked": 0,
                "lol": 0,
                "toxic": 0,
                "saved": 0,
                "comments": 0
            }
        },
        {
            "kind": "news",
            "domain": "@PolymeshNetwork",
            "source": {
                "title": "Polymesh Twitter",
                "region": "en",
                "domain": "twitter.com",
                "path": "@polymeshnetwork"
            },
            "title": "THEY STILL DON\u2019T KNOW\n\n",
            "published_at": "2023-06-23T16:16:43Z",
            "slug": "THEY-STILL-DONT-KNOW",
            "currencies": [
                {
                    "code": "POLYX",
                    "title": "Polymesh",
                    "slug": "polymesh",
                    "url": "https:\/\/cryptopanic.com\/news\/polymesh\/"
                }
            ],
            "id": 18646451,
            "url": "https:\/\/cryptopanic.com\/news\/18646451\/THEY-STILL-DONT-KNOW",
            "created_at": "2023-06-23T16:16:43Z",
            "votes": {
                "negative": 0,
                "positive": 0,
                "important": 0,
                "liked": 0,
                "disliked": 0,
                "lol": 0,
                "toxic": 0,
                "saved": 0,
                "comments": 0
            }
        }
    ]
}
