{
    "count": 200,
    "next": "https:\/\/cryptopanic.com\/api\/v1\/posts\/?auth_token=01c356e89ffc1b8eba2127c81fc8c66ee0eace75&kind=news&currencies=RCN&page=2",
    "previous": null,
    "results": [
        {
            "kind": "news",
            "domain": "@RCNFinance",
            "source": {
                "title": "Ripio Credit Network Twitter",
                "region": "en",
                "domain": "twitter.com",
                "path": "@rcnfinance"
            },
            "title": "RT @sevenb_roker: RCN is now available for trading in our app! Welcome to 7b\n\n\ufe0f@RCNFinance is an open-source credit network that connects\u2026",
            "published_at": "2021-09-24T13:27:33Z",
            "slug": "RT-sevenb_roker-RCN-is-now-available-for-trading-in-our-app-Welcome-to-7b-RCNFinance-is-an-open-source-credit-network-that-connects",
            "currencies": [
                {
                    "code": "RCN",
                    "title": "Ripio Credit Network",
                    "slug": "ripio-credit-network",
                    "url": "https:\/\/cryptopanic.com\/news\/ripio-credit-network\/"
                }
            ],
            "id": 12862561,
            "url": "https:\/\/cryptopanic.com\/news\/12862561\/RT-sevenb_roker-RCN-is-now-available-for-trading-in-our-app-Welcome-to-7b-RCNFinance-is-an-open-source-credit-network-that-connects",
            "created_at": "2021-09-24T13:27:33Z",
            "votes": {
                "negative": 0,
                "positive": 0,
                "important": 0,
                "liked": 0,
                "disliked": 0,
                "lol": 0,
                "toxic": 0,
                "saved": 0,
                "comments": 0
            }
        },
        {
            "kind": "news",
            "domain": "@RCNFinance",
            "source": {
                "title": "Ripio Credit Network Twitter",
                "region": "en",
                "domain": "twitter.com",
                "path": "@rcnfinance"
            },
            "title": "A new RCN Monthly Recap is here!  July saw new listings in @Uniswap V3 \ud83e\udd84 and @QuickswapDEX,  the upgrade to\u2026",
            "published_at": "2021-08-10T19:13:58Z",
            "slug": "A-new-RCN-Monthly-Recap-is-here-July-saw-new-listings-in-Uniswap-V3-and-QuickswapDEX-the-upgrade-to",
            "currencies": [
                {
                    "code": "RCN",
                    "title": "Ripio Credit Network",
                    "slug": "ripio-credit-network",
                    "url": "https:\/\/cryptopanic.com\/news\/ripio-credit-network\/"
                }
            ],
            "id": 12513244,
            "url": "https:\/\/cryptopanic.com\/news\/12513244\/A-new-RCN-Monthly-Recap-is-here-July-saw-new-listings-in-Uniswap-V3-and-QuickswapDEX-the-upgrade-to",
            "created_at": "2021-08-10T19:13:58Z",
            "votes": {
                "negative": 0,
                "positive": 0,
                "important": 0,
                "liked": 0,
                "disliked": 0,
                "lol": 0,
                "toxic": 0,
                "saved": 0,
                "comments": 0
            }
        },
        {
            "kind": "news",
            "domain": "@RCNFinance",
            "source": {
                "title": "Ripio Credit Network Twitter",
                "region": "en",
                "domain": "twitter.com",
                "path": "@rcnfinance"
            },
            "title": "RCN is available on @QuickswapDEX!  Now you can swap RCN at almost no cost while enjoying faster transactions! \u2026",
            "published_at": "2021-08-09T19:56:00Z",
            "slug": "RCN-is-available-on-QuickswapDEX-Now-you-can-swap-RCN-at-almost-no-cost-while-enjoying-faster-transactions",
            "currencies": [
                {
                    "code": "RCN",
                    "title": "Ripio Credit Network",
                    "slug": "ripio-credit-network",
                    "url": "https:\/\/cryptopanic.com\/news\/ripio-credit-network\/"
                }
            ],
            "id": 12505664,
            "url": "https:\/\/cryptopanic.com\/news\/12505664\/RCN-is-available-on-QuickswapDEX-Now-you-can-swap-RCN-at-almost-no-cost-while-enjoying-faster-transactions",
            "created_at": "2021-08-09T19:56:00Z",
            "votes": {
                "negative": 0,
                "positive": 0,
                "important": 0,
                "liked": 0,
                "disliked": 0,
                "lol": 0,
                "toxic": 0,
                "saved": 0,
                "comments": 0
            }
        },
        {
            "kind": "news",
            "domain": "@RCNFinance",
            "source": {
                "title": "Ripio Credit Network Twitter",
                "region": "en",
                "domain": "twitter.com",
                "path": "@rcnfinance"
            },
            "title": "RT @guardarian_com: We are happy to announce that @RCNFinance is available at with 50+ fiat pairs. Get $RCN fast wi\u2026",
            "published_at": "2021-08-06T14:16:10Z",
            "slug": "RT-guardarian_com-We-are-happy-to-announce-that-RCNFinance-is-available-at-with-50-fiat-pairs-Get-RCN-fast-wi",
            "currencies": [
                {
                    "code": "RCN",
                    "title": "Ripio Credit Network",
                    "slug": "ripio-credit-network",
                    "url": "https:\/\/cryptopanic.com\/news\/ripio-credit-network\/"
                }
            ],
            "id": 12488214,
            "url": "https:\/\/cryptopanic.com\/news\/12488214\/RT-guardarian_com-We-are-happy-to-announce-that-RCNFinance-is-available-at-with-50-fiat-pairs-Get-RCN-fast-wi",
            "created_at": "2021-08-06T14:16:10Z",
            "votes": {
                "negative": 0,
                "positive": 0,
                "important": 0,
                "liked": 0,
                "disliked": 0,
                "lol": 0,
                "toxic": 0,
                "saved": 0,
                "comments": 0
            }
        },
        {
            "kind": "news",
            "domain": "@RCNFinance",
            "source": {
                "title": "Ripio Credit Network Twitter",
                "region": "en",
                "domain": "twitter.com",
                "path": "@rcnfinance"
            },
            "title": "RCN has a new liquidity pool on @Uniswap V3! \ud83e\udd84 With the ETH\/RCN pair users have available a new exchange option wh\u2026",
            "published_at": "2021-08-05T18:32:19Z",
            "slug": "RCN-has-a-new-liquidity-pool-on-Uniswap-V3-With-the-ETHRCN-pair-users-have-available-a-new-exchange-option-wh",
            "currencies": [
                {
                    "code": "RCN",
                    "title": "Ripio Credit Network",
                    "slug": "ripio-credit-network",
                    "url": "https:\/\/cryptopanic.com\/news\/ripio-credit-network\/"
                }
            ],
            "id": 12480224,
            "url": "https:\/\/cryptopanic.com\/news\/12480224\/RCN-has-a-new-liquidity-pool-on-Uniswap-V3-With-the-ETHRCN-pair-users-have-available-a-new-exchange-option-wh",
            "created_at": "2021-08-05T18:32:19Z",
            "votes": {
                "negative": 0,
                "positive": 0,
                "important": 0,
                "liked": 0,
                "disliked": 0,
                "lol": 0,
                "toxic": 0,
                "saved": 0,
                "comments": 0
            }
        },
        {
            "kind": "news",
            "domain": "@RCNFinance",
            "source": {
                "title": "Ripio Credit Network Twitter",
                "region": "en",
                "domain": "twitter.com",
                "path": "@rcnfinance"
            },
            "title": "A new RCN Monthly Recap is here!  June saw the integration with @0xPolygon  and three updates in the Credit Marke\u2026",
            "published_at": "2021-07-08T17:45:29Z",
            "slug": "A-new-RCN-Monthly-Recap-is-here-June-saw-the-integration-with-0xPolygon-and-three-updates-in-the-Credit-Marke",
            "currencies": [
                {
                    "code": "RCN",
                    "title": "Ripio Credit Network",
                    "slug": "ripio-credit-network",
                    "url": "https:\/\/cryptopanic.com\/news\/ripio-credit-network\/"
                }
            ],
            "id": 12290169,
            "url": "https:\/\/cryptopanic.com\/news\/12290169\/A-new-RCN-Monthly-Recap-is-here-June-saw-the-integration-with-0xPolygon-and-three-updates-in-the-Credit-Marke",
            "created_at": "2021-07-08T17:45:29Z",
            "votes": {
                "negative": 0,
                "positive": 0,
                "important": 0,
                "liked": 0,
                "disliked": 0,
                "lol": 0,
                "toxic": 0,
                "saved": 0,
                "comments": 0
            }
        },
        {
            "kind": "news",
            "domain": "@RCNFinance",
            "source": {
                "title": "Ripio Credit Network Twitter",
                "region": "en",
                "domain": "twitter.com",
                "path": "@rcnfinance"
            },
            "title": "RT @PolygonDaily: Welcome new partners of @0xPolygon $MATIC\n\n@DefiNft @bZxHQ @MonoXFinance @UMAprotocol @oncyber_io @BadgerDAO @defidollar\u2026",
            "published_at": "2021-06-25T19:17:25Z",
            "slug": "RT-PolygonDaily-Welcome-new-partners-of-0xPolygon-MATIC-DefiNft-bZxHQ-MonoXFinance-UMAprotocol-oncyber_io-BadgerDAO-defidollar",
            "currencies": [
                {
                    "code": "RCN",
                    "title": "Ripio Credit Network",
                    "slug": "ripio-credit-network",
                    "url": "https:\/\/cryptopanic.com\/news\/ripio-credit-network\/"
                }
            ],
            "id": 12205836,
            "url": "https:\/\/cryptopanic.com\/news\/12205836\/RT-PolygonDaily-Welcome-new-partners-of-0xPolygon-MATIC-DefiNft-bZxHQ-MonoXFinance-UMAprotocol-oncyber_io-BadgerDAO-defidollar",
            "created_at": "2021-06-25T19:17:25Z",
            "votes": {
                "negative": 0,
                "positive": 0,
                "important": 0,
                "liked": 0,
                "disliked": 0,
                "lol": 0,
                "toxic": 0,
                "saved": 0,
                "comments": 0
            }
        },
        {
            "kind": "news",
            "domain": "@RCNFinance",
            "source": {
                "title": "Ripio Credit Network Twitter",
                "region": "en",
                "domain": "twitter.com",
                "path": "@rcnfinance"
            },
            "title": "RT @0xPolygon:  The RCN Network is now live on #Polygon!\n\n@RCNFinance, an open-source global credit network bringing its Credit Marketplac\u2026",
            "published_at": "2021-06-24T16:44:45Z",
            "slug": "RT-0xPolygon-The-RCN-Network-is-now-live-on-Polygon-RCNFinance-an-open-source-global-credit-network-bringing-its-Credit-Marketplac",
            "currencies": [
                {
                    "code": "RCN",
                    "title": "Ripio Credit Network",
                    "slug": "ripio-credit-network",
                    "url": "https:\/\/cryptopanic.com\/news\/ripio-credit-network\/"
                }
            ],
            "id": 12199357,
            "url": "https:\/\/cryptopanic.com\/news\/12199357\/RT-0xPolygon-The-RCN-Network-is-now-live-on-Polygon-RCNFinance-an-open-source-global-credit-network-bringing-its-Credit-Marketplac",
            "created_at": "2021-06-24T16:44:45Z",
            "votes": {
                "negative": 0,
                "positive": 0,
                "important": 0,
                "liked": 0,
                "disliked": 0,
                "lol": 0,
                "toxic": 0,
                "saved": 0,
                "comments": 0
            }
        },
        {
            "kind": "news",
            "domain": "@RCNFinance",
            "source": {
                "title": "Ripio Credit Network Twitter",
                "region": "en",
                "domain": "twitter.com",
                "path": "@rcnfinance"
            },
            "title": "RT @anniehustohan: @Polygon_Space1 @RCNFinance @0xPolygon Tadaaah!The @RCNFinance is now  yesh I waited for this last week and now its on\u2026",
            "published_at": "2021-06-24T12:32:42Z",
            "slug": "RT-anniehustohan-Polygon_Space1-RCNFinance-0xPolygon-TadaaahThe-RCNFinance-is-now-yesh-I-waited-for-this-last-week-and-now-its-on",
            "currencies": [
                {
                    "code": "RCN",
                    "title": "Ripio Credit Network",
                    "slug": "ripio-credit-network",
                    "url": "https:\/\/cryptopanic.com\/news\/ripio-credit-network\/"
                }
            ],
            "id": 12199358,
            "url": "https:\/\/cryptopanic.com\/news\/12199358\/RT-anniehustohan-Polygon_Space1-RCNFinance-0xPolygon-TadaaahThe-RCNFinance-is-now-yesh-I-waited-for-this-last-week-and-now-its-on",
            "created_at": "2021-06-24T12:32:42Z",
            "votes": {
                "negative": 0,
                "positive": 0,
                "important": 0,
                "liked": 0,
                "disliked": 0,
                "lol": 0,
                "toxic": 0,
                "saved": 0,
                "comments": 0
            }
        },
        {
            "kind": "news",
            "domain": "@RCNFinance",
            "source": {
                "title": "Ripio Credit Network Twitter",
                "region": "en",
                "domain": "twitter.com",
                "path": "@rcnfinance"
            },
            "title": "RCN is excited to announce its integration with @0xPolygon!  Offering a new option where users can enjoy lower fe\u2026",
            "published_at": "2021-06-23T14:55:23Z",
            "slug": "RCN-is-excited-to-announce-its-integration-with-0xPolygon-Offering-a-new-option-where-users-can-enjoy-lower-fe",
            "currencies": [
                {
                    "code": "RCN",
                    "title": "Ripio Credit Network",
                    "slug": "ripio-credit-network",
                    "url": "https:\/\/cryptopanic.com\/news\/ripio-credit-network\/"
                }
            ],
            "id": 12191569,
            "url": "https:\/\/cryptopanic.com\/news\/12191569\/RCN-is-excited-to-announce-its-integration-with-0xPolygon-Offering-a-new-option-where-users-can-enjoy-lower-fe",
            "created_at": "2021-06-23T14:55:23Z",
            "votes": {
                "negative": 0,
                "positive": 0,
                "important": 0,
                "liked": 0,
                "disliked": 0,
                "lol": 0,
                "toxic": 0,
                "saved": 0,
                "comments": 0
            }
        },
        {
            "kind": "news",
            "domain": "@RCNFinance",
            "source": {
                "title": "Ripio Credit Network Twitter",
                "region": "en",
                "domain": "twitter.com",
                "path": "@rcnfinance"
            },
            "title": "Now RCN can also inform you of all the coming updates through @Blockfolio Signals!  Be sure to have the applicati\u2026",
            "published_at": "2021-06-22T17:22:57Z",
            "slug": "Now-RCN-can-also-inform-you-of-all-the-coming-updates-through-Blockfolio-Signals-Be-sure-to-have-the-applicati",
            "currencies": [
                {
                    "code": "RCN",
                    "title": "Ripio Credit Network",
                    "slug": "ripio-credit-network",
                    "url": "https:\/\/cryptopanic.com\/news\/ripio-credit-network\/"
                }
            ],
            "id": 12183399,
            "url": "https:\/\/cryptopanic.com\/news\/12183399\/Now-RCN-can-also-inform-you-of-all-the-coming-updates-through-Blockfolio-Signals-Be-sure-to-have-the-applicati",
            "created_at": "2021-06-22T17:22:57Z",
            "votes": {
                "negative": 0,
                "positive": 0,
                "important": 0,
                "liked": 0,
                "disliked": 0,
                "lol": 0,
                "toxic": 0,
                "saved": 0,
                "comments": 0
            }
        },
        {
            "kind": "news",
            "domain": "@RCNFinance",
            "source": {
                "title": "Ripio Credit Network Twitter",
                "region": "en",
                "domain": "twitter.com",
                "path": "@rcnfinance"
            },
            "title": "Now you can find RCN on the #DeFi section of Coinmarketcap. Thanks for that update @CoinMarketCap! ",
            "published_at": "2021-06-15T20:54:47Z",
            "slug": "Now-you-can-find-RCN-on-the-DeFi-section-of-Coinmarketcap-Thanks-for-that-update-CoinMarketCap",
            "currencies": [
                {
                    "code": "RCN",
                    "title": "Ripio Credit Network",
                    "slug": "ripio-credit-network",
                    "url": "https:\/\/cryptopanic.com\/news\/ripio-credit-network\/"
                }
            ],
            "id": 12135392,
            "url": "https:\/\/cryptopanic.com\/news\/12135392\/Now-you-can-find-RCN-on-the-DeFi-section-of-Coinmarketcap-Thanks-for-that-update-CoinMarketCap",
            "created_at": "2021-06-15T20:54:47Z",
            "votes": {
                "negative": 0,
                "positive": 0,
                "important": 0,
                "liked": 0,
                "disliked": 0,
                "lol": 0,
                "toxic": 0,
                "saved": 0,
                "comments": 0
            }
        },
        {
            "kind": "news",
            "domain": "@RCNFinance",
            "source": {
                "title": "Ripio Credit Network Twitter",
                "region": "en",
                "domain": "twitter.com",
                "path": "@rcnfinance"
            },
            "title": "A new RCN Monthly Recap is here!  May saw a New Dashboard on the Credit Marketplace \ufe0f, and advances in @0xPolygon\u2026",
            "published_at": "2021-06-04T20:11:59Z",
            "slug": "A-new-RCN-Monthly-Recap-is-here-May-saw-a-New-Dashboard-on-the-Credit-Marketplace-and-advances-in-0xPolygon",
            "currencies": [
                {
                    "code": "RCN",
                    "title": "Ripio Credit Network",
                    "slug": "ripio-credit-network",
                    "url": "https:\/\/cryptopanic.com\/news\/ripio-credit-network\/"
                }
            ],
            "id": 12059806,
            "url": "https:\/\/cryptopanic.com\/news\/12059806\/A-new-RCN-Monthly-Recap-is-here-May-saw-a-New-Dashboard-on-the-Credit-Marketplace-and-advances-in-0xPolygon",
            "created_at": "2021-06-04T20:11:59Z",
            "votes": {
                "negative": 0,
                "positive": 0,
                "important": 0,
                "liked": 0,
                "disliked": 0,
                "lol": 0,
                "toxic": 0,
                "saved": 0,
                "comments": 0
            }
        },
        {
            "kind": "news",
            "domain": "@RCNFinance",
            "source": {
                "title": "Ripio Credit Network Twitter",
                "region": "en",
                "domain": "twitter.com",
                "path": "@rcnfinance"
            },
            "title": "That's right!  RCN is available in the #BinanceSmartChain to Borrow, Lend and Manage with faster transactions and\u2026",
            "published_at": "2021-06-02T19:01:47Z",
            "slug": "Thats-right-RCN-is-available-in-the-BinanceSmartChain-to-Borrow-Lend-and-Manage-with-faster-transactions-and",
            "currencies": [
                {
                    "code": "RCN",
                    "title": "Ripio Credit Network",
                    "slug": "ripio-credit-network",
                    "url": "https:\/\/cryptopanic.com\/news\/ripio-credit-network\/"
                }
            ],
            "id": 12045795,
            "url": "https:\/\/cryptopanic.com\/news\/12045795\/Thats-right-RCN-is-available-in-the-BinanceSmartChain-to-Borrow-Lend-and-Manage-with-faster-transactions-and",
            "created_at": "2021-06-02T19:01:47Z",
            "votes": {
                "negative": 0,
                "positive": 0,
                "important": 0,
                "liked": 0,
                "disliked": 0,
                "lol": 0,
                "toxic": 0,
                "saved": 0,
                "comments": 0
            }
        },
        {
            "kind": "news",
            "domain": "@RCNFinance",
            "source": {
                "title": "Ripio Credit Network Twitter",
                "region": "en",
                "domain": "twitter.com",
                "path": "@rcnfinance"
            },
            "title": "You can already find RCN in @dapp_com! \n\nCheck it here! ",
            "published_at": "2021-06-01T15:36:37Z",
            "slug": "You-can-already-find-RCN-in-dapp_com-Check-it-here",
            "currencies": [
                {
                    "code": "RCN",
                    "title": "Ripio Credit Network",
                    "slug": "ripio-credit-network",
                    "url": "https:\/\/cryptopanic.com\/news\/ripio-credit-network\/"
                }
            ],
            "id": 12039295,
            "url": "https:\/\/cryptopanic.com\/news\/12039295\/You-can-already-find-RCN-in-dapp_com-Check-it-here",
            "created_at": "2021-06-01T15:36:37Z",
            "votes": {
                "negative": 0,
                "positive": 0,
                "important": 0,
                "liked": 0,
                "disliked": 0,
                "lol": 0,
                "toxic": 0,
                "saved": 0,
                "comments": 0
            }
        },
        {
            "kind": "news",
            "domain": "@RCNFinance",
            "source": {
                "title": "Ripio Credit Network Twitter",
                "region": "en",
                "domain": "twitter.com",
                "path": "@rcnfinance"
            },
            "title": "Thank you @CoinMarketCap for making RCN one of the first early adopters of your Self-Reporting Dashboard! ",
            "published_at": "2021-05-28T13:42:51Z",
            "slug": "Thank-you-CoinMarketCap-for-making-RCN-one-of-the-first-early-adopters-of-your-Self-Reporting-Dashboard",
            "currencies": [
                {
                    "code": "RCN",
                    "title": "Ripio Credit Network",
                    "slug": "ripio-credit-network",
                    "url": "https:\/\/cryptopanic.com\/news\/ripio-credit-network\/"
                }
            ],
            "id": 12020993,
            "url": "https:\/\/cryptopanic.com\/news\/12020993\/Thank-you-CoinMarketCap-for-making-RCN-one-of-the-first-early-adopters-of-your-Self-Reporting-Dashboard",
            "created_at": "2021-05-28T13:42:51Z",
            "votes": {
                "negative": 0,
                "positive": 0,
                "important": 0,
                "liked": 0,
                "disliked": 0,
                "lol": 0,
                "toxic": 0,
                "saved": 0,
                "comments": 0
            }
        },
        {
            "kind": "news",
            "domain": "@RCNFinance",
            "source": {
                "title": "Ripio Credit Network Twitter",
                "region": "en",
                "domain": "twitter.com",
                "path": "@rcnfinance"
            },
            "title": "RCN is pleased to announce a new Loans Dashboard!  Where users can manage all their loans borrowed or funded in on\u2026",
            "published_at": "2021-05-26T20:07:34Z",
            "slug": "RCN-is-pleased-to-announce-a-new-Loans-Dashboard-Where-users-can-manage-all-their-loans-borrowed-or-funded-in-on",
            "currencies": [
                {
                    "code": "RCN",
                    "title": "Ripio Credit Network",
                    "slug": "ripio-credit-network",
                    "url": "https:\/\/cryptopanic.com\/news\/ripio-credit-network\/"
                }
            ],
            "id": 12008863,
            "url": "https:\/\/cryptopanic.com\/news\/12008863\/RCN-is-pleased-to-announce-a-new-Loans-Dashboard-Where-users-can-manage-all-their-loans-borrowed-or-funded-in-on",
            "created_at": "2021-05-26T20:07:34Z",
            "votes": {
                "negative": 0,
                "positive": 0,
                "important": 0,
                "liked": 0,
                "disliked": 0,
                "lol": 0,
                "toxic": 0,
                "saved": 0,
                "comments": 0
            }
        },
        {
            "kind": "news",
            "domain": "@RCNFinance",
            "source": {
                "title": "Ripio Credit Network Twitter",
                "region": "en",
                "domain": "twitter.com",
                "path": "@rcnfinance"
            },
            "title": "Hi @CoinMarketCap! RCN would like to register two emails to manage RCN's self-reporting das\u2026",
            "published_at": "2021-05-17T18:11:08Z",
            "slug": "Hi-CoinMarketCap-RCN-would-like-to-register-two-emails-to-manage-RCNs-self-reporting-das",
            "currencies": [
                {
                    "code": "RCN",
                    "title": "Ripio Credit Network",
                    "slug": "ripio-credit-network",
                    "url": "https:\/\/cryptopanic.com\/news\/ripio-credit-network\/"
                }
            ],
            "id": 11956909,
            "url": "https:\/\/cryptopanic.com\/news\/11956909\/Hi-CoinMarketCap-RCN-would-like-to-register-two-emails-to-manage-RCNs-self-reporting-das",
            "created_at": "2021-05-17T18:11:08Z",
            "votes": {
                "negative": 0,
                "positive": 0,
                "important": 0,
                "liked": 0,
                "disliked": 0,
                "lol": 0,
                "toxic": 0,
                "saved": 0,
                "comments": 0
            }
        },
        {
            "kind": "news",
            "domain": "@RCNFinance",
            "source": {
                "title": "Ripio Credit Network Twitter",
                "region": "en",
                "domain": "twitter.com",
                "path": "@rcnfinance"
            },
            "title": "Thanks to @chainlink's price feed that RCN can offer ARS denominated #DeFi Loans. Having the great opportunity to o\u2026",
            "published_at": "2021-05-13T13:17:28Z",
            "slug": "Thanks-to-chainlinks-price-feed-that-RCN-can-offer-ARS-denominated-DeFi-Loans-Having-the-great-opportunity-to-o",
            "currencies": [
                {
                    "code": "RCN",
                    "title": "Ripio Credit Network",
                    "slug": "ripio-credit-network",
                    "url": "https:\/\/cryptopanic.com\/news\/ripio-credit-network\/"
                }
            ],
            "id": 11932614,
            "url": "https:\/\/cryptopanic.com\/news\/11932614\/Thanks-to-chainlinks-price-feed-that-RCN-can-offer-ARS-denominated-DeFi-Loans-Having-the-great-opportunity-to-o",
            "created_at": "2021-05-13T13:17:28Z",
            "votes": {
                "negative": 0,
                "positive": 0,
                "important": 0,
                "liked": 0,
                "disliked": 0,
                "lol": 0,
                "toxic": 0,
                "saved": 0,
                "comments": 0
            }
        },
        {
            "kind": "news",
            "domain": "@RCNFinance",
            "source": {
                "title": "Ripio Credit Network Twitter",
                "region": "en",
                "domain": "twitter.com",
                "path": "@rcnfinance"
            },
            "title": "The new RCN's Roadmap is here!  It contemplates 4 key development areas:\n\n Fiat-denominated Loans\n Accessibility\u2026",
            "published_at": "2021-05-12T15:07:09Z",
            "slug": "The-new-RCNs-Roadmap-is-here-It-contemplates-4-key-development-areas-Fiat-denominated-Loans-Accessibility",
            "currencies": [
                {
                    "code": "RCN",
                    "title": "Ripio Credit Network",
                    "slug": "ripio-credit-network",
                    "url": "https:\/\/cryptopanic.com\/news\/ripio-credit-network\/"
                }
            ],
            "id": 11925785,
            "url": "https:\/\/cryptopanic.com\/news\/11925785\/The-new-RCNs-Roadmap-is-here-It-contemplates-4-key-development-areas-Fiat-denominated-Loans-Accessibility",
            "created_at": "2021-05-12T15:07:09Z",
            "votes": {
                "negative": 0,
                "positive": 0,
                "important": 0,
                "liked": 0,
                "disliked": 0,
                "lol": 0,
                "toxic": 0,
                "saved": 0,
                "comments": 0
            }
        }
    ]
}
