{
    "count": 200,
    "next": "https:\/\/cryptopanic.com\/api\/v1\/posts\/?auth_token=01c356e89ffc1b8eba2127c81fc8c66ee0eace75&kind=news&currencies=FIDA&page=2",
    "previous": null,
    "results": [
        {
            "kind": "news",
            "domain": "@snsdids",
            "source": {
                "title": "Bonfida Twitter",
                "region": "en",
                "domain": "twitter.com",
                "path": "@snsdids"
            },
            "title": "RT @bonfida: 1\/A logistics check on your SNS profile page\n\n What's under \"collection\"?\n How to use \"bookmarked\"\n Explanation of \"offe\u2026",
            "published_at": "2023-07-11T11:39:48Z",
            "slug": "RT-bonfida-1A-logistics-check-on-your-SNS-profile-page-Whats-under-collection-How-to-use-bookmarked-Explanation-of-offe",
            "currencies": [
                {
                    "code": "FIDA",
                    "title": "Bonfida",
                    "slug": "bonfida",
                    "url": "https:\/\/cryptopanic.com\/news\/bonfida\/"
                }
            ],
            "id": 18763073,
            "url": "https:\/\/cryptopanic.com\/news\/18763073\/RT-bonfida-1A-logistics-check-on-your-SNS-profile-page-Whats-under-collection-How-to-use-bookmarked-Explanation-of-offe",
            "created_at": "2023-07-11T11:39:48Z",
            "votes": {
                "negative": 0,
                "positive": 0,
                "important": 0,
                "liked": 0,
                "disliked": 0,
                "lol": 0,
                "toxic": 0,
                "saved": 0,
                "comments": 0
            }
        },
        {
            "kind": "news",
            "domain": "@snsdids",
            "source": {
                "title": "Bonfida Twitter",
                "region": "en",
                "domain": "twitter.com",
                "path": "@snsdids"
            },
            "title": "RT @bonfida: The next round of cAirdrops will commence on the 15th of June\ud83e\ude82 \n\nHope you guys have started placing your category bids. Reward\u2026",
            "published_at": "2023-07-10T19:00:15Z",
            "slug": "RT-bonfida-The-next-round-of-cAirdrops-will-commence-on-the-15th-of-June-Hope-you-guys-have-started-placing-your-category-bids-Reward",
            "currencies": [
                {
                    "code": "FIDA",
                    "title": "Bonfida",
                    "slug": "bonfida",
                    "url": "https:\/\/cryptopanic.com\/news\/bonfida\/"
                }
            ],
            "id": 18754906,
            "url": "https:\/\/cryptopanic.com\/news\/18754906\/RT-bonfida-The-next-round-of-cAirdrops-will-commence-on-the-15th-of-June-Hope-you-guys-have-started-placing-your-category-bids-Reward",
            "created_at": "2023-07-10T19:00:15Z",
            "votes": {
                "negative": 0,
                "positive": 0,
                "important": 0,
                "liked": 0,
                "disliked": 0,
                "lol": 0,
                "toxic": 0,
                "saved": 0,
                "comments": 0
            }
        },
        {
            "kind": "news",
            "domain": "@snsdids",
            "source": {
                "title": "Bonfida Twitter",
                "region": "en",
                "domain": "twitter.com",
                "path": "@snsdids"
            },
            "title": "RT @bonfida: Have you participated in our SNS IP 2 proposal? \n\nWe're handling the Record V2 protocol and need input from everyone. No, you\u2026",
            "published_at": "2023-07-10T14:07:29Z",
            "slug": "RT-bonfida-Have-you-participated-in-our-SNS-IP-2-proposal-Were-handling-the-Record-V2-protocol-and-need-input-from-everyone-No-you",
            "currencies": [
                {
                    "code": "FIDA",
                    "title": "Bonfida",
                    "slug": "bonfida",
                    "url": "https:\/\/cryptopanic.com\/news\/bonfida\/"
                }
            ],
            "id": 18754907,
            "url": "https:\/\/cryptopanic.com\/news\/18754907\/RT-bonfida-Have-you-participated-in-our-SNS-IP-2-proposal-Were-handling-the-Record-V2-protocol-and-need-input-from-everyone-No-you",
            "created_at": "2023-07-10T14:07:29Z",
            "votes": {
                "negative": 0,
                "positive": 0,
                "important": 0,
                "liked": 0,
                "disliked": 0,
                "lol": 0,
                "toxic": 0,
                "saved": 0,
                "comments": 0
            }
        },
        {
            "kind": "news",
            "domain": "@snsdids",
            "source": {
                "title": "Bonfida Twitter",
                "region": "en",
                "domain": "twitter.com",
                "path": "@snsdids"
            },
            "title": "RT @bonfida: You know what time it is \ud83e\udef4 M2M Stats",
            "published_at": "2023-07-10T11:02:53Z",
            "slug": "RT-bonfida-You-know-what-time-it-is-M2M-Stats",
            "currencies": [
                {
                    "code": "FIDA",
                    "title": "Bonfida",
                    "slug": "bonfida",
                    "url": "https:\/\/cryptopanic.com\/news\/bonfida\/"
                }
            ],
            "id": 18754908,
            "url": "https:\/\/cryptopanic.com\/news\/18754908\/RT-bonfida-You-know-what-time-it-is-M2M-Stats",
            "created_at": "2023-07-10T11:02:53Z",
            "votes": {
                "negative": 0,
                "positive": 0,
                "important": 0,
                "liked": 0,
                "disliked": 0,
                "lol": 0,
                "toxic": 0,
                "saved": 0,
                "comments": 0
            }
        },
        {
            "kind": "news",
            "domain": "@snsdids",
            "source": {
                "title": "Bonfida Twitter",
                "region": "en",
                "domain": "twitter.com",
                "path": "@snsdids"
            },
            "title": "RT @bonfida: GM \ufe0f\n\nAnother day, another slay",
            "published_at": "2023-07-10T05:19:41Z",
            "slug": "RT-bonfida-GM-Another-day-another-slay",
            "currencies": [
                {
                    "code": "FIDA",
                    "title": "Bonfida",
                    "slug": "bonfida",
                    "url": "https:\/\/cryptopanic.com\/news\/bonfida\/"
                }
            ],
            "id": 18749024,
            "url": "https:\/\/cryptopanic.com\/news\/18749024\/RT-bonfida-GM-Another-day-another-slay",
            "created_at": "2023-07-10T05:19:41Z",
            "votes": {
                "negative": 0,
                "positive": 0,
                "important": 0,
                "liked": 0,
                "disliked": 0,
                "lol": 0,
                "toxic": 0,
                "saved": 0,
                "comments": 0
            }
        },
        {
            "kind": "news",
            "domain": "@snsdids",
            "source": {
                "title": "Bonfida Twitter",
                "region": "en",
                "domain": "twitter.com",
                "path": "@snsdids"
            },
            "title": "RT @j_hefner3: The @bonfida team keeps delivering week after week",
            "published_at": "2023-07-09T15:09:41Z",
            "slug": "RT-j_hefner3-The-bonfida-team-keeps-delivering-week-after-week",
            "currencies": [
                {
                    "code": "FIDA",
                    "title": "Bonfida",
                    "slug": "bonfida",
                    "url": "https:\/\/cryptopanic.com\/news\/bonfida\/"
                }
            ],
            "id": 18749025,
            "url": "https:\/\/cryptopanic.com\/news\/18749025\/RT-j_hefner3-The-bonfida-team-keeps-delivering-week-after-week",
            "created_at": "2023-07-09T15:09:41Z",
            "votes": {
                "negative": 0,
                "positive": 0,
                "important": 0,
                "liked": 0,
                "disliked": 0,
                "lol": 0,
                "toxic": 0,
                "saved": 0,
                "comments": 0
            }
        },
        {
            "kind": "news",
            "domain": "@snsdids",
            "source": {
                "title": "Bonfida Twitter",
                "region": "en",
                "domain": "twitter.com",
                "path": "@snsdids"
            },
            "title": "RT @bonfida: SNS in a week \n\nGenerate domains with the new AI feature \ud83e\udd16\nBulk edit &amp; delist category bids \nSNS Manager on @xNFT_Backpack\u2026",
            "published_at": "2023-07-09T13:49:48Z",
            "slug": "RT-bonfida-SNS-in-a-week-Generate-domains-with-the-new-AI-feature-Bulk-edit-amp-delist-category-bids-SNS-Manager-on-xNFT_Backpack",
            "currencies": [
                {
                    "code": "FIDA",
                    "title": "Bonfida",
                    "slug": "bonfida",
                    "url": "https:\/\/cryptopanic.com\/news\/bonfida\/"
                }
            ],
            "id": 18749026,
            "url": "https:\/\/cryptopanic.com\/news\/18749026\/RT-bonfida-SNS-in-a-week-Generate-domains-with-the-new-AI-feature-Bulk-edit-amp-delist-category-bids-SNS-Manager-on-xNFT_Backpack",
            "created_at": "2023-07-09T13:49:48Z",
            "votes": {
                "negative": 0,
                "positive": 0,
                "important": 0,
                "liked": 0,
                "disliked": 0,
                "lol": 0,
                "toxic": 0,
                "saved": 0,
                "comments": 0
            }
        },
        {
            "kind": "news",
            "domain": "@snsdids",
            "source": {
                "title": "Bonfida Twitter",
                "region": "en",
                "domain": "twitter.com",
                "path": "@snsdids"
            },
            "title": "RT @bonfida: \ufe0f Did you know we have a comprehensive wallet guide for integrating .sol domain names? \n\nIt's an easy integration that can el\u2026",
            "published_at": "2023-07-08T14:06:17Z",
            "slug": "RT-bonfida-Did-you-know-we-have-a-comprehensive-wallet-guide-for-integrating-sol-domain-names-Its-an-easy-integration-that-can-el",
            "currencies": [
                {
                    "code": "FIDA",
                    "title": "Bonfida",
                    "slug": "bonfida",
                    "url": "https:\/\/cryptopanic.com\/news\/bonfida\/"
                }
            ],
            "id": 18744877,
            "url": "https:\/\/cryptopanic.com\/news\/18744877\/RT-bonfida-Did-you-know-we-have-a-comprehensive-wallet-guide-for-integrating-sol-domain-names-Its-an-easy-integration-that-can-el",
            "created_at": "2023-07-08T14:06:17Z",
            "votes": {
                "negative": 0,
                "positive": 0,
                "important": 0,
                "liked": 0,
                "disliked": 0,
                "lol": 0,
                "toxic": 0,
                "saved": 0,
                "comments": 0
            }
        },
        {
            "kind": "news",
            "domain": "@snsdids",
            "source": {
                "title": "Bonfida Twitter",
                "region": "en",
                "domain": "twitter.com",
                "path": "@snsdids"
            },
            "title": "RT @bonfida: .sol domainoors help buyers &amp; your friends find you!\n\nYou may have a .sol you forgot about that could be someone else's prized\u2026",
            "published_at": "2023-07-07T13:24:37Z",
            "slug": "RT-bonfida-sol-domainoors-help-buyers-amp-your-friends-find-you-You-may-have-a-sol-you-forgot-about-that-could-be-someone-elses-prized",
            "currencies": [
                {
                    "code": "FIDA",
                    "title": "Bonfida",
                    "slug": "bonfida",
                    "url": "https:\/\/cryptopanic.com\/news\/bonfida\/"
                }
            ],
            "id": 18739126,
            "url": "https:\/\/cryptopanic.com\/news\/18739126\/RT-bonfida-sol-domainoors-help-buyers-amp-your-friends-find-you-You-may-have-a-sol-you-forgot-about-that-could-be-someone-elses-prized",
            "created_at": "2023-07-07T13:24:37Z",
            "votes": {
                "negative": 0,
                "positive": 0,
                "important": 0,
                "liked": 0,
                "disliked": 0,
                "lol": 0,
                "toxic": 0,
                "saved": 0,
                "comments": 0
            }
        },
        {
            "kind": "news",
            "domain": "@snsdids",
            "source": {
                "title": "Bonfida Twitter",
                "region": "en",
                "domain": "twitter.com",
                "path": "@snsdids"
            },
            "title": "RT @bonfida: GM. Happy Friday ",
            "published_at": "2023-07-07T05:48:54Z",
            "slug": "RT-bonfida-GM-Happy-Friday",
            "currencies": [
                {
                    "code": "FIDA",
                    "title": "Bonfida",
                    "slug": "bonfida",
                    "url": "https:\/\/cryptopanic.com\/news\/bonfida\/"
                }
            ],
            "id": 18731295,
            "url": "https:\/\/cryptopanic.com\/news\/18731295\/RT-bonfida-GM-Happy-Friday",
            "created_at": "2023-07-07T05:48:54Z",
            "votes": {
                "negative": 0,
                "positive": 0,
                "important": 0,
                "liked": 0,
                "disliked": 0,
                "lol": 0,
                "toxic": 0,
                "saved": 0,
                "comments": 0
            }
        },
        {
            "kind": "news",
            "domain": "@snsdids",
            "source": {
                "title": "Bonfida Twitter",
                "region": "en",
                "domain": "twitter.com",
                "path": "@snsdids"
            },
            "title": "RT @bonfida: Should probably add Thread handles to .sol domain records now \ud83e\udd14\n\nOr better enabling claiming one for your pubkey\u2026",
            "published_at": "2023-07-06T14:03:24Z",
            "slug": "RT-bonfida-Should-probably-add-Thread-handles-to-sol-domain-records-now-Or-better-enabling-claiming-one-for-your-pubkey",
            "currencies": [
                {
                    "code": "FIDA",
                    "title": "Bonfida",
                    "slug": "bonfida",
                    "url": "https:\/\/cryptopanic.com\/news\/bonfida\/"
                }
            ],
            "id": 18731296,
            "url": "https:\/\/cryptopanic.com\/news\/18731296\/RT-bonfida-Should-probably-add-Thread-handles-to-sol-domain-records-now-Or-better-enabling-claiming-one-for-your-pubkey",
            "created_at": "2023-07-06T14:03:24Z",
            "votes": {
                "negative": 0,
                "positive": 0,
                "important": 0,
                "liked": 0,
                "disliked": 0,
                "lol": 0,
                "toxic": 0,
                "saved": 0,
                "comments": 0
            }
        },
        {
            "kind": "news",
            "domain": "@snsdids",
            "source": {
                "title": "Bonfida Twitter",
                "region": "en",
                "domain": "twitter.com",
                "path": "@snsdids"
            },
            "title": "RT @bonfida: Can\u2019t stop won\u2019t stop. @xNFT_Backpack SNS Manager is now available in Turkish \n\nThis is thanks to one of our OG community con\u2026",
            "published_at": "2023-07-06T12:16:25Z",
            "slug": "RT-bonfida-Cant-stop-wont-stop-xNFT_Backpack-SNS-Manager-is-now-available-in-Turkish-This-is-thanks-to-one-of-our-OG-community-con",
            "currencies": [
                {
                    "code": "FIDA",
                    "title": "Bonfida",
                    "slug": "bonfida",
                    "url": "https:\/\/cryptopanic.com\/news\/bonfida\/"
                }
            ],
            "id": 18731297,
            "url": "https:\/\/cryptopanic.com\/news\/18731297\/RT-bonfida-Cant-stop-wont-stop-xNFT_Backpack-SNS-Manager-is-now-available-in-Turkish-This-is-thanks-to-one-of-our-OG-community-con",
            "created_at": "2023-07-06T12:16:25Z",
            "votes": {
                "negative": 0,
                "positive": 0,
                "important": 0,
                "liked": 0,
                "disliked": 0,
                "lol": 0,
                "toxic": 0,
                "saved": 0,
                "comments": 0
            }
        },
        {
            "kind": "news",
            "domain": "@snsdids",
            "source": {
                "title": "Bonfida Twitter",
                "region": "en",
                "domain": "twitter.com",
                "path": "@snsdids"
            },
            "title": "RT @bonfida: that\u2019s the thread. are we doing it right?\n\nall gms get a follow",
            "published_at": "2023-07-06T07:11:37Z",
            "slug": "RT-bonfida-thats-the-thread-are-we-doing-it-right-all-gms-get-a-follow",
            "currencies": [
                {
                    "code": "FIDA",
                    "title": "Bonfida",
                    "slug": "bonfida",
                    "url": "https:\/\/cryptopanic.com\/news\/bonfida\/"
                }
            ],
            "id": 18731298,
            "url": "https:\/\/cryptopanic.com\/news\/18731298\/RT-bonfida-thats-the-thread-are-we-doing-it-right-all-gms-get-a-follow",
            "created_at": "2023-07-06T07:11:37Z",
            "votes": {
                "negative": 0,
                "positive": 0,
                "important": 0,
                "liked": 0,
                "disliked": 0,
                "lol": 0,
                "toxic": 0,
                "saved": 0,
                "comments": 0
            }
        },
        {
            "kind": "news",
            "domain": "@snsdids",
            "source": {
                "title": "Bonfida Twitter",
                "region": "en",
                "domain": "twitter.com",
                "path": "@snsdids"
            },
            "title": "RT @bonfida: 1\/\ufe0f @solana Name Service Improvement Protocol 2\n\nWe want to introduce domain records V2 to handle stale records &amp; authentici\u2026",
            "published_at": "2023-07-05T14:14:32Z",
            "slug": "RT-bonfida-1-solana-Name-Service-Improvement-Protocol-2-We-want-to-introduce-domain-records-V2-to-handle-stale-records-amp-authentici",
            "currencies": [
                {
                    "code": "FIDA",
                    "title": "Bonfida",
                    "slug": "bonfida",
                    "url": "https:\/\/cryptopanic.com\/news\/bonfida\/"
                }
            ],
            "id": 18722698,
            "url": "https:\/\/cryptopanic.com\/news\/18722698\/RT-bonfida-1-solana-Name-Service-Improvement-Protocol-2-We-want-to-introduce-domain-records-V2-to-handle-stale-records-amp-authentici",
            "created_at": "2023-07-05T14:14:32Z",
            "votes": {
                "negative": 0,
                "positive": 0,
                "important": 0,
                "liked": 0,
                "disliked": 0,
                "lol": 0,
                "toxic": 0,
                "saved": 0,
                "comments": 0
            }
        },
        {
            "kind": "news",
            "domain": "@snsdids",
            "source": {
                "title": "Bonfida Twitter",
                "region": "en",
                "domain": "twitter.com",
                "path": "@snsdids"
            },
            "title": "RT @bonfida: Busy taking a look at the applications for the SNS SDK translations on @SuperteamEarn \n\nDon't miss your chance to apply! Tra\u2026",
            "published_at": "2023-07-05T09:51:18Z",
            "slug": "RT-bonfida-Busy-taking-a-look-at-the-applications-for-the-SNS-SDK-translations-on-SuperteamEarn-Dont-miss-your-chance-to-apply-Tra",
            "currencies": [
                {
                    "code": "FIDA",
                    "title": "Bonfida",
                    "slug": "bonfida",
                    "url": "https:\/\/cryptopanic.com\/news\/bonfida\/"
                }
            ],
            "id": 18722699,
            "url": "https:\/\/cryptopanic.com\/news\/18722699\/RT-bonfida-Busy-taking-a-look-at-the-applications-for-the-SNS-SDK-translations-on-SuperteamEarn-Dont-miss-your-chance-to-apply-Tra",
            "created_at": "2023-07-05T09:51:18Z",
            "votes": {
                "negative": 0,
                "positive": 0,
                "important": 0,
                "liked": 0,
                "disliked": 0,
                "lol": 0,
                "toxic": 0,
                "saved": 0,
                "comments": 0
            }
        },
        {
            "kind": "news",
            "domain": "@snsdids",
            "source": {
                "title": "Bonfida Twitter",
                "region": "en",
                "domain": "twitter.com",
                "path": "@snsdids"
            },
            "title": "RT @santadotsol: The SNS sale that surprised me...\n.SOL Domain Tale #1 \n\nYes, I'm talking about - is a generic noun really wor\u2026",
            "published_at": "2023-07-05T05:47:39Z",
            "slug": "RT-santadotsol-The-SNS-sale-that-surprised-me-SOL-Domain-Tale-1-Yes-Im-talking-about-is-a-generic-noun-really-wor",
            "currencies": [
                {
                    "code": "FIDA",
                    "title": "Bonfida",
                    "slug": "bonfida",
                    "url": "https:\/\/cryptopanic.com\/news\/bonfida\/"
                }
            ],
            "id": 18715109,
            "url": "https:\/\/cryptopanic.com\/news\/18715109\/RT-santadotsol-The-SNS-sale-that-surprised-me-SOL-Domain-Tale-1-Yes-Im-talking-about-is-a-generic-noun-really-wor",
            "created_at": "2023-07-05T05:47:39Z",
            "votes": {
                "negative": 0,
                "positive": 0,
                "important": 0,
                "liked": 0,
                "disliked": 0,
                "lol": 0,
                "toxic": 0,
                "saved": 0,
                "comments": 0
            }
        },
        {
            "kind": "news",
            "domain": "@snsdids",
            "source": {
                "title": "Bonfida Twitter",
                "region": "en",
                "domain": "twitter.com",
                "path": "@snsdids"
            },
            "title": "RT @bonfida: Get in that building MOoOod\n\nGM ",
            "published_at": "2023-07-05T05:47:18Z",
            "slug": "RT-bonfida-Get-in-that-building-MOoOod-GM",
            "currencies": [
                {
                    "code": "FIDA",
                    "title": "Bonfida",
                    "slug": "bonfida",
                    "url": "https:\/\/cryptopanic.com\/news\/bonfida\/"
                }
            ],
            "id": 18715110,
            "url": "https:\/\/cryptopanic.com\/news\/18715110\/RT-bonfida-Get-in-that-building-MOoOod-GM",
            "created_at": "2023-07-05T05:47:18Z",
            "votes": {
                "negative": 0,
                "positive": 0,
                "important": 0,
                "liked": 0,
                "disliked": 0,
                "lol": 0,
                "toxic": 0,
                "saved": 0,
                "comments": 0
            }
        },
        {
            "kind": "news",
            "domain": "@snsdids",
            "source": {
                "title": "Bonfida Twitter",
                "region": "en",
                "domain": "twitter.com",
                "path": "@snsdids"
            },
            "title": "RT @bonfida: Small development update \n\nYou can now edit all collection bids in bulk under your profile. View profile \ufe0f Offers \ufe0f Categor\u2026",
            "published_at": "2023-07-04T14:26:28Z",
            "slug": "RT-bonfida-Small-development-update-You-can-now-edit-all-collection-bids-in-bulk-under-your-profile-View-profile-Offers-Categor",
            "currencies": [
                {
                    "code": "FIDA",
                    "title": "Bonfida",
                    "slug": "bonfida",
                    "url": "https:\/\/cryptopanic.com\/news\/bonfida\/"
                }
            ],
            "id": 18715111,
            "url": "https:\/\/cryptopanic.com\/news\/18715111\/RT-bonfida-Small-development-update-You-can-now-edit-all-collection-bids-in-bulk-under-your-profile-View-profile-Offers-Categor",
            "created_at": "2023-07-04T14:26:28Z",
            "votes": {
                "negative": 0,
                "positive": 0,
                "important": 0,
                "liked": 0,
                "disliked": 0,
                "lol": 0,
                "toxic": 0,
                "saved": 0,
                "comments": 0
            }
        },
        {
            "kind": "news",
            "domain": "@snsdids",
            "source": {
                "title": "Bonfida Twitter",
                "region": "en",
                "domain": "twitter.com",
                "path": "@snsdids"
            },
            "title": "RT @bonfida: 1\/GENERATE .SOL NAMES WITH AI \ud83e\udd16\n\nAre all of the domain names you can think of registered? Perhaps you are just not feeling tha\u2026",
            "published_at": "2023-07-04T10:04:41Z",
            "slug": "RT-bonfida-1GENERATE-SOL-NAMES-WITH-AI-Are-all-of-the-domain-names-you-can-think-of-registered-Perhaps-you-are-just-not-feeling-tha",
            "currencies": [
                {
                    "code": "FIDA",
                    "title": "Bonfida",
                    "slug": "bonfida",
                    "url": "https:\/\/cryptopanic.com\/news\/bonfida\/"
                }
            ],
            "id": 18715112,
            "url": "https:\/\/cryptopanic.com\/news\/18715112\/RT-bonfida-1GENERATE-SOL-NAMES-WITH-AI-Are-all-of-the-domain-names-you-can-think-of-registered-Perhaps-you-are-just-not-feeling-tha",
            "created_at": "2023-07-04T10:04:41Z",
            "votes": {
                "negative": 0,
                "positive": 0,
                "important": 0,
                "liked": 0,
                "disliked": 0,
                "lol": 0,
                "toxic": 0,
                "saved": 0,
                "comments": 0
            }
        },
        {
            "kind": "news",
            "domain": "@snsdids",
            "source": {
                "title": "Bonfida Twitter",
                "region": "en",
                "domain": "twitter.com",
                "path": "@snsdids"
            },
            "title": "RT @bonfida: Everyone should have a floating GM above their bed\n\nAnyhow, GM ",
            "published_at": "2023-07-04T06:52:50Z",
            "slug": "RT-bonfida-Everyone-should-have-a-floating-GM-above-their-bed-Anyhow-GM",
            "currencies": [
                {
                    "code": "FIDA",
                    "title": "Bonfida",
                    "slug": "bonfida",
                    "url": "https:\/\/cryptopanic.com\/news\/bonfida\/"
                }
            ],
            "id": 18715113,
            "url": "https:\/\/cryptopanic.com\/news\/18715113\/RT-bonfida-Everyone-should-have-a-floating-GM-above-their-bed-Anyhow-GM",
            "created_at": "2023-07-04T06:52:50Z",
            "votes": {
                "negative": 0,
                "positive": 0,
                "important": 0,
                "liked": 0,
                "disliked": 0,
                "lol": 0,
                "toxic": 0,
                "saved": 0,
                "comments": 0
            }
        }
    ]
}
