{
    "count": 200,
    "next": "https:\/\/cryptopanic.com\/api\/v1\/posts\/?auth_token=01c356e89ffc1b8eba2127c81fc8c66ee0eace75&kind=news&currencies=MTL&page=2",
    "previous": null,
    "results": [
        {
            "kind": "news",
            "domain": "@MarshallHayner",
            "source": {
                "title": "CEO of Metal",
                "region": "en",
                "domain": "twitter.com",
                "path": "@marshallhayner"
            },
            "title": "RT @alvosec: The #Web3 community is desperately in need of this service. #Security",
            "published_at": "2023-07-12T01:05:53Z",
            "slug": "RT-alvosec-The-Web3-community-is-desperately-in-need-of-this-service-Security",
            "currencies": [
                {
                    "code": "MTL",
                    "title": "Metal DAO",
                    "slug": "metal",
                    "url": "https:\/\/cryptopanic.com\/news\/metal\/"
                }
            ],
            "id": 18763151,
            "url": "https:\/\/cryptopanic.com\/news\/18763151\/RT-alvosec-The-Web3-community-is-desperately-in-need-of-this-service-Security",
            "created_at": "2023-07-12T01:05:53Z",
            "votes": {
                "negative": 0,
                "positive": 0,
                "important": 0,
                "liked": 0,
                "disliked": 0,
                "lol": 0,
                "toxic": 0,
                "saved": 0,
                "comments": 0
            }
        },
        {
            "kind": "news",
            "domain": "@MarshallHayner",
            "source": {
                "title": "CEO of Metal",
                "region": "en",
                "domain": "twitter.com",
                "path": "@marshallhayner"
            },
            "title": "RT @ProtonLoan: Borrow $USDC using your favorite digital assets as collateral. \n\nInstant &amp; gas free transactions, powered by @ProtonXPR \n\nh\u2026",
            "published_at": "2023-07-12T01:05:04Z",
            "slug": "RT-ProtonLoan-Borrow-USDC-using-your-favorite-digital-assets-as-collateral-Instant-amp-gas-free-transactions-powered-by-ProtonXPR-h",
            "currencies": [
                {
                    "code": "MTL",
                    "title": "Metal DAO",
                    "slug": "metal",
                    "url": "https:\/\/cryptopanic.com\/news\/metal\/"
                }
            ],
            "id": 18763152,
            "url": "https:\/\/cryptopanic.com\/news\/18763152\/RT-ProtonLoan-Borrow-USDC-using-your-favorite-digital-assets-as-collateral-Instant-amp-gas-free-transactions-powered-by-ProtonXPR-h",
            "created_at": "2023-07-12T01:05:04Z",
            "votes": {
                "negative": 0,
                "positive": 0,
                "important": 0,
                "liked": 0,
                "disliked": 0,
                "lol": 0,
                "toxic": 0,
                "saved": 0,
                "comments": 0
            }
        },
        {
            "kind": "news",
            "domain": "@MarshallHayner",
            "source": {
                "title": "CEO of Metal",
                "region": "en",
                "domain": "twitter.com",
                "path": "@marshallhayner"
            },
            "title": "You see a weird person at your door, so you let them inside? No? Then why would you click a weird link? Instead vis\u2026",
            "published_at": "2023-07-12T00:25:05Z",
            "slug": "You-see-a-weird-person-at-your-door-so-you-let-them-inside-No-Then-why-would-you-click-a-weird-link-Instead-vis",
            "currencies": [
                {
                    "code": "MTL",
                    "title": "Metal DAO",
                    "slug": "metal",
                    "url": "https:\/\/cryptopanic.com\/news\/metal\/"
                }
            ],
            "id": 18763153,
            "url": "https:\/\/cryptopanic.com\/news\/18763153\/You-see-a-weird-person-at-your-door-so-you-let-them-inside-No-Then-why-would-you-click-a-weird-link-Instead-vis",
            "created_at": "2023-07-12T00:25:05Z",
            "votes": {
                "negative": 0,
                "positive": 0,
                "important": 0,
                "liked": 0,
                "disliked": 0,
                "lol": 0,
                "toxic": 0,
                "saved": 0,
                "comments": 0
            }
        },
        {
            "kind": "news",
            "domain": "@MarshallHayner",
            "source": {
                "title": "CEO of Metal",
                "region": "en",
                "domain": "twitter.com",
                "path": "@marshallhayner"
            },
            "title": "RT @protondns:  Massive update for #ProtonDNS and #Web3 scanner\n\n DNS Servers: \n More protection against DNS Rebinding \n Improved false\u2026",
            "published_at": "2023-07-12T00:20:13Z",
            "slug": "RT-protondns-Massive-update-for-ProtonDNS-and-Web3-scanner-DNS-Servers-More-protection-against-DNS-Rebinding-Improved-false",
            "currencies": [
                {
                    "code": "MTL",
                    "title": "Metal DAO",
                    "slug": "metal",
                    "url": "https:\/\/cryptopanic.com\/news\/metal\/"
                }
            ],
            "id": 18763154,
            "url": "https:\/\/cryptopanic.com\/news\/18763154\/RT-protondns-Massive-update-for-ProtonDNS-and-Web3-scanner-DNS-Servers-More-protection-against-DNS-Rebinding-Improved-false",
            "created_at": "2023-07-12T00:20:13Z",
            "votes": {
                "negative": 0,
                "positive": 0,
                "important": 0,
                "liked": 0,
                "disliked": 0,
                "lol": 0,
                "toxic": 0,
                "saved": 0,
                "comments": 0
            }
        },
        {
            "kind": "news",
            "domain": "@MarshallHayner",
            "source": {
                "title": "CEO of Metal",
                "region": "en",
                "domain": "twitter.com",
                "path": "@marshallhayner"
            },
            "title": "RT @CatWorkers: Your Uber is here.",
            "published_at": "2023-07-11T22:20:05Z",
            "slug": "RT-CatWorkers-Your-Uber-is-here",
            "currencies": [
                {
                    "code": "MTL",
                    "title": "Metal DAO",
                    "slug": "metal",
                    "url": "https:\/\/cryptopanic.com\/news\/metal\/"
                }
            ],
            "id": 18763155,
            "url": "https:\/\/cryptopanic.com\/news\/18763155\/RT-CatWorkers-Your-Uber-is-here",
            "created_at": "2023-07-11T22:20:05Z",
            "votes": {
                "negative": 0,
                "positive": 0,
                "important": 0,
                "liked": 0,
                "disliked": 0,
                "lol": 0,
                "toxic": 0,
                "saved": 0,
                "comments": 0
            }
        },
        {
            "kind": "news",
            "domain": "@MarshallHayner",
            "source": {
                "title": "CEO of Metal",
                "region": "en",
                "domain": "twitter.com",
                "path": "@marshallhayner"
            },
            "title": "RT @WeAreMetallicus: Some would say long overdue, others would say perfect timing\u2026\n\n\u24c2\ufe0f\n\n@MarshallHayner #Metallicus",
            "published_at": "2023-07-11T17:52:47Z",
            "slug": "RT-WeAreMetallicus-Some-would-say-long-overdue-others-would-say-perfect-timing-M-MarshallHayner-Metallicus",
            "currencies": [
                {
                    "code": "MTL",
                    "title": "Metal DAO",
                    "slug": "metal",
                    "url": "https:\/\/cryptopanic.com\/news\/metal\/"
                }
            ],
            "id": 18763156,
            "url": "https:\/\/cryptopanic.com\/news\/18763156\/RT-WeAreMetallicus-Some-would-say-long-overdue-others-would-say-perfect-timing-M-MarshallHayner-Metallicus",
            "created_at": "2023-07-11T17:52:47Z",
            "votes": {
                "negative": 0,
                "positive": 0,
                "important": 0,
                "liked": 0,
                "disliked": 0,
                "lol": 0,
                "toxic": 0,
                "saved": 0,
                "comments": 0
            }
        },
        {
            "kind": "news",
            "domain": "@MarshallHayner",
            "source": {
                "title": "CEO of Metal",
                "region": "en",
                "domain": "twitter.com",
                "path": "@marshallhayner"
            },
            "title": "RT @WeAreMetallicus: We Are Metallicus | Paulo Donati\n\nCompliance, compliance &amp; then some more\u2026",
            "published_at": "2023-07-11T17:41:32Z",
            "slug": "RT-WeAreMetallicus-We-Are-Metallicus-Paulo-Donati-Compliance-compliance-amp-then-some-more",
            "currencies": [
                {
                    "code": "MTL",
                    "title": "Metal DAO",
                    "slug": "metal",
                    "url": "https:\/\/cryptopanic.com\/news\/metal\/"
                }
            ],
            "id": 18763157,
            "url": "https:\/\/cryptopanic.com\/news\/18763157\/RT-WeAreMetallicus-We-Are-Metallicus-Paulo-Donati-Compliance-compliance-amp-then-some-more",
            "created_at": "2023-07-11T17:41:32Z",
            "votes": {
                "negative": 0,
                "positive": 0,
                "important": 0,
                "liked": 0,
                "disliked": 0,
                "lol": 0,
                "toxic": 0,
                "saved": 0,
                "comments": 0
            }
        },
        {
            "kind": "news",
            "domain": "@MarshallHayner",
            "source": {
                "title": "CEO of Metal",
                "region": "en",
                "domain": "twitter.com",
                "path": "@marshallhayner"
            },
            "title": "RT @ProtonXPR: Depositing #USDC to Proton DEX? Consider @StellarORG \n\nUnlike Ethereum, Stellar offers near-instant transactions with minima\u2026",
            "published_at": "2023-07-11T17:37:37Z",
            "slug": "RT-ProtonXPR-Depositing-USDC-to-Proton-DEX-Consider-StellarORG-Unlike-Ethereum-Stellar-offers-near-instant-transactions-with-minima",
            "currencies": [
                {
                    "code": "MTL",
                    "title": "Metal DAO",
                    "slug": "metal",
                    "url": "https:\/\/cryptopanic.com\/news\/metal\/"
                },
                {
                    "code": "XLM",
                    "title": "Stellar",
                    "slug": "stellar",
                    "url": "https:\/\/cryptopanic.com\/news\/stellar\/"
                }
            ],
            "id": 18763158,
            "url": "https:\/\/cryptopanic.com\/news\/18763158\/RT-ProtonXPR-Depositing-USDC-to-Proton-DEX-Consider-StellarORG-Unlike-Ethereum-Stellar-offers-near-instant-transactions-with-minima",
            "created_at": "2023-07-11T17:37:37Z",
            "votes": {
                "negative": 0,
                "positive": 0,
                "important": 0,
                "liked": 0,
                "disliked": 0,
                "lol": 0,
                "toxic": 0,
                "saved": 0,
                "comments": 0
            }
        },
        {
            "kind": "news",
            "domain": "@metalpaysme",
            "source": {
                "title": "Metal Twitter",
                "region": "en",
                "domain": "twitter.com",
                "path": "@metalpaysme"
            },
            "title": "RT @metalpaysme: Buy #Bitcoin using the recurring buy feature \n\nMake a one time purchase or set to buy daily, weekly or monthly!",
            "published_at": "2023-07-11T17:31:27Z",
            "slug": "RT-metalpaysme-Buy-Bitcoin-using-the-recurring-buy-feature-Make-a-one-time-purchase-or-set-to-buy-daily-weekly-or-monthly",
            "currencies": [
                {
                    "code": "MTL",
                    "title": "Metal DAO",
                    "slug": "metal",
                    "url": "https:\/\/cryptopanic.com\/news\/metal\/"
                },
                {
                    "code": "XMD",
                    "title": "Metal Dollar",
                    "slug": "metal-dollar",
                    "url": "https:\/\/cryptopanic.com\/news\/metal-dollar\/"
                }
            ],
            "id": 18765719,
            "url": "https:\/\/cryptopanic.com\/news\/18765719\/RT-metalpaysme-Buy-Bitcoin-using-the-recurring-buy-feature-Make-a-one-time-purchase-or-set-to-buy-daily-weekly-or-monthly",
            "created_at": "2023-07-11T17:31:27Z",
            "votes": {
                "negative": 0,
                "positive": 0,
                "important": 0,
                "liked": 0,
                "disliked": 0,
                "lol": 0,
                "toxic": 0,
                "saved": 0,
                "comments": 0
            }
        },
        {
            "kind": "news",
            "domain": "@MarshallHayner",
            "source": {
                "title": "CEO of Metal",
                "region": "en",
                "domain": "twitter.com",
                "path": "@marshallhayner"
            },
            "title": "RT @engineers_feed: Today is the birthday of Nikola Tesla (10 July 1856 \u2013 7 January 1943), Serbian-American physicist and engineer. https:\/\u2026",
            "published_at": "2023-07-11T03:47:26Z",
            "slug": "RT-engineers_feed-Today-is-the-birthday-of-Nikola-Tesla-10-July-1856-7-January-1943-Serbian-American-physicist-and-engineer-https",
            "currencies": [
                {
                    "code": "MTL",
                    "title": "Metal DAO",
                    "slug": "metal",
                    "url": "https:\/\/cryptopanic.com\/news\/metal\/"
                }
            ],
            "id": 18754980,
            "url": "https:\/\/cryptopanic.com\/news\/18754980\/RT-engineers_feed-Today-is-the-birthday-of-Nikola-Tesla-10-July-1856-7-January-1943-Serbian-American-physicist-and-engineer-https",
            "created_at": "2023-07-11T03:47:26Z",
            "votes": {
                "negative": 0,
                "positive": 0,
                "important": 0,
                "liked": 0,
                "disliked": 0,
                "lol": 0,
                "toxic": 0,
                "saved": 0,
                "comments": 0
            }
        },
        {
            "kind": "news",
            "domain": "@MarshallHayner",
            "source": {
                "title": "CEO of Metal",
                "region": "en",
                "domain": "twitter.com",
                "path": "@marshallhayner"
            },
            "title": "RT @spacedO_t777: introducing the power bonker",
            "published_at": "2023-07-11T03:46:25Z",
            "slug": "RT-spacedO_t777-introducing-the-power-bonker",
            "currencies": [
                {
                    "code": "MTL",
                    "title": "Metal DAO",
                    "slug": "metal",
                    "url": "https:\/\/cryptopanic.com\/news\/metal\/"
                }
            ],
            "id": 18754981,
            "url": "https:\/\/cryptopanic.com\/news\/18754981\/RT-spacedO_t777-introducing-the-power-bonker",
            "created_at": "2023-07-11T03:46:25Z",
            "votes": {
                "negative": 0,
                "positive": 0,
                "important": 0,
                "liked": 0,
                "disliked": 0,
                "lol": 0,
                "toxic": 0,
                "saved": 0,
                "comments": 0
            }
        },
        {
            "kind": "news",
            "domain": "@MarshallHayner",
            "source": {
                "title": "CEO of Metal",
                "region": "en",
                "domain": "twitter.com",
                "path": "@marshallhayner"
            },
            "title": "RT @IrinaBerkon: What is your favorite way to deposit USDC into your @webauthwallet wallet?",
            "published_at": "2023-07-11T02:57:25Z",
            "slug": "RT-IrinaBerkon-What-is-your-favorite-way-to-deposit-USDC-into-your-webauthwallet-wallet",
            "currencies": [
                {
                    "code": "MTL",
                    "title": "Metal DAO",
                    "slug": "metal",
                    "url": "https:\/\/cryptopanic.com\/news\/metal\/"
                }
            ],
            "id": 18754982,
            "url": "https:\/\/cryptopanic.com\/news\/18754982\/RT-IrinaBerkon-What-is-your-favorite-way-to-deposit-USDC-into-your-webauthwallet-wallet",
            "created_at": "2023-07-11T02:57:25Z",
            "votes": {
                "negative": 0,
                "positive": 0,
                "important": 0,
                "liked": 0,
                "disliked": 0,
                "lol": 0,
                "toxic": 0,
                "saved": 0,
                "comments": 0
            }
        },
        {
            "kind": "news",
            "domain": "@MarshallHayner",
            "source": {
                "title": "CEO of Metal",
                "region": "en",
                "domain": "twitter.com",
                "path": "@marshallhayner"
            },
            "title": "RT @tjstebbing: I've been looking for a reason to use the 4 pics feature so here you go:\n\nNerdy kid heroes represent : the thoughtful, boo\u2026",
            "published_at": "2023-07-10T16:21:35Z",
            "slug": "RT-tjstebbing-Ive-been-looking-for-a-reason-to-use-the-4-pics-feature-so-here-you-go-Nerdy-kid-heroes-represent-the-thoughtful-boo",
            "currencies": [
                {
                    "code": "MTL",
                    "title": "Metal DAO",
                    "slug": "metal",
                    "url": "https:\/\/cryptopanic.com\/news\/metal\/"
                }
            ],
            "id": 18754983,
            "url": "https:\/\/cryptopanic.com\/news\/18754983\/RT-tjstebbing-Ive-been-looking-for-a-reason-to-use-the-4-pics-feature-so-here-you-go-Nerdy-kid-heroes-represent-the-thoughtful-boo",
            "created_at": "2023-07-10T16:21:35Z",
            "votes": {
                "negative": 0,
                "positive": 0,
                "important": 0,
                "liked": 0,
                "disliked": 0,
                "lol": 0,
                "toxic": 0,
                "saved": 0,
                "comments": 0
            }
        },
        {
            "kind": "news",
            "domain": "@MarshallHayner",
            "source": {
                "title": "CEO of Metal",
                "region": "en",
                "domain": "twitter.com",
                "path": "@marshallhayner"
            },
            "title": "RT @rgz916: $XPR\n\nProtonDEX dev has submitted PL to add ProtonDEX to CCXT \n\nMeaning, soon trade volumes will be visible across multiple agg\u2026",
            "published_at": "2023-07-10T16:13:32Z",
            "slug": "RT-rgz916-XPR-ProtonDEX-dev-has-submitted-PL-to-add-ProtonDEX-to-CCXT-Meaning-soon-trade-volumes-will-be-visible-across-multiple-agg",
            "currencies": [
                {
                    "code": "MTL",
                    "title": "Metal DAO",
                    "slug": "metal",
                    "url": "https:\/\/cryptopanic.com\/news\/metal\/"
                }
            ],
            "id": 18754984,
            "url": "https:\/\/cryptopanic.com\/news\/18754984\/RT-rgz916-XPR-ProtonDEX-dev-has-submitted-PL-to-add-ProtonDEX-to-CCXT-Meaning-soon-trade-volumes-will-be-visible-across-multiple-agg",
            "created_at": "2023-07-10T16:13:32Z",
            "votes": {
                "negative": 0,
                "positive": 0,
                "important": 0,
                "liked": 0,
                "disliked": 0,
                "lol": 0,
                "toxic": 0,
                "saved": 0,
                "comments": 0
            }
        },
        {
            "kind": "news",
            "domain": "@MarshallHayner",
            "source": {
                "title": "CEO of Metal",
                "region": "en",
                "domain": "twitter.com",
                "path": "@marshallhayner"
            },
            "title": "RT @fasc1nate: A gorilla in a pool dancing to Maniac.",
            "published_at": "2023-07-10T02:56:22Z",
            "slug": "RT-fasc1nate-A-gorilla-in-a-pool-dancing-to-Maniac",
            "currencies": [
                {
                    "code": "MTL",
                    "title": "Metal DAO",
                    "slug": "metal",
                    "url": "https:\/\/cryptopanic.com\/news\/metal\/"
                }
            ],
            "id": 18749071,
            "url": "https:\/\/cryptopanic.com\/news\/18749071\/RT-fasc1nate-A-gorilla-in-a-pool-dancing-to-Maniac",
            "created_at": "2023-07-10T02:56:22Z",
            "votes": {
                "negative": 0,
                "positive": 0,
                "important": 0,
                "liked": 0,
                "disliked": 0,
                "lol": 0,
                "toxic": 0,
                "saved": 0,
                "comments": 0
            }
        },
        {
            "kind": "news",
            "domain": "@MarshallHayner",
            "source": {
                "title": "CEO of Metal",
                "region": "en",
                "domain": "twitter.com",
                "path": "@marshallhayner"
            },
            "title": "RT @fasc1nate: The eye of a grey whale.",
            "published_at": "2023-07-10T02:54:51Z",
            "slug": "RT-fasc1nate-The-eye-of-a-grey-whale",
            "currencies": [
                {
                    "code": "MTL",
                    "title": "Metal DAO",
                    "slug": "metal",
                    "url": "https:\/\/cryptopanic.com\/news\/metal\/"
                }
            ],
            "id": 18749072,
            "url": "https:\/\/cryptopanic.com\/news\/18749072\/RT-fasc1nate-The-eye-of-a-grey-whale",
            "created_at": "2023-07-10T02:54:51Z",
            "votes": {
                "negative": 0,
                "positive": 0,
                "important": 0,
                "liked": 0,
                "disliked": 0,
                "lol": 0,
                "toxic": 0,
                "saved": 0,
                "comments": 0
            }
        },
        {
            "kind": "news",
            "domain": "@MarshallHayner",
            "source": {
                "title": "CEO of Metal",
                "region": "en",
                "domain": "twitter.com",
                "path": "@marshallhayner"
            },
            "title": "RT @historyinmemes: In 1991, Metallica performed a memorable concert in Moscow at a military airfield, just a few months prior to the colla\u2026",
            "published_at": "2023-07-10T01:11:02Z",
            "slug": "RT-historyinmemes-In-1991-Metallica-performed-a-memorable-concert-in-Moscow-at-a-military-airfield-just-a-few-months-prior-to-the-colla",
            "currencies": [
                {
                    "code": "MTL",
                    "title": "Metal DAO",
                    "slug": "metal",
                    "url": "https:\/\/cryptopanic.com\/news\/metal\/"
                }
            ],
            "id": 18749073,
            "url": "https:\/\/cryptopanic.com\/news\/18749073\/RT-historyinmemes-In-1991-Metallica-performed-a-memorable-concert-in-Moscow-at-a-military-airfield-just-a-few-months-prior-to-the-colla",
            "created_at": "2023-07-10T01:11:02Z",
            "votes": {
                "negative": 0,
                "positive": 0,
                "important": 0,
                "liked": 0,
                "disliked": 0,
                "lol": 0,
                "toxic": 0,
                "saved": 0,
                "comments": 0
            }
        },
        {
            "kind": "news",
            "domain": "@MarshallHayner",
            "source": {
                "title": "CEO of Metal",
                "region": "en",
                "domain": "twitter.com",
                "path": "@marshallhayner"
            },
            "title": "RT @IrinaBerkon: Who\u2019s ready for the CFO special of the week? Hint: it will be related to a proposal recently passed on @ProtonXPR governan\u2026",
            "published_at": "2023-07-10T00:06:37Z",
            "slug": "RT-IrinaBerkon-Whos-ready-for-the-CFO-special-of-the-week-Hint-it-will-be-related-to-a-proposal-recently-passed-on-ProtonXPR-governan",
            "currencies": [
                {
                    "code": "MTL",
                    "title": "Metal DAO",
                    "slug": "metal",
                    "url": "https:\/\/cryptopanic.com\/news\/metal\/"
                }
            ],
            "id": 18749074,
            "url": "https:\/\/cryptopanic.com\/news\/18749074\/RT-IrinaBerkon-Whos-ready-for-the-CFO-special-of-the-week-Hint-it-will-be-related-to-a-proposal-recently-passed-on-ProtonXPR-governan",
            "created_at": "2023-07-10T00:06:37Z",
            "votes": {
                "negative": 0,
                "positive": 0,
                "important": 0,
                "liked": 0,
                "disliked": 0,
                "lol": 0,
                "toxic": 0,
                "saved": 0,
                "comments": 0
            }
        },
        {
            "kind": "news",
            "domain": "@MarshallHayner",
            "source": {
                "title": "CEO of Metal",
                "region": "en",
                "domain": "twitter.com",
                "path": "@marshallhayner"
            },
            "title": "RT @ProtonXPR: Which #DeFi feature do you use the most on Proton Blockchain?",
            "published_at": "2023-07-09T02:17:13Z",
            "slug": "RT-ProtonXPR-Which-DeFi-feature-do-you-use-the-most-on-Proton-Blockchain",
            "currencies": [
                {
                    "code": "MTL",
                    "title": "Metal DAO",
                    "slug": "metal",
                    "url": "https:\/\/cryptopanic.com\/news\/metal\/"
                }
            ],
            "id": 18744919,
            "url": "https:\/\/cryptopanic.com\/news\/18744919\/RT-ProtonXPR-Which-DeFi-feature-do-you-use-the-most-on-Proton-Blockchain",
            "created_at": "2023-07-09T02:17:13Z",
            "votes": {
                "negative": 0,
                "positive": 0,
                "important": 0,
                "liked": 0,
                "disliked": 0,
                "lol": 0,
                "toxic": 0,
                "saved": 0,
                "comments": 0
            }
        },
        {
            "kind": "news",
            "domain": "@MarshallHayner",
            "source": {
                "title": "CEO of Metal",
                "region": "en",
                "domain": "twitter.com",
                "path": "@marshallhayner"
            },
            "title": "RT @ProtonXPR: Which #trading pair is your favorite?\n\n- Metal DAO $MTL \/ XMD\n- Proton $LOAN \/ XMD\n- Metal Blockchain $METAL \/ XMD\n\nStart tr\u2026",
            "published_at": "2023-07-08T21:56:20Z",
            "slug": "RT-ProtonXPR-Which-trading-pair-is-your-favorite-Metal-DAO-MTL-XMD-Proton-LOAN-XMD-Metal-Blockchain-METAL-XMD-Start-tr",
            "currencies": [
                {
                    "code": "MTL",
                    "title": "Metal DAO",
                    "slug": "metal",
                    "url": "https:\/\/cryptopanic.com\/news\/metal\/"
                }
            ],
            "id": 18744920,
            "url": "https:\/\/cryptopanic.com\/news\/18744920\/RT-ProtonXPR-Which-trading-pair-is-your-favorite-Metal-DAO-MTL-XMD-Proton-LOAN-XMD-Metal-Blockchain-METAL-XMD-Start-tr",
            "created_at": "2023-07-08T21:56:20Z",
            "votes": {
                "negative": 0,
                "positive": 0,
                "important": 0,
                "liked": 0,
                "disliked": 0,
                "lol": 0,
                "toxic": 0,
                "saved": 0,
                "comments": 0
            }
        }
    ]
}
