{
    "count": 200,
    "next": "https:\/\/cryptopanic.com\/api\/v1\/posts\/?auth_token=01c356e89ffc1b8eba2127c81fc8c66ee0eace75&kind=news&currencies=MAGIC&page=2",
    "previous": null,
    "results": [
        {
            "kind": "news",
            "domain": "@Treasure_DAO",
            "source": {
                "title": "Magic Twitter",
                "region": "en",
                "domain": "twitter.com",
                "path": "@treasure_dao"
            },
            "title": "Join us now for a Builder Series with the team behind our newest game coming to Treasure, @PlayMightyHero \ud83e\udd29\n\nHear f\u2026",
            "published_at": "2023-07-11T14:00:39Z",
            "slug": "Join-us-now-for-a-Builder-Series-with-the-team-behind-our-newest-game-coming-to-Treasure-PlayMightyHero-Hear-f",
            "currencies": [
                {
                    "code": "MAGIC",
                    "title": "Magic",
                    "slug": "magic",
                    "url": "https:\/\/cryptopanic.com\/news\/magic\/"
                }
            ],
            "id": 18765546,
            "url": "https:\/\/cryptopanic.com\/news\/18765546\/Join-us-now-for-a-Builder-Series-with-the-team-behind-our-newest-game-coming-to-Treasure-PlayMightyHero-Hear-f",
            "created_at": "2023-07-11T14:00:39Z",
            "votes": {
                "negative": 0,
                "positive": 0,
                "important": 0,
                "liked": 0,
                "disliked": 0,
                "lol": 0,
                "toxic": 0,
                "saved": 0,
                "comments": 0
            }
        },
        {
            "kind": "news",
            "domain": "@Treasure_DAO",
            "source": {
                "title": "Magic Twitter",
                "region": "en",
                "domain": "twitter.com",
                "path": "@treasure_dao"
            },
            "title": "RT @PlayMightyHero: It's go time on @Treasure_DAO and @arbitrum !  \n\nFall in to the AMA on July 11, 10am UTC-4 (link in thread). ",
            "published_at": "2023-07-10T14:03:54Z",
            "slug": "RT-PlayMightyHero-Its-go-time-on-Treasure_DAO-and-arbitrum-Fall-in-to-the-AMA-on-July-11-10am-UTC-4-link-in-thread",
            "currencies": [
                {
                    "code": "MAGIC",
                    "title": "Magic",
                    "slug": "magic",
                    "url": "https:\/\/cryptopanic.com\/news\/magic\/"
                }
            ],
            "id": 18757412,
            "url": "https:\/\/cryptopanic.com\/news\/18757412\/RT-PlayMightyHero-Its-go-time-on-Treasure_DAO-and-arbitrum-Fall-in-to-the-AMA-on-July-11-10am-UTC-4-link-in-thread",
            "created_at": "2023-07-10T14:03:54Z",
            "votes": {
                "negative": 0,
                "positive": 0,
                "important": 0,
                "liked": 0,
                "disliked": 0,
                "lol": 0,
                "toxic": 0,
                "saved": 0,
                "comments": 0
            }
        },
        {
            "kind": "news",
            "domain": "@Treasure_DAO",
            "source": {
                "title": "Magic Twitter",
                "region": "en",
                "domain": "twitter.com",
                "path": "@treasure_dao"
            },
            "title": "We're locked and loaded for @PlayMightyHero's arrival on Treasure and @arbitrum.\n\nGet ready for explosions , gunfi\u2026",
            "published_at": "2023-07-10T13:15:11Z",
            "slug": "Were-locked-and-loaded-for-PlayMightyHeros-arrival-on-Treasure-and-arbitrum-Get-ready-for-explosions-gunfi",
            "currencies": [
                {
                    "code": "MAGIC",
                    "title": "Magic",
                    "slug": "magic",
                    "url": "https:\/\/cryptopanic.com\/news\/magic\/"
                }
            ],
            "id": 18757413,
            "url": "https:\/\/cryptopanic.com\/news\/18757413\/Were-locked-and-loaded-for-PlayMightyHeros-arrival-on-Treasure-and-arbitrum-Get-ready-for-explosions-gunfi",
            "created_at": "2023-07-10T13:15:11Z",
            "votes": {
                "negative": 0,
                "positive": 0,
                "important": 0,
                "liked": 0,
                "disliked": 0,
                "lol": 0,
                "toxic": 0,
                "saved": 0,
                "comments": 0
            }
        },
        {
            "kind": "news",
            "domain": "@Treasure_DAO",
            "source": {
                "title": "Magic Twitter",
                "region": "en",
                "domain": "twitter.com",
                "path": "@treasure_dao"
            },
            "title": "RT @KaijuCards: GM! A very important message from Kaiju Cards...",
            "published_at": "2023-07-05T23:33:16Z",
            "slug": "RT-KaijuCards-GM-A-very-important-message-from-Kaiju-Cards",
            "currencies": [
                {
                    "code": "MAGIC",
                    "title": "Magic",
                    "slug": "magic",
                    "url": "https:\/\/cryptopanic.com\/news\/magic\/"
                }
            ],
            "id": 18725214,
            "url": "https:\/\/cryptopanic.com\/news\/18725214\/RT-KaijuCards-GM-A-very-important-message-from-Kaiju-Cards",
            "created_at": "2023-07-05T23:33:16Z",
            "votes": {
                "negative": 0,
                "positive": 0,
                "important": 0,
                "liked": 0,
                "disliked": 0,
                "lol": 0,
                "toxic": 0,
                "saved": 0,
                "comments": 0
            }
        },
        {
            "kind": "news",
            "domain": "@Treasure_DAO",
            "source": {
                "title": "Magic Twitter",
                "region": "en",
                "domain": "twitter.com",
                "path": "@treasure_dao"
            },
            "title": "We are thrilled to announce that @kurorobeast's migration from Polygon to Treasure and @arbitrum is finally here! \u2026",
            "published_at": "2023-07-05T18:33:17Z",
            "slug": "We-are-thrilled-to-announce-that-kurorobeasts-migration-from-Polygon-to-Treasure-and-arbitrum-is-finally-here",
            "currencies": [
                {
                    "code": "MAGIC",
                    "title": "Magic",
                    "slug": "magic",
                    "url": "https:\/\/cryptopanic.com\/news\/magic\/"
                },
                {
                    "code": "MATIC",
                    "title": "Polygon",
                    "slug": "matic-network",
                    "url": "https:\/\/cryptopanic.com\/news\/matic-network\/"
                }
            ],
            "id": 18725215,
            "url": "https:\/\/cryptopanic.com\/news\/18725215\/We-are-thrilled-to-announce-that-kurorobeasts-migration-from-Polygon-to-Treasure-and-arbitrum-is-finally-here",
            "created_at": "2023-07-05T18:33:17Z",
            "votes": {
                "negative": 0,
                "positive": 0,
                "important": 0,
                "liked": 0,
                "disliked": 0,
                "lol": 0,
                "toxic": 0,
                "saved": 0,
                "comments": 0
            }
        },
        {
            "kind": "news",
            "domain": "@Treasure_DAO",
            "source": {
                "title": "Magic Twitter",
                "region": "en",
                "domain": "twitter.com",
                "path": "@treasure_dao"
            },
            "title": "RT @KaijuCards: Kaiju Mint and Gameplay Event - LATE JULY ",
            "published_at": "2023-07-05T17:51:41Z",
            "slug": "RT-KaijuCards-Kaiju-Mint-and-Gameplay-Event-LATE-JULY",
            "currencies": [
                {
                    "code": "MAGIC",
                    "title": "Magic",
                    "slug": "magic",
                    "url": "https:\/\/cryptopanic.com\/news\/magic\/"
                }
            ],
            "id": 18725216,
            "url": "https:\/\/cryptopanic.com\/news\/18725216\/RT-KaijuCards-Kaiju-Mint-and-Gameplay-Event-LATE-JULY",
            "created_at": "2023-07-05T17:51:41Z",
            "votes": {
                "negative": 0,
                "positive": 0,
                "important": 0,
                "liked": 0,
                "disliked": 0,
                "lol": 0,
                "toxic": 0,
                "saved": 0,
                "comments": 0
            }
        },
        {
            "kind": "news",
            "domain": "@Treasure_DAO",
            "source": {
                "title": "Magic Twitter",
                "region": "en",
                "domain": "twitter.com",
                "path": "@treasure_dao"
            },
            "title": "RT @kurorobeast: MIGRATION TO ARBITRUM AND TREASURE\n\nKuroro Beasts is migrating to @Treasure_DAO and @arbitrum now!\n\nWe will take care of t\u2026",
            "published_at": "2023-07-05T17:45:48Z",
            "slug": "RT-kurorobeast-MIGRATION-TO-ARBITRUM-AND-TREASURE-Kuroro-Beasts-is-migrating-to-Treasure_DAO-and-arbitrum-now-We-will-take-care-of-t",
            "currencies": [
                {
                    "code": "MAGIC",
                    "title": "Magic",
                    "slug": "magic",
                    "url": "https:\/\/cryptopanic.com\/news\/magic\/"
                },
                {
                    "code": "ARB",
                    "title": "Arbitrum",
                    "slug": "arbitrum",
                    "url": "https:\/\/cryptopanic.com\/news\/arbitrum\/"
                }
            ],
            "id": 18725217,
            "url": "https:\/\/cryptopanic.com\/news\/18725217\/RT-kurorobeast-MIGRATION-TO-ARBITRUM-AND-TREASURE-Kuroro-Beasts-is-migrating-to-Treasure_DAO-and-arbitrum-now-We-will-take-care-of-t",
            "created_at": "2023-07-05T17:45:48Z",
            "votes": {
                "negative": 0,
                "positive": 0,
                "important": 0,
                "liked": 0,
                "disliked": 0,
                "lol": 0,
                "toxic": 0,
                "saved": 0,
                "comments": 0
            }
        },
        {
            "kind": "news",
            "domain": "@Treasure_DAO",
            "source": {
                "title": "Magic Twitter",
                "region": "en",
                "domain": "twitter.com",
                "path": "@treasure_dao"
            },
            "title": "The launch of @ZeeverseGame\u2019s Weekly Harvest has arrived!\n\nJoin the event NOW to witness a new addition to their un\u2026",
            "published_at": "2023-07-05T12:16:13Z",
            "slug": "The-launch-of-ZeeverseGames-Weekly-Harvest-has-arrived-Join-the-event-NOW-to-witness-a-new-addition-to-their-un",
            "currencies": [
                {
                    "code": "MAGIC",
                    "title": "Magic",
                    "slug": "magic",
                    "url": "https:\/\/cryptopanic.com\/news\/magic\/"
                }
            ],
            "id": 18725218,
            "url": "https:\/\/cryptopanic.com\/news\/18725218\/The-launch-of-ZeeverseGames-Weekly-Harvest-has-arrived-Join-the-event-NOW-to-witness-a-new-addition-to-their-un",
            "created_at": "2023-07-05T12:16:13Z",
            "votes": {
                "negative": 0,
                "positive": 0,
                "important": 0,
                "liked": 0,
                "disliked": 0,
                "lol": 0,
                "toxic": 0,
                "saved": 0,
                "comments": 0
            }
        },
        {
            "kind": "news",
            "domain": "@Treasure_DAO",
            "source": {
                "title": "Magic Twitter",
                "region": "en",
                "domain": "twitter.com",
                "path": "@treasure_dao"
            },
            "title": "RT @darkbrightgames: We\u2019re making incredible progrEEEEEss on Smolville dev \n\nHere's a Smol peek into our game environment with a glance at\u2026",
            "published_at": "2023-07-01T01:00:42Z",
            "slug": "RT-darkbrightgames-Were-making-incredible-progrEEEEEss-on-Smolville-dev-Heres-a-Smol-peek-into-our-game-environment-with-a-glance-at",
            "currencies": [
                {
                    "code": "MAGIC",
                    "title": "Magic",
                    "slug": "magic",
                    "url": "https:\/\/cryptopanic.com\/news\/magic\/"
                }
            ],
            "id": 18694493,
            "url": "https:\/\/cryptopanic.com\/news\/18694493\/RT-darkbrightgames-Were-making-incredible-progrEEEEEss-on-Smolville-dev-Heres-a-Smol-peek-into-our-game-environment-with-a-glance-at",
            "created_at": "2023-07-01T01:00:42Z",
            "votes": {
                "negative": 0,
                "positive": 0,
                "important": 0,
                "liked": 0,
                "disliked": 0,
                "lol": 0,
                "toxic": 0,
                "saved": 0,
                "comments": 0
            }
        },
        {
            "kind": "news",
            "domain": "@Treasure_DAO",
            "source": {
                "title": "Magic Twitter",
                "region": "en",
                "domain": "twitter.com",
                "path": "@treasure_dao"
            },
            "title": "RT @sambino_eth: Another W for our growing marketing team at @Treasure_DAO! \n\nJoining Treasure as the new Social Media Manager, @k1janna i\u2026",
            "published_at": "2023-06-28T17:23:05Z",
            "slug": "RT-sambino_eth-Another-W-for-our-growing-marketing-team-at-Treasure_DAO-Joining-Treasure-as-the-new-Social-Media-Manager-k1janna-i",
            "currencies": [
                {
                    "code": "MAGIC",
                    "title": "Magic",
                    "slug": "magic",
                    "url": "https:\/\/cryptopanic.com\/news\/magic\/"
                }
            ],
            "id": 18678803,
            "url": "https:\/\/cryptopanic.com\/news\/18678803\/RT-sambino_eth-Another-W-for-our-growing-marketing-team-at-Treasure_DAO-Joining-Treasure-as-the-new-Social-Media-Manager-k1janna-i",
            "created_at": "2023-06-28T17:23:05Z",
            "votes": {
                "negative": 0,
                "positive": 0,
                "important": 0,
                "liked": 0,
                "disliked": 0,
                "lol": 0,
                "toxic": 0,
                "saved": 0,
                "comments": 0
            }
        },
        {
            "kind": "news",
            "domain": "@Treasure_DAO",
            "source": {
                "title": "Magic Twitter",
                "region": "en",
                "domain": "twitter.com",
                "path": "@treasure_dao"
            },
            "title": "RT @smolverse: Get ready for our next Smol Hall on Jun.28 at 6 PM EST \n\nSmolville Creative Director will showcase the paper prototype, hig\u2026",
            "published_at": "2023-06-28T17:22:43Z",
            "slug": "RT-smolverse-Get-ready-for-our-next-Smol-Hall-on-Jun28-at-6-PM-EST-Smolville-Creative-Director-will-showcase-the-paper-prototype-hig",
            "currencies": [
                {
                    "code": "MAGIC",
                    "title": "Magic",
                    "slug": "magic",
                    "url": "https:\/\/cryptopanic.com\/news\/magic\/"
                }
            ],
            "id": 18678804,
            "url": "https:\/\/cryptopanic.com\/news\/18678804\/RT-smolverse-Get-ready-for-our-next-Smol-Hall-on-Jun28-at-6-PM-EST-Smolville-Creative-Director-will-showcase-the-paper-prototype-hig",
            "created_at": "2023-06-28T17:22:43Z",
            "votes": {
                "negative": 0,
                "positive": 0,
                "important": 0,
                "liked": 0,
                "disliked": 0,
                "lol": 0,
                "toxic": 0,
                "saved": 0,
                "comments": 0
            }
        },
        {
            "kind": "news",
            "domain": "@Treasure_DAO",
            "source": {
                "title": "Magic Twitter",
                "region": "en",
                "domain": "twitter.com",
                "path": "@treasure_dao"
            },
            "title": "RT @kurorosage: GM folks \n\nWhat is your favorite part about @Arbitrum and the @Treasure_DAO ecosystem?",
            "published_at": "2023-06-28T01:16:11Z",
            "slug": "RT-kurorosage-GM-folks-What-is-your-favorite-part-about-Arbitrum-and-the-Treasure_DAO-ecosystem",
            "currencies": [
                {
                    "code": "MAGIC",
                    "title": "Magic",
                    "slug": "magic",
                    "url": "https:\/\/cryptopanic.com\/news\/magic\/"
                }
            ],
            "id": 18670590,
            "url": "https:\/\/cryptopanic.com\/news\/18670590\/RT-kurorosage-GM-folks-What-is-your-favorite-part-about-Arbitrum-and-the-Treasure_DAO-ecosystem",
            "created_at": "2023-06-28T01:16:11Z",
            "votes": {
                "negative": 0,
                "positive": 0,
                "important": 0,
                "liked": 0,
                "disliked": 0,
                "lol": 0,
                "toxic": 0,
                "saved": 0,
                "comments": 0
            }
        },
        {
            "kind": "news",
            "domain": "@Treasure_DAO",
            "source": {
                "title": "Magic Twitter",
                "region": "en",
                "domain": "twitter.com",
                "path": "@treasure_dao"
            },
            "title": "Due to yesterday's Twitter Spaces outage, we will be hosting this Builder Series with the @KnightsOfTheEth team \ud835\ude01\ud835\uddfc\ud835\uddf1\u2026",
            "published_at": "2023-06-23T13:39:15Z",
            "slug": "Due-to-yesterdays-Twitter-Spaces-outage-we-will-be-hosting-this-Builder-Series-with-the-KnightsOfTheEth-team-tod",
            "currencies": [
                {
                    "code": "MAGIC",
                    "title": "Magic",
                    "slug": "magic",
                    "url": "https:\/\/cryptopanic.com\/news\/magic\/"
                }
            ],
            "id": 18645552,
            "url": "https:\/\/cryptopanic.com\/news\/18645552\/Due-to-yesterdays-Twitter-Spaces-outage-we-will-be-hosting-this-Builder-Series-with-the-KnightsOfTheEth-team-tod",
            "created_at": "2023-06-23T13:39:15Z",
            "votes": {
                "negative": 0,
                "positive": 0,
                "important": 0,
                "liked": 0,
                "disliked": 0,
                "lol": 0,
                "toxic": 0,
                "saved": 0,
                "comments": 0
            }
        },
        {
            "kind": "news",
            "domain": "@Treasure_DAO",
            "source": {
                "title": "Magic Twitter",
                "region": "en",
                "domain": "twitter.com",
                "path": "@treasure_dao"
            },
            "title": "RT @The_Beacon_GG: Settlers! Ready for some more interoperability?\n\nFellow Treasure partner and rogue-lite game @KnightsOfTheEth just opene\u2026",
            "published_at": "2023-06-22T19:14:48Z",
            "slug": "RT-The_Beacon_GG-Settlers-Ready-for-some-more-interoperability-Fellow-Treasure-partner-and-rogue-lite-game-KnightsOfTheEth-just-opene",
            "currencies": [
                {
                    "code": "MAGIC",
                    "title": "Magic",
                    "slug": "magic",
                    "url": "https:\/\/cryptopanic.com\/news\/magic\/"
                }
            ],
            "id": 18638074,
            "url": "https:\/\/cryptopanic.com\/news\/18638074\/RT-The_Beacon_GG-Settlers-Ready-for-some-more-interoperability-Fellow-Treasure-partner-and-rogue-lite-game-KnightsOfTheEth-just-opene",
            "created_at": "2023-06-22T19:14:48Z",
            "votes": {
                "negative": 0,
                "positive": 0,
                "important": 0,
                "liked": 0,
                "disliked": 0,
                "lol": 0,
                "toxic": 0,
                "saved": 0,
                "comments": 0
            }
        },
        {
            "kind": "news",
            "domain": "@Treasure_DAO",
            "source": {
                "title": "Magic Twitter",
                "region": "en",
                "domain": "twitter.com",
                "path": "@treasure_dao"
            },
            "title": "RT @ZeeverseGame: Announcing: Zeeverse Ambassador Program \n\nYour opportunity to help grow the Zeeverse name around the globe and earn rewa\u2026",
            "published_at": "2023-06-22T17:39:19Z",
            "slug": "RT-ZeeverseGame-Announcing-Zeeverse-Ambassador-Program-Your-opportunity-to-help-grow-the-Zeeverse-name-around-the-globe-and-earn-rewa",
            "currencies": [
                {
                    "code": "MAGIC",
                    "title": "Magic",
                    "slug": "magic",
                    "url": "https:\/\/cryptopanic.com\/news\/magic\/"
                }
            ],
            "id": 18638075,
            "url": "https:\/\/cryptopanic.com\/news\/18638075\/RT-ZeeverseGame-Announcing-Zeeverse-Ambassador-Program-Your-opportunity-to-help-grow-the-Zeeverse-name-around-the-globe-and-earn-rewa",
            "created_at": "2023-06-22T17:39:19Z",
            "votes": {
                "negative": 0,
                "positive": 0,
                "important": 0,
                "liked": 0,
                "disliked": 0,
                "lol": 0,
                "toxic": 0,
                "saved": 0,
                "comments": 0
            }
        },
        {
            "kind": "news",
            "domain": "@Treasure_DAO",
            "source": {
                "title": "Magic Twitter",
                "region": "en",
                "domain": "twitter.com",
                "path": "@treasure_dao"
            },
            "title": "RT @KnightsOfTheEth: The Villagers Join the Fight!\n\nMint Here: \n\n\ud83c\udd93 Free Mint on @arbitrum\n\ud83e\ude84 Powered by @Treasure_DAO\u2026",
            "published_at": "2023-06-22T05:07:27Z",
            "slug": "RT-KnightsOfTheEth-The-Villagers-Join-the-Fight-Mint-Here-Free-Mint-on-arbitrum-Powered-by-Treasure_DAO",
            "currencies": [
                {
                    "code": "MAGIC",
                    "title": "Magic",
                    "slug": "magic",
                    "url": "https:\/\/cryptopanic.com\/news\/magic\/"
                }
            ],
            "id": 18629506,
            "url": "https:\/\/cryptopanic.com\/news\/18629506\/RT-KnightsOfTheEth-The-Villagers-Join-the-Fight-Mint-Here-Free-Mint-on-arbitrum-Powered-by-Treasure_DAO",
            "created_at": "2023-06-22T05:07:27Z",
            "votes": {
                "negative": 0,
                "positive": 0,
                "important": 0,
                "liked": 0,
                "disliked": 0,
                "lol": 0,
                "toxic": 0,
                "saved": 0,
                "comments": 0
            }
        },
        {
            "kind": "news",
            "domain": "@Treasure_DAO",
            "source": {
                "title": "Magic Twitter",
                "region": "en",
                "domain": "twitter.com",
                "path": "@treasure_dao"
            },
            "title": "Mydsummer Madness is upon us!\n\nFor the next 3 weeks only, obtain your Basic (free!) or Blessed Villager and start p\u2026",
            "published_at": "2023-06-22T03:24:44Z",
            "slug": "Mydsummer-Madness-is-upon-us-For-the-next-3-weeks-only-obtain-your-Basic-free-or-Blessed-Villager-and-start-p",
            "currencies": [
                {
                    "code": "MAGIC",
                    "title": "Magic",
                    "slug": "magic",
                    "url": "https:\/\/cryptopanic.com\/news\/magic\/"
                }
            ],
            "id": 18629507,
            "url": "https:\/\/cryptopanic.com\/news\/18629507\/Mydsummer-Madness-is-upon-us-For-the-next-3-weeks-only-obtain-your-Basic-free-or-Blessed-Villager-and-start-p",
            "created_at": "2023-06-22T03:24:44Z",
            "votes": {
                "negative": 0,
                "positive": 0,
                "important": 0,
                "liked": 0,
                "disliked": 0,
                "lol": 0,
                "toxic": 0,
                "saved": 0,
                "comments": 0
            }
        },
        {
            "kind": "news",
            "domain": "@Treasure_DAO",
            "source": {
                "title": "Magic Twitter",
                "region": "en",
                "domain": "twitter.com",
                "path": "@treasure_dao"
            },
            "title": "RT @Flook_eth: Huge shoutout to Karel and the rest of the Treasure team for their unwavering support over the past year.\n\nTreasure maxis kn\u2026",
            "published_at": "2023-06-21T16:29:31Z",
            "slug": "RT-Flook_eth-Huge-shoutout-to-Karel-and-the-rest-of-the-Treasure-team-for-their-unwavering-support-over-the-past-year-Treasure-maxis-kn",
            "currencies": [
                {
                    "code": "MAGIC",
                    "title": "Magic",
                    "slug": "magic",
                    "url": "https:\/\/cryptopanic.com\/news\/magic\/"
                }
            ],
            "id": 18629508,
            "url": "https:\/\/cryptopanic.com\/news\/18629508\/RT-Flook_eth-Huge-shoutout-to-Karel-and-the-rest-of-the-Treasure-team-for-their-unwavering-support-over-the-past-year-Treasure-maxis-kn",
            "created_at": "2023-06-21T16:29:31Z",
            "votes": {
                "negative": 0,
                "positive": 0,
                "important": 0,
                "liked": 0,
                "disliked": 0,
                "lol": 0,
                "toxic": 0,
                "saved": 0,
                "comments": 0
            }
        },
        {
            "kind": "news",
            "domain": "@Treasure_DAO",
            "source": {
                "title": "Magic Twitter",
                "region": "en",
                "domain": "twitter.com",
                "path": "@treasure_dao"
            },
            "title": "RT @The_Beacon_GG: You can now claim your Ancient Permits at - check the video below for reference!\n\nAlso, keep in\u2026",
            "published_at": "2023-06-19T15:47:49Z",
            "slug": "RT-The_Beacon_GG-You-can-now-claim-your-Ancient-Permits-at-check-the-video-below-for-reference-Also-keep-in",
            "currencies": [
                {
                    "code": "MAGIC",
                    "title": "Magic",
                    "slug": "magic",
                    "url": "https:\/\/cryptopanic.com\/news\/magic\/"
                }
            ],
            "id": 18613399,
            "url": "https:\/\/cryptopanic.com\/news\/18613399\/RT-The_Beacon_GG-You-can-now-claim-your-Ancient-Permits-at-check-the-video-below-for-reference-Also-keep-in",
            "created_at": "2023-06-19T15:47:49Z",
            "votes": {
                "negative": 0,
                "positive": 0,
                "important": 0,
                "liked": 0,
                "disliked": 0,
                "lol": 0,
                "toxic": 0,
                "saved": 0,
                "comments": 0
            }
        },
        {
            "kind": "news",
            "domain": "@Treasure_DAO",
            "source": {
                "title": "Magic Twitter",
                "region": "en",
                "domain": "twitter.com",
                "path": "@treasure_dao"
            },
            "title": "RT @playbridgeworld: Following the conquest of @The_Beacon_GG's dungeon and the defeat of the Grin, the slumbering Emerion Harvester has fi\u2026",
            "published_at": "2023-06-19T15:46:41Z",
            "slug": "RT-playbridgeworld-Following-the-conquest-of-The_Beacon_GGs-dungeon-and-the-defeat-of-the-Grin-the-slumbering-Emerion-Harvester-has-fi",
            "currencies": [
                {
                    "code": "MAGIC",
                    "title": "Magic",
                    "slug": "magic",
                    "url": "https:\/\/cryptopanic.com\/news\/magic\/"
                }
            ],
            "id": 18613400,
            "url": "https:\/\/cryptopanic.com\/news\/18613400\/RT-playbridgeworld-Following-the-conquest-of-The_Beacon_GGs-dungeon-and-the-defeat-of-the-Grin-the-slumbering-Emerion-Harvester-has-fi",
            "created_at": "2023-06-19T15:46:41Z",
            "votes": {
                "negative": 0,
                "positive": 0,
                "important": 0,
                "liked": 0,
                "disliked": 0,
                "lol": 0,
                "toxic": 0,
                "saved": 0,
                "comments": 0
            }
        }
    ]
}
