{
    "count": 200,
    "next": "https:\/\/cryptopanic.com\/api\/v1\/posts\/?auth_token=01c356e89ffc1b8eba2127c81fc8c66ee0eace75&kind=news&currencies=OCEAN&page=2",
    "previous": null,
    "results": [
        {
            "kind": "news",
            "domain": "@oceanprotocol",
            "source": {
                "title": "Ocean Protocol Twitter",
                "region": "en",
                "domain": "twitter.com",
                "path": "@oceanprotocol"
            },
            "title": "Salut les amis! \ud83c\uddeb\ud83c\uddf7\n\nMeet up with us IRL at @EthCC next week! Ocean's @trentmc0 is giving 5 talks on data x #AI x cr\u2026",
            "published_at": "2023-07-12T07:00:00Z",
            "slug": "Salut-les-amis-Meet-up-with-us-IRL-at-EthCC-next-week-Oceans-trentmc0-is-giving-5-talks-on-data-x-AI-x-cr",
            "currencies": [
                {
                    "code": "OCEAN",
                    "title": "Ocean Protocol",
                    "slug": "ocean-protocol",
                    "url": "https:\/\/cryptopanic.com\/news\/ocean-protocol\/"
                }
            ],
            "id": 18766085,
            "url": "https:\/\/cryptopanic.com\/news\/18766085\/Salut-les-amis-Meet-up-with-us-IRL-at-EthCC-next-week-Oceans-trentmc0-is-giving-5-talks-on-data-x-AI-x-cr",
            "created_at": "2023-07-12T07:00:00Z",
            "votes": {
                "negative": 0,
                "positive": 0,
                "important": 0,
                "liked": 0,
                "disliked": 0,
                "lol": 0,
                "toxic": 0,
                "saved": 0,
                "comments": 0
            }
        },
        {
            "kind": "news",
            "domain": "@oceanprotocol",
            "source": {
                "title": "Ocean Protocol Twitter",
                "region": "en",
                "domain": "twitter.com",
                "path": "@oceanprotocol"
            },
            "title": "Gm. Starting with ethereal Ocean vibes this lovely Wednesday",
            "published_at": "2023-07-12T00:01:36Z",
            "slug": "Gm-Starting-with-ethereal-Ocean-vibes-this-lovely-Wednesday",
            "currencies": [
                {
                    "code": "OCEAN",
                    "title": "Ocean Protocol",
                    "slug": "ocean-protocol",
                    "url": "https:\/\/cryptopanic.com\/news\/ocean-protocol\/"
                }
            ],
            "id": 18766086,
            "url": "https:\/\/cryptopanic.com\/news\/18766086\/Gm-Starting-with-ethereal-Ocean-vibes-this-lovely-Wednesday",
            "created_at": "2023-07-12T00:01:36Z",
            "votes": {
                "negative": 0,
                "positive": 0,
                "important": 0,
                "liked": 0,
                "disliked": 0,
                "lol": 0,
                "toxic": 0,
                "saved": 0,
                "comments": 0
            }
        },
        {
            "kind": "news",
            "domain": "@oceanprotocol",
            "source": {
                "title": "Ocean Protocol Twitter",
                "region": "en",
                "domain": "twitter.com",
                "path": "@oceanprotocol"
            },
            "title": "Next week! IRL!\n\nLearn all about #dApp privacy w\/ Ocean co-founder @trentmc0 in Paris\n\nMeet us at #InfraCon this\u2026",
            "published_at": "2023-07-11T18:47:32Z",
            "slug": "Next-week-IRL-Learn-all-about-dApp-privacy-w-Ocean-co-founder-trentmc0-in-Paris-Meet-us-at-InfraCon-this",
            "currencies": [
                {
                    "code": "OCEAN",
                    "title": "Ocean Protocol",
                    "slug": "ocean-protocol",
                    "url": "https:\/\/cryptopanic.com\/news\/ocean-protocol\/"
                }
            ],
            "id": 18766087,
            "url": "https:\/\/cryptopanic.com\/news\/18766087\/Next-week-IRL-Learn-all-about-dApp-privacy-w-Ocean-co-founder-trentmc0-in-Paris-Meet-us-at-InfraCon-this",
            "created_at": "2023-07-11T18:47:32Z",
            "votes": {
                "negative": 0,
                "positive": 0,
                "important": 0,
                "liked": 0,
                "disliked": 0,
                "lol": 0,
                "toxic": 0,
                "saved": 0,
                "comments": 0
            }
        },
        {
            "kind": "news",
            "domain": "@oceanprotocol",
            "source": {
                "title": "Ocean Protocol Twitter",
                "region": "en",
                "domain": "twitter.com",
                "path": "@oceanprotocol"
            },
            "title": "What is practical data...\n\nfor crypto business decision-making?\n\nLearn from @coinbase and @Cointelegraph research e\u2026",
            "published_at": "2023-07-11T16:55:38Z",
            "slug": "What-is-practical-data-for-crypto-business-decision-making-Learn-from-coinbase-and-Cointelegraph-research-e",
            "currencies": [
                {
                    "code": "OCEAN",
                    "title": "Ocean Protocol",
                    "slug": "ocean-protocol",
                    "url": "https:\/\/cryptopanic.com\/news\/ocean-protocol\/"
                }
            ],
            "id": 18766088,
            "url": "https:\/\/cryptopanic.com\/news\/18766088\/What-is-practical-data-for-crypto-business-decision-making-Learn-from-coinbase-and-Cointelegraph-research-e",
            "created_at": "2023-07-11T16:55:38Z",
            "votes": {
                "negative": 0,
                "positive": 0,
                "important": 0,
                "liked": 0,
                "disliked": 0,
                "lol": 0,
                "toxic": 0,
                "saved": 0,
                "comments": 0
            }
        },
        {
            "kind": "news",
            "domain": "@oceanprotocol",
            "source": {
                "title": "Ocean Protocol Twitter",
                "region": "en",
                "domain": "twitter.com",
                "path": "@oceanprotocol"
            },
            "title": "Ocean artists! \n\nThanks for creating rad Ocean-themed art  You earned awesome Ocean Protocol swag in our 1st ev\u2026",
            "published_at": "2023-07-11T03:16:58Z",
            "slug": "Ocean-artists-Thanks-for-creating-rad-Ocean-themed-art-You-earned-awesome-Ocean-Protocol-swag-in-our-1st-ev",
            "currencies": [
                {
                    "code": "OCEAN",
                    "title": "Ocean Protocol",
                    "slug": "ocean-protocol",
                    "url": "https:\/\/cryptopanic.com\/news\/ocean-protocol\/"
                }
            ],
            "id": 18757946,
            "url": "https:\/\/cryptopanic.com\/news\/18757946\/Ocean-artists-Thanks-for-creating-rad-Ocean-themed-art-You-earned-awesome-Ocean-Protocol-swag-in-our-1st-ev",
            "created_at": "2023-07-11T03:16:58Z",
            "votes": {
                "negative": 0,
                "positive": 0,
                "important": 0,
                "liked": 0,
                "disliked": 0,
                "lol": 0,
                "toxic": 0,
                "saved": 0,
                "comments": 0
            }
        },
        {
            "kind": "news",
            "domain": "@oceanprotocol",
            "source": {
                "title": "Ocean Protocol Twitter",
                "region": "en",
                "domain": "twitter.com",
                "path": "@oceanprotocol"
            },
            "title": "Jellyfish, like Ocean Protocol, are decentralized by design...\n\nThey have a decentralized \"nerve net\" instead of a\u2026",
            "published_at": "2023-07-11T02:30:01Z",
            "slug": "Jellyfish-like-Ocean-Protocol-are-decentralized-by-design-They-have-a-decentralized-nerve-net-instead-of-a",
            "currencies": [
                {
                    "code": "OCEAN",
                    "title": "Ocean Protocol",
                    "slug": "ocean-protocol",
                    "url": "https:\/\/cryptopanic.com\/news\/ocean-protocol\/"
                }
            ],
            "id": 18757947,
            "url": "https:\/\/cryptopanic.com\/news\/18757947\/Jellyfish-like-Ocean-Protocol-are-decentralized-by-design-They-have-a-decentralized-nerve-net-instead-of-a",
            "created_at": "2023-07-11T02:30:01Z",
            "votes": {
                "negative": 0,
                "positive": 0,
                "important": 0,
                "liked": 0,
                "disliked": 0,
                "lol": 0,
                "toxic": 0,
                "saved": 0,
                "comments": 0
            }
        },
        {
            "kind": "news",
            "domain": "@oceanprotocol",
            "source": {
                "title": "Ocean Protocol Twitter",
                "region": "en",
                "domain": "twitter.com",
                "path": "@oceanprotocol"
            },
            "title": "Product Hunters! \n\nWe selected 15 of you at random to get our finest Ocean swag for upvoting our #oceantemplates p\u2026",
            "published_at": "2023-07-10T16:26:54Z",
            "slug": "Product-Hunters-We-selected-15-of-you-at-random-to-get-our-finest-Ocean-swag-for-upvoting-our-oceantemplates-p",
            "currencies": [
                {
                    "code": "OCEAN",
                    "title": "Ocean Protocol",
                    "slug": "ocean-protocol",
                    "url": "https:\/\/cryptopanic.com\/news\/ocean-protocol\/"
                }
            ],
            "id": 18757948,
            "url": "https:\/\/cryptopanic.com\/news\/18757948\/Product-Hunters-We-selected-15-of-you-at-random-to-get-our-finest-Ocean-swag-for-upvoting-our-oceantemplates-p",
            "created_at": "2023-07-10T16:26:54Z",
            "votes": {
                "negative": 0,
                "positive": 0,
                "important": 0,
                "liked": 0,
                "disliked": 0,
                "lol": 0,
                "toxic": 0,
                "saved": 0,
                "comments": 0
            }
        },
        {
            "kind": "news",
            "domain": "@oceanprotocol",
            "source": {
                "title": "Ocean Protocol Twitter",
                "region": "en",
                "domain": "twitter.com",
                "path": "@oceanprotocol"
            },
            "title": "Get the 'Play by Play' of AI #gametheory \n\nLearn all about Tech Trees!\n\nIRL in PARIS w\/ Ocean's @trentmc0 on Jul\u2026",
            "published_at": "2023-07-10T13:09:52Z",
            "slug": "Get-the-Play-by-Play-of-AI-gametheory-Learn-all-about-Tech-Trees-IRL-in-PARIS-w-Oceans-trentmc0-on-Jul",
            "currencies": [
                {
                    "code": "OCEAN",
                    "title": "Ocean Protocol",
                    "slug": "ocean-protocol",
                    "url": "https:\/\/cryptopanic.com\/news\/ocean-protocol\/"
                }
            ],
            "id": 18757949,
            "url": "https:\/\/cryptopanic.com\/news\/18757949\/Get-the-Play-by-Play-of-AI-gametheory-Learn-all-about-Tech-Trees-IRL-in-PARIS-w-Oceans-trentmc0-on-Jul",
            "created_at": "2023-07-10T13:09:52Z",
            "votes": {
                "negative": 0,
                "positive": 0,
                "important": 0,
                "liked": 0,
                "disliked": 0,
                "lol": 0,
                "toxic": 0,
                "saved": 0,
                "comments": 0
            }
        },
        {
            "kind": "news",
            "domain": "@oceanprotocol",
            "source": {
                "title": "Ocean Protocol Twitter",
                "region": "en",
                "domain": "twitter.com",
                "path": "@oceanprotocol"
            },
            "title": "Wake up and plug in, Ocean style. \ud83e\udde0",
            "published_at": "2023-07-10T06:00:01Z",
            "slug": "Wake-up-and-plug-in-Ocean-style",
            "currencies": [
                {
                    "code": "OCEAN",
                    "title": "Ocean Protocol",
                    "slug": "ocean-protocol",
                    "url": "https:\/\/cryptopanic.com\/news\/ocean-protocol\/"
                }
            ],
            "id": 18750769,
            "url": "https:\/\/cryptopanic.com\/news\/18750769\/Wake-up-and-plug-in-Ocean-style",
            "created_at": "2023-07-10T06:00:01Z",
            "votes": {
                "negative": 0,
                "positive": 0,
                "important": 0,
                "liked": 0,
                "disliked": 0,
                "lol": 0,
                "toxic": 0,
                "saved": 0,
                "comments": 0
            }
        },
        {
            "kind": "news",
            "domain": "@oceanprotocol",
            "source": {
                "title": "Ocean Protocol Twitter",
                "region": "en",
                "domain": "twitter.com",
                "path": "@oceanprotocol"
            },
            "title": "This week, in sum:\n\n We released Ocean Templates on @ProductHunt \n Aaaaand we made it into their top projects new\u2026",
            "published_at": "2023-07-08T02:05:41Z",
            "slug": "This-week-in-sum-We-released-Ocean-Templates-on-ProductHunt-Aaaaand-we-made-it-into-their-top-projects-new",
            "currencies": [
                {
                    "code": "OCEAN",
                    "title": "Ocean Protocol",
                    "slug": "ocean-protocol",
                    "url": "https:\/\/cryptopanic.com\/news\/ocean-protocol\/"
                }
            ],
            "id": 18741657,
            "url": "https:\/\/cryptopanic.com\/news\/18741657\/This-week-in-sum-We-released-Ocean-Templates-on-ProductHunt-Aaaaand-we-made-it-into-their-top-projects-new",
            "created_at": "2023-07-08T02:05:41Z",
            "votes": {
                "negative": 0,
                "positive": 0,
                "important": 0,
                "liked": 0,
                "disliked": 0,
                "lol": 0,
                "toxic": 0,
                "saved": 0,
                "comments": 0
            }
        },
        {
            "kind": "news",
            "domain": "@oceanprotocol",
            "source": {
                "title": "Ocean Protocol Twitter",
                "region": "en",
                "domain": "twitter.com",
                "path": "@oceanprotocol"
            },
            "title": "And it\u2019s a wrap... with @eth_barcelona coming to an end\n\nFrom governance &amp; public goods panels and spicy token en\u2026",
            "published_at": "2023-07-07T18:57:22Z",
            "slug": "And-its-a-wrap-with-eth_barcelona-coming-to-an-end-From-governance-amp-public-goods-panels-and-spicy-token-en",
            "currencies": [
                {
                    "code": "OCEAN",
                    "title": "Ocean Protocol",
                    "slug": "ocean-protocol",
                    "url": "https:\/\/cryptopanic.com\/news\/ocean-protocol\/"
                }
            ],
            "id": 18741658,
            "url": "https:\/\/cryptopanic.com\/news\/18741658\/And-its-a-wrap-with-eth_barcelona-coming-to-an-end-From-governance-amp-public-goods-panels-and-spicy-token-en",
            "created_at": "2023-07-07T18:57:22Z",
            "votes": {
                "negative": 0,
                "positive": 0,
                "important": 0,
                "liked": 0,
                "disliked": 0,
                "lol": 0,
                "toxic": 0,
                "saved": 0,
                "comments": 0
            }
        },
        {
            "kind": "news",
            "domain": "@oceanprotocol",
            "source": {
                "title": "Ocean Protocol Twitter",
                "region": "en",
                "domain": "twitter.com",
                "path": "@oceanprotocol"
            },
            "title": "Fyi! \"It is recommended that all users suspend the use of #Multichain services &amp; revoke all contract approvals rela\u2026",
            "published_at": "2023-07-07T16:55:51Z",
            "slug": "Fyi-It-is-recommended-that-all-users-suspend-the-use-of-Multichain-services-amp-revoke-all-contract-approvals-rela",
            "currencies": [
                {
                    "code": "OCEAN",
                    "title": "Ocean Protocol",
                    "slug": "ocean-protocol",
                    "url": "https:\/\/cryptopanic.com\/news\/ocean-protocol\/"
                }
            ],
            "id": 18741659,
            "url": "https:\/\/cryptopanic.com\/news\/18741659\/Fyi-It-is-recommended-that-all-users-suspend-the-use-of-Multichain-services-amp-revoke-all-contract-approvals-rela",
            "created_at": "2023-07-07T16:55:51Z",
            "votes": {
                "negative": 0,
                "positive": 0,
                "important": 0,
                "liked": 0,
                "disliked": 0,
                "lol": 0,
                "toxic": 0,
                "saved": 0,
                "comments": 0
            }
        },
        {
            "kind": "news",
            "domain": "@oceanprotocol",
            "source": {
                "title": "Ocean Protocol Twitter",
                "region": "en",
                "domain": "twitter.com",
                "path": "@oceanprotocol"
            },
            "title": "Coffee with a side of AI #gametheory \n\nJoin us IRL in PARIS to learn all about Tech Trees w\/ Ocean's @trentmc0 on\u2026",
            "published_at": "2023-07-07T13:04:52Z",
            "slug": "Coffee-with-a-side-of-AI-gametheory-Join-us-IRL-in-PARIS-to-learn-all-about-Tech-Trees-w-Oceans-trentmc0-on",
            "currencies": [
                {
                    "code": "OCEAN",
                    "title": "Ocean Protocol",
                    "slug": "ocean-protocol",
                    "url": "https:\/\/cryptopanic.com\/news\/ocean-protocol\/"
                }
            ],
            "id": 18741660,
            "url": "https:\/\/cryptopanic.com\/news\/18741660\/Coffee-with-a-side-of-AI-gametheory-Join-us-IRL-in-PARIS-to-learn-all-about-Tech-Trees-w-Oceans-trentmc0-on",
            "created_at": "2023-07-07T13:04:52Z",
            "votes": {
                "negative": 0,
                "positive": 0,
                "important": 0,
                "liked": 0,
                "disliked": 0,
                "lol": 0,
                "toxic": 0,
                "saved": 0,
                "comments": 0
            }
        },
        {
            "kind": "news",
            "domain": "@oceanprotocol",
            "source": {
                "title": "Ocean Protocol Twitter",
                "region": "en",
                "domain": "twitter.com",
                "path": "@oceanprotocol"
            },
            "title": "Starting off this Friday...\ufe0f\n\nWith those 1990's Ocean anime vibes @midjourney",
            "published_at": "2023-07-07T02:54:52Z",
            "slug": "Starting-off-this-Friday-With-those-1990s-Ocean-anime-vibes-midjourney",
            "currencies": [
                {
                    "code": "OCEAN",
                    "title": "Ocean Protocol",
                    "slug": "ocean-protocol",
                    "url": "https:\/\/cryptopanic.com\/news\/ocean-protocol\/"
                }
            ],
            "id": 18734219,
            "url": "https:\/\/cryptopanic.com\/news\/18734219\/Starting-off-this-Friday-With-those-1990s-Ocean-anime-vibes-midjourney",
            "created_at": "2023-07-07T02:54:52Z",
            "votes": {
                "negative": 0,
                "positive": 0,
                "important": 0,
                "liked": 0,
                "disliked": 0,
                "lol": 0,
                "toxic": 0,
                "saved": 0,
                "comments": 0
            }
        },
        {
            "kind": "news",
            "domain": "@oceanprotocol",
            "source": {
                "title": "Ocean Protocol Twitter",
                "region": "en",
                "domain": "twitter.com",
                "path": "@oceanprotocol"
            },
            "title": "RT @realdatawhale: With @OceanProtocol\u2019s \u201cTemplates\u201d, anyone can build a data market instantly, out of the box.\n\nOcean Waves is a Template\u2026",
            "published_at": "2023-07-06T19:24:36Z",
            "slug": "RT-realdatawhale-With-OceanProtocols-Templates-anyone-can-build-a-data-market-instantly-out-of-the-box-Ocean-Waves-is-a-Template",
            "currencies": [
                {
                    "code": "OCEAN",
                    "title": "Ocean Protocol",
                    "slug": "ocean-protocol",
                    "url": "https:\/\/cryptopanic.com\/news\/ocean-protocol\/"
                }
            ],
            "id": 18734220,
            "url": "https:\/\/cryptopanic.com\/news\/18734220\/RT-realdatawhale-With-OceanProtocols-Templates-anyone-can-build-a-data-market-instantly-out-of-the-box-Ocean-Waves-is-a-Template",
            "created_at": "2023-07-06T19:24:36Z",
            "votes": {
                "negative": 0,
                "positive": 0,
                "important": 0,
                "liked": 0,
                "disliked": 0,
                "lol": 0,
                "toxic": 0,
                "saved": 0,
                "comments": 0
            }
        },
        {
            "kind": "news",
            "domain": "@oceanprotocol",
            "source": {
                "title": "Ocean Protocol Twitter",
                "region": "en",
                "domain": "twitter.com",
                "path": "@oceanprotocol"
            },
            "title": "Howdy, Data Farmers!\ud83e\udd55\ud83e\udd20\n\nCollect your $OCEAN rewards today from last week's round! \n\nICYMI Data Farming is our\u2026",
            "published_at": "2023-07-06T18:34:59Z",
            "slug": "Howdy-Data-Farmers-Collect-your-OCEAN-rewards-today-from-last-weeks-round-ICYMI-Data-Farming-is-our",
            "currencies": [
                {
                    "code": "OCEAN",
                    "title": "Ocean Protocol",
                    "slug": "ocean-protocol",
                    "url": "https:\/\/cryptopanic.com\/news\/ocean-protocol\/"
                }
            ],
            "id": 18734221,
            "url": "https:\/\/cryptopanic.com\/news\/18734221\/Howdy-Data-Farmers-Collect-your-OCEAN-rewards-today-from-last-weeks-round-ICYMI-Data-Farming-is-our",
            "created_at": "2023-07-06T18:34:59Z",
            "votes": {
                "negative": 0,
                "positive": 0,
                "important": 0,
                "liked": 0,
                "disliked": 0,
                "lol": 0,
                "toxic": 0,
                "saved": 0,
                "comments": 0
            }
        },
        {
            "kind": "news",
            "domain": "@oceanprotocol",
            "source": {
                "title": "Ocean Protocol Twitter",
                "region": "en",
                "domain": "twitter.com",
                "path": "@oceanprotocol"
            },
            "title": "We made it into the @ProductHunt email newsletter today as a top project thanks to you guys who upvoted!!! \u2026",
            "published_at": "2023-07-06T14:29:24Z",
            "slug": "We-made-it-into-the-ProductHunt-email-newsletter-today-as-a-top-project-thanks-to-you-guys-who-upvoted",
            "currencies": [
                {
                    "code": "OCEAN",
                    "title": "Ocean Protocol",
                    "slug": "ocean-protocol",
                    "url": "https:\/\/cryptopanic.com\/news\/ocean-protocol\/"
                }
            ],
            "id": 18734222,
            "url": "https:\/\/cryptopanic.com\/news\/18734222\/We-made-it-into-the-ProductHunt-email-newsletter-today-as-a-top-project-thanks-to-you-guys-who-upvoted",
            "created_at": "2023-07-06T14:29:24Z",
            "votes": {
                "negative": 0,
                "positive": 0,
                "important": 0,
                "liked": 0,
                "disliked": 0,
                "lol": 0,
                "toxic": 0,
                "saved": 0,
                "comments": 0
            }
        },
        {
            "kind": "news",
            "domain": "@oceanprotocol",
            "source": {
                "title": "Ocean Protocol Twitter",
                "region": "en",
                "domain": "twitter.com",
                "path": "@oceanprotocol"
            },
            "title": "Join us LIVE with our friends at @0xPolygonLabs talking everything scalability and #ZK technology",
            "published_at": "2023-07-06T13:08:26Z",
            "slug": "Join-us-LIVE-with-our-friends-at-0xPolygonLabs-talking-everything-scalability-and-ZK-technology",
            "currencies": [
                {
                    "code": "OCEAN",
                    "title": "Ocean Protocol",
                    "slug": "ocean-protocol",
                    "url": "https:\/\/cryptopanic.com\/news\/ocean-protocol\/"
                }
            ],
            "id": 18734223,
            "url": "https:\/\/cryptopanic.com\/news\/18734223\/Join-us-LIVE-with-our-friends-at-0xPolygonLabs-talking-everything-scalability-and-ZK-technology",
            "created_at": "2023-07-06T13:08:26Z",
            "votes": {
                "negative": 0,
                "positive": 0,
                "important": 0,
                "liked": 0,
                "disliked": 0,
                "lol": 0,
                "toxic": 0,
                "saved": 0,
                "comments": 0
            }
        },
        {
            "kind": "news",
            "domain": "@oceanprotocol",
            "source": {
                "title": "Ocean Protocol Twitter",
                "region": "en",
                "domain": "twitter.com",
                "path": "@oceanprotocol"
            },
            "title": "Back to talking Public Goods!\ud83e\udec2 \n\nAccording to @vegaypatino, Steward at @ENS_DAO:\n\n\"Impact as a Public Goods isn't a\u2026",
            "published_at": "2023-07-06T09:00:07Z",
            "slug": "Back-to-talking-Public-Goods-According-to-vegaypatino-Steward-at-ENS_DAO-Impact-as-a-Public-Goods-isnt-a",
            "currencies": [
                {
                    "code": "OCEAN",
                    "title": "Ocean Protocol",
                    "slug": "ocean-protocol",
                    "url": "https:\/\/cryptopanic.com\/news\/ocean-protocol\/"
                }
            ],
            "id": 18734224,
            "url": "https:\/\/cryptopanic.com\/news\/18734224\/Back-to-talking-Public-Goods-According-to-vegaypatino-Steward-at-ENS_DAO-Impact-as-a-Public-Goods-isnt-a",
            "created_at": "2023-07-06T09:00:07Z",
            "votes": {
                "negative": 0,
                "positive": 0,
                "important": 0,
                "liked": 0,
                "disliked": 0,
                "lol": 0,
                "toxic": 0,
                "saved": 0,
                "comments": 0
            }
        },
        {
            "kind": "news",
            "domain": "@oceanprotocol",
            "source": {
                "title": "Ocean Protocol Twitter",
                "region": "en",
                "domain": "twitter.com",
                "path": "@oceanprotocol"
            },
            "title": "GM Changemakers\ufe0f\n\nThe beginning of the future continues today at @eth_barcelona with our frens from @useOrbis,\u2026",
            "published_at": "2023-07-06T05:56:02Z",
            "slug": "GM-Changemakers-The-beginning-of-the-future-continues-today-at-eth_barcelona-with-our-frens-from-useOrbis",
            "currencies": [
                {
                    "code": "OCEAN",
                    "title": "Ocean Protocol",
                    "slug": "ocean-protocol",
                    "url": "https:\/\/cryptopanic.com\/news\/ocean-protocol\/"
                }
            ],
            "id": 18725750,
            "url": "https:\/\/cryptopanic.com\/news\/18725750\/GM-Changemakers-The-beginning-of-the-future-continues-today-at-eth_barcelona-with-our-frens-from-useOrbis",
            "created_at": "2023-07-06T05:56:02Z",
            "votes": {
                "negative": 0,
                "positive": 0,
                "important": 0,
                "liked": 0,
                "disliked": 0,
                "lol": 0,
                "toxic": 0,
                "saved": 0,
                "comments": 0
            }
        }
    ]
}
