{
    "count": 200,
    "next": "https:\/\/cryptopanic.com\/api\/v1\/posts\/?auth_token=01c356e89ffc1b8eba2127c81fc8c66ee0eace75&kind=news&currencies=PROS&page=2",
    "previous": null,
    "results": [
        {
            "kind": "news",
            "domain": "@Prosperpredict",
            "votes": {
                "negative": 0,
                "positive": 1,
                "important": 1,
                "liked": 1,
                "disliked": 0,
                "lol": 0,
                "toxic": 0,
                "saved": 0,
                "comments": 0
            },
            "source": {
                "title": "Prosper Twitter",
                "region": "en",
                "domain": "twitter.com",
                "path": "@prosperpredict"
            },
            "title": "#ProsperFundamentals: Decentralisation\n#Prosper uses the blochain's decentralisation to ensure maximum precision of\u2026",
            "published_at": "2021-12-14T18:02:32Z",
            "slug": "ProsperFundamentals-Decentralisation-Prosper-uses-the-blochains-decentralisation-to-ensure-maximum-precision-of",
            "currencies": [
                {
                    "code": "PROS",
                    "title": "Prosper",
                    "slug": "prosper",
                    "url": "https:\/\/cryptopanic.com\/news\/prosper\/"
                }
            ],
            "id": 13674741,
            "url": "https:\/\/cryptopanic.com\/news\/13674741\/ProsperFundamentals-Decentralisation-Prosper-uses-the-blochains-decentralisation-to-ensure-maximum-precision-of",
            "created_at": "2021-12-14T18:02:32Z"
        },
        {
            "kind": "news",
            "domain": "@Prosperpredict",
            "votes": {
                "negative": 0,
                "positive": 1,
                "important": 1,
                "liked": 1,
                "disliked": 0,
                "lol": 0,
                "toxic": 0,
                "saved": 0,
                "comments": 0
            },
            "source": {
                "title": "Prosper Twitter",
                "region": "en",
                "domain": "twitter.com",
                "path": "@prosperpredict"
            },
            "title": "#ProsperFundamentals: Non Custodial\n#Prosper protects its predictions core security and its users by not interferin\u2026",
            "published_at": "2021-12-13T18:08:12Z",
            "slug": "ProsperFundamentals-Non-Custodial-Prosper-protects-its-predictions-core-security-and-its-users-by-not-interferin",
            "currencies": [
                {
                    "code": "PROS",
                    "title": "Prosper",
                    "slug": "prosper",
                    "url": "https:\/\/cryptopanic.com\/news\/prosper\/"
                }
            ],
            "id": 13662680,
            "url": "https:\/\/cryptopanic.com\/news\/13662680\/ProsperFundamentals-Non-Custodial-Prosper-protects-its-predictions-core-security-and-its-users-by-not-interferin",
            "created_at": "2021-12-13T18:08:12Z"
        },
        {
            "kind": "news",
            "domain": "@Prosperpredict",
            "votes": {
                "negative": 0,
                "positive": 1,
                "important": 1,
                "liked": 1,
                "disliked": 0,
                "lol": 0,
                "toxic": 0,
                "saved": 0,
                "comments": 0
            },
            "source": {
                "title": "Prosper Twitter",
                "region": "en",
                "domain": "twitter.com",
                "path": "@prosperpredict"
            },
            "title": "#ProsperFundamentals: Prediction Markets\n#Prosper is aiming at leading the field for Prediction Markets. We are pos\u2026",
            "published_at": "2021-12-12T17:57:09Z",
            "slug": "ProsperFundamentals-Prediction-Markets-Prosper-is-aiming-at-leading-the-field-for-Prediction-Markets-We-are-pos",
            "currencies": [
                {
                    "code": "PROS",
                    "title": "Prosper",
                    "slug": "prosper",
                    "url": "https:\/\/cryptopanic.com\/news\/prosper\/"
                }
            ],
            "id": 13651832,
            "url": "https:\/\/cryptopanic.com\/news\/13651832\/ProsperFundamentals-Prediction-Markets-Prosper-is-aiming-at-leading-the-field-for-Prediction-Markets-We-are-pos",
            "created_at": "2021-12-12T17:57:09Z"
        },
        {
            "kind": "news",
            "domain": "@Prosperpredict",
            "source": {
                "title": "Prosper Twitter",
                "region": "en",
                "domain": "twitter.com",
                "path": "@prosperpredict"
            },
            "title": "(Re) Discover #Prosper's key strengths and fundamentals in our article here : \n$PROS\u2026",
            "published_at": "2021-12-11T18:04:01Z",
            "slug": "Re-Discover-Prospers-key-strengths-and-fundamentals-in-our-article-here-PROS",
            "currencies": [
                {
                    "code": "PROS",
                    "title": "Prosper",
                    "slug": "prosper",
                    "url": "https:\/\/cryptopanic.com\/news\/prosper\/"
                }
            ],
            "id": 13643197,
            "url": "https:\/\/cryptopanic.com\/news\/13643197\/Re-Discover-Prospers-key-strengths-and-fundamentals-in-our-article-here-PROS",
            "created_at": "2021-12-11T18:04:01Z",
            "votes": {
                "negative": 0,
                "positive": 0,
                "important": 0,
                "liked": 0,
                "disliked": 0,
                "lol": 0,
                "toxic": 0,
                "saved": 0,
                "comments": 0
            }
        },
        {
            "kind": "news",
            "domain": "@Prosperpredict",
            "votes": {
                "negative": 0,
                "positive": 1,
                "important": 1,
                "liked": 1,
                "disliked": 0,
                "lol": 0,
                "toxic": 0,
                "saved": 0,
                "comments": 0
            },
            "source": {
                "title": "Prosper Twitter",
                "region": "en",
                "domain": "twitter.com",
                "path": "@prosperpredict"
            },
            "title": "RT @ysiu: 1\/ .@animocabrands is proud to announce our financial results for the first 3 quarters of the year with income at approx. $530m\u2026",
            "published_at": "2021-12-08T21:59:08Z",
            "slug": "RT-ysiu-1-animocabrands-is-proud-to-announce-our-financial-results-for-the-first-3-quarters-of-the-year-with-income-at-approx-530m",
            "currencies": [
                {
                    "code": "PROS",
                    "title": "Prosper",
                    "slug": "prosper",
                    "url": "https:\/\/cryptopanic.com\/news\/prosper\/"
                }
            ],
            "id": 13610372,
            "url": "https:\/\/cryptopanic.com\/news\/13610372\/RT-ysiu-1-animocabrands-is-proud-to-announce-our-financial-results-for-the-first-3-quarters-of-the-year-with-income-at-approx-530m",
            "created_at": "2021-12-08T21:59:08Z"
        },
        {
            "kind": "news",
            "domain": "@Prosperpredict",
            "source": {
                "title": "Prosper Twitter",
                "region": "en",
                "domain": "twitter.com",
                "path": "@prosperpredict"
            },
            "title": "RT @BinanceChain: Announcing our collaboration of a $200M Joint Investment Program with @animocabrands to accelerate GameFi projects on #BS\u2026",
            "published_at": "2021-12-06T13:00:08Z",
            "slug": "RT-BinanceChain-Announcing-our-collaboration-of-a-200M-Joint-Investment-Program-with-animocabrands-to-accelerate-GameFi-projects-on-BS",
            "currencies": [
                {
                    "code": "PROS",
                    "title": "Prosper",
                    "slug": "prosper",
                    "url": "https:\/\/cryptopanic.com\/news\/prosper\/"
                }
            ],
            "id": 13587128,
            "url": "https:\/\/cryptopanic.com\/news\/13587128\/RT-BinanceChain-Announcing-our-collaboration-of-a-200M-Joint-Investment-Program-with-animocabrands-to-accelerate-GameFi-projects-on-BS",
            "created_at": "2021-12-06T13:00:08Z",
            "votes": {
                "negative": 0,
                "positive": 0,
                "important": 0,
                "liked": 0,
                "disliked": 0,
                "lol": 0,
                "toxic": 0,
                "saved": 0,
                "comments": 0
            }
        },
        {
            "kind": "news",
            "domain": "@Prosperpredict",
            "source": {
                "title": "Prosper Twitter",
                "region": "en",
                "domain": "twitter.com",
                "path": "@prosperpredict"
            },
            "title": "Read our introduction about #Prosper's user statistics and their endless possibilities for Prosper's gamification i\u2026",
            "published_at": "2021-11-25T18:01:02Z",
            "slug": "Read-our-introduction-about-Prospers-user-statistics-and-their-endless-possibilities-for-Prospers-gamification-i",
            "currencies": [
                {
                    "code": "PROS",
                    "title": "Prosper",
                    "slug": "prosper",
                    "url": "https:\/\/cryptopanic.com\/news\/prosper\/"
                }
            ],
            "id": 13469700,
            "url": "https:\/\/cryptopanic.com\/news\/13469700\/Read-our-introduction-about-Prospers-user-statistics-and-their-endless-possibilities-for-Prospers-gamification-i",
            "created_at": "2021-11-25T18:01:02Z",
            "votes": {
                "negative": 0,
                "positive": 0,
                "important": 0,
                "liked": 0,
                "disliked": 0,
                "lol": 0,
                "toxic": 0,
                "saved": 0,
                "comments": 0
            }
        },
        {
            "kind": "news",
            "domain": "@Prosperpredict",
            "source": {
                "title": "Prosper Twitter",
                "region": "en",
                "domain": "twitter.com",
                "path": "@prosperpredict"
            },
            "title": " End of $AXS #PROSPER mining event report \n\nIt's time for a few numbers, read our report of the event here :\u2026",
            "published_at": "2021-11-22T18:22:56Z",
            "slug": "End-of-AXS-PROSPER-mining-event-report-Its-time-for-a-few-numbers-read-our-report-of-the-event-here",
            "currencies": [
                {
                    "code": "PROS",
                    "title": "Prosper",
                    "slug": "prosper",
                    "url": "https:\/\/cryptopanic.com\/news\/prosper\/"
                },
                {
                    "code": "AXS",
                    "title": "Axie Infinity",
                    "slug": "axie-infinity",
                    "url": "https:\/\/cryptopanic.com\/news\/axie-infinity\/"
                }
            ],
            "id": 13431677,
            "url": "https:\/\/cryptopanic.com\/news\/13431677\/End-of-AXS-PROSPER-mining-event-report-Its-time-for-a-few-numbers-read-our-report-of-the-event-here",
            "created_at": "2021-11-22T18:22:56Z",
            "votes": {
                "negative": 0,
                "positive": 0,
                "important": 0,
                "liked": 0,
                "disliked": 0,
                "lol": 0,
                "toxic": 0,
                "saved": 0,
                "comments": 0
            }
        },
        {
            "kind": "news",
            "domain": "@Prosperpredict",
            "source": {
                "title": "Prosper Twitter",
                "region": "en",
                "domain": "twitter.com",
                "path": "@prosperpredict"
            },
            "title": "The Mining event just ended with the pool 960 closing! the pools will keep going and you can still predict on\u2026",
            "published_at": "2021-11-21T01:25:01Z",
            "slug": "The-Mining-event-just-ended-with-the-pool-960-closing-the-pools-will-keep-going-and-you-can-still-predict-on",
            "currencies": [
                {
                    "code": "PROS",
                    "title": "Prosper",
                    "slug": "prosper",
                    "url": "https:\/\/cryptopanic.com\/news\/prosper\/"
                }
            ],
            "id": 13411201,
            "url": "https:\/\/cryptopanic.com\/news\/13411201\/The-Mining-event-just-ended-with-the-pool-960-closing-the-pools-will-keep-going-and-you-can-still-predict-on",
            "created_at": "2021-11-21T01:25:01Z",
            "votes": {
                "negative": 0,
                "positive": 0,
                "important": 0,
                "liked": 0,
                "disliked": 0,
                "lol": 0,
                "toxic": 0,
                "saved": 0,
                "comments": 0
            }
        },
        {
            "kind": "news",
            "domain": "@Prosperpredict",
            "source": {
                "title": "Prosper Twitter",
                "region": "en",
                "domain": "twitter.com",
                "path": "@prosperpredict"
            },
            "title": "30 last pools! Predict the price of $AXS on 1h on before the end of our event to earn\u2026",
            "published_at": "2021-11-20T16:55:54Z",
            "slug": "30-last-pools-Predict-the-price-of-AXS-on-1h-on-before-the-end-of-our-event-to-earn",
            "currencies": [
                {
                    "code": "PROS",
                    "title": "Prosper",
                    "slug": "prosper",
                    "url": "https:\/\/cryptopanic.com\/news\/prosper\/"
                },
                {
                    "code": "AXS",
                    "title": "Axie Infinity",
                    "slug": "axie-infinity",
                    "url": "https:\/\/cryptopanic.com\/news\/axie-infinity\/"
                }
            ],
            "id": 13411202,
            "url": "https:\/\/cryptopanic.com\/news\/13411202\/30-last-pools-Predict-the-price-of-AXS-on-1h-on-before-the-end-of-our-event-to-earn",
            "created_at": "2021-11-20T16:55:54Z",
            "votes": {
                "negative": 0,
                "positive": 0,
                "important": 0,
                "liked": 0,
                "disliked": 0,
                "lol": 0,
                "toxic": 0,
                "saved": 0,
                "comments": 0
            }
        },
        {
            "kind": "news",
            "domain": "@Prosperpredict",
            "source": {
                "title": "Prosper Twitter",
                "region": "en",
                "domain": "twitter.com",
                "path": "@prosperpredict"
            },
            "title": "Our Mining event will end with Pool 960 , or Sunday 21\/11, 00:20 AM UTC ! We are now launching pool 840 w\u2026",
            "published_at": "2021-11-19T18:15:28Z",
            "slug": "Our-Mining-event-will-end-with-Pool-960-or-Sunday-2111-0020-AM-UTC-We-are-now-launching-pool-840-w",
            "currencies": [
                {
                    "code": "PROS",
                    "title": "Prosper",
                    "slug": "prosper",
                    "url": "https:\/\/cryptopanic.com\/news\/prosper\/"
                }
            ],
            "id": 13402800,
            "url": "https:\/\/cryptopanic.com\/news\/13402800\/Our-Mining-event-will-end-with-Pool-960-or-Sunday-2111-0020-AM-UTC-We-are-now-launching-pool-840-w",
            "created_at": "2021-11-19T18:15:28Z",
            "votes": {
                "negative": 0,
                "positive": 0,
                "important": 0,
                "liked": 0,
                "disliked": 0,
                "lol": 0,
                "toxic": 0,
                "saved": 0,
                "comments": 0
            }
        },
        {
            "kind": "news",
            "domain": "@Prosperpredict",
            "source": {
                "title": "Prosper Twitter",
                "region": "en",
                "domain": "twitter.com",
                "path": "@prosperpredict"
            },
            "title": "RT @animocabrands: The QUIDD token has been listed on @PancakeSwap paired with $WBNB, @REVV_Token, @TowerToken, $LMT, $PROS, and $BONDLY\n\n@\u2026",
            "published_at": "2021-11-19T13:29:15Z",
            "slug": "RT-animocabrands-The-QUIDD-token-has-been-listed-on-PancakeSwap-paired-with-WBNB-REVV_Token-TowerToken-LMT-PROS-and-BONDLY",
            "currencies": [
                {
                    "code": "PROS",
                    "title": "Prosper",
                    "slug": "prosper",
                    "url": "https:\/\/cryptopanic.com\/news\/prosper\/"
                }
            ],
            "id": 13402801,
            "url": "https:\/\/cryptopanic.com\/news\/13402801\/RT-animocabrands-The-QUIDD-token-has-been-listed-on-PancakeSwap-paired-with-WBNB-REVV_Token-TowerToken-LMT-PROS-and-BONDLY",
            "created_at": "2021-11-19T13:29:15Z",
            "votes": {
                "negative": 0,
                "positive": 0,
                "important": 0,
                "liked": 0,
                "disliked": 0,
                "lol": 0,
                "toxic": 0,
                "saved": 0,
                "comments": 0
            }
        },
        {
            "kind": "news",
            "domain": "@Prosperpredict",
            "source": {
                "title": "Prosper Twitter",
                "region": "en",
                "domain": "twitter.com",
                "path": "@prosperpredict"
            },
            "title": "There is now only 2 days - approximately 190x 1h pools - to predict on on the price of $AXS\u2026",
            "published_at": "2021-11-18T18:23:45Z",
            "slug": "There-is-now-only-2-days-approximately-190x-1h-pools-to-predict-on-on-the-price-of-AXS",
            "currencies": [
                {
                    "code": "PROS",
                    "title": "Prosper",
                    "slug": "prosper",
                    "url": "https:\/\/cryptopanic.com\/news\/prosper\/"
                }
            ],
            "id": 13391382,
            "url": "https:\/\/cryptopanic.com\/news\/13391382\/There-is-now-only-2-days-approximately-190x-1h-pools-to-predict-on-on-the-price-of-AXS",
            "created_at": "2021-11-18T18:23:45Z",
            "votes": {
                "negative": 0,
                "positive": 0,
                "important": 0,
                "liked": 0,
                "disliked": 0,
                "lol": 0,
                "toxic": 0,
                "saved": 0,
                "comments": 0
            }
        },
        {
            "kind": "news",
            "domain": "@Prosperpredict",
            "source": {
                "title": "Prosper Twitter",
                "region": "en",
                "domain": "twitter.com",
                "path": "@prosperpredict"
            },
            "title": "Take your chance to win one of the 10x 60 $USD in $PROS rewards by sharing your #Prosper Prediction on Twitter! Pla\u2026",
            "published_at": "2021-11-17T18:01:05Z",
            "slug": "Take-your-chance-to-win-one-of-the-10x-60-USD-in-PROS-rewards-by-sharing-your-Prosper-Prediction-on-Twitter-Pla",
            "currencies": [
                {
                    "code": "PROS",
                    "title": "Prosper",
                    "slug": "prosper",
                    "url": "https:\/\/cryptopanic.com\/news\/prosper\/"
                }
            ],
            "id": 13377186,
            "url": "https:\/\/cryptopanic.com\/news\/13377186\/Take-your-chance-to-win-one-of-the-10x-60-USD-in-PROS-rewards-by-sharing-your-Prosper-Prediction-on-Twitter-Pla",
            "created_at": "2021-11-17T18:01:05Z",
            "votes": {
                "negative": 0,
                "positive": 0,
                "important": 0,
                "liked": 0,
                "disliked": 0,
                "lol": 0,
                "toxic": 0,
                "saved": 0,
                "comments": 0
            }
        },
        {
            "kind": "news",
            "domain": "@Prosperpredict",
            "source": {
                "title": "Prosper Twitter",
                "region": "en",
                "domain": "twitter.com",
                "path": "@prosperpredict"
            },
            "title": "is now resuming after a short stop due to BSC instability. We are almost one week into our\u2026",
            "published_at": "2021-11-16T19:18:13Z",
            "slug": "is-now-resuming-after-a-short-stop-due-to-BSC-instability-We-are-almost-one-week-into-our",
            "currencies": [
                {
                    "code": "PROS",
                    "title": "Prosper",
                    "slug": "prosper",
                    "url": "https:\/\/cryptopanic.com\/news\/prosper\/"
                }
            ],
            "id": 13364500,
            "url": "https:\/\/cryptopanic.com\/news\/13364500\/is-now-resuming-after-a-short-stop-due-to-BSC-instability-We-are-almost-one-week-into-our",
            "created_at": "2021-11-16T19:18:13Z",
            "votes": {
                "negative": 0,
                "positive": 0,
                "important": 0,
                "liked": 0,
                "disliked": 0,
                "lol": 0,
                "toxic": 0,
                "saved": 0,
                "comments": 0
            }
        },
        {
            "kind": "news",
            "domain": "@Prosperpredict",
            "source": {
                "title": "Prosper Twitter",
                "region": "en",
                "domain": "twitter.com",
                "path": "@prosperpredict"
            },
            "title": "Behold mighty bulls and courageous bears, as the battle is fierce!\nOur predictors need you to make a difference!\nJo\u2026",
            "published_at": "2021-11-15T17:02:36Z",
            "slug": "Behold-mighty-bulls-and-courageous-bears-as-the-battle-is-fierce-Our-predictors-need-you-to-make-a-difference-Jo",
            "currencies": [
                {
                    "code": "PROS",
                    "title": "Prosper",
                    "slug": "prosper",
                    "url": "https:\/\/cryptopanic.com\/news\/prosper\/"
                }
            ],
            "id": 13352605,
            "url": "https:\/\/cryptopanic.com\/news\/13352605\/Behold-mighty-bulls-and-courageous-bears-as-the-battle-is-fierce-Our-predictors-need-you-to-make-a-difference-Jo",
            "created_at": "2021-11-15T17:02:36Z",
            "votes": {
                "negative": 0,
                "positive": 0,
                "important": 0,
                "liked": 0,
                "disliked": 0,
                "lol": 0,
                "toxic": 0,
                "saved": 0,
                "comments": 0
            }
        },
        {
            "kind": "news",
            "domain": "@Prosperpredict",
            "source": {
                "title": "Prosper Twitter",
                "region": "en",
                "domain": "twitter.com",
                "path": "@prosperpredict"
            },
            "title": "RT @ysiu: 1\/ .@animocabrands is proud to be partnering with .@cubeunited to deliver the #kpop Metaverse with a genre of culture that is al\u2026",
            "published_at": "2021-11-15T15:24:59Z",
            "slug": "RT-ysiu-1-animocabrands-is-proud-to-be-partnering-with-cubeunited-to-deliver-the-kpop-Metaverse-with-a-genre-of-culture-that-is-al",
            "currencies": [
                {
                    "code": "PROS",
                    "title": "Prosper",
                    "slug": "prosper",
                    "url": "https:\/\/cryptopanic.com\/news\/prosper\/"
                }
            ],
            "id": 13352606,
            "url": "https:\/\/cryptopanic.com\/news\/13352606\/RT-ysiu-1-animocabrands-is-proud-to-be-partnering-with-cubeunited-to-deliver-the-kpop-Metaverse-with-a-genre-of-culture-that-is-al",
            "created_at": "2021-11-15T15:24:59Z",
            "votes": {
                "negative": 0,
                "positive": 0,
                "important": 0,
                "liked": 0,
                "disliked": 0,
                "lol": 0,
                "toxic": 0,
                "saved": 0,
                "comments": 0
            }
        },
        {
            "kind": "news",
            "domain": "@Prosperpredict",
            "source": {
                "title": "Prosper Twitter",
                "region": "en",
                "domain": "twitter.com",
                "path": "@prosperpredict"
            },
            "title": "Share your predictions on twitter to win $PROS!\n10 random Prediction tweets shared from the #Prosper platform will\u2026",
            "published_at": "2021-11-14T09:58:43Z",
            "slug": "Share-your-predictions-on-twitter-to-win-PROS-10-random-Prediction-tweets-shared-from-the-Prosper-platform-will",
            "currencies": [
                {
                    "code": "PROS",
                    "title": "Prosper",
                    "slug": "prosper",
                    "url": "https:\/\/cryptopanic.com\/news\/prosper\/"
                }
            ],
            "id": 13339400,
            "url": "https:\/\/cryptopanic.com\/news\/13339400\/Share-your-predictions-on-twitter-to-win-PROS-10-random-Prediction-tweets-shared-from-the-Prosper-platform-will",
            "created_at": "2021-11-14T09:58:43Z",
            "votes": {
                "negative": 0,
                "positive": 0,
                "important": 0,
                "liked": 0,
                "disliked": 0,
                "lol": 0,
                "toxic": 0,
                "saved": 0,
                "comments": 0
            }
        },
        {
            "kind": "news",
            "domain": "@Prosperpredict",
            "source": {
                "title": "Prosper Twitter",
                "region": "en",
                "domain": "twitter.com",
                "path": "@prosperpredict"
            },
            "title": "There are only 8 days left for you to craft your best predictions on the price of $AXS and snatch your part of our\u2026",
            "published_at": "2021-11-12T16:57:31Z",
            "slug": "There-are-only-8-days-left-for-you-to-craft-your-best-predictions-on-the-price-of-AXS-and-snatch-your-part-of-our",
            "currencies": [
                {
                    "code": "PROS",
                    "title": "Prosper",
                    "slug": "prosper",
                    "url": "https:\/\/cryptopanic.com\/news\/prosper\/"
                },
                {
                    "code": "AXS",
                    "title": "Axie Infinity",
                    "slug": "axie-infinity",
                    "url": "https:\/\/cryptopanic.com\/news\/axie-infinity\/"
                }
            ],
            "id": 13322657,
            "url": "https:\/\/cryptopanic.com\/news\/13322657\/There-are-only-8-days-left-for-you-to-craft-your-best-predictions-on-the-price-of-AXS-and-snatch-your-part-of-our",
            "created_at": "2021-11-12T16:57:31Z",
            "votes": {
                "negative": 0,
                "positive": 0,
                "important": 0,
                "liked": 0,
                "disliked": 0,
                "lol": 0,
                "toxic": 0,
                "saved": 0,
                "comments": 0
            }
        },
        {
            "kind": "news",
            "domain": "@Prosperpredict",
            "source": {
                "title": "Prosper Twitter",
                "region": "en",
                "domain": "twitter.com",
                "path": "@prosperpredict"
            },
            "title": "Our $AXS mining event event launched yesterday and predictors already earned 120k $REVV by predicting 440 total\u2026",
            "published_at": "2021-11-11T17:21:34Z",
            "slug": "Our-AXS-mining-event-event-launched-yesterday-and-predictors-already-earned-120k-REVV-by-predicting-440-total",
            "currencies": [
                {
                    "code": "PROS",
                    "title": "Prosper",
                    "slug": "prosper",
                    "url": "https:\/\/cryptopanic.com\/news\/prosper\/"
                },
                {
                    "code": "AXS",
                    "title": "Axie Infinity",
                    "slug": "axie-infinity",
                    "url": "https:\/\/cryptopanic.com\/news\/axie-infinity\/"
                }
            ],
            "id": 13309578,
            "url": "https:\/\/cryptopanic.com\/news\/13309578\/Our-AXS-mining-event-event-launched-yesterday-and-predictors-already-earned-120k-REVV-by-predicting-440-total",
            "created_at": "2021-11-11T17:21:34Z",
            "votes": {
                "negative": 0,
                "positive": 0,
                "important": 0,
                "liked": 0,
                "disliked": 0,
                "lol": 0,
                "toxic": 0,
                "saved": 0,
                "comments": 0
            }
        }
    ]
}
