{
    "count": 200,
    "next": "https:\/\/cryptopanic.com\/api\/v1\/posts\/?auth_token=01c356e89ffc1b8eba2127c81fc8c66ee0eace75&kind=news&currencies=ACH&page=2",
    "previous": null,
    "results": [
        {
            "kind": "news",
            "domain": "@AlchemyPay",
            "source": {
                "title": "Alchemy Pay Twitter",
                "region": "en",
                "domain": "twitter.com",
                "path": "@alchemypay"
            },
            "title": "#AlchemyPay Adds Bank Transfer for Crypto Purchases in the #Turkey \n\nWith the support of domestic bank transfers,\u2026",
            "published_at": "2023-07-11T09:24:10Z",
            "slug": "AlchemyPay-Adds-Bank-Transfer-for-Crypto-Purchases-in-the-Turkey-With-the-support-of-domestic-bank-transfers",
            "currencies": [
                {
                    "code": "ACH",
                    "title": "Alchemy Pay",
                    "slug": "alchemy-pay",
                    "url": "https:\/\/cryptopanic.com\/news\/alchemy-pay\/"
                }
            ],
            "id": 18762434,
            "url": "https:\/\/cryptopanic.com\/news\/18762434\/AlchemyPay-Adds-Bank-Transfer-for-Crypto-Purchases-in-the-Turkey-With-the-support-of-domestic-bank-transfers",
            "created_at": "2023-07-11T09:24:10Z",
            "votes": {
                "negative": 0,
                "positive": 0,
                "important": 0,
                "liked": 0,
                "disliked": 0,
                "lol": 0,
                "toxic": 0,
                "saved": 0,
                "comments": 0
            }
        },
        {
            "kind": "news",
            "domain": "@AlchemyPay",
            "source": {
                "title": "Alchemy Pay Twitter",
                "region": "en",
                "domain": "twitter.com",
                "path": "@alchemypay"
            },
            "title": "RT @AlchemyPayNews_: Thrilled to announce the upcoming #AMA with #BitMart tomorrow at 14:00 PM UTC!\n\nCurious about @BitMartExchange? [Lea\u2026",
            "published_at": "2023-07-11T08:07:05Z",
            "slug": "RT-AlchemyPayNews_-Thrilled-to-announce-the-upcoming-AMA-with-BitMart-tomorrow-at-1400-PM-UTC-Curious-about-BitMartExchange-Lea",
            "currencies": [
                {
                    "code": "ACH",
                    "title": "Alchemy Pay",
                    "slug": "alchemy-pay",
                    "url": "https:\/\/cryptopanic.com\/news\/alchemy-pay\/"
                }
            ],
            "id": 18762435,
            "url": "https:\/\/cryptopanic.com\/news\/18762435\/RT-AlchemyPayNews_-Thrilled-to-announce-the-upcoming-AMA-with-BitMart-tomorrow-at-1400-PM-UTC-Curious-about-BitMartExchange-Lea",
            "created_at": "2023-07-11T08:07:05Z",
            "votes": {
                "negative": 0,
                "positive": 0,
                "important": 0,
                "liked": 0,
                "disliked": 0,
                "lol": 0,
                "toxic": 0,
                "saved": 0,
                "comments": 0
            }
        },
        {
            "kind": "news",
            "domain": "@AlchemyPay",
            "source": {
                "title": "Alchemy Pay Twitter",
                "region": "en",
                "domain": "twitter.com",
                "path": "@alchemypay"
            },
            "title": "Join our Tweet Quest Challenge and share your positive experience with the project! Tweet about our features and be\u2026",
            "published_at": "2023-07-10T07:18:59Z",
            "slug": "Join-our-Tweet-Quest-Challenge-and-share-your-positive-experience-with-the-project-Tweet-about-our-features-and-be",
            "currencies": [
                {
                    "code": "ACH",
                    "title": "Alchemy Pay",
                    "slug": "alchemy-pay",
                    "url": "https:\/\/cryptopanic.com\/news\/alchemy-pay\/"
                }
            ],
            "id": 18754292,
            "url": "https:\/\/cryptopanic.com\/news\/18754292\/Join-our-Tweet-Quest-Challenge-and-share-your-positive-experience-with-the-project-Tweet-about-our-features-and-be",
            "created_at": "2023-07-10T07:18:59Z",
            "votes": {
                "negative": 0,
                "positive": 0,
                "important": 0,
                "liked": 0,
                "disliked": 0,
                "lol": 0,
                "toxic": 0,
                "saved": 0,
                "comments": 0
            }
        },
        {
            "kind": "news",
            "domain": "@AlchemyPay",
            "source": {
                "title": "Alchemy Pay Twitter",
                "region": "en",
                "domain": "twitter.com",
                "path": "@alchemypay"
            },
            "title": "RT @WOWEARNENG:  Exciting partnership with @AlchemyPay\n\n 173 countries, seamless fiat-crypto purchases! \n Visa, Mastercard, mobile wall\u2026",
            "published_at": "2023-07-10T04:48:48Z",
            "slug": "RT-WOWEARNENG-Exciting-partnership-with-AlchemyPay-173-countries-seamless-fiat-crypto-purchases-Visa-Mastercard-mobile-wall",
            "currencies": [
                {
                    "code": "ACH",
                    "title": "Alchemy Pay",
                    "slug": "alchemy-pay",
                    "url": "https:\/\/cryptopanic.com\/news\/alchemy-pay\/"
                }
            ],
            "id": 18748666,
            "url": "https:\/\/cryptopanic.com\/news\/18748666\/RT-WOWEARNENG-Exciting-partnership-with-AlchemyPay-173-countries-seamless-fiat-crypto-purchases-Visa-Mastercard-mobile-wall",
            "created_at": "2023-07-10T04:48:48Z",
            "votes": {
                "negative": 0,
                "positive": 0,
                "important": 0,
                "liked": 0,
                "disliked": 0,
                "lol": 0,
                "toxic": 0,
                "saved": 0,
                "comments": 0
            }
        },
        {
            "kind": "news",
            "domain": "@AlchemyPay",
            "source": {
                "title": "Alchemy Pay Twitter",
                "region": "en",
                "domain": "twitter.com",
                "path": "@alchemypay"
            },
            "title": "Discover how #AlchemyPay's #Crypto Virtual Card Service can empower your project and fortify your token economy con\u2026",
            "published_at": "2023-07-07T07:01:59Z",
            "slug": "Discover-how-AlchemyPays-Crypto-Virtual-Card-Service-can-empower-your-project-and-fortify-your-token-economy-con",
            "currencies": [
                {
                    "code": "ACH",
                    "title": "Alchemy Pay",
                    "slug": "alchemy-pay",
                    "url": "https:\/\/cryptopanic.com\/news\/alchemy-pay\/"
                }
            ],
            "id": 18738550,
            "url": "https:\/\/cryptopanic.com\/news\/18738550\/Discover-how-AlchemyPays-Crypto-Virtual-Card-Service-can-empower-your-project-and-fortify-your-token-economy-con",
            "created_at": "2023-07-07T07:01:59Z",
            "votes": {
                "negative": 0,
                "positive": 0,
                "important": 0,
                "liked": 0,
                "disliked": 0,
                "lol": 0,
                "toxic": 0,
                "saved": 0,
                "comments": 0
            }
        },
        {
            "kind": "news",
            "domain": "@AlchemyPay",
            "source": {
                "title": "Alchemy Pay Twitter",
                "region": "en",
                "domain": "twitter.com",
                "path": "@alchemypay"
            },
            "title": "RT @OntologyNetwork: Join us for the #Ontology MainNet 5th Anniversary Event on Jul 6! \n\nWe'll discuss how to improve the #Web3 UX for the\u2026",
            "published_at": "2023-07-06T16:09:27Z",
            "slug": "RT-OntologyNetwork-Join-us-for-the-Ontology-MainNet-5th-Anniversary-Event-on-Jul-6-Well-discuss-how-to-improve-the-Web3-UX-for-the",
            "currencies": [
                {
                    "code": "ACH",
                    "title": "Alchemy Pay",
                    "slug": "alchemy-pay",
                    "url": "https:\/\/cryptopanic.com\/news\/alchemy-pay\/"
                }
            ],
            "id": 18730632,
            "url": "https:\/\/cryptopanic.com\/news\/18730632\/RT-OntologyNetwork-Join-us-for-the-Ontology-MainNet-5th-Anniversary-Event-on-Jul-6-Well-discuss-how-to-improve-the-Web3-UX-for-the",
            "created_at": "2023-07-06T16:09:27Z",
            "votes": {
                "negative": 0,
                "positive": 0,
                "important": 0,
                "liked": 0,
                "disliked": 0,
                "lol": 0,
                "toxic": 0,
                "saved": 0,
                "comments": 0
            }
        },
        {
            "kind": "news",
            "domain": "@AlchemyPay",
            "source": {
                "title": "Alchemy Pay Twitter",
                "region": "en",
                "domain": "twitter.com",
                "path": "@alchemypay"
            },
            "title": "Today is the day!  \n\nDon't miss the chance to get to know @CeloOrg and win 200U $ACH! \n\n\u23f01PM UTC | 9AM EDT\n\nSee yo\u2026",
            "published_at": "2023-07-06T06:19:35Z",
            "slug": "Today-is-the-day-Dont-miss-the-chance-to-get-to-know-CeloOrg-and-win-200U-ACH-1PM-UTC-9AM-EDT-See-yo",
            "currencies": [
                {
                    "code": "ACH",
                    "title": "Alchemy Pay",
                    "slug": "alchemy-pay",
                    "url": "https:\/\/cryptopanic.com\/news\/alchemy-pay\/"
                }
            ],
            "id": 18730633,
            "url": "https:\/\/cryptopanic.com\/news\/18730633\/Today-is-the-day-Dont-miss-the-chance-to-get-to-know-CeloOrg-and-win-200U-ACH-1PM-UTC-9AM-EDT-See-yo",
            "created_at": "2023-07-06T06:19:35Z",
            "votes": {
                "negative": 0,
                "positive": 0,
                "important": 0,
                "liked": 0,
                "disliked": 0,
                "lol": 0,
                "toxic": 0,
                "saved": 0,
                "comments": 0
            }
        },
        {
            "kind": "news",
            "domain": "@AlchemyPay",
            "source": {
                "title": "Alchemy Pay Twitter",
                "region": "en",
                "domain": "twitter.com",
                "path": "@alchemypay"
            },
            "title": "RT @OntologyNetwork: Join us for the #Ontology MainNet 5th Anniversary Event on Jul 6! \n\nWe'll discuss how to improve the #Web3 UX for the\u2026",
            "published_at": "2023-07-06T04:42:03Z",
            "slug": "RT-OntologyNetwork-Join-us-for-the-Ontology-MainNet-5th-Anniversary-Event-on-Jul-6-Well-discuss-how-to-improve-the-Web3-UX-for-the",
            "currencies": [
                {
                    "code": "ACH",
                    "title": "Alchemy Pay",
                    "slug": "alchemy-pay",
                    "url": "https:\/\/cryptopanic.com\/news\/alchemy-pay\/"
                }
            ],
            "id": 18722103,
            "url": "https:\/\/cryptopanic.com\/news\/18722103\/RT-OntologyNetwork-Join-us-for-the-Ontology-MainNet-5th-Anniversary-Event-on-Jul-6-Well-discuss-how-to-improve-the-Web3-UX-for-the",
            "created_at": "2023-07-06T04:42:03Z",
            "votes": {
                "negative": 0,
                "positive": 0,
                "important": 0,
                "liked": 0,
                "disliked": 0,
                "lol": 0,
                "toxic": 0,
                "saved": 0,
                "comments": 0
            }
        },
        {
            "kind": "news",
            "domain": "@AlchemyPay",
            "source": {
                "title": "Alchemy Pay Twitter",
                "region": "en",
                "domain": "twitter.com",
                "path": "@alchemypay"
            },
            "title": "RT @OntologyNetwork:  Celebrating 5 Years of #Ontology #MainNet! \n\n Join us as we reflect on our journey, milestones, and exciting develo\u2026",
            "published_at": "2023-07-06T04:27:56Z",
            "slug": "RT-OntologyNetwork-Celebrating-5-Years-of-Ontology-MainNet-Join-us-as-we-reflect-on-our-journey-milestones-and-exciting-develo",
            "currencies": [
                {
                    "code": "ACH",
                    "title": "Alchemy Pay",
                    "slug": "alchemy-pay",
                    "url": "https:\/\/cryptopanic.com\/news\/alchemy-pay\/"
                }
            ],
            "id": 18722104,
            "url": "https:\/\/cryptopanic.com\/news\/18722104\/RT-OntologyNetwork-Celebrating-5-Years-of-Ontology-MainNet-Join-us-as-we-reflect-on-our-journey-milestones-and-exciting-develo",
            "created_at": "2023-07-06T04:27:56Z",
            "votes": {
                "negative": 0,
                "positive": 0,
                "important": 0,
                "liked": 0,
                "disliked": 0,
                "lol": 0,
                "toxic": 0,
                "saved": 0,
                "comments": 0
            }
        },
        {
            "kind": "news",
            "domain": "@AlchemyPay",
            "source": {
                "title": "Alchemy Pay Twitter",
                "region": "en",
                "domain": "twitter.com",
                "path": "@alchemypay"
            },
            "title": "RT @CeloOrg:  Join @AlchemyPay Twitter Space to discover why builders choose Celo blockchain and how Alchemy Pay's integration unlocks exc\u2026",
            "published_at": "2023-07-05T17:35:02Z",
            "slug": "RT-CeloOrg-Join-AlchemyPay-Twitter-Space-to-discover-why-builders-choose-Celo-blockchain-and-how-Alchemy-Pays-integration-unlocks-exc",
            "currencies": [
                {
                    "code": "ACH",
                    "title": "Alchemy Pay",
                    "slug": "alchemy-pay",
                    "url": "https:\/\/cryptopanic.com\/news\/alchemy-pay\/"
                }
            ],
            "id": 18722105,
            "url": "https:\/\/cryptopanic.com\/news\/18722105\/RT-CeloOrg-Join-AlchemyPay-Twitter-Space-to-discover-why-builders-choose-Celo-blockchain-and-how-Alchemy-Pays-integration-unlocks-exc",
            "created_at": "2023-07-05T17:35:02Z",
            "votes": {
                "negative": 0,
                "positive": 0,
                "important": 0,
                "liked": 0,
                "disliked": 0,
                "lol": 0,
                "toxic": 0,
                "saved": 0,
                "comments": 0
            }
        },
        {
            "kind": "news",
            "domain": "@AlchemyPay",
            "source": {
                "title": "Alchemy Pay Twitter",
                "region": "en",
                "domain": "twitter.com",
                "path": "@alchemypay"
            },
            "title": "#AlchemyPay has teamed up with @pendulum_chain to integrate its native token PEN on its ramp. Now users can easily\u2026",
            "published_at": "2023-07-05T10:22:29Z",
            "slug": "AlchemyPay-has-teamed-up-with-pendulum_chain-to-integrate-its-native-token-PEN-on-its-ramp-Now-users-can-easily",
            "currencies": [
                {
                    "code": "ACH",
                    "title": "Alchemy Pay",
                    "slug": "alchemy-pay",
                    "url": "https:\/\/cryptopanic.com\/news\/alchemy-pay\/"
                }
            ],
            "id": 18722106,
            "url": "https:\/\/cryptopanic.com\/news\/18722106\/AlchemyPay-has-teamed-up-with-pendulum_chain-to-integrate-its-native-token-PEN-on-its-ramp-Now-users-can-easily",
            "created_at": "2023-07-05T10:22:29Z",
            "votes": {
                "negative": 0,
                "positive": 0,
                "important": 0,
                "liked": 0,
                "disliked": 0,
                "lol": 0,
                "toxic": 0,
                "saved": 0,
                "comments": 0
            }
        },
        {
            "kind": "news",
            "domain": "@AlchemyPay",
            "source": {
                "title": "Alchemy Pay Twitter",
                "region": "en",
                "domain": "twitter.com",
                "path": "@alchemypay"
            },
            "title": "RT @BitMartResearch: BitMart X Alchemy Pay\n\n0 Fee to buy crypto\n Alchemy Pay to buy cryptocurrencies can enjoy 0 transaction fee.\nBuy C\u2026",
            "published_at": "2023-07-05T09:53:28Z",
            "slug": "RT-BitMartResearch-BitMart-X-Alchemy-Pay-0-Fee-to-buy-crypto-Alchemy-Pay-to-buy-cryptocurrencies-can-enjoy-0-transaction-fee-Buy-C",
            "currencies": [
                {
                    "code": "ACH",
                    "title": "Alchemy Pay",
                    "slug": "alchemy-pay",
                    "url": "https:\/\/cryptopanic.com\/news\/alchemy-pay\/"
                }
            ],
            "id": 18722107,
            "url": "https:\/\/cryptopanic.com\/news\/18722107\/RT-BitMartResearch-BitMart-X-Alchemy-Pay-0-Fee-to-buy-crypto-Alchemy-Pay-to-buy-cryptocurrencies-can-enjoy-0-transaction-fee-Buy-C",
            "created_at": "2023-07-05T09:53:28Z",
            "votes": {
                "negative": 0,
                "positive": 0,
                "important": 0,
                "liked": 0,
                "disliked": 0,
                "lol": 0,
                "toxic": 0,
                "saved": 0,
                "comments": 0
            }
        },
        {
            "kind": "news",
            "domain": "@AlchemyPay",
            "source": {
                "title": "Alchemy Pay Twitter",
                "region": "en",
                "domain": "twitter.com",
                "path": "@alchemypay"
            },
            "title": "RT @BitMartExchange:  #BitMart and @AlchemyPay have joined forces to simplify crypto transactions.\n\nTogether, we are revolutionizing the w\u2026",
            "published_at": "2023-07-05T05:46:58Z",
            "slug": "RT-BitMartExchange-BitMart-and-AlchemyPay-have-joined-forces-to-simplify-crypto-transactions-Together-we-are-revolutionizing-the-w",
            "currencies": [
                {
                    "code": "ACH",
                    "title": "Alchemy Pay",
                    "slug": "alchemy-pay",
                    "url": "https:\/\/cryptopanic.com\/news\/alchemy-pay\/"
                }
            ],
            "id": 18722108,
            "url": "https:\/\/cryptopanic.com\/news\/18722108\/RT-BitMartExchange-BitMart-and-AlchemyPay-have-joined-forces-to-simplify-crypto-transactions-Together-we-are-revolutionizing-the-w",
            "created_at": "2023-07-05T05:46:58Z",
            "votes": {
                "negative": 0,
                "positive": 0,
                "important": 0,
                "liked": 0,
                "disliked": 0,
                "lol": 0,
                "toxic": 0,
                "saved": 0,
                "comments": 0
            }
        },
        {
            "kind": "news",
            "domain": "@AlchemyPay",
            "source": {
                "title": "Alchemy Pay Twitter",
                "region": "en",
                "domain": "twitter.com",
                "path": "@alchemypay"
            },
            "title": "#AlchemyPay and @BitMartExchange have joined forces to launch seamless on and off ramps for users. Now users can e\u2026",
            "published_at": "2023-07-04T10:39:07Z",
            "slug": "AlchemyPay-and-BitMartExchange-have-joined-forces-to-launch-seamless-on-and-off-ramps-for-users-Now-users-can-e",
            "currencies": [
                {
                    "code": "ACH",
                    "title": "Alchemy Pay",
                    "slug": "alchemy-pay",
                    "url": "https:\/\/cryptopanic.com\/news\/alchemy-pay\/"
                }
            ],
            "id": 18714547,
            "url": "https:\/\/cryptopanic.com\/news\/18714547\/AlchemyPay-and-BitMartExchange-have-joined-forces-to-launch-seamless-on-and-off-ramps-for-users-Now-users-can-e",
            "created_at": "2023-07-04T10:39:07Z",
            "votes": {
                "negative": 0,
                "positive": 0,
                "important": 0,
                "liked": 0,
                "disliked": 0,
                "lol": 0,
                "toxic": 0,
                "saved": 0,
                "comments": 0
            }
        },
        {
            "kind": "news",
            "domain": "@AlchemyPay",
            "source": {
                "title": "Alchemy Pay Twitter",
                "region": "en",
                "domain": "twitter.com",
                "path": "@alchemypay"
            },
            "title": "The #AlchemyPay fiat-crypto on ramp solutions are now available on @CetusProtocol, bringing a simple, fast, and sec\u2026",
            "published_at": "2023-07-03T09:12:37Z",
            "slug": "The-AlchemyPay-fiat-crypto-on-ramp-solutions-are-now-available-on-CetusProtocol-bringing-a-simple-fast-and-sec",
            "currencies": [
                {
                    "code": "ACH",
                    "title": "Alchemy Pay",
                    "slug": "alchemy-pay",
                    "url": "https:\/\/cryptopanic.com\/news\/alchemy-pay\/"
                }
            ],
            "id": 18707172,
            "url": "https:\/\/cryptopanic.com\/news\/18707172\/The-AlchemyPay-fiat-crypto-on-ramp-solutions-are-now-available-on-CetusProtocol-bringing-a-simple-fast-and-sec",
            "created_at": "2023-07-03T09:12:37Z",
            "votes": {
                "negative": 0,
                "positive": 0,
                "important": 0,
                "liked": 0,
                "disliked": 0,
                "lol": 0,
                "toxic": 0,
                "saved": 0,
                "comments": 0
            }
        },
        {
            "kind": "news",
            "domain": "@AlchemyPay",
            "source": {
                "title": "Alchemy Pay Twitter",
                "region": "en",
                "domain": "twitter.com",
                "path": "@alchemypay"
            },
            "title": "Attend our upcoming Space this Thursday to win 200U $ACH!  \n\nFollow @AlchemyPay &amp; @CeloOrg\nRT, Like &amp; Tag 3 fr\u2026",
            "published_at": "2023-07-03T07:40:41Z",
            "slug": "Attend-our-upcoming-Space-this-Thursday-to-win-200U-ACH-Follow-AlchemyPay-amp-CeloOrg-RT-Like-amp-Tag-3-fr",
            "currencies": [
                {
                    "code": "ACH",
                    "title": "Alchemy Pay",
                    "slug": "alchemy-pay",
                    "url": "https:\/\/cryptopanic.com\/news\/alchemy-pay\/"
                }
            ],
            "id": 18707173,
            "url": "https:\/\/cryptopanic.com\/news\/18707173\/Attend-our-upcoming-Space-this-Thursday-to-win-200U-ACH-Follow-AlchemyPay-amp-CeloOrg-RT-Like-amp-Tag-3-fr",
            "created_at": "2023-07-03T07:40:41Z",
            "votes": {
                "negative": 0,
                "positive": 0,
                "important": 0,
                "liked": 0,
                "disliked": 0,
                "lol": 0,
                "toxic": 0,
                "saved": 0,
                "comments": 0
            }
        },
        {
            "kind": "news",
            "domain": "@AlchemyPay",
            "source": {
                "title": "Alchemy Pay Twitter",
                "region": "en",
                "domain": "twitter.com",
                "path": "@alchemypay"
            },
            "title": "Alchemy Pay Telegram Invite Contest is now live!You can win 500U of $ACH and #NFT!\n\nInvite your friends to our TG\u2026",
            "published_at": "2023-07-03T07:06:03Z",
            "slug": "Alchemy-Pay-Telegram-Invite-Contest-is-now-liveYou-can-win-500U-of-ACH-and-NFT-Invite-your-friends-to-our-TG",
            "currencies": [
                {
                    "code": "ACH",
                    "title": "Alchemy Pay",
                    "slug": "alchemy-pay",
                    "url": "https:\/\/cryptopanic.com\/news\/alchemy-pay\/"
                }
            ],
            "id": 18707174,
            "url": "https:\/\/cryptopanic.com\/news\/18707174\/Alchemy-Pay-Telegram-Invite-Contest-is-now-liveYou-can-win-500U-of-ACH-and-NFT-Invite-your-friends-to-our-TG",
            "created_at": "2023-07-03T07:06:03Z",
            "votes": {
                "negative": 0,
                "positive": 0,
                "important": 0,
                "liked": 0,
                "disliked": 0,
                "lol": 0,
                "toxic": 0,
                "saved": 0,
                "comments": 0
            }
        },
        {
            "kind": "news",
            "domain": "@AlchemyPay",
            "source": {
                "title": "Alchemy Pay Twitter",
                "region": "en",
                "domain": "twitter.com",
                "path": "@alchemypay"
            },
            "title": "Exciting news from #AlchemyPay! \n\nOur June update is now live, and we have much to share. From new payment channel\u2026",
            "published_at": "2023-07-02T16:37:25Z",
            "slug": "Exciting-news-from-AlchemyPay-Our-June-update-is-now-live-and-we-have-much-to-share-From-new-payment-channel",
            "currencies": [
                {
                    "code": "ACH",
                    "title": "Alchemy Pay",
                    "slug": "alchemy-pay",
                    "url": "https:\/\/cryptopanic.com\/news\/alchemy-pay\/"
                }
            ],
            "id": 18701665,
            "url": "https:\/\/cryptopanic.com\/news\/18701665\/Exciting-news-from-AlchemyPay-Our-June-update-is-now-live-and-we-have-much-to-share-From-new-payment-channel",
            "created_at": "2023-07-02T16:37:25Z",
            "votes": {
                "negative": 0,
                "positive": 0,
                "important": 0,
                "liked": 0,
                "disliked": 0,
                "lol": 0,
                "toxic": 0,
                "saved": 0,
                "comments": 0
            }
        },
        {
            "kind": "news",
            "domain": "@AlchemyPay",
            "source": {
                "title": "Alchemy Pay Twitter",
                "region": "en",
                "domain": "twitter.com",
                "path": "@alchemypay"
            },
            "title": "#AlchemyPay Will Adds Bank Transfer for Crypto Purchases in the #Turkey \ud83c\uddf9\ud83c\uddf7\n\nWith the support of domestic bank tran\u2026",
            "published_at": "2023-06-30T08:54:16Z",
            "slug": "AlchemyPay-Will-Adds-Bank-Transfer-for-Crypto-Purchases-in-the-Turkey-With-the-support-of-domestic-bank-tran",
            "currencies": [
                {
                    "code": "ACH",
                    "title": "Alchemy Pay",
                    "slug": "alchemy-pay",
                    "url": "https:\/\/cryptopanic.com\/news\/alchemy-pay\/"
                }
            ],
            "id": 18691689,
            "url": "https:\/\/cryptopanic.com\/news\/18691689\/AlchemyPay-Will-Adds-Bank-Transfer-for-Crypto-Purchases-in-the-Turkey-With-the-support-of-domestic-bank-tran",
            "created_at": "2023-06-30T08:54:16Z",
            "votes": {
                "negative": 0,
                "positive": 0,
                "important": 0,
                "liked": 0,
                "disliked": 0,
                "lol": 0,
                "toxic": 0,
                "saved": 0,
                "comments": 0
            }
        },
        {
            "kind": "news",
            "domain": "@AlchemyPay",
            "source": {
                "title": "Alchemy Pay Twitter",
                "region": "en",
                "domain": "twitter.com",
                "path": "@alchemypay"
            },
            "title": "Watch #David Plouffe, #AlchemyPay's Global Strategic Advisor, discusses his new role and views on #crypto regulatio\u2026",
            "published_at": "2023-06-30T07:32:42Z",
            "slug": "Watch-David-Plouffe-AlchemyPays-Global-Strategic-Advisor-discusses-his-new-role-and-views-on-crypto-regulatio",
            "currencies": [
                {
                    "code": "ACH",
                    "title": "Alchemy Pay",
                    "slug": "alchemy-pay",
                    "url": "https:\/\/cryptopanic.com\/news\/alchemy-pay\/"
                }
            ],
            "id": 18691690,
            "url": "https:\/\/cryptopanic.com\/news\/18691690\/Watch-David-Plouffe-AlchemyPays-Global-Strategic-Advisor-discusses-his-new-role-and-views-on-crypto-regulatio",
            "created_at": "2023-06-30T07:32:42Z",
            "votes": {
                "negative": 0,
                "positive": 0,
                "important": 0,
                "liked": 0,
                "disliked": 0,
                "lol": 0,
                "toxic": 0,
                "saved": 0,
                "comments": 0
            }
        }
    ]
}
