{
    "count": 200,
    "next": "https:\/\/cryptopanic.com\/api\/v1\/posts\/?auth_token=01c356e89ffc1b8eba2127c81fc8c66ee0eace75&kind=news&currencies=PLA&page=2",
    "previous": null,
    "results": [
        {
            "kind": "news",
            "domain": "@playdapp_io",
            "source": {
                "title": "PlayDapp Twitter",
                "region": "en",
                "domain": "twitter.com",
                "path": "@playdapp_io"
            },
            "title": "Haven't exchanged your Random Track #NFT yet? \ud83e\uddd0 \n\nCheck out how you can do that in our article \n\u2026",
            "published_at": "2023-07-12T07:21:11Z",
            "slug": "Havent-exchanged-your-Random-Track-NFT-yet-Check-out-how-you-can-do-that-in-our-article",
            "currencies": [
                {
                    "code": "PLA",
                    "title": "PlayDapp",
                    "slug": "playdapp",
                    "url": "https:\/\/cryptopanic.com\/news\/playdapp\/"
                }
            ],
            "id": 18766508,
            "url": "https:\/\/cryptopanic.com\/news\/18766508\/Havent-exchanged-your-Random-Track-NFT-yet-Check-out-how-you-can-do-that-in-our-article",
            "created_at": "2023-07-12T07:21:11Z",
            "votes": {
                "negative": 0,
                "positive": 0,
                "important": 0,
                "liked": 0,
                "disliked": 0,
                "lol": 0,
                "toxic": 0,
                "saved": 0,
                "comments": 0
            }
        },
        {
            "kind": "news",
            "domain": "@playdapp_io",
            "source": {
                "title": "PlayDapp Twitter",
                "region": "en",
                "domain": "twitter.com",
                "path": "@playdapp_io"
            },
            "title": " Finding Inspiration \n\n\n\nFeeling stuck or lacking inspiration? \nWe\u2019ve all been there! \n\nHere are some ways to rei\u2026",
            "published_at": "2023-07-12T05:37:08Z",
            "slug": "Finding-Inspiration-Feeling-stuck-or-lacking-inspiration-Weve-all-been-there-Here-are-some-ways-to-rei",
            "currencies": [
                {
                    "code": "PLA",
                    "title": "PlayDapp",
                    "slug": "playdapp",
                    "url": "https:\/\/cryptopanic.com\/news\/playdapp\/"
                }
            ],
            "id": 18766509,
            "url": "https:\/\/cryptopanic.com\/news\/18766509\/Finding-Inspiration-Feeling-stuck-or-lacking-inspiration-Weve-all-been-there-Here-are-some-ways-to-rei",
            "created_at": "2023-07-12T05:37:08Z",
            "votes": {
                "negative": 0,
                "positive": 0,
                "important": 0,
                "liked": 0,
                "disliked": 0,
                "lol": 0,
                "toxic": 0,
                "saved": 0,
                "comments": 0
            }
        },
        {
            "kind": "news",
            "domain": "@playdapp_io",
            "source": {
                "title": "PlayDapp Twitter",
                "region": "en",
                "domain": "twitter.com",
                "path": "@playdapp_io"
            },
            "title": "The possibilities seem limitless as we embark on a journey to redefine the way we interact online!\n\nGM to everyone in #web3 ",
            "published_at": "2023-07-11T22:48:00Z",
            "slug": "The-possibilities-seem-limitless-as-we-embark-on-a-journey-to-redefine-the-way-we-interact-online-GM-to-everyone-in-web3",
            "currencies": [
                {
                    "code": "PLA",
                    "title": "PlayDapp",
                    "slug": "playdapp",
                    "url": "https:\/\/cryptopanic.com\/news\/playdapp\/"
                }
            ],
            "id": 18766510,
            "url": "https:\/\/cryptopanic.com\/news\/18766510\/The-possibilities-seem-limitless-as-we-embark-on-a-journey-to-redefine-the-way-we-interact-online-GM-to-everyone-in-web3",
            "created_at": "2023-07-11T22:48:00Z",
            "votes": {
                "negative": 0,
                "positive": 0,
                "important": 0,
                "liked": 0,
                "disliked": 0,
                "lol": 0,
                "toxic": 0,
                "saved": 0,
                "comments": 0
            }
        },
        {
            "kind": "news",
            "domain": "@playdapp_io",
            "source": {
                "title": "PlayDapp Twitter",
                "region": "en",
                "domain": "twitter.com",
                "path": "@playdapp_io"
            },
            "title": "Sweet dreams, #web3 enthusiasts! May the #blockchain always be in your favor ",
            "published_at": "2023-07-11T13:47:00Z",
            "slug": "Sweet-dreams-web3-enthusiasts-May-the-blockchain-always-be-in-your-favor",
            "currencies": [
                {
                    "code": "PLA",
                    "title": "PlayDapp",
                    "slug": "playdapp",
                    "url": "https:\/\/cryptopanic.com\/news\/playdapp\/"
                }
            ],
            "id": 18766511,
            "url": "https:\/\/cryptopanic.com\/news\/18766511\/Sweet-dreams-web3-enthusiasts-May-the-blockchain-always-be-in-your-favor",
            "created_at": "2023-07-11T13:47:00Z",
            "votes": {
                "negative": 0,
                "positive": 0,
                "important": 0,
                "liked": 0,
                "disliked": 0,
                "lol": 0,
                "toxic": 0,
                "saved": 0,
                "comments": 0
            }
        },
        {
            "kind": "news",
            "domain": "@playdapp_io",
            "source": {
                "title": "PlayDapp Twitter",
                "region": "en",
                "domain": "twitter.com",
                "path": "@playdapp_io"
            },
            "title": "RT @Emonkhan156: @playdapp_io Late Gm",
            "published_at": "2023-07-11T07:00:10Z",
            "slug": "RT-Emonkhan156-playdapp_io-Late-Gm",
            "currencies": [
                {
                    "code": "PLA",
                    "title": "PlayDapp",
                    "slug": "playdapp",
                    "url": "https:\/\/cryptopanic.com\/news\/playdapp\/"
                }
            ],
            "id": 18758325,
            "url": "https:\/\/cryptopanic.com\/news\/18758325\/RT-Emonkhan156-playdapp_io-Late-Gm",
            "created_at": "2023-07-11T07:00:10Z",
            "votes": {
                "negative": 0,
                "positive": 0,
                "important": 0,
                "liked": 0,
                "disliked": 0,
                "lol": 0,
                "toxic": 0,
                "saved": 0,
                "comments": 0
            }
        },
        {
            "kind": "news",
            "domain": "@playdapp_io",
            "source": {
                "title": "PlayDapp Twitter",
                "region": "en",
                "domain": "twitter.com",
                "path": "@playdapp_io"
            },
            "title": "\u23f0 Get your vote in now before it ends \u23f0",
            "published_at": "2023-07-11T06:59:19Z",
            "slug": "Get-your-vote-in-now-before-it-ends",
            "currencies": [
                {
                    "code": "PLA",
                    "title": "PlayDapp",
                    "slug": "playdapp",
                    "url": "https:\/\/cryptopanic.com\/news\/playdapp\/"
                }
            ],
            "id": 18758326,
            "url": "https:\/\/cryptopanic.com\/news\/18758326\/Get-your-vote-in-now-before-it-ends",
            "created_at": "2023-07-11T06:59:19Z",
            "votes": {
                "negative": 0,
                "positive": 0,
                "important": 0,
                "liked": 0,
                "disliked": 0,
                "lol": 0,
                "toxic": 0,
                "saved": 0,
                "comments": 0
            }
        },
        {
            "kind": "news",
            "domain": "@playdapp_io",
            "source": {
                "title": "PlayDapp Twitter",
                "region": "en",
                "domain": "twitter.com",
                "path": "@playdapp_io"
            },
            "title": "Psst \nDappOven is an open-source game development tool that allows anyone to create games quickly and easily, with\u2026",
            "published_at": "2023-07-11T06:39:28Z",
            "slug": "Psst-DappOven-is-an-open-source-game-development-tool-that-allows-anyone-to-create-games-quickly-and-easily-with",
            "currencies": [
                {
                    "code": "PLA",
                    "title": "PlayDapp",
                    "slug": "playdapp",
                    "url": "https:\/\/cryptopanic.com\/news\/playdapp\/"
                }
            ],
            "id": 18758327,
            "url": "https:\/\/cryptopanic.com\/news\/18758327\/Psst-DappOven-is-an-open-source-game-development-tool-that-allows-anyone-to-create-games-quickly-and-easily-with",
            "created_at": "2023-07-11T06:39:28Z",
            "votes": {
                "negative": 0,
                "positive": 0,
                "important": 0,
                "liked": 0,
                "disliked": 0,
                "lol": 0,
                "toxic": 0,
                "saved": 0,
                "comments": 0
            }
        },
        {
            "kind": "news",
            "domain": "@playdapp_io",
            "source": {
                "title": "PlayDapp Twitter",
                "region": "en",
                "domain": "twitter.com",
                "path": "@playdapp_io"
            },
            "title": "Did someone say a #web3 Game Development Platform? \ud83e\udd2d\n\nPlayDapp's DappOven may or may not be in the making \u2026",
            "published_at": "2023-07-11T01:21:51Z",
            "slug": "Did-someone-say-a-web3-Game-Development-Platform-PlayDapps-DappOven-may-or-may-not-be-in-the-making",
            "currencies": [
                {
                    "code": "PLA",
                    "title": "PlayDapp",
                    "slug": "playdapp",
                    "url": "https:\/\/cryptopanic.com\/news\/playdapp\/"
                }
            ],
            "id": 18758328,
            "url": "https:\/\/cryptopanic.com\/news\/18758328\/Did-someone-say-a-web3-Game-Development-Platform-PlayDapps-DappOven-may-or-may-not-be-in-the-making",
            "created_at": "2023-07-11T01:21:51Z",
            "votes": {
                "negative": 0,
                "positive": 0,
                "important": 0,
                "liked": 0,
                "disliked": 0,
                "lol": 0,
                "toxic": 0,
                "saved": 0,
                "comments": 0
            }
        },
        {
            "kind": "news",
            "domain": "@playdapp_io",
            "source": {
                "title": "PlayDapp Twitter",
                "region": "en",
                "domain": "twitter.com",
                "path": "@playdapp_io"
            },
            "title": "Waking up to a world where #decentralization is at the forefront is truly exhilarating!\n\nGM #decentralizedweb \ud83e\udee1",
            "published_at": "2023-07-10T23:20:00Z",
            "slug": "Waking-up-to-a-world-where-decentralization-is-at-the-forefront-is-truly-exhilarating-GM-decentralizedweb",
            "currencies": [
                {
                    "code": "PLA",
                    "title": "PlayDapp",
                    "slug": "playdapp",
                    "url": "https:\/\/cryptopanic.com\/news\/playdapp\/"
                }
            ],
            "id": 18758329,
            "url": "https:\/\/cryptopanic.com\/news\/18758329\/Waking-up-to-a-world-where-decentralization-is-at-the-forefront-is-truly-exhilarating-GM-decentralizedweb",
            "created_at": "2023-07-10T23:20:00Z",
            "votes": {
                "negative": 0,
                "positive": 0,
                "important": 0,
                "liked": 0,
                "disliked": 0,
                "lol": 0,
                "toxic": 0,
                "saved": 0,
                "comments": 0
            }
        },
        {
            "kind": "news",
            "domain": "@playdapp_io",
            "source": {
                "title": "PlayDapp Twitter",
                "region": "en",
                "domain": "twitter.com",
                "path": "@playdapp_io"
            },
            "title": "GN #blockchain believers \ud83e\udee1\n\nMay your dreams be filled with #NFTs and #DeFi projects ",
            "published_at": "2023-07-10T14:20:00Z",
            "slug": "GN-blockchain-believers-May-your-dreams-be-filled-with-NFTs-and-DeFi-projects",
            "currencies": [
                {
                    "code": "PLA",
                    "title": "PlayDapp",
                    "slug": "playdapp",
                    "url": "https:\/\/cryptopanic.com\/news\/playdapp\/"
                }
            ],
            "id": 18758330,
            "url": "https:\/\/cryptopanic.com\/news\/18758330\/GN-blockchain-believers-May-your-dreams-be-filled-with-NFTs-and-DeFi-projects",
            "created_at": "2023-07-10T14:20:00Z",
            "votes": {
                "negative": 0,
                "positive": 0,
                "important": 0,
                "liked": 0,
                "disliked": 0,
                "lol": 0,
                "toxic": 0,
                "saved": 0,
                "comments": 0
            }
        },
        {
            "kind": "news",
            "domain": "@playdapp_io",
            "source": {
                "title": "PlayDapp Twitter",
                "region": "en",
                "domain": "twitter.com",
                "path": "@playdapp_io"
            },
            "title": "Weekend lasted for 5 minutes \u200d",
            "published_at": "2023-07-10T11:05:00Z",
            "slug": "Weekend-lasted-for-5-minutes",
            "currencies": [
                {
                    "code": "PLA",
                    "title": "PlayDapp",
                    "slug": "playdapp",
                    "url": "https:\/\/cryptopanic.com\/news\/playdapp\/"
                }
            ],
            "id": 18758331,
            "url": "https:\/\/cryptopanic.com\/news\/18758331\/Weekend-lasted-for-5-minutes",
            "created_at": "2023-07-10T11:05:00Z",
            "votes": {
                "negative": 0,
                "positive": 0,
                "important": 0,
                "liked": 0,
                "disliked": 0,
                "lol": 0,
                "toxic": 0,
                "saved": 0,
                "comments": 0
            }
        },
        {
            "kind": "news",
            "domain": "@playdapp_io",
            "source": {
                "title": "PlayDapp Twitter",
                "region": "en",
                "domain": "twitter.com",
                "path": "@playdapp_io"
            },
            "title": "A wrap-up for our most recent PlayDapp Talks \n\n \n\u00a0\n\n$PLA #crypto #web3",
            "published_at": "2023-07-10T08:14:00Z",
            "slug": "A-wrap-up-for-our-most-recent-PlayDapp-Talks-PLA-crypto-web3",
            "currencies": [
                {
                    "code": "PLA",
                    "title": "PlayDapp",
                    "slug": "playdapp",
                    "url": "https:\/\/cryptopanic.com\/news\/playdapp\/"
                }
            ],
            "id": 18751029,
            "url": "https:\/\/cryptopanic.com\/news\/18751029\/A-wrap-up-for-our-most-recent-PlayDapp-Talks-PLA-crypto-web3",
            "created_at": "2023-07-10T08:14:00Z",
            "votes": {
                "negative": 0,
                "positive": 0,
                "important": 0,
                "liked": 0,
                "disliked": 0,
                "lol": 0,
                "toxic": 0,
                "saved": 0,
                "comments": 0
            }
        },
        {
            "kind": "news",
            "domain": "@playdapp_io",
            "source": {
                "title": "PlayDapp Twitter",
                "region": "en",
                "domain": "twitter.com",
                "path": "@playdapp_io"
            },
            "title": "Pick one ",
            "published_at": "2023-07-10T03:41:54Z",
            "slug": "Pick-one",
            "currencies": [
                {
                    "code": "PLA",
                    "title": "PlayDapp",
                    "slug": "playdapp",
                    "url": "https:\/\/cryptopanic.com\/news\/playdapp\/"
                }
            ],
            "id": 18751030,
            "url": "https:\/\/cryptopanic.com\/news\/18751030\/Pick-one",
            "created_at": "2023-07-10T03:41:54Z",
            "votes": {
                "negative": 0,
                "positive": 0,
                "important": 0,
                "liked": 0,
                "disliked": 0,
                "lol": 0,
                "toxic": 0,
                "saved": 0,
                "comments": 0
            }
        },
        {
            "kind": "news",
            "domain": "@playdapp_io",
            "source": {
                "title": "PlayDapp Twitter",
                "region": "en",
                "domain": "twitter.com",
                "path": "@playdapp_io"
            },
            "title": "GM #web3\n\nAre y\u2019all ready to dive into a new week of #decentralization? \nBecause I am \ud83e\udd29",
            "published_at": "2023-07-09T23:10:04Z",
            "slug": "GM-web3-Are-yall-ready-to-dive-into-a-new-week-of-decentralization-Because-I-am",
            "currencies": [
                {
                    "code": "PLA",
                    "title": "PlayDapp",
                    "slug": "playdapp",
                    "url": "https:\/\/cryptopanic.com\/news\/playdapp\/"
                }
            ],
            "id": 18751031,
            "url": "https:\/\/cryptopanic.com\/news\/18751031\/GM-web3-Are-yall-ready-to-dive-into-a-new-week-of-decentralization-Because-I-am",
            "created_at": "2023-07-09T23:10:04Z",
            "votes": {
                "negative": 0,
                "positive": 0,
                "important": 0,
                "liked": 0,
                "disliked": 0,
                "lol": 0,
                "toxic": 0,
                "saved": 0,
                "comments": 0
            }
        },
        {
            "kind": "news",
            "domain": "@playdapp_io",
            "source": {
                "title": "PlayDapp Twitter",
                "region": "en",
                "domain": "twitter.com",
                "path": "@playdapp_io"
            },
            "title": "GN #web3 enthusiasts! \ud83e\udee1\n\nLet\u2019s reflect on how far we\u2019ve come with web3 and how much further we can go ",
            "published_at": "2023-07-07T13:53:00Z",
            "slug": "GN-web3-enthusiasts-Lets-reflect-on-how-far-weve-come-with-web3-and-how-much-further-we-can-go",
            "currencies": [
                {
                    "code": "PLA",
                    "title": "PlayDapp",
                    "slug": "playdapp",
                    "url": "https:\/\/cryptopanic.com\/news\/playdapp\/"
                }
            ],
            "id": 18741987,
            "url": "https:\/\/cryptopanic.com\/news\/18741987\/GN-web3-enthusiasts-Lets-reflect-on-how-far-weve-come-with-web3-and-how-much-further-we-can-go",
            "created_at": "2023-07-07T13:53:00Z",
            "votes": {
                "negative": 0,
                "positive": 0,
                "important": 0,
                "liked": 0,
                "disliked": 0,
                "lol": 0,
                "toxic": 0,
                "saved": 0,
                "comments": 0
            }
        },
        {
            "kind": "news",
            "domain": "@playdapp_io",
            "source": {
                "title": "PlayDapp Twitter",
                "region": "en",
                "domain": "twitter.com",
                "path": "@playdapp_io"
            },
            "title": "It\u2019s a hit or miss sometimes \ud83e\udd37\u200d\n#cyrpto #airdrop #web3",
            "published_at": "2023-07-07T12:51:00Z",
            "slug": "Its-a-hit-or-miss-sometimes-cyrpto-airdrop-web3",
            "currencies": [
                {
                    "code": "PLA",
                    "title": "PlayDapp",
                    "slug": "playdapp",
                    "url": "https:\/\/cryptopanic.com\/news\/playdapp\/"
                }
            ],
            "id": 18741988,
            "url": "https:\/\/cryptopanic.com\/news\/18741988\/Its-a-hit-or-miss-sometimes-cyrpto-airdrop-web3",
            "created_at": "2023-07-07T12:51:00Z",
            "votes": {
                "negative": 0,
                "positive": 0,
                "important": 0,
                "liked": 0,
                "disliked": 0,
                "lol": 0,
                "toxic": 0,
                "saved": 0,
                "comments": 0
            }
        },
        {
            "kind": "news",
            "domain": "@playdapp_io",
            "source": {
                "title": "PlayDapp Twitter",
                "region": "en",
                "domain": "twitter.com",
                "path": "@playdapp_io"
            },
            "title": "RT @playdapp_io: Will you be downloading and trying the Threads app? \ud83e\udd14",
            "published_at": "2023-07-07T08:04:44Z",
            "slug": "RT-playdapp_io-Will-you-be-downloading-and-trying-the-Threads-app",
            "currencies": [
                {
                    "code": "PLA",
                    "title": "PlayDapp",
                    "slug": "playdapp",
                    "url": "https:\/\/cryptopanic.com\/news\/playdapp\/"
                }
            ],
            "id": 18734644,
            "url": "https:\/\/cryptopanic.com\/news\/18734644\/RT-playdapp_io-Will-you-be-downloading-and-trying-the-Threads-app",
            "created_at": "2023-07-07T08:04:44Z",
            "votes": {
                "negative": 0,
                "positive": 0,
                "important": 0,
                "liked": 0,
                "disliked": 0,
                "lol": 0,
                "toxic": 0,
                "saved": 0,
                "comments": 0
            }
        },
        {
            "kind": "news",
            "domain": "@playdapp_io",
            "source": {
                "title": "PlayDapp Twitter",
                "region": "en",
                "domain": "twitter.com",
                "path": "@playdapp_io"
            },
            "title": "RT @playdapp_io: Have you checked out our new Tournaments page update yet?",
            "published_at": "2023-07-07T08:04:41Z",
            "slug": "RT-playdapp_io-Have-you-checked-out-our-new-Tournaments-page-update-yet",
            "currencies": [
                {
                    "code": "PLA",
                    "title": "PlayDapp",
                    "slug": "playdapp",
                    "url": "https:\/\/cryptopanic.com\/news\/playdapp\/"
                }
            ],
            "id": 18734645,
            "url": "https:\/\/cryptopanic.com\/news\/18734645\/RT-playdapp_io-Have-you-checked-out-our-new-Tournaments-page-update-yet",
            "created_at": "2023-07-07T08:04:41Z",
            "votes": {
                "negative": 0,
                "positive": 0,
                "important": 0,
                "liked": 0,
                "disliked": 0,
                "lol": 0,
                "toxic": 0,
                "saved": 0,
                "comments": 0
            }
        },
        {
            "kind": "news",
            "domain": "@playdapp_io",
            "source": {
                "title": "PlayDapp Twitter",
                "region": "en",
                "domain": "twitter.com",
                "path": "@playdapp_io"
            },
            "title": "Have you checked out our new Tournaments page update yet?",
            "published_at": "2023-07-07T07:13:00Z",
            "slug": "Have-you-checked-out-our-new-Tournaments-page-update-yet",
            "currencies": [
                {
                    "code": "PLA",
                    "title": "PlayDapp",
                    "slug": "playdapp",
                    "url": "https:\/\/cryptopanic.com\/news\/playdapp\/"
                }
            ],
            "id": 18734646,
            "url": "https:\/\/cryptopanic.com\/news\/18734646\/Have-you-checked-out-our-new-Tournaments-page-update-yet",
            "created_at": "2023-07-07T07:13:00Z",
            "votes": {
                "negative": 0,
                "positive": 0,
                "important": 0,
                "liked": 0,
                "disliked": 0,
                "lol": 0,
                "toxic": 0,
                "saved": 0,
                "comments": 0
            }
        },
        {
            "kind": "news",
            "domain": "@playdapp_io",
            "source": {
                "title": "PlayDapp Twitter",
                "region": "en",
                "domain": "twitter.com",
                "path": "@playdapp_io"
            },
            "title": "Will you be downloading and trying the Threads app? \ud83e\udd14",
            "published_at": "2023-07-07T02:11:25Z",
            "slug": "Will-you-be-downloading-and-trying-the-Threads-app",
            "currencies": [
                {
                    "code": "PLA",
                    "title": "PlayDapp",
                    "slug": "playdapp",
                    "url": "https:\/\/cryptopanic.com\/news\/playdapp\/"
                }
            ],
            "id": 18734647,
            "url": "https:\/\/cryptopanic.com\/news\/18734647\/Will-you-be-downloading-and-trying-the-Threads-app",
            "created_at": "2023-07-07T02:11:25Z",
            "votes": {
                "negative": 0,
                "positive": 0,
                "important": 0,
                "liked": 0,
                "disliked": 0,
                "lol": 0,
                "toxic": 0,
                "saved": 0,
                "comments": 0
            }
        }
    ]
}
