{
    "count": 200,
    "next": "https:\/\/cryptopanic.com\/api\/v1\/posts\/?auth_token=01c356e89ffc1b8eba2127c81fc8c66ee0eace75&kind=news&currencies=WTC&page=2",
    "previous": null,
    "results": [
        {
            "kind": "news",
            "domain": "@Waltonchain",
            "source": {
                "title": "Walton Twitter",
                "region": "en",
                "domain": "twitter.com",
                "path": "@waltonchain"
            },
            "title": "How to Get the $WTA&amp; Airdrop for Free?\nFollow the 5 steps to get free $WTA and airdrop, you\u2019ll see how easy it is!",
            "published_at": "2023-07-12T09:55:53Z",
            "slug": "How-to-Get-the-WTAamp-Airdrop-for-Free-Follow-the-5-steps-to-get-free-WTA-and-airdrop-youll-see-how-easy-it-is",
            "currencies": [
                {
                    "code": "WTC",
                    "title": "Waltonchain",
                    "slug": "waltonchain",
                    "url": "https:\/\/cryptopanic.com\/news\/waltonchain\/"
                }
            ],
            "id": 18768100,
            "url": "https:\/\/cryptopanic.com\/news\/18768100\/How-to-Get-the-WTAamp-Airdrop-for-Free-Follow-the-5-steps-to-get-free-WTA-and-airdrop-youll-see-how-easy-it-is",
            "created_at": "2023-07-12T09:55:53Z",
            "votes": {
                "negative": 0,
                "positive": 0,
                "important": 0,
                "liked": 0,
                "disliked": 0,
                "lol": 0,
                "toxic": 0,
                "saved": 0,
                "comments": 0
            }
        },
        {
            "kind": "news",
            "domain": "@Waltonchain",
            "source": {
                "title": "Walton Twitter",
                "region": "en",
                "domain": "twitter.com",
                "path": "@waltonchain"
            },
            "title": "$WTA Cross-chain Swap Airdrop from July 7th , 2023\n\n1. Follow us and retweet this one;\n2. Join\u2026",
            "published_at": "2023-07-03T07:44:07Z",
            "slug": "WTA-Cross-chain-Swap-Airdrop-from-July-7th-2023-1-Follow-us-and-retweet-this-one-2-Join",
            "currencies": [
                {
                    "code": "WTC",
                    "title": "Waltonchain",
                    "slug": "waltonchain",
                    "url": "https:\/\/cryptopanic.com\/news\/waltonchain\/"
                }
            ],
            "id": 18705029,
            "url": "https:\/\/cryptopanic.com\/news\/18705029\/WTA-Cross-chain-Swap-Airdrop-from-July-7th-2023-1-Follow-us-and-retweet-this-one-2-Join",
            "created_at": "2023-07-03T07:44:07Z",
            "votes": {
                "negative": 0,
                "positive": 0,
                "important": 0,
                "liked": 0,
                "disliked": 0,
                "lol": 0,
                "toxic": 0,
                "saved": 0,
                "comments": 0
            }
        },
        {
            "kind": "news",
            "domain": "@Waltonchain",
            "source": {
                "title": "Walton Twitter",
                "region": "en",
                "domain": "twitter.com",
                "path": "@waltonchain"
            },
            "title": "Verifying my Twitter account for my #GalxeID gid:Qri3QGz3tdC7VuKnif54Cm @Galxe",
            "published_at": "2023-06-19T02:44:58Z",
            "slug": "Verifying-my-Twitter-account-for-my-GalxeID-gidQri3QGz3tdC7VuKnif54Cm-Galxe",
            "currencies": [
                {
                    "code": "WTC",
                    "title": "Waltonchain",
                    "slug": "waltonchain",
                    "url": "https:\/\/cryptopanic.com\/news\/waltonchain\/"
                }
            ],
            "id": 18608263,
            "url": "https:\/\/cryptopanic.com\/news\/18608263\/Verifying-my-Twitter-account-for-my-GalxeID-gidQri3QGz3tdC7VuKnif54Cm-Galxe",
            "created_at": "2023-06-19T02:44:58Z",
            "votes": {
                "negative": 0,
                "positive": 0,
                "important": 0,
                "liked": 0,
                "disliked": 0,
                "lol": 0,
                "toxic": 0,
                "saved": 0,
                "comments": 0
            }
        },
        {
            "kind": "news",
            "domain": "@Waltonchain",
            "source": {
                "title": "Walton Twitter",
                "region": "en",
                "domain": "twitter.com",
                "path": "@waltonchain"
            },
            "title": "4 Million $WTC Pool #GMN Airdrop 06 is coming. \nHolders of ERC-20 $WTC #GMN addresses please complete the token swa\u2026",
            "published_at": "2023-03-31T08:46:31Z",
            "slug": "4-Million-WTC-Pool-GMN-Airdrop-06-is-coming-Holders-of-ERC-20-WTC-GMN-addresses-please-complete-the-token-swa",
            "currencies": [
                {
                    "code": "WTC",
                    "title": "Waltonchain",
                    "slug": "waltonchain",
                    "url": "https:\/\/cryptopanic.com\/news\/waltonchain\/"
                }
            ],
            "id": 18008568,
            "url": "https:\/\/cryptopanic.com\/news\/18008568\/4-Million-WTC-Pool-GMN-Airdrop-06-is-coming-Holders-of-ERC-20-WTC-GMN-addresses-please-complete-the-token-swa",
            "created_at": "2023-03-31T08:46:31Z",
            "votes": {
                "negative": 0,
                "positive": 0,
                "important": 0,
                "liked": 0,
                "disliked": 0,
                "lol": 0,
                "toxic": 0,
                "saved": 0,
                "comments": 0
            }
        },
        {
            "kind": "news",
            "domain": "@Waltonchain",
            "source": {
                "title": "Walton Twitter",
                "region": "en",
                "domain": "twitter.com",
                "path": "@waltonchain"
            },
            "title": "Thanks for the supporting of @p2b_exchange !",
            "published_at": "2023-03-20T10:17:35Z",
            "slug": "Thanks-for-the-supporting-of-p2b_exchange",
            "currencies": [
                {
                    "code": "WTC",
                    "title": "Waltonchain",
                    "slug": "waltonchain",
                    "url": "https:\/\/cryptopanic.com\/news\/waltonchain\/"
                }
            ],
            "id": 17928771,
            "url": "https:\/\/cryptopanic.com\/news\/17928771\/Thanks-for-the-supporting-of-p2b_exchange",
            "created_at": "2023-03-20T10:17:35Z",
            "votes": {
                "negative": 0,
                "positive": 0,
                "important": 0,
                "liked": 0,
                "disliked": 0,
                "lol": 0,
                "toxic": 0,
                "saved": 0,
                "comments": 0
            }
        },
        {
            "kind": "news",
            "domain": "@Waltonchain",
            "source": {
                "title": "Walton Twitter",
                "region": "en",
                "domain": "twitter.com",
                "path": "@waltonchain"
            },
            "title": "Mainnet $WTA would be listed today, please CONFIRM the token you send is ON WTA MAINNET!\n\nIf your $WTA is on WTC ma\u2026",
            "published_at": "2023-03-20T02:48:55Z",
            "slug": "Mainnet-WTA-would-be-listed-today-please-CONFIRM-the-token-you-send-is-ON-WTA-MAINNET-If-your-WTA-is-on-WTC-ma",
            "currencies": [
                {
                    "code": "WTC",
                    "title": "Waltonchain",
                    "slug": "waltonchain",
                    "url": "https:\/\/cryptopanic.com\/news\/waltonchain\/"
                }
            ],
            "id": 17920494,
            "url": "https:\/\/cryptopanic.com\/news\/17920494\/Mainnet-WTA-would-be-listed-today-please-CONFIRM-the-token-you-send-is-ON-WTA-MAINNET-If-your-WTA-is-on-WTC-ma",
            "created_at": "2023-03-20T02:48:55Z",
            "votes": {
                "negative": 0,
                "positive": 0,
                "important": 0,
                "liked": 0,
                "disliked": 0,
                "lol": 0,
                "toxic": 0,
                "saved": 0,
                "comments": 0
            }
        },
        {
            "kind": "news",
            "domain": "@Waltonchain",
            "source": {
                "title": "Walton Twitter",
                "region": "en",
                "domain": "twitter.com",
                "path": "@waltonchain"
            },
            "title": "Waltonchain 2023 Roadmap",
            "published_at": "2023-03-17T09:10:04Z",
            "slug": "Waltonchain-2023-Roadmap",
            "currencies": [
                {
                    "code": "WTC",
                    "title": "Waltonchain",
                    "slug": "waltonchain",
                    "url": "https:\/\/cryptopanic.com\/news\/waltonchain\/"
                }
            ],
            "id": 17902845,
            "url": "https:\/\/cryptopanic.com\/news\/17902845\/Waltonchain-2023-Roadmap",
            "created_at": "2023-03-17T09:10:04Z",
            "votes": {
                "negative": 0,
                "positive": 0,
                "important": 0,
                "liked": 0,
                "disliked": 0,
                "lol": 0,
                "toxic": 0,
                "saved": 0,
                "comments": 0
            }
        },
        {
            "kind": "news",
            "domain": "@Waltonchain",
            "source": {
                "title": "Walton Twitter",
                "region": "en",
                "domain": "twitter.com",
                "path": "@waltonchain"
            },
            "title": "WTA Cross-chain Swap Soon\n\nMarch 17, 2023, 9 AM UTC\nIn Waltonchain Dapp Wallet, test version of $WTA cross-chain sw\u2026",
            "published_at": "2023-03-16T08:55:50Z",
            "slug": "WTA-Cross-chain-Swap-Soon-March-17-2023-9-AM-UTC-In-Waltonchain-Dapp-Wallet-test-version-of-WTA-cross-chain-sw",
            "currencies": [
                {
                    "code": "WTC",
                    "title": "Waltonchain",
                    "slug": "waltonchain",
                    "url": "https:\/\/cryptopanic.com\/news\/waltonchain\/"
                }
            ],
            "id": 17893979,
            "url": "https:\/\/cryptopanic.com\/news\/17893979\/WTA-Cross-chain-Swap-Soon-March-17-2023-9-AM-UTC-In-Waltonchain-Dapp-Wallet-test-version-of-WTA-cross-chain-sw",
            "created_at": "2023-03-16T08:55:50Z",
            "votes": {
                "negative": 0,
                "positive": 0,
                "important": 0,
                "liked": 0,
                "disliked": 0,
                "lol": 0,
                "toxic": 0,
                "saved": 0,
                "comments": 0
            }
        },
        {
            "kind": "news",
            "domain": "@Waltonchain",
            "source": {
                "title": "Walton Twitter",
                "region": "en",
                "domain": "twitter.com",
                "path": "@waltonchain"
            },
            "title": "RT @p2b_exchange: WaltonChain Autonomy Launchpad session start\n\nThe Launchpad session for @Waltonchain starts on P2B\n\nYou can buy WTA toke\u2026",
            "published_at": "2023-02-22T02:23:12Z",
            "slug": "RT-p2b_exchange-WaltonChain-Autonomy-Launchpad-session-start-The-Launchpad-session-for-Waltonchain-starts-on-P2B-You-can-buy-WTA-toke",
            "currencies": [
                {
                    "code": "WTC",
                    "title": "Waltonchain",
                    "slug": "waltonchain",
                    "url": "https:\/\/cryptopanic.com\/news\/waltonchain\/"
                }
            ],
            "id": 17698414,
            "url": "https:\/\/cryptopanic.com\/news\/17698414\/RT-p2b_exchange-WaltonChain-Autonomy-Launchpad-session-start-The-Launchpad-session-for-Waltonchain-starts-on-P2B-You-can-buy-WTA-toke",
            "created_at": "2023-02-22T02:23:12Z",
            "votes": {
                "negative": 0,
                "positive": 0,
                "important": 0,
                "liked": 0,
                "disliked": 0,
                "lol": 0,
                "toxic": 0,
                "saved": 0,
                "comments": 0
            }
        },
        {
            "kind": "news",
            "domain": "@Waltonchain",
            "source": {
                "title": "Walton Twitter",
                "region": "en",
                "domain": "twitter.com",
                "path": "@waltonchain"
            },
            "title": "Happy Chinese Lunar new year 2023! \ud83e\udde7\nOur Chinese office will be closed from Jan 16 to 29. \nThe Kirinpool payout a\u2026",
            "published_at": "2023-01-13T06:07:41Z",
            "slug": "Happy-Chinese-Lunar-new-year-2023-Our-Chinese-office-will-be-closed-from-Jan-16-to-29-The-Kirinpool-payout-a",
            "currencies": [
                {
                    "code": "WTC",
                    "title": "Waltonchain",
                    "slug": "waltonchain",
                    "url": "https:\/\/cryptopanic.com\/news\/waltonchain\/"
                }
            ],
            "id": 17367693,
            "url": "https:\/\/cryptopanic.com\/news\/17367693\/Happy-Chinese-Lunar-new-year-2023-Our-Chinese-office-will-be-closed-from-Jan-16-to-29-The-Kirinpool-payout-a",
            "created_at": "2023-01-13T06:07:41Z",
            "votes": {
                "negative": 0,
                "positive": 0,
                "important": 0,
                "liked": 0,
                "disliked": 0,
                "lol": 0,
                "toxic": 0,
                "saved": 0,
                "comments": 0
            }
        },
        {
            "kind": "news",
            "domain": "@Waltonchain",
            "source": {
                "title": "Walton Twitter",
                "region": "en",
                "domain": "twitter.com",
                "path": "@waltonchain"
            },
            "title": "Dear all WTA holders can follow the instruction and operate mainnet WTA coins from MetaMask:\u2026",
            "published_at": "2023-01-06T08:25:04Z",
            "slug": "Dear-all-WTA-holders-can-follow-the-instruction-and-operate-mainnet-WTA-coins-from-MetaMask",
            "currencies": [
                {
                    "code": "WTC",
                    "title": "Waltonchain",
                    "slug": "waltonchain",
                    "url": "https:\/\/cryptopanic.com\/news\/waltonchain\/"
                }
            ],
            "id": 17315808,
            "url": "https:\/\/cryptopanic.com\/news\/17315808\/Dear-all-WTA-holders-can-follow-the-instruction-and-operate-mainnet-WTA-coins-from-MetaMask",
            "created_at": "2023-01-06T08:25:04Z",
            "votes": {
                "negative": 0,
                "positive": 0,
                "important": 0,
                "liked": 0,
                "disliked": 0,
                "lol": 0,
                "toxic": 0,
                "saved": 0,
                "comments": 0
            }
        },
        {
            "kind": "news",
            "domain": "@Waltonchain",
            "source": {
                "title": "Walton Twitter",
                "region": "en",
                "domain": "twitter.com",
                "path": "@waltonchain"
            },
            "title": "You may also:\n\nDownload Android Dapp Wallet for WTC\/WTA token:\n\n\n\nCheck transaction data on\u2026",
            "published_at": "2023-01-04T05:50:26Z",
            "slug": "You-may-also-Download-Android-Dapp-Wallet-for-WTCWTA-token-Check-transaction-data-on",
            "currencies": [
                {
                    "code": "WTC",
                    "title": "Waltonchain",
                    "slug": "waltonchain",
                    "url": "https:\/\/cryptopanic.com\/news\/waltonchain\/"
                }
            ],
            "id": 17296508,
            "url": "https:\/\/cryptopanic.com\/news\/17296508\/You-may-also-Download-Android-Dapp-Wallet-for-WTCWTA-token-Check-transaction-data-on",
            "created_at": "2023-01-04T05:50:26Z",
            "votes": {
                "negative": 0,
                "positive": 0,
                "important": 0,
                "liked": 0,
                "disliked": 0,
                "lol": 0,
                "toxic": 0,
                "saved": 0,
                "comments": 0
            }
        },
        {
            "kind": "news",
            "domain": "@Waltonchain",
            "source": {
                "title": "Walton Twitter",
                "region": "en",
                "domain": "twitter.com",
                "path": "@waltonchain"
            },
            "title": "Dear all WTC supporters, WTA mainnet beta testing download link:\n\nWelcome to download the no\u2026",
            "published_at": "2023-01-04T05:46:03Z",
            "slug": "Dear-all-WTC-supporters-WTA-mainnet-beta-testing-download-link-Welcome-to-download-the-no",
            "currencies": [
                {
                    "code": "WTC",
                    "title": "Waltonchain",
                    "slug": "waltonchain",
                    "url": "https:\/\/cryptopanic.com\/news\/waltonchain\/"
                }
            ],
            "id": 17296416,
            "url": "https:\/\/cryptopanic.com\/news\/17296416\/Dear-all-WTC-supporters-WTA-mainnet-beta-testing-download-link-Welcome-to-download-the-no",
            "created_at": "2023-01-04T05:46:03Z",
            "votes": {
                "negative": 0,
                "positive": 0,
                "important": 0,
                "liked": 0,
                "disliked": 0,
                "lol": 0,
                "toxic": 0,
                "saved": 0,
                "comments": 0
            }
        },
        {
            "kind": "news",
            "domain": "@Waltonchain",
            "source": {
                "title": "Walton Twitter",
                "region": "en",
                "domain": "twitter.com",
                "path": "@waltonchain"
            },
            "title": "Happy New Year &amp; \nHappy New Era of WTC Ecosystem!\nWTA Smart Chain Mainnet Beta Testing on 15:00, 4th Jan, 2023 (UTC\u2026",
            "published_at": "2022-12-28T08:59:59Z",
            "slug": "Happy-New-Year-amp-Happy-New-Era-of-WTC-Ecosystem-WTA-Smart-Chain-Mainnet-Beta-Testing-on-1500-4th-Jan-2023-UTC",
            "currencies": [
                {
                    "code": "WTC",
                    "title": "Waltonchain",
                    "slug": "waltonchain",
                    "url": "https:\/\/cryptopanic.com\/news\/waltonchain\/"
                },
                {
                    "code": "XCN",
                    "title": "Onyxcoin",
                    "slug": "chain-2",
                    "url": "https:\/\/cryptopanic.com\/news\/chain-2\/"
                }
            ],
            "id": 17253782,
            "url": "https:\/\/cryptopanic.com\/news\/17253782\/Happy-New-Year-amp-Happy-New-Era-of-WTC-Ecosystem-WTA-Smart-Chain-Mainnet-Beta-Testing-on-1500-4th-Jan-2023-UTC",
            "created_at": "2022-12-28T08:59:59Z",
            "votes": {
                "negative": 0,
                "positive": 0,
                "important": 0,
                "liked": 0,
                "disliked": 0,
                "lol": 0,
                "toxic": 0,
                "saved": 0,
                "comments": 0
            }
        },
        {
            "kind": "news",
            "domain": "@Waltonchain",
            "source": {
                "title": "Walton Twitter",
                "region": "en",
                "domain": "twitter.com",
                "path": "@waltonchain"
            },
            "title": "Join the @BinanceFanToken #BFF2022 Daily Challenge today and share $45,000 WTC worth of rewards!\n\nWish all WTC supp\u2026",
            "published_at": "2022-12-06T07:49:18Z",
            "slug": "Join-the-BinanceFanToken-BFF2022-Daily-Challenge-today-and-share-45000-WTC-worth-of-rewards-Wish-all-WTC-supp",
            "currencies": [
                {
                    "code": "WTC",
                    "title": "Waltonchain",
                    "slug": "waltonchain",
                    "url": "https:\/\/cryptopanic.com\/news\/waltonchain\/"
                }
            ],
            "id": 17079697,
            "url": "https:\/\/cryptopanic.com\/news\/17079697\/Join-the-BinanceFanToken-BFF2022-Daily-Challenge-today-and-share-45000-WTC-worth-of-rewards-Wish-all-WTC-supp",
            "created_at": "2022-12-06T07:49:18Z",
            "votes": {
                "negative": 0,
                "positive": 0,
                "important": 0,
                "liked": 0,
                "disliked": 0,
                "lol": 0,
                "toxic": 0,
                "saved": 0,
                "comments": 0
            }
        },
        {
            "kind": "news",
            "domain": "@Waltonchain",
            "source": {
                "title": "Walton Twitter",
                "region": "en",
                "domain": "twitter.com",
                "path": "@waltonchain"
            },
            "title": "Congratulate all the winners of as following!\nPlease Message us directly of your Binance BUID and Email addresses t\u2026",
            "published_at": "2022-12-06T03:57:10Z",
            "slug": "Congratulate-all-the-winners-of-as-following-Please-Message-us-directly-of-your-Binance-BUID-and-Email-addresses-t",
            "currencies": [
                {
                    "code": "WTC",
                    "title": "Waltonchain",
                    "slug": "waltonchain",
                    "url": "https:\/\/cryptopanic.com\/news\/waltonchain\/"
                }
            ],
            "id": 17076440,
            "url": "https:\/\/cryptopanic.com\/news\/17076440\/Congratulate-all-the-winners-of-as-following-Please-Message-us-directly-of-your-Binance-BUID-and-Email-addresses-t",
            "created_at": "2022-12-06T03:57:10Z",
            "votes": {
                "negative": 0,
                "positive": 0,
                "important": 0,
                "liked": 0,
                "disliked": 0,
                "lol": 0,
                "toxic": 0,
                "saved": 0,
                "comments": 0
            }
        },
        {
            "kind": "news",
            "domain": "@Waltonchain",
            "source": {
                "title": "Walton Twitter",
                "region": "en",
                "domain": "twitter.com",
                "path": "@waltonchain"
            },
            "title": "RT @Waltonchain: WTC together with @Binance gives away $100 gift card for Binance Football Fever.\nTelling us who you will be supporting and\u2026",
            "published_at": "2022-12-06T03:53:47Z",
            "slug": "RT-Waltonchain-WTC-together-with-Binance-gives-away-100-gift-card-for-Binance-Football-Fever-Telling-us-who-you-will-be-supporting-and",
            "currencies": [
                {
                    "code": "WTC",
                    "title": "Waltonchain",
                    "slug": "waltonchain",
                    "url": "https:\/\/cryptopanic.com\/news\/waltonchain\/"
                }
            ],
            "id": 17076439,
            "url": "https:\/\/cryptopanic.com\/news\/17076439\/RT-Waltonchain-WTC-together-with-Binance-gives-away-100-gift-card-for-Binance-Football-Fever-Telling-us-who-you-will-be-supporting-and",
            "created_at": "2022-12-06T03:53:47Z",
            "votes": {
                "negative": 0,
                "positive": 0,
                "important": 0,
                "liked": 0,
                "disliked": 0,
                "lol": 0,
                "toxic": 0,
                "saved": 0,
                "comments": 0
            }
        },
        {
            "kind": "news",
            "domain": "@Waltonchain",
            "source": {
                "title": "Walton Twitter",
                "region": "en",
                "domain": "twitter.com",
                "path": "@waltonchain"
            },
            "title": "Congrats to our top 10 users\ud83e\udd73!!\nContinue to take part with #BinanceFanToken &amp; you could be the next \u2026",
            "published_at": "2022-11-29T09:28:46Z",
            "slug": "Congrats-to-our-top-10-users-Continue-to-take-part-with-BinanceFanToken-amp-you-could-be-the-next",
            "currencies": [
                {
                    "code": "WTC",
                    "title": "Waltonchain",
                    "slug": "waltonchain",
                    "url": "https:\/\/cryptopanic.com\/news\/waltonchain\/"
                }
            ],
            "id": 17022613,
            "url": "https:\/\/cryptopanic.com\/news\/17022613\/Congrats-to-our-top-10-users-Continue-to-take-part-with-BinanceFanToken-amp-you-could-be-the-next",
            "created_at": "2022-11-29T09:28:46Z",
            "votes": {
                "negative": 0,
                "positive": 0,
                "important": 0,
                "liked": 0,
                "disliked": 0,
                "lol": 0,
                "toxic": 0,
                "saved": 0,
                "comments": 0
            }
        },
        {
            "kind": "news",
            "domain": "@Waltonchain",
            "source": {
                "title": "Walton Twitter",
                "region": "en",
                "domain": "twitter.com",
                "path": "@waltonchain"
            },
            "title": "WTC together with @Binance gives away $100 gift card for Binance Football Fever.\nTelling us who you will be support\u2026",
            "published_at": "2022-11-18T10:04:00Z",
            "slug": "WTC-together-with-Binance-gives-away-100-gift-card-for-Binance-Football-Fever-Telling-us-who-you-will-be-support",
            "currencies": [
                {
                    "code": "WTC",
                    "title": "Waltonchain",
                    "slug": "waltonchain",
                    "url": "https:\/\/cryptopanic.com\/news\/waltonchain\/"
                }
            ],
            "id": 16932990,
            "url": "https:\/\/cryptopanic.com\/news\/16932990\/WTC-together-with-Binance-gives-away-100-gift-card-for-Binance-Football-Fever-Telling-us-who-you-will-be-support",
            "created_at": "2022-11-18T10:04:00Z",
            "votes": {
                "negative": 0,
                "positive": 0,
                "important": 0,
                "liked": 0,
                "disliked": 0,
                "lol": 0,
                "toxic": 0,
                "saved": 0,
                "comments": 0
            }
        },
        {
            "kind": "news",
            "domain": "@Waltonchain",
            "source": {
                "title": "Walton Twitter",
                "region": "en",
                "domain": "twitter.com",
                "path": "@waltonchain"
            },
            "title": "Binance Football Fever Giveaway on Waltonchain Twitter begins Now!\n\nParticipants can claim their NFT passport by en\u2026",
            "published_at": "2022-11-16T03:58:36Z",
            "slug": "Binance-Football-Fever-Giveaway-on-Waltonchain-Twitter-begins-Now-Participants-can-claim-their-NFT-passport-by-en",
            "currencies": [
                {
                    "code": "WTC",
                    "title": "Waltonchain",
                    "slug": "waltonchain",
                    "url": "https:\/\/cryptopanic.com\/news\/waltonchain\/"
                }
            ],
            "id": 16905329,
            "url": "https:\/\/cryptopanic.com\/news\/16905329\/Binance-Football-Fever-Giveaway-on-Waltonchain-Twitter-begins-Now-Participants-can-claim-their-NFT-passport-by-en",
            "created_at": "2022-11-16T03:58:36Z",
            "votes": {
                "negative": 0,
                "positive": 0,
                "important": 0,
                "liked": 0,
                "disliked": 0,
                "lol": 0,
                "toxic": 0,
                "saved": 0,
                "comments": 0
            }
        }
    ]
}
