{
    "count": 200,
    "next": "https:\/\/cryptopanic.com\/api\/v1\/posts\/?auth_token=01c356e89ffc1b8eba2127c81fc8c66ee0eace75&kind=news&currencies=MDX&page=2",
    "previous": null,
    "results": [
        {
            "kind": "news",
            "domain": "@MandalaEx",
            "source": {
                "title": "Mandala Exchange Token Twitter",
                "region": "en",
                "domain": "twitter.com",
                "path": "@mandalaex"
            },
            "title": "Volatility is a certainty with #memecoins and $PEPE\u2019s parabolic rise through the last few months shows exactly that\u2026",
            "published_at": "2023-07-11T15:15:05Z",
            "slug": "Volatility-is-a-certainty-with-memecoins-and-PEPEs-parabolic-rise-through-the-last-few-months-shows-exactly-that",
            "currencies": [
                {
                    "code": "MDX",
                    "title": "Mandala Exchange",
                    "slug": "mandala-exchange-token",
                    "url": "https:\/\/cryptopanic.com\/news\/mandala-exchange-token\/"
                }
            ],
            "id": 18765561,
            "url": "https:\/\/cryptopanic.com\/news\/18765561\/Volatility-is-a-certainty-with-memecoins-and-PEPEs-parabolic-rise-through-the-last-few-months-shows-exactly-that",
            "created_at": "2023-07-11T15:15:05Z",
            "votes": {
                "negative": 0,
                "positive": 0,
                "important": 0,
                "liked": 0,
                "disliked": 0,
                "lol": 0,
                "toxic": 0,
                "saved": 0,
                "comments": 0
            }
        },
        {
            "kind": "news",
            "domain": "@MandalaEx",
            "source": {
                "title": "Mandala Exchange Token Twitter",
                "region": "en",
                "domain": "twitter.com",
                "path": "@mandalaex"
            },
            "title": "1\/ Mandala Mondays: last week in crypto \n\n\ud83e\uddf5\n\n\ud83e\udd2f Meta launched its Twitter alternative called Threads which gained o\u2026",
            "published_at": "2023-07-10T16:35:41Z",
            "slug": "1-Mandala-Mondays-last-week-in-crypto-Meta-launched-its-Twitter-alternative-called-Threads-which-gained-o",
            "currencies": [
                {
                    "code": "MDX",
                    "title": "Mandala Exchange",
                    "slug": "mandala-exchange-token",
                    "url": "https:\/\/cryptopanic.com\/news\/mandala-exchange-token\/"
                }
            ],
            "id": 18757429,
            "url": "https:\/\/cryptopanic.com\/news\/18757429\/1-Mandala-Mondays-last-week-in-crypto-Meta-launched-its-Twitter-alternative-called-Threads-which-gained-o",
            "created_at": "2023-07-10T16:35:41Z",
            "votes": {
                "negative": 0,
                "positive": 0,
                "important": 0,
                "liked": 0,
                "disliked": 0,
                "lol": 0,
                "toxic": 0,
                "saved": 0,
                "comments": 0
            }
        },
        {
            "kind": "news",
            "domain": "@MandalaEx",
            "source": {
                "title": "Mandala Exchange Token Twitter",
                "region": "en",
                "domain": "twitter.com",
                "path": "@mandalaex"
            },
            "title": "Don\u2019t forget to take your orange pills today! \n\n#bitcoin #Bitcoin2023",
            "published_at": "2023-07-10T15:13:02Z",
            "slug": "Dont-forget-to-take-your-orange-pills-today-bitcoin-Bitcoin2023",
            "currencies": [
                {
                    "code": "MDX",
                    "title": "Mandala Exchange",
                    "slug": "mandala-exchange-token",
                    "url": "https:\/\/cryptopanic.com\/news\/mandala-exchange-token\/"
                }
            ],
            "id": 18757430,
            "url": "https:\/\/cryptopanic.com\/news\/18757430\/Dont-forget-to-take-your-orange-pills-today-bitcoin-Bitcoin2023",
            "created_at": "2023-07-10T15:13:02Z",
            "votes": {
                "negative": 0,
                "positive": 0,
                "important": 0,
                "liked": 0,
                "disliked": 0,
                "lol": 0,
                "toxic": 0,
                "saved": 0,
                "comments": 0
            }
        },
        {
            "kind": "news",
            "domain": "@MandalaEx",
            "source": {
                "title": "Mandala Exchange Token Twitter",
                "region": "en",
                "domain": "twitter.com",
                "path": "@mandalaex"
            },
            "title": "While you take the day off, we'll keep an eye on the #cryptomarket \n\nWhoops!\n\nThe price just went 100x!\ud83e\udee2\n\n#CryptoTwitter",
            "published_at": "2023-07-09T15:57:07Z",
            "slug": "While-you-take-the-day-off-well-keep-an-eye-on-the-cryptomarket-Whoops-The-price-just-went-100x-CryptoTwitter",
            "currencies": [
                {
                    "code": "MDX",
                    "title": "Mandala Exchange",
                    "slug": "mandala-exchange-token",
                    "url": "https:\/\/cryptopanic.com\/news\/mandala-exchange-token\/"
                }
            ],
            "id": 18750415,
            "url": "https:\/\/cryptopanic.com\/news\/18750415\/While-you-take-the-day-off-well-keep-an-eye-on-the-cryptomarket-Whoops-The-price-just-went-100x-CryptoTwitter",
            "created_at": "2023-07-09T15:57:07Z",
            "votes": {
                "negative": 0,
                "positive": 0,
                "important": 0,
                "liked": 0,
                "disliked": 0,
                "lol": 0,
                "toxic": 0,
                "saved": 0,
                "comments": 0
            }
        },
        {
            "kind": "news",
            "domain": "@MandalaEx",
            "source": {
                "title": "Mandala Exchange Token Twitter",
                "region": "en",
                "domain": "twitter.com",
                "path": "@mandalaex"
            },
            "title": "$TFUEL is the second native token of the @Theta_Network blockchain and serves as the utility token \n\n\ufe0f It powers\u2026",
            "published_at": "2023-07-07T18:00:00Z",
            "slug": "TFUEL-is-the-second-native-token-of-the-Theta_Network-blockchain-and-serves-as-the-utility-token-It-powers",
            "currencies": [
                {
                    "code": "MDX",
                    "title": "Mandala Exchange",
                    "slug": "mandala-exchange-token",
                    "url": "https:\/\/cryptopanic.com\/news\/mandala-exchange-token\/"
                }
            ],
            "id": 18741202,
            "url": "https:\/\/cryptopanic.com\/news\/18741202\/TFUEL-is-the-second-native-token-of-the-Theta_Network-blockchain-and-serves-as-the-utility-token-It-powers",
            "created_at": "2023-07-07T18:00:00Z",
            "votes": {
                "negative": 0,
                "positive": 0,
                "important": 0,
                "liked": 0,
                "disliked": 0,
                "lol": 0,
                "toxic": 0,
                "saved": 0,
                "comments": 0
            }
        },
        {
            "kind": "news",
            "domain": "@MandalaEx",
            "source": {
                "title": "Mandala Exchange Token Twitter",
                "region": "en",
                "domain": "twitter.com",
                "path": "@mandalaex"
            },
            "title": "The best way to end your workweek is to watch the #cryptomarket outperform #tradfi assets \ud83e\udd19\n\nTag your friend in the\u2026",
            "published_at": "2023-07-07T13:24:57Z",
            "slug": "The-best-way-to-end-your-workweek-is-to-watch-the-cryptomarket-outperform-tradfi-assets-Tag-your-friend-in-the",
            "currencies": [
                {
                    "code": "MDX",
                    "title": "Mandala Exchange",
                    "slug": "mandala-exchange-token",
                    "url": "https:\/\/cryptopanic.com\/news\/mandala-exchange-token\/"
                }
            ],
            "id": 18741203,
            "url": "https:\/\/cryptopanic.com\/news\/18741203\/The-best-way-to-end-your-workweek-is-to-watch-the-cryptomarket-outperform-tradfi-assets-Tag-your-friend-in-the",
            "created_at": "2023-07-07T13:24:57Z",
            "votes": {
                "negative": 0,
                "positive": 0,
                "important": 0,
                "liked": 0,
                "disliked": 0,
                "lol": 0,
                "toxic": 0,
                "saved": 0,
                "comments": 0
            }
        },
        {
            "kind": "news",
            "domain": "@MandalaEx",
            "source": {
                "title": "Mandala Exchange Token Twitter",
                "region": "en",
                "domain": "twitter.com",
                "path": "@mandalaex"
            },
            "title": "Komodo (KMD) went up by 10% this week! \n\n if you traded $KMD\n\n@KomodoPlatform",
            "published_at": "2023-07-06T13:37:46Z",
            "slug": "Komodo-KMD-went-up-by-10-this-week-if-you-traded-KMD-KomodoPlatform",
            "currencies": [
                {
                    "code": "MDX",
                    "title": "Mandala Exchange",
                    "slug": "mandala-exchange-token",
                    "url": "https:\/\/cryptopanic.com\/news\/mandala-exchange-token\/"
                }
            ],
            "id": 18733674,
            "url": "https:\/\/cryptopanic.com\/news\/18733674\/Komodo-KMD-went-up-by-10-this-week-if-you-traded-KMD-KomodoPlatform",
            "created_at": "2023-07-06T13:37:46Z",
            "votes": {
                "negative": 0,
                "positive": 0,
                "important": 0,
                "liked": 0,
                "disliked": 0,
                "lol": 0,
                "toxic": 0,
                "saved": 0,
                "comments": 0
            }
        },
        {
            "kind": "news",
            "domain": "@MandalaEx",
            "source": {
                "title": "Mandala Exchange Token Twitter",
                "region": "en",
                "domain": "twitter.com",
                "path": "@mandalaex"
            },
            "title": "1\/ #XRP surged to $0.50 earlier this year and the expectation is that if they win the battle against the SEC, they\u2026",
            "published_at": "2023-07-05T18:22:03Z",
            "slug": "1-XRP-surged-to-050-earlier-this-year-and-the-expectation-is-that-if-they-win-the-battle-against-the-SEC-they",
            "currencies": [
                {
                    "code": "MDX",
                    "title": "Mandala Exchange",
                    "slug": "mandala-exchange-token",
                    "url": "https:\/\/cryptopanic.com\/news\/mandala-exchange-token\/"
                }
            ],
            "id": 18725231,
            "url": "https:\/\/cryptopanic.com\/news\/18725231\/1-XRP-surged-to-050-earlier-this-year-and-the-expectation-is-that-if-they-win-the-battle-against-the-SEC-they",
            "created_at": "2023-07-05T18:22:03Z",
            "votes": {
                "negative": 0,
                "positive": 0,
                "important": 0,
                "liked": 0,
                "disliked": 0,
                "lol": 0,
                "toxic": 0,
                "saved": 0,
                "comments": 0
            }
        },
        {
            "kind": "news",
            "domain": "@MandalaEx",
            "source": {
                "title": "Mandala Exchange Token Twitter",
                "region": "en",
                "domain": "twitter.com",
                "path": "@mandalaex"
            },
            "title": "The ultimate #crypto exchange should have:\n\nLarge liquidity \nLow fees \n\nWe got \u2018em both! \n\nStart trading today ",
            "published_at": "2023-07-05T12:00:47Z",
            "slug": "The-ultimate-crypto-exchange-should-have-Large-liquidity-Low-fees-We-got-em-both-Start-trading-today",
            "currencies": [
                {
                    "code": "MDX",
                    "title": "Mandala Exchange",
                    "slug": "mandala-exchange-token",
                    "url": "https:\/\/cryptopanic.com\/news\/mandala-exchange-token\/"
                }
            ],
            "id": 18725232,
            "url": "https:\/\/cryptopanic.com\/news\/18725232\/The-ultimate-crypto-exchange-should-have-Large-liquidity-Low-fees-We-got-em-both-Start-trading-today",
            "created_at": "2023-07-05T12:00:47Z",
            "votes": {
                "negative": 0,
                "positive": 0,
                "important": 0,
                "liked": 0,
                "disliked": 0,
                "lol": 0,
                "toxic": 0,
                "saved": 0,
                "comments": 0
            }
        },
        {
            "kind": "news",
            "domain": "@MandalaEx",
            "source": {
                "title": "Mandala Exchange Token Twitter",
                "region": "en",
                "domain": "twitter.com",
                "path": "@mandalaex"
            },
            "title": "Today\u2019s honest opinion:\n\nThe #Crypto project that could compete with #Bitcoin will have to be a collaboration \ud83e\udd1d\n\nTa\u2026",
            "published_at": "2023-07-04T12:16:02Z",
            "slug": "Todays-honest-opinion-The-Crypto-project-that-could-compete-with-Bitcoin-will-have-to-be-a-collaboration-Ta",
            "currencies": [
                {
                    "code": "MDX",
                    "title": "Mandala Exchange",
                    "slug": "mandala-exchange-token",
                    "url": "https:\/\/cryptopanic.com\/news\/mandala-exchange-token\/"
                }
            ],
            "id": 18717364,
            "url": "https:\/\/cryptopanic.com\/news\/18717364\/Todays-honest-opinion-The-Crypto-project-that-could-compete-with-Bitcoin-will-have-to-be-a-collaboration-Ta",
            "created_at": "2023-07-04T12:16:02Z",
            "votes": {
                "negative": 0,
                "positive": 0,
                "important": 0,
                "liked": 0,
                "disliked": 0,
                "lol": 0,
                "toxic": 0,
                "saved": 0,
                "comments": 0
            }
        },
        {
            "kind": "news",
            "domain": "@MandalaEx",
            "source": {
                "title": "Mandala Exchange Token Twitter",
                "region": "en",
                "domain": "twitter.com",
                "path": "@mandalaex"
            },
            "title": "1\/ Mandala Mondays: last week in crypto \n\n\ud83e\uddf5\n\n $BTC crossed $31,500 and remained above $30,000 for the third strai\u2026",
            "published_at": "2023-07-03T17:17:54Z",
            "slug": "1-Mandala-Mondays-last-week-in-crypto-BTC-crossed-31500-and-remained-above-30000-for-the-third-strai",
            "currencies": [
                {
                    "code": "MDX",
                    "title": "Mandala Exchange",
                    "slug": "mandala-exchange-token",
                    "url": "https:\/\/cryptopanic.com\/news\/mandala-exchange-token\/"
                }
            ],
            "id": 18710207,
            "url": "https:\/\/cryptopanic.com\/news\/18710207\/1-Mandala-Mondays-last-week-in-crypto-BTC-crossed-31500-and-remained-above-30000-for-the-third-strai",
            "created_at": "2023-07-03T17:17:54Z",
            "votes": {
                "negative": 0,
                "positive": 0,
                "important": 0,
                "liked": 0,
                "disliked": 0,
                "lol": 0,
                "toxic": 0,
                "saved": 0,
                "comments": 0
            }
        },
        {
            "kind": "news",
            "domain": "@MandalaEx",
            "source": {
                "title": "Mandala Exchange Token Twitter",
                "region": "en",
                "domain": "twitter.com",
                "path": "@mandalaex"
            },
            "title": "Hey #cryptotwitter, \ufe0f if you\u2019re sure #bitcoin is going to touch $32,000 by the end of this week ",
            "published_at": "2023-07-03T12:48:10Z",
            "slug": "Hey-cryptotwitter-if-youre-sure-bitcoin-is-going-to-touch-32000-by-the-end-of-this-week",
            "currencies": [
                {
                    "code": "MDX",
                    "title": "Mandala Exchange",
                    "slug": "mandala-exchange-token",
                    "url": "https:\/\/cryptopanic.com\/news\/mandala-exchange-token\/"
                }
            ],
            "id": 18710208,
            "url": "https:\/\/cryptopanic.com\/news\/18710208\/Hey-cryptotwitter-if-youre-sure-bitcoin-is-going-to-touch-32000-by-the-end-of-this-week",
            "created_at": "2023-07-03T12:48:10Z",
            "votes": {
                "negative": 0,
                "positive": 0,
                "important": 0,
                "liked": 0,
                "disliked": 0,
                "lol": 0,
                "toxic": 0,
                "saved": 0,
                "comments": 0
            }
        },
        {
            "kind": "news",
            "domain": "@MandalaEx",
            "source": {
                "title": "Mandala Exchange Token Twitter",
                "region": "en",
                "domain": "twitter.com",
                "path": "@mandalaex"
            },
            "title": "Would you rather spend $$ on getting Twitter Blue for life or 1 #Bitcoin?",
            "published_at": "2023-07-02T20:30:00Z",
            "slug": "Would-you-rather-spend-on-getting-Twitter-Blue-for-life-or-1-Bitcoin",
            "currencies": [
                {
                    "code": "MDX",
                    "title": "Mandala Exchange",
                    "slug": "mandala-exchange-token",
                    "url": "https:\/\/cryptopanic.com\/news\/mandala-exchange-token\/"
                }
            ],
            "id": 18703522,
            "url": "https:\/\/cryptopanic.com\/news\/18703522\/Would-you-rather-spend-on-getting-Twitter-Blue-for-life-or-1-Bitcoin",
            "created_at": "2023-07-02T20:30:00Z",
            "votes": {
                "negative": 0,
                "positive": 0,
                "important": 0,
                "liked": 0,
                "disliked": 0,
                "lol": 0,
                "toxic": 0,
                "saved": 0,
                "comments": 0
            }
        },
        {
            "kind": "news",
            "domain": "@MandalaEx",
            "source": {
                "title": "Mandala Exchange Token Twitter",
                "region": "en",
                "domain": "twitter.com",
                "path": "@mandalaex"
            },
            "title": "1\/ Using trading bots can be quite complicated for newbies in #cryptotrading but do they actually offer traders any\u2026",
            "published_at": "2023-07-02T16:44:53Z",
            "slug": "1-Using-trading-bots-can-be-quite-complicated-for-newbies-in-cryptotrading-but-do-they-actually-offer-traders-any",
            "currencies": [
                {
                    "code": "MDX",
                    "title": "Mandala Exchange",
                    "slug": "mandala-exchange-token",
                    "url": "https:\/\/cryptopanic.com\/news\/mandala-exchange-token\/"
                }
            ],
            "id": 18703523,
            "url": "https:\/\/cryptopanic.com\/news\/18703523\/1-Using-trading-bots-can-be-quite-complicated-for-newbies-in-cryptotrading-but-do-they-actually-offer-traders-any",
            "created_at": "2023-07-02T16:44:53Z",
            "votes": {
                "negative": 0,
                "positive": 0,
                "important": 0,
                "liked": 0,
                "disliked": 0,
                "lol": 0,
                "toxic": 0,
                "saved": 0,
                "comments": 0
            }
        },
        {
            "kind": "news",
            "domain": "@MandalaEx",
            "source": {
                "title": "Mandala Exchange Token Twitter",
                "region": "en",
                "domain": "twitter.com",
                "path": "@mandalaex"
            },
            "title": "Price of #Bitcoin will be above $40,000 by the end of this week. \n\nYour thoughts? \n\n#CryptoCommunity",
            "published_at": "2023-07-01T14:56:33Z",
            "slug": "Price-of-Bitcoin-will-be-above-40000-by-the-end-of-this-week-Your-thoughts-CryptoCommunity",
            "currencies": [
                {
                    "code": "MDX",
                    "title": "Mandala Exchange",
                    "slug": "mandala-exchange-token",
                    "url": "https:\/\/cryptopanic.com\/news\/mandala-exchange-token\/"
                }
            ],
            "id": 18699282,
            "url": "https:\/\/cryptopanic.com\/news\/18699282\/Price-of-Bitcoin-will-be-above-40000-by-the-end-of-this-week-Your-thoughts-CryptoCommunity",
            "created_at": "2023-07-01T14:56:33Z",
            "votes": {
                "negative": 0,
                "positive": 0,
                "important": 0,
                "liked": 0,
                "disliked": 0,
                "lol": 0,
                "toxic": 0,
                "saved": 0,
                "comments": 0
            }
        },
        {
            "kind": "news",
            "domain": "@MandalaEx",
            "source": {
                "title": "Mandala Exchange Token Twitter",
                "region": "en",
                "domain": "twitter.com",
                "path": "@mandalaex"
            },
            "title": "There are only THREE steps to start KYC free #cryptotrading:\n\n1. Download Mandala's app \n2. Sign up with your emai\u2026",
            "published_at": "2023-06-30T16:30:00Z",
            "slug": "There-are-only-THREE-steps-to-start-KYC-free-cryptotrading-1-Download-Mandalas-app-2-Sign-up-with-your-emai",
            "currencies": [
                {
                    "code": "MDX",
                    "title": "Mandala Exchange",
                    "slug": "mandala-exchange-token",
                    "url": "https:\/\/cryptopanic.com\/news\/mandala-exchange-token\/"
                }
            ],
            "id": 18694502,
            "url": "https:\/\/cryptopanic.com\/news\/18694502\/There-are-only-THREE-steps-to-start-KYC-free-cryptotrading-1-Download-Mandalas-app-2-Sign-up-with-your-emai",
            "created_at": "2023-06-30T16:30:00Z",
            "votes": {
                "negative": 0,
                "positive": 0,
                "important": 0,
                "liked": 0,
                "disliked": 0,
                "lol": 0,
                "toxic": 0,
                "saved": 0,
                "comments": 0
            }
        },
        {
            "kind": "news",
            "domain": "@MandalaEx",
            "source": {
                "title": "Mandala Exchange Token Twitter",
                "region": "en",
                "domain": "twitter.com",
                "path": "@mandalaex"
            },
            "title": "Pro tip #1337:\n\nYou can mark your favourite #cryptocurrencies on our exchange by clicking the \u2b50\ufe0f icon next to it an\u2026",
            "published_at": "2023-06-29T14:52:00Z",
            "slug": "Pro-tip-1337-You-can-mark-your-favourite-cryptocurrencies-on-our-exchange-by-clicking-the-icon-next-to-it-an",
            "currencies": [
                {
                    "code": "MDX",
                    "title": "Mandala Exchange",
                    "slug": "mandala-exchange-token",
                    "url": "https:\/\/cryptopanic.com\/news\/mandala-exchange-token\/"
                }
            ],
            "id": 18686765,
            "url": "https:\/\/cryptopanic.com\/news\/18686765\/Pro-tip-1337-You-can-mark-your-favourite-cryptocurrencies-on-our-exchange-by-clicking-the-icon-next-to-it-an",
            "created_at": "2023-06-29T14:52:00Z",
            "votes": {
                "negative": 0,
                "positive": 0,
                "important": 0,
                "liked": 0,
                "disliked": 0,
                "lol": 0,
                "toxic": 0,
                "saved": 0,
                "comments": 0
            }
        },
        {
            "kind": "news",
            "domain": "@MandalaEx",
            "source": {
                "title": "Mandala Exchange Token Twitter",
                "region": "en",
                "domain": "twitter.com",
                "path": "@mandalaex"
            },
            "title": "On this blessed occasion of Eid al Adha, we extend our heartfelt greetings to our esteemed users and the entire cry\u2026",
            "published_at": "2023-06-29T12:30:00Z",
            "slug": "On-this-blessed-occasion-of-Eid-al-Adha-we-extend-our-heartfelt-greetings-to-our-esteemed-users-and-the-entire-cry",
            "currencies": [
                {
                    "code": "MDX",
                    "title": "Mandala Exchange",
                    "slug": "mandala-exchange-token",
                    "url": "https:\/\/cryptopanic.com\/news\/mandala-exchange-token\/"
                }
            ],
            "id": 18686766,
            "url": "https:\/\/cryptopanic.com\/news\/18686766\/On-this-blessed-occasion-of-Eid-al-Adha-we-extend-our-heartfelt-greetings-to-our-esteemed-users-and-the-entire-cry",
            "created_at": "2023-06-29T12:30:00Z",
            "votes": {
                "negative": 0,
                "positive": 0,
                "important": 0,
                "liked": 0,
                "disliked": 0,
                "lol": 0,
                "toxic": 0,
                "saved": 0,
                "comments": 0
            }
        },
        {
            "kind": "news",
            "domain": "@MandalaEx",
            "source": {
                "title": "Mandala Exchange Token Twitter",
                "region": "en",
                "domain": "twitter.com",
                "path": "@mandalaex"
            },
            "title": "Who's hungry for a #bullmarket?\n\nGrab that spoon \ud83e\udd44\n\n#cryptotrading",
            "published_at": "2023-06-29T09:31:20Z",
            "slug": "Whos-hungry-for-a-bullmarket-Grab-that-spoon-cryptotrading",
            "currencies": [
                {
                    "code": "MDX",
                    "title": "Mandala Exchange",
                    "slug": "mandala-exchange-token",
                    "url": "https:\/\/cryptopanic.com\/news\/mandala-exchange-token\/"
                }
            ],
            "id": 18686767,
            "url": "https:\/\/cryptopanic.com\/news\/18686767\/Whos-hungry-for-a-bullmarket-Grab-that-spoon-cryptotrading",
            "created_at": "2023-06-29T09:31:20Z",
            "votes": {
                "negative": 0,
                "positive": 0,
                "important": 0,
                "liked": 0,
                "disliked": 0,
                "lol": 0,
                "toxic": 0,
                "saved": 0,
                "comments": 0
            }
        },
        {
            "kind": "news",
            "domain": "@MandalaEx",
            "source": {
                "title": "Mandala Exchange Token Twitter",
                "region": "en",
                "domain": "twitter.com",
                "path": "@mandalaex"
            },
            "title": "Our strategy for the upcoming #Altseason?\n\nSimple: BUY EVERYTHING-its only going to go up from here! ",
            "published_at": "2023-06-28T12:41:40Z",
            "slug": "Our-strategy-for-the-upcoming-Altseason-Simple-BUY-EVERYTHING-its-only-going-to-go-up-from-here",
            "currencies": [
                {
                    "code": "MDX",
                    "title": "Mandala Exchange",
                    "slug": "mandala-exchange-token",
                    "url": "https:\/\/cryptopanic.com\/news\/mandala-exchange-token\/"
                }
            ],
            "id": 18678824,
            "url": "https:\/\/cryptopanic.com\/news\/18678824\/Our-strategy-for-the-upcoming-Altseason-Simple-BUY-EVERYTHING-its-only-going-to-go-up-from-here",
            "created_at": "2023-06-28T12:41:40Z",
            "votes": {
                "negative": 0,
                "positive": 0,
                "important": 0,
                "liked": 0,
                "disliked": 0,
                "lol": 0,
                "toxic": 0,
                "saved": 0,
                "comments": 0
            }
        }
    ]
}
