{
    "count": 200,
    "next": "https:\/\/cryptopanic.com\/api\/v1\/posts\/?auth_token=01c356e89ffc1b8eba2127c81fc8c66ee0eace75&kind=news&currencies=XVG&page=2",
    "previous": null,
    "results": [
        {
            "kind": "news",
            "domain": "@vergecurrency",
            "source": {
                "title": "Verge Twitter",
                "region": "en",
                "domain": "twitter.com",
                "path": "@vergecurrency"
            },
            "title": "RT @Binary_Punks: @vergecurrency @ChangeNOW_io @NOWPayments_io @NOWNodes In the Official Verge NFT Collection you can mint some rare specia\u2026",
            "published_at": "2023-07-12T00:11:14Z",
            "slug": "RT-Binary_Punks-vergecurrency-ChangeNOW_io-NOWPayments_io-NOWNodes-In-the-Official-Verge-NFT-Collection-you-can-mint-some-rare-specia",
            "currencies": [
                {
                    "code": "XVG",
                    "title": "Verge",
                    "slug": "verge",
                    "url": "https:\/\/cryptopanic.com\/news\/verge\/"
                }
            ],
            "id": 18767963,
            "url": "https:\/\/cryptopanic.com\/news\/18767963\/RT-Binary_Punks-vergecurrency-ChangeNOW_io-NOWPayments_io-NOWNodes-In-the-Official-Verge-NFT-Collection-you-can-mint-some-rare-specia",
            "created_at": "2023-07-12T00:11:14Z",
            "votes": {
                "negative": 0,
                "positive": 0,
                "important": 0,
                "liked": 0,
                "disliked": 0,
                "lol": 0,
                "toxic": 0,
                "saved": 0,
                "comments": 0
            }
        },
        {
            "kind": "news",
            "domain": "@vergecurrency",
            "source": {
                "title": "Verge Twitter",
                "region": "en",
                "domain": "twitter.com",
                "path": "@vergecurrency"
            },
            "title": "Thanks for the ongoing support @StealthEX_io .\n\nThe community appreciates that you support $XVG and the use of dece\u2026",
            "published_at": "2023-07-11T14:45:32Z",
            "slug": "Thanks-for-the-ongoing-support-StealthEX_io-The-community-appreciates-that-you-support-XVG-and-the-use-of-dece",
            "currencies": [
                {
                    "code": "XVG",
                    "title": "Verge",
                    "slug": "verge",
                    "url": "https:\/\/cryptopanic.com\/news\/verge\/"
                }
            ],
            "id": 18767964,
            "url": "https:\/\/cryptopanic.com\/news\/18767964\/Thanks-for-the-ongoing-support-StealthEX_io-The-community-appreciates-that-you-support-XVG-and-the-use-of-dece",
            "created_at": "2023-07-11T14:45:32Z",
            "votes": {
                "negative": 0,
                "positive": 0,
                "important": 0,
                "liked": 0,
                "disliked": 0,
                "lol": 0,
                "toxic": 0,
                "saved": 0,
                "comments": 0
            }
        },
        {
            "kind": "news",
            "domain": "@vergecurrency",
            "source": {
                "title": "Verge Twitter",
                "region": "en",
                "domain": "twitter.com",
                "path": "@vergecurrency"
            },
            "title": "Thanks for the ongoing support @SwapSpaceCo \n\nThe $XVG community enjoys that you support #decentralized currency\u2026",
            "published_at": "2023-07-11T14:40:18Z",
            "slug": "Thanks-for-the-ongoing-support-SwapSpaceCo-The-XVG-community-enjoys-that-you-support-decentralized-currency",
            "currencies": [
                {
                    "code": "XVG",
                    "title": "Verge",
                    "slug": "verge",
                    "url": "https:\/\/cryptopanic.com\/news\/verge\/"
                }
            ],
            "id": 18767965,
            "url": "https:\/\/cryptopanic.com\/news\/18767965\/Thanks-for-the-ongoing-support-SwapSpaceCo-The-XVG-community-enjoys-that-you-support-decentralized-currency",
            "created_at": "2023-07-11T14:40:18Z",
            "votes": {
                "negative": 0,
                "positive": 0,
                "important": 0,
                "liked": 0,
                "disliked": 0,
                "lol": 0,
                "toxic": 0,
                "saved": 0,
                "comments": 0
            }
        },
        {
            "kind": "news",
            "domain": "@vergecurrency",
            "source": {
                "title": "Verge Twitter",
                "region": "en",
                "domain": "twitter.com",
                "path": "@vergecurrency"
            },
            "title": "RT @StealthEX_io: These projects are available for exchange on StealthEX!\n\n$FIRO - @firoorg \n$TRX - @trondao \n$MINT - @MintClubPro \n#BABYDO\u2026",
            "published_at": "2023-07-11T14:37:25Z",
            "slug": "RT-StealthEX_io-These-projects-are-available-for-exchange-on-StealthEX-FIRO-firoorg-TRX-trondao-MINT-MintClubPro-BABYDO",
            "currencies": [
                {
                    "code": "XVG",
                    "title": "Verge",
                    "slug": "verge",
                    "url": "https:\/\/cryptopanic.com\/news\/verge\/"
                }
            ],
            "id": 18767966,
            "url": "https:\/\/cryptopanic.com\/news\/18767966\/RT-StealthEX_io-These-projects-are-available-for-exchange-on-StealthEX-FIRO-firoorg-TRX-trondao-MINT-MintClubPro-BABYDO",
            "created_at": "2023-07-11T14:37:25Z",
            "votes": {
                "negative": 0,
                "positive": 0,
                "important": 0,
                "liked": 0,
                "disliked": 0,
                "lol": 0,
                "toxic": 0,
                "saved": 0,
                "comments": 0
            }
        },
        {
            "kind": "news",
            "domain": "@vergecurrency",
            "source": {
                "title": "Verge Twitter",
                "region": "en",
                "domain": "twitter.com",
                "path": "@vergecurrency"
            },
            "title": "RT @SwapSpaceCo: #VERGE made some noise, right? \n\nHere is a quick reminder that $XVG is available for you to swap in the most fast and sec\u2026",
            "published_at": "2023-07-11T14:17:03Z",
            "slug": "RT-SwapSpaceCo-VERGE-made-some-noise-right-Here-is-a-quick-reminder-that-XVG-is-available-for-you-to-swap-in-the-most-fast-and-sec",
            "currencies": [
                {
                    "code": "XVG",
                    "title": "Verge",
                    "slug": "verge",
                    "url": "https:\/\/cryptopanic.com\/news\/verge\/"
                }
            ],
            "id": 18767967,
            "url": "https:\/\/cryptopanic.com\/news\/18767967\/RT-SwapSpaceCo-VERGE-made-some-noise-right-Here-is-a-quick-reminder-that-XVG-is-available-for-you-to-swap-in-the-most-fast-and-sec",
            "created_at": "2023-07-11T14:17:03Z",
            "votes": {
                "negative": 0,
                "positive": 0,
                "important": 0,
                "liked": 0,
                "disliked": 0,
                "lol": 0,
                "toxic": 0,
                "saved": 0,
                "comments": 0
            }
        },
        {
            "kind": "news",
            "domain": "@vergecurrency",
            "source": {
                "title": "Verge Twitter",
                "region": "en",
                "domain": "twitter.com",
                "path": "@vergecurrency"
            },
            "title": "Dive into the #decentralization wave, with $XVG a game-changer since 2014. Working Together with @ChangeNOW_io,\u2026",
            "published_at": "2023-07-11T14:16:10Z",
            "slug": "Dive-into-the-decentralization-wave-with-XVG-a-game-changer-since-2014-Working-Together-with-ChangeNOW_io",
            "currencies": [
                {
                    "code": "XVG",
                    "title": "Verge",
                    "slug": "verge",
                    "url": "https:\/\/cryptopanic.com\/news\/verge\/"
                }
            ],
            "id": 18767968,
            "url": "https:\/\/cryptopanic.com\/news\/18767968\/Dive-into-the-decentralization-wave-with-XVG-a-game-changer-since-2014-Working-Together-with-ChangeNOW_io",
            "created_at": "2023-07-11T14:16:10Z",
            "votes": {
                "negative": 0,
                "positive": 0,
                "important": 0,
                "liked": 0,
                "disliked": 0,
                "lol": 0,
                "toxic": 0,
                "saved": 0,
                "comments": 0
            }
        },
        {
            "kind": "news",
            "domain": "@vergecurrency",
            "source": {
                "title": "Verge Twitter",
                "region": "en",
                "domain": "twitter.com",
                "path": "@vergecurrency"
            },
            "title": "Binance has added $XVG as new borrowable asset on Cross Margin.\n\nThanks @binance for the ongoing support! \u2026",
            "published_at": "2023-07-11T07:49:06Z",
            "slug": "Binance-has-added-XVG-as-new-borrowable-asset-on-Cross-Margin-Thanks-binance-for-the-ongoing-support",
            "currencies": [
                {
                    "code": "XVG",
                    "title": "Verge",
                    "slug": "verge",
                    "url": "https:\/\/cryptopanic.com\/news\/verge\/"
                }
            ],
            "id": 18759692,
            "url": "https:\/\/cryptopanic.com\/news\/18759692\/Binance-has-added-XVG-as-new-borrowable-asset-on-Cross-Margin-Thanks-binance-for-the-ongoing-support",
            "created_at": "2023-07-11T07:49:06Z",
            "votes": {
                "negative": 0,
                "positive": 0,
                "important": 0,
                "liked": 0,
                "disliked": 0,
                "lol": 0,
                "toxic": 0,
                "saved": 0,
                "comments": 0
            }
        },
        {
            "kind": "news",
            "domain": "@vergecurrency",
            "source": {
                "title": "Verge Twitter",
                "region": "en",
                "domain": "twitter.com",
                "path": "@vergecurrency"
            },
            "title": "RT @XVGHS: Truth of the matter is my friends that only a handful of networks in this space achieved decentralization. Verge is one of them.\u2026",
            "published_at": "2023-07-10T22:12:18Z",
            "slug": "RT-XVGHS-Truth-of-the-matter-is-my-friends-that-only-a-handful-of-networks-in-this-space-achieved-decentralization-Verge-is-one-of-them",
            "currencies": [
                {
                    "code": "XVG",
                    "title": "Verge",
                    "slug": "verge",
                    "url": "https:\/\/cryptopanic.com\/news\/verge\/"
                }
            ],
            "id": 18759693,
            "url": "https:\/\/cryptopanic.com\/news\/18759693\/RT-XVGHS-Truth-of-the-matter-is-my-friends-that-only-a-handful-of-networks-in-this-space-achieved-decentralization-Verge-is-one-of-them",
            "created_at": "2023-07-10T22:12:18Z",
            "votes": {
                "negative": 0,
                "positive": 0,
                "important": 0,
                "liked": 0,
                "disliked": 0,
                "lol": 0,
                "toxic": 0,
                "saved": 0,
                "comments": 0
            }
        },
        {
            "kind": "news",
            "domain": "@vergecurrency",
            "source": {
                "title": "Verge Twitter",
                "region": "en",
                "domain": "twitter.com",
                "path": "@vergecurrency"
            },
            "title": "RT @itsmwittenberg: Did you know that $XVG is also on @binance Pay? With @vergecurrency being one of the very few available on #Binancepay\u2026",
            "published_at": "2023-07-10T19:03:58Z",
            "slug": "RT-itsmwittenberg-Did-you-know-that-XVG-is-also-on-binance-Pay-With-vergecurrency-being-one-of-the-very-few-available-on-Binancepay",
            "currencies": [
                {
                    "code": "XVG",
                    "title": "Verge",
                    "slug": "verge",
                    "url": "https:\/\/cryptopanic.com\/news\/verge\/"
                }
            ],
            "id": 18759694,
            "url": "https:\/\/cryptopanic.com\/news\/18759694\/RT-itsmwittenberg-Did-you-know-that-XVG-is-also-on-binance-Pay-With-vergecurrency-being-one-of-the-very-few-available-on-Binancepay",
            "created_at": "2023-07-10T19:03:58Z",
            "votes": {
                "negative": 0,
                "positive": 0,
                "important": 0,
                "liked": 0,
                "disliked": 0,
                "lol": 0,
                "toxic": 0,
                "saved": 0,
                "comments": 0
            }
        },
        {
            "kind": "news",
            "domain": "@vergecurrency",
            "source": {
                "title": "Verge Twitter",
                "region": "en",
                "domain": "twitter.com",
                "path": "@vergecurrency"
            },
            "title": "RT @itsmwittenberg: Have a look at some of the options @ivendpay offers. They are partnered with @binance pay.\n@vergecurrency is also an op\u2026",
            "published_at": "2023-07-10T19:03:54Z",
            "slug": "RT-itsmwittenberg-Have-a-look-at-some-of-the-options-ivendpay-offers-They-are-partnered-with-binance-pay-vergecurrency-is-also-an-op",
            "currencies": [
                {
                    "code": "XVG",
                    "title": "Verge",
                    "slug": "verge",
                    "url": "https:\/\/cryptopanic.com\/news\/verge\/"
                }
            ],
            "id": 18759695,
            "url": "https:\/\/cryptopanic.com\/news\/18759695\/RT-itsmwittenberg-Have-a-look-at-some-of-the-options-ivendpay-offers-They-are-partnered-with-binance-pay-vergecurrency-is-also-an-op",
            "created_at": "2023-07-10T19:03:54Z",
            "votes": {
                "negative": 0,
                "positive": 0,
                "important": 0,
                "liked": 0,
                "disliked": 0,
                "lol": 0,
                "toxic": 0,
                "saved": 0,
                "comments": 0
            }
        },
        {
            "kind": "news",
            "domain": "@vergecurrency",
            "source": {
                "title": "Verge Twitter",
                "region": "en",
                "domain": "twitter.com",
                "path": "@vergecurrency"
            },
            "title": "RT @Ederer_digital: If you would like an alternative block explorer for @vergecurrency $XVG #altcoin we were made aware that @tokenview2018\u2026",
            "published_at": "2023-07-10T17:24:23Z",
            "slug": "RT-Ederer_digital-If-you-would-like-an-alternative-block-explorer-for-vergecurrency-XVG-altcoin-we-were-made-aware-that-tokenview2018",
            "currencies": [
                {
                    "code": "XVG",
                    "title": "Verge",
                    "slug": "verge",
                    "url": "https:\/\/cryptopanic.com\/news\/verge\/"
                }
            ],
            "id": 18759696,
            "url": "https:\/\/cryptopanic.com\/news\/18759696\/RT-Ederer_digital-If-you-would-like-an-alternative-block-explorer-for-vergecurrency-XVG-altcoin-we-were-made-aware-that-tokenview2018",
            "created_at": "2023-07-10T17:24:23Z",
            "votes": {
                "negative": 0,
                "positive": 0,
                "important": 0,
                "liked": 0,
                "disliked": 0,
                "lol": 0,
                "toxic": 0,
                "saved": 0,
                "comments": 0
            }
        },
        {
            "kind": "news",
            "domain": "@vergecurrency",
            "source": {
                "title": "Verge Twitter",
                "region": "en",
                "domain": "twitter.com",
                "path": "@vergecurrency"
            },
            "title": "RT @Bane420XVG: Hey #VergeFam what is your favorite thing about Verge Currency?\n\nMine is the community driven and 100% ran by volunteer par\u2026",
            "published_at": "2023-07-10T16:42:01Z",
            "slug": "RT-Bane420XVG-Hey-VergeFam-what-is-your-favorite-thing-about-Verge-Currency-Mine-is-the-community-driven-and-100-ran-by-volunteer-par",
            "currencies": [
                {
                    "code": "XVG",
                    "title": "Verge",
                    "slug": "verge",
                    "url": "https:\/\/cryptopanic.com\/news\/verge\/"
                }
            ],
            "id": 18759697,
            "url": "https:\/\/cryptopanic.com\/news\/18759697\/RT-Bane420XVG-Hey-VergeFam-what-is-your-favorite-thing-about-Verge-Currency-Mine-is-the-community-driven-and-100-ran-by-volunteer-par",
            "created_at": "2023-07-10T16:42:01Z",
            "votes": {
                "negative": 0,
                "positive": 0,
                "important": 0,
                "liked": 0,
                "disliked": 0,
                "lol": 0,
                "toxic": 0,
                "saved": 0,
                "comments": 0
            }
        },
        {
            "kind": "news",
            "domain": "@vergecurrency",
            "source": {
                "title": "Verge Twitter",
                "region": "en",
                "domain": "twitter.com",
                "path": "@vergecurrency"
            },
            "title": "RT @itsmwittenberg: .@vergecurrency is available on @SuperExet\n\n$XVG\/USDT\n\n#ISO20022 #Currency #decentralized",
            "published_at": "2023-07-10T16:13:30Z",
            "slug": "RT-itsmwittenberg-vergecurrency-is-available-on-SuperExet-XVGUSDT-ISO20022-Currency-decentralized",
            "currencies": [
                {
                    "code": "XVG",
                    "title": "Verge",
                    "slug": "verge",
                    "url": "https:\/\/cryptopanic.com\/news\/verge\/"
                }
            ],
            "id": 18759698,
            "url": "https:\/\/cryptopanic.com\/news\/18759698\/RT-itsmwittenberg-vergecurrency-is-available-on-SuperExet-XVGUSDT-ISO20022-Currency-decentralized",
            "created_at": "2023-07-10T16:13:30Z",
            "votes": {
                "negative": 0,
                "positive": 0,
                "important": 0,
                "liked": 0,
                "disliked": 0,
                "lol": 0,
                "toxic": 0,
                "saved": 0,
                "comments": 0
            }
        },
        {
            "kind": "news",
            "domain": "@vergecurrency",
            "source": {
                "title": "Verge Twitter",
                "region": "en",
                "domain": "twitter.com",
                "path": "@vergecurrency"
            },
            "title": "RT @Bane420XVG: Verge provides the security of blockchain based payments to everyday users with easy to use software tailored to real life\u2026",
            "published_at": "2023-07-10T16:10:16Z",
            "slug": "RT-Bane420XVG-Verge-provides-the-security-of-blockchain-based-payments-to-everyday-users-with-easy-to-use-software-tailored-to-real-life",
            "currencies": [
                {
                    "code": "XVG",
                    "title": "Verge",
                    "slug": "verge",
                    "url": "https:\/\/cryptopanic.com\/news\/verge\/"
                }
            ],
            "id": 18759699,
            "url": "https:\/\/cryptopanic.com\/news\/18759699\/RT-Bane420XVG-Verge-provides-the-security-of-blockchain-based-payments-to-everyday-users-with-easy-to-use-software-tailored-to-real-life",
            "created_at": "2023-07-10T16:10:16Z",
            "votes": {
                "negative": 0,
                "positive": 0,
                "important": 0,
                "liked": 0,
                "disliked": 0,
                "lol": 0,
                "toxic": 0,
                "saved": 0,
                "comments": 0
            }
        },
        {
            "kind": "news",
            "domain": "@vergecurrency",
            "source": {
                "title": "Verge Twitter",
                "region": "en",
                "domain": "twitter.com",
                "path": "@vergecurrency"
            },
            "title": "#Guardawallet let's community know that $XVG is available on their platform.\n\n#ISO20022",
            "published_at": "2023-07-10T16:07:00Z",
            "slug": "Guardawallet-lets-community-know-that-XVG-is-available-on-their-platform-ISO20022",
            "currencies": [
                {
                    "code": "XVG",
                    "title": "Verge",
                    "slug": "verge",
                    "url": "https:\/\/cryptopanic.com\/news\/verge\/"
                }
            ],
            "id": 18759700,
            "url": "https:\/\/cryptopanic.com\/news\/18759700\/Guardawallet-lets-community-know-that-XVG-is-available-on-their-platform-ISO20022",
            "created_at": "2023-07-10T16:07:00Z",
            "votes": {
                "negative": 0,
                "positive": 0,
                "important": 0,
                "liked": 0,
                "disliked": 0,
                "lol": 0,
                "toxic": 0,
                "saved": 0,
                "comments": 0
            }
        },
        {
            "kind": "news",
            "domain": "@vergecurrency",
            "source": {
                "title": "Verge Twitter",
                "region": "en",
                "domain": "twitter.com",
                "path": "@vergecurrency"
            },
            "title": "#Mondayvibes\n\n.@SuperExet advises the @vergecurrency community that they have listed $XVG and they are marketed as\u2026",
            "published_at": "2023-07-10T14:12:49Z",
            "slug": "Mondayvibes-SuperExet-advises-the-vergecurrency-community-that-they-have-listed-XVG-and-they-are-marketed-as",
            "currencies": [
                {
                    "code": "XVG",
                    "title": "Verge",
                    "slug": "verge",
                    "url": "https:\/\/cryptopanic.com\/news\/verge\/"
                }
            ],
            "id": 18759701,
            "url": "https:\/\/cryptopanic.com\/news\/18759701\/Mondayvibes-SuperExet-advises-the-vergecurrency-community-that-they-have-listed-XVG-and-they-are-marketed-as",
            "created_at": "2023-07-10T14:12:49Z",
            "votes": {
                "negative": 0,
                "positive": 0,
                "important": 0,
                "liked": 0,
                "disliked": 0,
                "lol": 0,
                "toxic": 0,
                "saved": 0,
                "comments": 0
            }
        },
        {
            "kind": "news",
            "domain": "@vergecurrency",
            "source": {
                "title": "Verge Twitter",
                "region": "en",
                "domain": "twitter.com",
                "path": "@vergecurrency"
            },
            "title": "RT @SuperExet: #XVG is now live on #SuperEx1USDT! \ud83e\udd29\n\nGrab your opportunity and subscribe to earn 100 $XVG per subscription!\n\n Even minimum\u2026",
            "published_at": "2023-07-10T10:34:02Z",
            "slug": "RT-SuperExet-XVG-is-now-live-on-SuperEx1USDT-Grab-your-opportunity-and-subscribe-to-earn-100-XVG-per-subscription-Even-minimum",
            "currencies": [
                {
                    "code": "XVG",
                    "title": "Verge",
                    "slug": "verge",
                    "url": "https:\/\/cryptopanic.com\/news\/verge\/"
                }
            ],
            "id": 18759702,
            "url": "https:\/\/cryptopanic.com\/news\/18759702\/RT-SuperExet-XVG-is-now-live-on-SuperEx1USDT-Grab-your-opportunity-and-subscribe-to-earn-100-XVG-per-subscription-Even-minimum",
            "created_at": "2023-07-10T10:34:02Z",
            "votes": {
                "negative": 0,
                "positive": 0,
                "important": 0,
                "liked": 0,
                "disliked": 0,
                "lol": 0,
                "toxic": 0,
                "saved": 0,
                "comments": 0
            }
        },
        {
            "kind": "news",
            "domain": "@vergecurrency",
            "source": {
                "title": "Verge Twitter",
                "region": "en",
                "domain": "twitter.com",
                "path": "@vergecurrency"
            },
            "title": "RT @Fueled_by_Verge: A huge Congrats to Breitling Knox for winning the 2023 @mx4lifeonline @vergecurrency #FbV Performance Cup.\nThis award\u2026",
            "published_at": "2023-07-09T21:56:32Z",
            "slug": "RT-Fueled_by_Verge-A-huge-Congrats-to-Breitling-Knox-for-winning-the-2023-mx4lifeonline-vergecurrency-FbV-Performance-Cup-This-award",
            "currencies": [
                {
                    "code": "XVG",
                    "title": "Verge",
                    "slug": "verge",
                    "url": "https:\/\/cryptopanic.com\/news\/verge\/"
                }
            ],
            "id": 18751952,
            "url": "https:\/\/cryptopanic.com\/news\/18751952\/RT-Fueled_by_Verge-A-huge-Congrats-to-Breitling-Knox-for-winning-the-2023-mx4lifeonline-vergecurrency-FbV-Performance-Cup-This-award",
            "created_at": "2023-07-09T21:56:32Z",
            "votes": {
                "negative": 0,
                "positive": 0,
                "important": 0,
                "liked": 0,
                "disliked": 0,
                "lol": 0,
                "toxic": 0,
                "saved": 0,
                "comments": 0
            }
        },
        {
            "kind": "news",
            "domain": "@vergecurrency",
            "source": {
                "title": "Verge Twitter",
                "region": "en",
                "domain": "twitter.com",
                "path": "@vergecurrency"
            },
            "title": "Did you know that #VergeCurrency $XVG is set to become one of the first Proof-of-Work coins to achieve 100% mining\u2026",
            "published_at": "2023-07-09T19:11:30Z",
            "slug": "Did-you-know-that-VergeCurrency-XVG-is-set-to-become-one-of-the-first-Proof-of-Work-coins-to-achieve-100-mining",
            "currencies": [
                {
                    "code": "XVG",
                    "title": "Verge",
                    "slug": "verge",
                    "url": "https:\/\/cryptopanic.com\/news\/verge\/"
                }
            ],
            "id": 18751953,
            "url": "https:\/\/cryptopanic.com\/news\/18751953\/Did-you-know-that-VergeCurrency-XVG-is-set-to-become-one-of-the-first-Proof-of-Work-coins-to-achieve-100-mining",
            "created_at": "2023-07-09T19:11:30Z",
            "votes": {
                "negative": 0,
                "positive": 0,
                "important": 0,
                "liked": 0,
                "disliked": 0,
                "lol": 0,
                "toxic": 0,
                "saved": 0,
                "comments": 0
            }
        },
        {
            "kind": "news",
            "domain": "@vergecurrency",
            "source": {
                "title": "Verge Twitter",
                "region": "en",
                "domain": "twitter.com",
                "path": "@vergecurrency"
            },
            "title": "Thanks for the support @gate_io \n\nThe $XVG\/USDT pairing is appreciated.\n\n#ISO20022",
            "published_at": "2023-07-09T15:14:36Z",
            "slug": "Thanks-for-the-support-gate_io-The-XVGUSDT-pairing-is-appreciated-ISO20022",
            "currencies": [
                {
                    "code": "XVG",
                    "title": "Verge",
                    "slug": "verge",
                    "url": "https:\/\/cryptopanic.com\/news\/verge\/"
                }
            ],
            "id": 18751954,
            "url": "https:\/\/cryptopanic.com\/news\/18751954\/Thanks-for-the-support-gate_io-The-XVGUSDT-pairing-is-appreciated-ISO20022",
            "created_at": "2023-07-09T15:14:36Z",
            "votes": {
                "negative": 0,
                "positive": 0,
                "important": 0,
                "liked": 0,
                "disliked": 0,
                "lol": 0,
                "toxic": 0,
                "saved": 0,
                "comments": 0
            }
        }
    ]
}
