{
    "count": 200,
    "next": "https:\/\/cryptopanic.com\/api\/v1\/posts\/?auth_token=01c356e89ffc1b8eba2127c81fc8c66ee0eace75&kind=news&currencies=POND&page=2",
    "previous": null,
    "results": [
        {
            "kind": "news",
            "domain": "@MarlinProtocol",
            "source": {
                "title": "Marlin Twitter",
                "region": "en",
                "domain": "twitter.com",
                "path": "@marlinprotocol"
            },
            "title": "We\u2019re serving up a delectable dish for DAOs to achieve secure and efficient decentralization of their infrastructur\u2026",
            "published_at": "2023-07-11T13:07:02Z",
            "slug": "Were-serving-up-a-delectable-dish-for-DAOs-to-achieve-secure-and-efficient-decentralization-of-their-infrastructur",
            "currencies": [
                {
                    "code": "POND",
                    "title": "Marlin",
                    "slug": "marlin",
                    "url": "https:\/\/cryptopanic.com\/news\/marlin\/"
                }
            ],
            "id": 18765586,
            "url": "https:\/\/cryptopanic.com\/news\/18765586\/Were-serving-up-a-delectable-dish-for-DAOs-to-achieve-secure-and-efficient-decentralization-of-their-infrastructur",
            "created_at": "2023-07-11T13:07:02Z",
            "votes": {
                "negative": 0,
                "positive": 0,
                "important": 0,
                "liked": 0,
                "disliked": 0,
                "lol": 0,
                "toxic": 0,
                "saved": 0,
                "comments": 0
            }
        },
        {
            "kind": "news",
            "domain": "@MarlinProtocol",
            "source": {
                "title": "Marlin Twitter",
                "region": "en",
                "domain": "twitter.com",
                "path": "@marlinprotocol"
            },
            "title": "dApps with decentralized infra have the highest probability of surviving the test of time.",
            "published_at": "2023-07-10T17:23:05Z",
            "slug": "dApps-with-decentralized-infra-have-the-highest-probability-of-surviving-the-test-of-time",
            "currencies": [
                {
                    "code": "POND",
                    "title": "Marlin",
                    "slug": "marlin",
                    "url": "https:\/\/cryptopanic.com\/news\/marlin\/"
                }
            ],
            "id": 18757449,
            "url": "https:\/\/cryptopanic.com\/news\/18757449\/dApps-with-decentralized-infra-have-the-highest-probability-of-surviving-the-test-of-time",
            "created_at": "2023-07-10T17:23:05Z",
            "votes": {
                "negative": 0,
                "positive": 0,
                "important": 0,
                "liked": 0,
                "disliked": 0,
                "lol": 0,
                "toxic": 0,
                "saved": 0,
                "comments": 0
            }
        },
        {
            "kind": "news",
            "domain": "@MarlinProtocol",
            "source": {
                "title": "Marlin Twitter",
                "region": "en",
                "domain": "twitter.com",
                "path": "@marlinprotocol"
            },
            "title": "RT @HouseofChimera: Wondering what @MarlinProtocol is? How does it work? What have they been working on lately? \n\nWhat is @MarlinProtocol?\u2026",
            "published_at": "2023-07-09T10:10:32Z",
            "slug": "RT-HouseofChimera-Wondering-what-MarlinProtocol-is-How-does-it-work-What-have-they-been-working-on-lately-What-is-MarlinProtocol",
            "currencies": [
                {
                    "code": "POND",
                    "title": "Marlin",
                    "slug": "marlin",
                    "url": "https:\/\/cryptopanic.com\/news\/marlin\/"
                }
            ],
            "id": 18750425,
            "url": "https:\/\/cryptopanic.com\/news\/18750425\/RT-HouseofChimera-Wondering-what-MarlinProtocol-is-How-does-it-work-What-have-they-been-working-on-lately-What-is-MarlinProtocol",
            "created_at": "2023-07-09T10:10:32Z",
            "votes": {
                "negative": 0,
                "positive": 0,
                "important": 0,
                "liked": 0,
                "disliked": 0,
                "lol": 0,
                "toxic": 0,
                "saved": 0,
                "comments": 0
            }
        },
        {
            "kind": "news",
            "domain": "@MarlinProtocol",
            "source": {
                "title": "Marlin Twitter",
                "region": "en",
                "domain": "twitter.com",
                "path": "@marlinprotocol"
            },
            "title": "So many events, such little time! \n\nZK peeps, you don't wanna miss this one. Marlin will be attending #zkDay in Par\u2026",
            "published_at": "2023-07-08T13:39:28Z",
            "slug": "So-many-events-such-little-time-ZK-peeps-you-dont-wanna-miss-this-one-Marlin-will-be-attending-zkDay-in-Par",
            "currencies": [
                {
                    "code": "POND",
                    "title": "Marlin",
                    "slug": "marlin",
                    "url": "https:\/\/cryptopanic.com\/news\/marlin\/"
                }
            ],
            "id": 18746162,
            "url": "https:\/\/cryptopanic.com\/news\/18746162\/So-many-events-such-little-time-ZK-peeps-you-dont-wanna-miss-this-one-Marlin-will-be-attending-zkDay-in-Par",
            "created_at": "2023-07-08T13:39:28Z",
            "votes": {
                "negative": 0,
                "positive": 0,
                "important": 0,
                "liked": 0,
                "disliked": 0,
                "lol": 0,
                "toxic": 0,
                "saved": 0,
                "comments": 0
            }
        },
        {
            "kind": "news",
            "domain": "@MarlinProtocol",
            "source": {
                "title": "Marlin Twitter",
                "region": "en",
                "domain": "twitter.com",
                "path": "@marlinprotocol"
            },
            "title": "A Web 3 dev discovers Oyster\n\nCentralized Servers",
            "published_at": "2023-07-07T13:14:24Z",
            "slug": "A-Web-3-dev-discovers-Oyster-Centralized-Servers",
            "currencies": [
                {
                    "code": "POND",
                    "title": "Marlin",
                    "slug": "marlin",
                    "url": "https:\/\/cryptopanic.com\/news\/marlin\/"
                }
            ],
            "id": 18741220,
            "url": "https:\/\/cryptopanic.com\/news\/18741220\/A-Web-3-dev-discovers-Oyster-Centralized-Servers",
            "created_at": "2023-07-07T13:14:24Z",
            "votes": {
                "negative": 0,
                "positive": 0,
                "important": 0,
                "liked": 0,
                "disliked": 0,
                "lol": 0,
                "toxic": 0,
                "saved": 0,
                "comments": 0
            }
        },
        {
            "kind": "news",
            "domain": "@MarlinProtocol",
            "source": {
                "title": "Marlin Twitter",
                "region": "en",
                "domain": "twitter.com",
                "path": "@marlinprotocol"
            },
            "title": "RT @PowersOfTau: Marlin's ZK proof marketplace uses enclaves for secure &amp; fair order matching.\n\nProvers leverage Oyster for ZKP generation\u2026",
            "published_at": "2023-07-06T16:30:45Z",
            "slug": "RT-PowersOfTau-Marlins-ZK-proof-marketplace-uses-enclaves-for-secure-amp-fair-order-matching-Provers-leverage-Oyster-for-ZKP-generation",
            "currencies": [
                {
                    "code": "POND",
                    "title": "Marlin",
                    "slug": "marlin",
                    "url": "https:\/\/cryptopanic.com\/news\/marlin\/"
                }
            ],
            "id": 18733693,
            "url": "https:\/\/cryptopanic.com\/news\/18733693\/RT-PowersOfTau-Marlins-ZK-proof-marketplace-uses-enclaves-for-secure-amp-fair-order-matching-Provers-leverage-Oyster-for-ZKP-generation",
            "created_at": "2023-07-06T16:30:45Z",
            "votes": {
                "negative": 0,
                "positive": 0,
                "important": 0,
                "liked": 0,
                "disliked": 0,
                "lol": 0,
                "toxic": 0,
                "saved": 0,
                "comments": 0
            }
        },
        {
            "kind": "news",
            "domain": "@MarlinProtocol",
            "source": {
                "title": "Marlin Twitter",
                "region": "en",
                "domain": "twitter.com",
                "path": "@marlinprotocol"
            },
            "title": "GM buidlers!\n\nMarlin will be in Paris \ud83c\uddeb\ud83c\uddf7 during @EthCC and the many side events.\n\nWe're excited to share more about\u2026",
            "published_at": "2023-07-05T14:48:16Z",
            "slug": "GM-buidlers-Marlin-will-be-in-Paris-during-EthCC-and-the-many-side-events-Were-excited-to-share-more-about",
            "currencies": [
                {
                    "code": "POND",
                    "title": "Marlin",
                    "slug": "marlin",
                    "url": "https:\/\/cryptopanic.com\/news\/marlin\/"
                }
            ],
            "id": 18725252,
            "url": "https:\/\/cryptopanic.com\/news\/18725252\/GM-buidlers-Marlin-will-be-in-Paris-during-EthCC-and-the-many-side-events-Were-excited-to-share-more-about",
            "created_at": "2023-07-05T14:48:16Z",
            "votes": {
                "negative": 0,
                "positive": 0,
                "important": 0,
                "liked": 0,
                "disliked": 0,
                "lol": 0,
                "toxic": 0,
                "saved": 0,
                "comments": 0
            }
        },
        {
            "kind": "news",
            "domain": "@MarlinProtocol",
            "source": {
                "title": "Marlin Twitter",
                "region": "en",
                "domain": "twitter.com",
                "path": "@marlinprotocol"
            },
            "title": "Problem: ZK apps need heavy compute HW to generate proofs. Outsourcing this to 3rd parties requires trust\n\nSolution\u2026",
            "published_at": "2023-07-04T10:21:39Z",
            "slug": "Problem-ZK-apps-need-heavy-compute-HW-to-generate-proofs-Outsourcing-this-to-3rd-parties-requires-trust-Solution",
            "currencies": [
                {
                    "code": "POND",
                    "title": "Marlin",
                    "slug": "marlin",
                    "url": "https:\/\/cryptopanic.com\/news\/marlin\/"
                }
            ],
            "id": 18717382,
            "url": "https:\/\/cryptopanic.com\/news\/18717382\/Problem-ZK-apps-need-heavy-compute-HW-to-generate-proofs-Outsourcing-this-to-3rd-parties-requires-trust-Solution",
            "created_at": "2023-07-04T10:21:39Z",
            "votes": {
                "negative": 0,
                "positive": 0,
                "important": 0,
                "liked": 0,
                "disliked": 0,
                "lol": 0,
                "toxic": 0,
                "saved": 0,
                "comments": 0
            }
        },
        {
            "kind": "news",
            "domain": "@MarlinProtocol",
            "source": {
                "title": "Marlin Twitter",
                "region": "en",
                "domain": "twitter.com",
                "path": "@marlinprotocol"
            },
            "title": "Focused on the future.",
            "published_at": "2023-07-03T13:58:27Z",
            "slug": "Focused-on-the-future",
            "currencies": [
                {
                    "code": "POND",
                    "title": "Marlin",
                    "slug": "marlin",
                    "url": "https:\/\/cryptopanic.com\/news\/marlin\/"
                }
            ],
            "id": 18710228,
            "url": "https:\/\/cryptopanic.com\/news\/18710228\/Focused-on-the-future",
            "created_at": "2023-07-03T13:58:27Z",
            "votes": {
                "negative": 0,
                "positive": 0,
                "important": 0,
                "liked": 0,
                "disliked": 0,
                "lol": 0,
                "toxic": 0,
                "saved": 0,
                "comments": 0
            }
        },
        {
            "kind": "news",
            "domain": "@MarlinProtocol",
            "source": {
                "title": "Marlin Twitter",
                "region": "en",
                "domain": "twitter.com",
                "path": "@marlinprotocol"
            },
            "title": "RT @blockbankapp: Marlin (POND) is now listed on our DeFi wallet.\n\nEffortlessly view, swap, and transfer $POND on Ethereum Network!\nTo cele\u2026",
            "published_at": "2023-07-03T11:53:23Z",
            "slug": "RT-blockbankapp-Marlin-POND-is-now-listed-on-our-DeFi-wallet-Effortlessly-view-swap-and-transfer-POND-on-Ethereum-Network-To-cele",
            "currencies": [
                {
                    "code": "POND",
                    "title": "Marlin",
                    "slug": "marlin",
                    "url": "https:\/\/cryptopanic.com\/news\/marlin\/"
                }
            ],
            "id": 18710230,
            "url": "https:\/\/cryptopanic.com\/news\/18710230\/RT-blockbankapp-Marlin-POND-is-now-listed-on-our-DeFi-wallet-Effortlessly-view-swap-and-transfer-POND-on-Ethereum-Network-To-cele",
            "created_at": "2023-07-03T11:53:23Z",
            "votes": {
                "negative": 0,
                "positive": 0,
                "important": 0,
                "liked": 0,
                "disliked": 0,
                "lol": 0,
                "toxic": 0,
                "saved": 0,
                "comments": 0
            }
        },
        {
            "kind": "news",
            "domain": "@MarlinProtocol",
            "source": {
                "title": "Marlin Twitter",
                "region": "en",
                "domain": "twitter.com",
                "path": "@marlinprotocol"
            },
            "title": "RT @marlin_intern: In certain aspects, Web 3 projects choose centralized services instead of their decentralized counterparts to give users\u2026",
            "published_at": "2023-07-02T14:17:00Z",
            "slug": "RT-marlin_intern-In-certain-aspects-Web-3-projects-choose-centralized-services-instead-of-their-decentralized-counterparts-to-give-users",
            "currencies": [
                {
                    "code": "POND",
                    "title": "Marlin",
                    "slug": "marlin",
                    "url": "https:\/\/cryptopanic.com\/news\/marlin\/"
                }
            ],
            "id": 18703532,
            "url": "https:\/\/cryptopanic.com\/news\/18703532\/RT-marlin_intern-In-certain-aspects-Web-3-projects-choose-centralized-services-instead-of-their-decentralized-counterparts-to-give-users",
            "created_at": "2023-07-02T14:17:00Z",
            "votes": {
                "negative": 0,
                "positive": 0,
                "important": 0,
                "liked": 0,
                "disliked": 0,
                "lol": 0,
                "toxic": 0,
                "saved": 0,
                "comments": 0
            }
        },
        {
            "kind": "news",
            "domain": "@MarlinProtocol",
            "source": {
                "title": "Marlin Twitter",
                "region": "en",
                "domain": "twitter.com",
                "path": "@marlinprotocol"
            },
            "title": "In our previous threads, we saw how Oyster provides internet connectivity to and from the enclave. \n\nIn this thread\u2026",
            "published_at": "2023-07-01T14:33:22Z",
            "slug": "In-our-previous-threads-we-saw-how-Oyster-provides-internet-connectivity-to-and-from-the-enclave-In-this-thread",
            "currencies": [
                {
                    "code": "POND",
                    "title": "Marlin",
                    "slug": "marlin",
                    "url": "https:\/\/cryptopanic.com\/news\/marlin\/"
                }
            ],
            "id": 18699294,
            "url": "https:\/\/cryptopanic.com\/news\/18699294\/In-our-previous-threads-we-saw-how-Oyster-provides-internet-connectivity-to-and-from-the-enclave-In-this-thread",
            "created_at": "2023-07-01T14:33:22Z",
            "votes": {
                "negative": 0,
                "positive": 0,
                "important": 0,
                "liked": 0,
                "disliked": 0,
                "lol": 0,
                "toxic": 0,
                "saved": 0,
                "comments": 0
            }
        },
        {
            "kind": "news",
            "domain": "@MarlinProtocol",
            "source": {
                "title": "Marlin Twitter",
                "region": "en",
                "domain": "twitter.com",
                "path": "@marlinprotocol"
            },
            "title": "RT @hmalviya9: gm. shoutout to all indian startups which are building infrastructures for web3. @0xPolygonLabs @biconomy @SocketDotTech @ro\u2026",
            "published_at": "2023-06-30T11:01:09Z",
            "slug": "RT-hmalviya9-gm-shoutout-to-all-indian-startups-which-are-building-infrastructures-for-web3-0xPolygonLabs-biconomy-SocketDotTech-ro",
            "currencies": [
                {
                    "code": "POND",
                    "title": "Marlin",
                    "slug": "marlin",
                    "url": "https:\/\/cryptopanic.com\/news\/marlin\/"
                }
            ],
            "id": 18694523,
            "url": "https:\/\/cryptopanic.com\/news\/18694523\/RT-hmalviya9-gm-shoutout-to-all-indian-startups-which-are-building-infrastructures-for-web3-0xPolygonLabs-biconomy-SocketDotTech-ro",
            "created_at": "2023-06-30T11:01:09Z",
            "votes": {
                "negative": 0,
                "positive": 0,
                "important": 0,
                "liked": 0,
                "disliked": 0,
                "lol": 0,
                "toxic": 0,
                "saved": 0,
                "comments": 0
            }
        },
        {
            "kind": "news",
            "domain": "@MarlinProtocol",
            "source": {
                "title": "Marlin Twitter",
                "region": "en",
                "domain": "twitter.com",
                "path": "@marlinprotocol"
            },
            "title": "Indulge your senses with today's special: Oracles on Oyster \ud83e\uddaa\n\nSavor the flavors of secure data feeds as we serve\u2026",
            "published_at": "2023-06-29T10:44:21Z",
            "slug": "Indulge-your-senses-with-todays-special-Oracles-on-Oyster-Savor-the-flavors-of-secure-data-feeds-as-we-serve",
            "currencies": [
                {
                    "code": "POND",
                    "title": "Marlin",
                    "slug": "marlin",
                    "url": "https:\/\/cryptopanic.com\/news\/marlin\/"
                }
            ],
            "id": 18686795,
            "url": "https:\/\/cryptopanic.com\/news\/18686795\/Indulge-your-senses-with-todays-special-Oracles-on-Oyster-Savor-the-flavors-of-secure-data-feeds-as-we-serve",
            "created_at": "2023-06-29T10:44:21Z",
            "votes": {
                "negative": 0,
                "positive": 0,
                "important": 0,
                "liked": 0,
                "disliked": 0,
                "lol": 0,
                "toxic": 0,
                "saved": 0,
                "comments": 0
            }
        },
        {
            "kind": "news",
            "domain": "@MarlinProtocol",
            "source": {
                "title": "Marlin Twitter",
                "region": "en",
                "domain": "twitter.com",
                "path": "@marlinprotocol"
            },
            "title": "Insightful exploration of the decentralized ZK prover design landscape! Enjoyed the intriguing conversations with\u2026",
            "published_at": "2023-06-28T15:07:10Z",
            "slug": "Insightful-exploration-of-the-decentralized-ZK-prover-design-landscape-Enjoyed-the-intriguing-conversations-with",
            "currencies": [
                {
                    "code": "POND",
                    "title": "Marlin",
                    "slug": "marlin",
                    "url": "https:\/\/cryptopanic.com\/news\/marlin\/"
                }
            ],
            "id": 18678852,
            "url": "https:\/\/cryptopanic.com\/news\/18678852\/Insightful-exploration-of-the-decentralized-ZK-prover-design-landscape-Enjoyed-the-intriguing-conversations-with",
            "created_at": "2023-06-28T15:07:10Z",
            "votes": {
                "negative": 0,
                "positive": 0,
                "important": 0,
                "liked": 0,
                "disliked": 0,
                "lol": 0,
                "toxic": 0,
                "saved": 0,
                "comments": 0
            }
        },
        {
            "kind": "news",
            "domain": "@MarlinProtocol",
            "source": {
                "title": "Marlin Twitter",
                "region": "en",
                "domain": "twitter.com",
                "path": "@marlinprotocol"
            },
            "title": "mev-bor (the flashbots client for @0xPolygonLabs) has been upgraded to be compatible with new bor v0.4.0",
            "published_at": "2023-06-28T09:49:02Z",
            "slug": "mev-bor-the-flashbots-client-for-0xPolygonLabs-has-been-upgraded-to-be-compatible-with-new-bor-v040",
            "currencies": [
                {
                    "code": "POND",
                    "title": "Marlin",
                    "slug": "marlin",
                    "url": "https:\/\/cryptopanic.com\/news\/marlin\/"
                }
            ],
            "id": 18678853,
            "url": "https:\/\/cryptopanic.com\/news\/18678853\/mev-bor-the-flashbots-client-for-0xPolygonLabs-has-been-upgraded-to-be-compatible-with-new-bor-v040",
            "created_at": "2023-06-28T09:49:02Z",
            "votes": {
                "negative": 0,
                "positive": 0,
                "important": 0,
                "liked": 0,
                "disliked": 0,
                "lol": 0,
                "toxic": 0,
                "saved": 0,
                "comments": 0
            }
        },
        {
            "kind": "news",
            "domain": "@MarlinProtocol",
            "source": {
                "title": "Marlin Twitter",
                "region": "en",
                "domain": "twitter.com",
                "path": "@marlinprotocol"
            },
            "title": "What's most important when using a dApp?",
            "published_at": "2023-06-27T14:41:24Z",
            "slug": "Whats-most-important-when-using-a-dApp",
            "currencies": [
                {
                    "code": "POND",
                    "title": "Marlin",
                    "slug": "marlin",
                    "url": "https:\/\/cryptopanic.com\/news\/marlin\/"
                }
            ],
            "id": 18670620,
            "url": "https:\/\/cryptopanic.com\/news\/18670620\/Whats-most-important-when-using-a-dApp",
            "created_at": "2023-06-27T14:41:24Z",
            "votes": {
                "negative": 0,
                "positive": 0,
                "important": 0,
                "liked": 0,
                "disliked": 0,
                "lol": 0,
                "toxic": 0,
                "saved": 0,
                "comments": 0
            }
        },
        {
            "kind": "news",
            "domain": "@MarlinProtocol",
            "source": {
                "title": "Marlin Twitter",
                "region": "en",
                "domain": "twitter.com",
                "path": "@marlinprotocol"
            },
            "title": "Secure enclaves can play a big role in Web 3. This thread sums it up nicely! ",
            "published_at": "2023-06-27T04:50:41Z",
            "slug": "Secure-enclaves-can-play-a-big-role-in-Web-3-This-thread-sums-it-up-nicely",
            "currencies": [
                {
                    "code": "POND",
                    "title": "Marlin",
                    "slug": "marlin",
                    "url": "https:\/\/cryptopanic.com\/news\/marlin\/"
                }
            ],
            "id": 18662352,
            "url": "https:\/\/cryptopanic.com\/news\/18662352\/Secure-enclaves-can-play-a-big-role-in-Web-3-This-thread-sums-it-up-nicely",
            "created_at": "2023-06-27T04:50:41Z",
            "votes": {
                "negative": 0,
                "positive": 0,
                "important": 0,
                "liked": 0,
                "disliked": 0,
                "lol": 0,
                "toxic": 0,
                "saved": 0,
                "comments": 0
            }
        },
        {
            "kind": "news",
            "domain": "@MarlinProtocol",
            "source": {
                "title": "Marlin Twitter",
                "region": "en",
                "domain": "twitter.com",
                "path": "@marlinprotocol"
            },
            "title": "RT @marlin_intern: Your friendly reminder to decentralize your server operations with Marlin Oyster \ud83e\uddaa",
            "published_at": "2023-06-25T18:41:55Z",
            "slug": "RT-marlin_intern-Your-friendly-reminder-to-decentralize-your-server-operations-with-Marlin-Oyster",
            "currencies": [
                {
                    "code": "POND",
                    "title": "Marlin",
                    "slug": "marlin",
                    "url": "https:\/\/cryptopanic.com\/news\/marlin\/"
                }
            ],
            "id": 18655082,
            "url": "https:\/\/cryptopanic.com\/news\/18655082\/RT-marlin_intern-Your-friendly-reminder-to-decentralize-your-server-operations-with-Marlin-Oyster",
            "created_at": "2023-06-25T18:41:55Z",
            "votes": {
                "negative": 0,
                "positive": 0,
                "important": 0,
                "liked": 0,
                "disliked": 0,
                "lol": 0,
                "toxic": 0,
                "saved": 0,
                "comments": 0
            }
        },
        {
            "kind": "news",
            "domain": "@MarlinProtocol",
            "source": {
                "title": "Marlin Twitter",
                "region": "en",
                "domain": "twitter.com",
                "path": "@marlinprotocol"
            },
            "title": "RT @marlin_intern: ZK Proofs in TEEs? Looks like someone is already cooking this recipe \u200d",
            "published_at": "2023-06-24T15:17:33Z",
            "slug": "RT-marlin_intern-ZK-Proofs-in-TEEs-Looks-like-someone-is-already-cooking-this-recipe",
            "currencies": [
                {
                    "code": "POND",
                    "title": "Marlin",
                    "slug": "marlin",
                    "url": "https:\/\/cryptopanic.com\/news\/marlin\/"
                }
            ],
            "id": 18650717,
            "url": "https:\/\/cryptopanic.com\/news\/18650717\/RT-marlin_intern-ZK-Proofs-in-TEEs-Looks-like-someone-is-already-cooking-this-recipe",
            "created_at": "2023-06-24T15:17:33Z",
            "votes": {
                "negative": 0,
                "positive": 0,
                "important": 0,
                "liked": 0,
                "disliked": 0,
                "lol": 0,
                "toxic": 0,
                "saved": 0,
                "comments": 0
            }
        }
    ]
}
