{
    "count": 200,
    "next": "https:\/\/cryptopanic.com\/api\/v1\/posts\/?auth_token=01c356e89ffc1b8eba2127c81fc8c66ee0eace75&kind=news&currencies=GAL&page=2",
    "previous": null,
    "results": [
        {
            "kind": "news",
            "domain": "@Galxe",
            "source": {
                "title": "Galxe Twitter",
                "region": "en",
                "domain": "twitter.com",
                "path": "@galxe"
            },
            "title": "Take your Web3 journey to the next level \n\nExplore the latest campaigns on #Galxe and participate in exciting init\u2026",
            "published_at": "2023-07-12T01:27:30Z",
            "slug": "Take-your-Web3-journey-to-the-next-level-Explore-the-latest-campaigns-on-Galxe-and-participate-in-exciting-init",
            "currencies": [
                {
                    "code": "GAL",
                    "title": "Galxe",
                    "slug": "project-galaxy",
                    "url": "https:\/\/cryptopanic.com\/news\/project-galaxy\/"
                }
            ],
            "id": 18764496,
            "url": "https:\/\/cryptopanic.com\/news\/18764496\/Take-your-Web3-journey-to-the-next-level-Explore-the-latest-campaigns-on-Galxe-and-participate-in-exciting-init",
            "created_at": "2023-07-12T01:27:30Z",
            "votes": {
                "negative": 0,
                "positive": 0,
                "important": 0,
                "liked": 0,
                "disliked": 0,
                "lol": 0,
                "toxic": 0,
                "saved": 0,
                "comments": 0
            }
        },
        {
            "kind": "news",
            "domain": "@Galxe",
            "source": {
                "title": "Galxe Twitter",
                "region": "en",
                "domain": "twitter.com",
                "path": "@galxe"
            },
            "title": "RT @rubicondefi: Rubicon v2 Markets are live on @optimismFND! Learn about the Order Book, earn points, and claim a Legionnaire NFT, powered\u2026",
            "published_at": "2023-07-11T21:36:10Z",
            "slug": "RT-rubicondefi-Rubicon-v2-Markets-are-live-on-optimismFND-Learn-about-the-Order-Book-earn-points-and-claim-a-Legionnaire-NFT-powered",
            "currencies": [
                {
                    "code": "GAL",
                    "title": "Galxe",
                    "slug": "project-galaxy",
                    "url": "https:\/\/cryptopanic.com\/news\/project-galaxy\/"
                }
            ],
            "id": 18764497,
            "url": "https:\/\/cryptopanic.com\/news\/18764497\/RT-rubicondefi-Rubicon-v2-Markets-are-live-on-optimismFND-Learn-about-the-Order-Book-earn-points-and-claim-a-Legionnaire-NFT-powered",
            "created_at": "2023-07-11T21:36:10Z",
            "votes": {
                "negative": 0,
                "positive": 0,
                "important": 0,
                "liked": 0,
                "disliked": 0,
                "lol": 0,
                "toxic": 0,
                "saved": 0,
                "comments": 0
            }
        },
        {
            "kind": "news",
            "domain": "@Galxe",
            "source": {
                "title": "Galxe Twitter",
                "region": "en",
                "domain": "twitter.com",
                "path": "@galxe"
            },
            "title": "Galxe is proud to be an investor in @shardeum\u2019s Strategic Round. The future of blockchain and decentralization is b\u2026",
            "published_at": "2023-07-10T22:21:17Z",
            "slug": "Galxe-is-proud-to-be-an-investor-in-shardeums-Strategic-Round-The-future-of-blockchain-and-decentralization-is-b",
            "currencies": [
                {
                    "code": "GAL",
                    "title": "Galxe",
                    "slug": "project-galaxy",
                    "url": "https:\/\/cryptopanic.com\/news\/project-galaxy\/"
                }
            ],
            "id": 18756368,
            "url": "https:\/\/cryptopanic.com\/news\/18756368\/Galxe-is-proud-to-be-an-investor-in-shardeums-Strategic-Round-The-future-of-blockchain-and-decentralization-is-b",
            "created_at": "2023-07-10T22:21:17Z",
            "votes": {
                "negative": 0,
                "positive": 0,
                "important": 0,
                "liked": 0,
                "disliked": 0,
                "lol": 0,
                "toxic": 0,
                "saved": 0,
                "comments": 0
            }
        },
        {
            "kind": "news",
            "domain": "@GalatasaraySK",
            "source": {
                "title": "Galatasaray Fan Token Twitter",
                "region": "en",
                "domain": "twitter.com",
                "path": "@galatasaraysk"
            },
            "title": "Asist \ud83e\udd1c\ud83e\udd1b Gol",
            "published_at": "2023-07-10T19:52:07Z",
            "slug": "Asist-Gol",
            "currencies": [
                {
                    "code": "GAL",
                    "title": "Galatasaray Fan Token",
                    "slug": "galatasaray-fan-token",
                    "url": "https:\/\/cryptopanic.com\/news\/galatasaray-fan-token\/"
                }
            ],
            "id": 18756357,
            "url": "https:\/\/cryptopanic.com\/news\/18756357\/Asist-Gol",
            "created_at": "2023-07-10T19:52:07Z",
            "votes": {
                "negative": 0,
                "positive": 0,
                "important": 0,
                "liked": 0,
                "disliked": 0,
                "lol": 0,
                "toxic": 0,
                "saved": 0,
                "comments": 0
            }
        },
        {
            "kind": "news",
            "domain": "@Galxe",
            "source": {
                "title": "Galxe Twitter",
                "region": "en",
                "domain": "twitter.com",
                "path": "@galxe"
            },
            "title": "Celebrate the launch of the OP #OAT! \n\nThis fully gasless token will enable @optimismFND dApps to reach millions\u2026",
            "published_at": "2023-07-10T17:21:29Z",
            "slug": "Celebrate-the-launch-of-the-OP-OAT-This-fully-gasless-token-will-enable-optimismFND-dApps-to-reach-millions",
            "currencies": [
                {
                    "code": "GAL",
                    "title": "Galxe",
                    "slug": "project-galaxy",
                    "url": "https:\/\/cryptopanic.com\/news\/project-galaxy\/"
                },
                {
                    "code": "OP",
                    "title": "Optimism",
                    "slug": "optimism",
                    "url": "https:\/\/cryptopanic.com\/news\/optimism\/"
                }
            ],
            "id": 18756369,
            "url": "https:\/\/cryptopanic.com\/news\/18756369\/Celebrate-the-launch-of-the-OP-OAT-This-fully-gasless-token-will-enable-optimismFND-dApps-to-reach-millions",
            "created_at": "2023-07-10T17:21:29Z",
            "votes": {
                "negative": 0,
                "positive": 0,
                "important": 0,
                "liked": 0,
                "disliked": 0,
                "lol": 0,
                "toxic": 0,
                "saved": 0,
                "comments": 0
            }
        },
        {
            "kind": "news",
            "domain": "@Galxe",
            "source": {
                "title": "Galxe Twitter",
                "region": "en",
                "domain": "twitter.com",
                "path": "@galxe"
            },
            "title": " Join #Galxe for an exclusive Twitter Space with @Collab_Land_, an all-in-one community management tool!\n\nCurate m\u2026",
            "published_at": "2023-07-10T01:00:06Z",
            "slug": "Join-Galxe-for-an-exclusive-Twitter-Space-with-Collab_Land_-an-all-in-one-community-management-tool-Curate-m",
            "currencies": [
                {
                    "code": "GAL",
                    "title": "Galxe",
                    "slug": "project-galaxy",
                    "url": "https:\/\/cryptopanic.com\/news\/project-galaxy\/"
                }
            ],
            "id": 18749822,
            "url": "https:\/\/cryptopanic.com\/news\/18749822\/Join-Galxe-for-an-exclusive-Twitter-Space-with-Collab_Land_-an-all-in-one-community-management-tool-Curate-m",
            "created_at": "2023-07-10T01:00:06Z",
            "votes": {
                "negative": 0,
                "positive": 0,
                "important": 0,
                "liked": 0,
                "disliked": 0,
                "lol": 0,
                "toxic": 0,
                "saved": 0,
                "comments": 0
            }
        },
        {
            "kind": "news",
            "domain": "@Galxe",
            "source": {
                "title": "Galxe Twitter",
                "region": "en",
                "domain": "twitter.com",
                "path": "@galxe"
            },
            "title": "Introducing Galxe Product Spotlight!\n\nJoin our new product-related newsletter and be the first to uncover the late\u2026",
            "published_at": "2023-07-08T01:49:24Z",
            "slug": "Introducing-Galxe-Product-Spotlight-Join-our-new-product-related-newsletter-and-be-the-first-to-uncover-the-late",
            "currencies": [
                {
                    "code": "GAL",
                    "title": "Galxe",
                    "slug": "project-galaxy",
                    "url": "https:\/\/cryptopanic.com\/news\/project-galaxy\/"
                }
            ],
            "id": 18740314,
            "url": "https:\/\/cryptopanic.com\/news\/18740314\/Introducing-Galxe-Product-Spotlight-Join-our-new-product-related-newsletter-and-be-the-first-to-uncover-the-late",
            "created_at": "2023-07-08T01:49:24Z",
            "votes": {
                "negative": 0,
                "positive": 0,
                "important": 0,
                "liked": 0,
                "disliked": 0,
                "lol": 0,
                "toxic": 0,
                "saved": 0,
                "comments": 0
            }
        },
        {
            "kind": "news",
            "domain": "@Galxe",
            "source": {
                "title": "Galxe Twitter",
                "region": "en",
                "domain": "twitter.com",
                "path": "@galxe"
            },
            "title": "RT @rubicondefi: Maker Rewards are live @optimismFND  Place limit orders on Rubicon and earn $OP, points, and a special Legionnaire NFT, p\u2026",
            "published_at": "2023-07-07T16:56:16Z",
            "slug": "RT-rubicondefi-Maker-Rewards-are-live-optimismFND-Place-limit-orders-on-Rubicon-and-earn-OP-points-and-a-special-Legionnaire-NFT-p",
            "currencies": [
                {
                    "code": "GAL",
                    "title": "Galxe",
                    "slug": "project-galaxy",
                    "url": "https:\/\/cryptopanic.com\/news\/project-galaxy\/"
                },
                {
                    "code": "MKR",
                    "title": "Maker",
                    "slug": "maker",
                    "url": "https:\/\/cryptopanic.com\/news\/maker\/"
                }
            ],
            "id": 18740315,
            "url": "https:\/\/cryptopanic.com\/news\/18740315\/RT-rubicondefi-Maker-Rewards-are-live-optimismFND-Place-limit-orders-on-Rubicon-and-earn-OP-points-and-a-special-Legionnaire-NFT-p",
            "created_at": "2023-07-07T16:56:16Z",
            "votes": {
                "negative": 0,
                "positive": 0,
                "important": 0,
                "liked": 0,
                "disliked": 0,
                "lol": 0,
                "toxic": 0,
                "saved": 0,
                "comments": 0
            }
        },
        {
            "kind": "news",
            "domain": "@Galxe",
            "source": {
                "title": "Galxe Twitter",
                "region": "en",
                "domain": "twitter.com",
                "path": "@galxe"
            },
            "title": " Join #Galxe for an exclusive Twitter Space with @DtravelDAO, a community-owned travel ecosystem focused on empowe\u2026",
            "published_at": "2023-07-05T15:00:34Z",
            "slug": "Join-Galxe-for-an-exclusive-Twitter-Space-with-DtravelDAO-a-community-owned-travel-ecosystem-focused-on-empowe",
            "currencies": [
                {
                    "code": "GAL",
                    "title": "Galxe",
                    "slug": "project-galaxy",
                    "url": "https:\/\/cryptopanic.com\/news\/project-galaxy\/"
                }
            ],
            "id": 18724202,
            "url": "https:\/\/cryptopanic.com\/news\/18724202\/Join-Galxe-for-an-exclusive-Twitter-Space-with-DtravelDAO-a-community-owned-travel-ecosystem-focused-on-empowe",
            "created_at": "2023-07-05T15:00:34Z",
            "votes": {
                "negative": 0,
                "positive": 0,
                "important": 0,
                "liked": 0,
                "disliked": 0,
                "lol": 0,
                "toxic": 0,
                "saved": 0,
                "comments": 0
            }
        },
        {
            "kind": "news",
            "domain": "@Galxe",
            "source": {
                "title": "Galxe Twitter",
                "region": "en",
                "domain": "twitter.com",
                "path": "@galxe"
            },
            "title": " Tune in to the Galxe Radio Show ft. @RolluxL2, the world's first roll-up secured by #Bitcoin!\n\nClaim rewards and\u2026",
            "published_at": "2023-07-05T10:00:13Z",
            "slug": "Tune-in-to-the-Galxe-Radio-Show-ft-RolluxL2-the-worlds-first-roll-up-secured-by-Bitcoin-Claim-rewards-and",
            "currencies": [
                {
                    "code": "GAL",
                    "title": "Galxe",
                    "slug": "project-galaxy",
                    "url": "https:\/\/cryptopanic.com\/news\/project-galaxy\/"
                }
            ],
            "id": 18724203,
            "url": "https:\/\/cryptopanic.com\/news\/18724203\/Tune-in-to-the-Galxe-Radio-Show-ft-RolluxL2-the-worlds-first-roll-up-secured-by-Bitcoin-Claim-rewards-and",
            "created_at": "2023-07-05T10:00:13Z",
            "votes": {
                "negative": 0,
                "positive": 0,
                "important": 0,
                "liked": 0,
                "disliked": 0,
                "lol": 0,
                "toxic": 0,
                "saved": 0,
                "comments": 0
            }
        },
        {
            "kind": "news",
            "domain": "@Galxe",
            "source": {
                "title": "Galxe Twitter",
                "region": "en",
                "domain": "twitter.com",
                "path": "@galxe"
            },
            "title": "One of the best use cases for AI by @stevenkin, in our humble opinion. \ufe0f",
            "published_at": "2023-07-04T14:23:14Z",
            "slug": "One-of-the-best-use-cases-for-AI-by-stevenkin-in-our-humble-opinion",
            "currencies": [
                {
                    "code": "GAL",
                    "title": "Galxe",
                    "slug": "project-galaxy",
                    "url": "https:\/\/cryptopanic.com\/news\/project-galaxy\/"
                }
            ],
            "id": 18716428,
            "url": "https:\/\/cryptopanic.com\/news\/18716428\/One-of-the-best-use-cases-for-AI-by-stevenkin-in-our-humble-opinion",
            "created_at": "2023-07-04T14:23:14Z",
            "votes": {
                "negative": 0,
                "positive": 0,
                "important": 0,
                "liked": 0,
                "disliked": 0,
                "lol": 0,
                "toxic": 0,
                "saved": 0,
                "comments": 0
            }
        },
        {
            "kind": "news",
            "domain": "@Galxe",
            "source": {
                "title": "Galxe Twitter",
                "region": "en",
                "domain": "twitter.com",
                "path": "@galxe"
            },
            "title": "Take your Web3 journey to the next level \n\nExplore the latest campaigns on #Galxe and participate in exciting init\u2026",
            "published_at": "2023-07-04T10:58:02Z",
            "slug": "Take-your-Web3-journey-to-the-next-level-Explore-the-latest-campaigns-on-Galxe-and-participate-in-exciting-init",
            "currencies": [
                {
                    "code": "GAL",
                    "title": "Galxe",
                    "slug": "project-galaxy",
                    "url": "https:\/\/cryptopanic.com\/news\/project-galaxy\/"
                }
            ],
            "id": 18716429,
            "url": "https:\/\/cryptopanic.com\/news\/18716429\/Take-your-Web3-journey-to-the-next-level-Explore-the-latest-campaigns-on-Galxe-and-participate-in-exciting-init",
            "created_at": "2023-07-04T10:58:02Z",
            "votes": {
                "negative": 0,
                "positive": 0,
                "important": 0,
                "liked": 0,
                "disliked": 0,
                "lol": 0,
                "toxic": 0,
                "saved": 0,
                "comments": 0
            }
        },
        {
            "kind": "news",
            "domain": "@Galxe",
            "source": {
                "title": "Galxe Twitter",
                "region": "en",
                "domain": "twitter.com",
                "path": "@galxe"
            },
            "title": "RT @SID_sei_name: Ahoy, Seilors!\ufe0f\n\n.sei is setting sail &amp; excitement lies ahead... Before we embark, let\u2019s rev up the engine &amp; start our 1\u2026",
            "published_at": "2023-07-03T15:33:50Z",
            "slug": "RT-SID_sei_name-Ahoy-Seilors-sei-is-setting-sail-amp-excitement-lies-ahead-Before-we-embark-lets-rev-up-the-engine-amp-start-our-1",
            "currencies": [
                {
                    "code": "GAL",
                    "title": "Galxe",
                    "slug": "project-galaxy",
                    "url": "https:\/\/cryptopanic.com\/news\/project-galaxy\/"
                }
            ],
            "id": 18709147,
            "url": "https:\/\/cryptopanic.com\/news\/18709147\/RT-SID_sei_name-Ahoy-Seilors-sei-is-setting-sail-amp-excitement-lies-ahead-Before-we-embark-lets-rev-up-the-engine-amp-start-our-1",
            "created_at": "2023-07-03T15:33:50Z",
            "votes": {
                "negative": 0,
                "positive": 0,
                "important": 0,
                "liked": 0,
                "disliked": 0,
                "lol": 0,
                "toxic": 0,
                "saved": 0,
                "comments": 0
            }
        },
        {
            "kind": "news",
            "domain": "@Galxe",
            "source": {
                "title": "Galxe Twitter",
                "region": "en",
                "domain": "twitter.com",
                "path": "@galxe"
            },
            "title": "Galxe presents @nymproject\u2019s Airdrop Campaign \ufe0f \n\nCelebrate @nymproject's selection for\u2026",
            "published_at": "2023-07-03T11:03:54Z",
            "slug": "Galxe-presents-nymprojects-Airdrop-Campaign-Celebrate-nymprojects-selection-for",
            "currencies": [
                {
                    "code": "GAL",
                    "title": "Galxe",
                    "slug": "project-galaxy",
                    "url": "https:\/\/cryptopanic.com\/news\/project-galaxy\/"
                }
            ],
            "id": 18709148,
            "url": "https:\/\/cryptopanic.com\/news\/18709148\/Galxe-presents-nymprojects-Airdrop-Campaign-Celebrate-nymprojects-selection-for",
            "created_at": "2023-07-03T11:03:54Z",
            "votes": {
                "negative": 0,
                "positive": 0,
                "important": 0,
                "liked": 0,
                "disliked": 0,
                "lol": 0,
                "toxic": 0,
                "saved": 0,
                "comments": 0
            }
        },
        {
            "kind": "news",
            "domain": "@Galxe",
            "source": {
                "title": "Galxe Twitter",
                "region": "en",
                "domain": "twitter.com",
                "path": "@galxe"
            },
            "title": "Got plans this weekend? Here's something for you:\n\nGalxe's Token EVM Odyssey \ufe0f\n\nWe\u2019ve expanded our Token Rewards t\u2026",
            "published_at": "2023-06-30T17:33:14Z",
            "slug": "Got-plans-this-weekend-Heres-something-for-you-Galxes-Token-EVM-Odyssey-Weve-expanded-our-Token-Rewards-t",
            "currencies": [
                {
                    "code": "GAL",
                    "title": "Galxe",
                    "slug": "project-galaxy",
                    "url": "https:\/\/cryptopanic.com\/news\/project-galaxy\/"
                }
            ],
            "id": 18693613,
            "url": "https:\/\/cryptopanic.com\/news\/18693613\/Got-plans-this-weekend-Heres-something-for-you-Galxes-Token-EVM-Odyssey-Weve-expanded-our-Token-Rewards-t",
            "created_at": "2023-06-30T17:33:14Z",
            "votes": {
                "negative": 0,
                "positive": 0,
                "important": 0,
                "liked": 0,
                "disliked": 0,
                "lol": 0,
                "toxic": 0,
                "saved": 0,
                "comments": 0
            }
        },
        {
            "kind": "news",
            "domain": "@Galxe",
            "source": {
                "title": "Galxe Twitter",
                "region": "en",
                "domain": "twitter.com",
                "path": "@galxe"
            },
            "title": "RT @moledao_io: Join us for our Eng course Happening tonight featuring the topic;\n\n Go-To-Market\n\ud83e\uddd1\u200d Mentor: Anne Well, from\u2026",
            "published_at": "2023-06-30T11:53:49Z",
            "slug": "RT-moledao_io-Join-us-for-our-Eng-course-Happening-tonight-featuring-the-topic-Go-To-Market-Mentor-Anne-Well-from",
            "currencies": [
                {
                    "code": "GAL",
                    "title": "Galxe",
                    "slug": "project-galaxy",
                    "url": "https:\/\/cryptopanic.com\/news\/project-galaxy\/"
                }
            ],
            "id": 18693614,
            "url": "https:\/\/cryptopanic.com\/news\/18693614\/RT-moledao_io-Join-us-for-our-Eng-course-Happening-tonight-featuring-the-topic-Go-To-Market-Mentor-Anne-Well-from",
            "created_at": "2023-06-30T11:53:49Z",
            "votes": {
                "negative": 0,
                "positive": 0,
                "important": 0,
                "liked": 0,
                "disliked": 0,
                "lol": 0,
                "toxic": 0,
                "saved": 0,
                "comments": 0
            }
        },
        {
            "kind": "news",
            "domain": "@Galxe",
            "source": {
                "title": "Galxe Twitter",
                "region": "en",
                "domain": "twitter.com",
                "path": "@galxe"
            },
            "title": "And that\u2019s a wrap on Q2 \n\nCheck out #Galxe's Q2 blog for a look at our latest developments, products, and features\u2026",
            "published_at": "2023-06-29T19:40:29Z",
            "slug": "And-thats-a-wrap-on-Q2-Check-out-Galxes-Q2-blog-for-a-look-at-our-latest-developments-products-and-features",
            "currencies": [
                {
                    "code": "GAL",
                    "title": "Galxe",
                    "slug": "project-galaxy",
                    "url": "https:\/\/cryptopanic.com\/news\/project-galaxy\/"
                }
            ],
            "id": 18685760,
            "url": "https:\/\/cryptopanic.com\/news\/18685760\/And-thats-a-wrap-on-Q2-Check-out-Galxes-Q2-blog-for-a-look-at-our-latest-developments-products-and-features",
            "created_at": "2023-06-29T19:40:29Z",
            "votes": {
                "negative": 0,
                "positive": 0,
                "important": 0,
                "liked": 0,
                "disliked": 0,
                "lol": 0,
                "toxic": 0,
                "saved": 0,
                "comments": 0
            }
        },
        {
            "kind": "news",
            "domain": "@Galxe",
            "source": {
                "title": "Galxe Twitter",
                "region": "en",
                "domain": "twitter.com",
                "path": "@galxe"
            },
            "title": " Tune in to the Galxe Radio Show ft. @SeiNetwork, the fastest #Layer1 blockchain, designed to scale with the indus\u2026",
            "published_at": "2023-06-28T12:00:22Z",
            "slug": "Tune-in-to-the-Galxe-Radio-Show-ft-SeiNetwork-the-fastest-Layer1-blockchain-designed-to-scale-with-the-indus",
            "currencies": [
                {
                    "code": "GAL",
                    "title": "Galxe",
                    "slug": "project-galaxy",
                    "url": "https:\/\/cryptopanic.com\/news\/project-galaxy\/"
                }
            ],
            "id": 18677736,
            "url": "https:\/\/cryptopanic.com\/news\/18677736\/Tune-in-to-the-Galxe-Radio-Show-ft-SeiNetwork-the-fastest-Layer1-blockchain-designed-to-scale-with-the-indus",
            "created_at": "2023-06-28T12:00:22Z",
            "votes": {
                "negative": 0,
                "positive": 0,
                "important": 0,
                "liked": 0,
                "disliked": 0,
                "lol": 0,
                "toxic": 0,
                "saved": 0,
                "comments": 0
            }
        },
        {
            "kind": "news",
            "domain": "@Galxe",
            "source": {
                "title": "Galxe Twitter",
                "region": "en",
                "domain": "twitter.com",
                "path": "@galxe"
            },
            "title": "Take your Web3 journey to the next level \n\nExplore the latest campaigns on #Galxe and participate in exciting init\u2026",
            "published_at": "2023-06-28T03:22:39Z",
            "slug": "Take-your-Web3-journey-to-the-next-level-Explore-the-latest-campaigns-on-Galxe-and-participate-in-exciting-init",
            "currencies": [
                {
                    "code": "GAL",
                    "title": "Galxe",
                    "slug": "project-galaxy",
                    "url": "https:\/\/cryptopanic.com\/news\/project-galaxy\/"
                }
            ],
            "id": 18669491,
            "url": "https:\/\/cryptopanic.com\/news\/18669491\/Take-your-Web3-journey-to-the-next-level-Explore-the-latest-campaigns-on-Galxe-and-participate-in-exciting-init",
            "created_at": "2023-06-28T03:22:39Z",
            "votes": {
                "negative": 0,
                "positive": 0,
                "important": 0,
                "liked": 0,
                "disliked": 0,
                "lol": 0,
                "toxic": 0,
                "saved": 0,
                "comments": 0
            }
        },
        {
            "kind": "news",
            "domain": "@Galxe",
            "source": {
                "title": "Galxe Twitter",
                "region": "en",
                "domain": "twitter.com",
                "path": "@galxe"
            },
            "title": "\u00a0A DeFi project you don\u2019t want to miss!\n\n@SatoriFinance - $10M raised, led by @polychain &amp; @cbventures\n\nBringing d\u2026",
            "published_at": "2023-06-27T23:30:37Z",
            "slug": "A-DeFi-project-you-dont-want-to-miss-SatoriFinance-10M-raised-led-by-polychain-amp-cbventures-Bringing-d",
            "currencies": [
                {
                    "code": "GAL",
                    "title": "Galxe",
                    "slug": "project-galaxy",
                    "url": "https:\/\/cryptopanic.com\/news\/project-galaxy\/"
                }
            ],
            "id": 18669492,
            "url": "https:\/\/cryptopanic.com\/news\/18669492\/A-DeFi-project-you-dont-want-to-miss-SatoriFinance-10M-raised-led-by-polychain-amp-cbventures-Bringing-d",
            "created_at": "2023-06-27T23:30:37Z",
            "votes": {
                "negative": 0,
                "positive": 0,
                "important": 0,
                "liked": 0,
                "disliked": 0,
                "lol": 0,
                "toxic": 0,
                "saved": 0,
                "comments": 0
            }
        }
    ]
}
