{
    "count": 200,
    "next": "https:\/\/cryptopanic.com\/api\/v1\/posts\/?auth_token=01c356e89ffc1b8eba2127c81fc8c66ee0eace75&kind=news&currencies=WING&page=2",
    "previous": null,
    "results": [
        {
            "kind": "news",
            "domain": "@Wing_Finance",
            "source": {
                "title": "Wing Finance Twitter",
                "region": "en",
                "domain": "twitter.com",
                "path": "@wing_finance"
            },
            "title": "Users can earn $WING incentives by insuring $WING assets in #Wing Flash Pools at certain risks \n\nIn the case of a\u2026",
            "published_at": "2023-07-11T07:37:17Z",
            "slug": "Users-can-earn-WING-incentives-by-insuring-WING-assets-in-Wing-Flash-Pools-at-certain-risks-In-the-case-of-a",
            "currencies": [
                {
                    "code": "WING",
                    "title": "Wing Finance",
                    "slug": "wing-finance",
                    "url": "https:\/\/cryptopanic.com\/news\/wing-finance\/"
                }
            ],
            "id": 18759882,
            "url": "https:\/\/cryptopanic.com\/news\/18759882\/Users-can-earn-WING-incentives-by-insuring-WING-assets-in-Wing-Flash-Pools-at-certain-risks-In-the-case-of-a",
            "created_at": "2023-07-11T07:37:17Z",
            "votes": {
                "negative": 0,
                "positive": 0,
                "important": 0,
                "liked": 0,
                "disliked": 0,
                "lol": 0,
                "toxic": 0,
                "saved": 0,
                "comments": 0
            }
        },
        {
            "kind": "news",
            "domain": "@Wing_Finance",
            "source": {
                "title": "Wing Finance Twitter",
                "region": "en",
                "domain": "twitter.com",
                "path": "@wing_finance"
            },
            "title": "RT @Crypto_Dep: \ufe0fTOP GAINERS OF THE DAY! \n9 July 2023\n$TROY $ASTRA $POND $OM $LTO $BEL $WAN $HIFI $WING #BABYDOGE",
            "published_at": "2023-07-10T07:56:20Z",
            "slug": "RT-Crypto_Dep-TOP-GAINERS-OF-THE-DAY-9-July-2023-TROY-ASTRA-POND-OM-LTO-BEL-WAN-HIFI-WING-BABYDOGE",
            "currencies": [
                {
                    "code": "WING",
                    "title": "Wing Finance",
                    "slug": "wing-finance",
                    "url": "https:\/\/cryptopanic.com\/news\/wing-finance\/"
                }
            ],
            "id": 18752056,
            "url": "https:\/\/cryptopanic.com\/news\/18752056\/RT-Crypto_Dep-TOP-GAINERS-OF-THE-DAY-9-July-2023-TROY-ASTRA-POND-OM-LTO-BEL-WAN-HIFI-WING-BABYDOGE",
            "created_at": "2023-07-10T07:56:20Z",
            "votes": {
                "negative": 0,
                "positive": 0,
                "important": 0,
                "liked": 0,
                "disliked": 0,
                "lol": 0,
                "toxic": 0,
                "saved": 0,
                "comments": 0
            }
        },
        {
            "kind": "news",
            "domain": "@Wing_Finance",
            "source": {
                "title": "Wing Finance Twitter",
                "region": "en",
                "domain": "twitter.com",
                "path": "@wing_finance"
            },
            "title": "$WING Yield Farming Rankings\n\n2023\/07\/07\n\n\ud83e\udd47Wing Flash Pool (Ethereum) WING Insure 72.49%\n\ud83e\udd48Wing NFT Pool WING Ins\u2026",
            "published_at": "2023-07-07T10:00:01Z",
            "slug": "WING-Yield-Farming-Rankings-20230707-Wing-Flash-Pool-Ethereum-WING-Insure-7249-Wing-NFT-Pool-WING-Ins",
            "currencies": [
                {
                    "code": "WING",
                    "title": "Wing Finance",
                    "slug": "wing-finance",
                    "url": "https:\/\/cryptopanic.com\/news\/wing-finance\/"
                }
            ],
            "id": 18736308,
            "url": "https:\/\/cryptopanic.com\/news\/18736308\/WING-Yield-Farming-Rankings-20230707-Wing-Flash-Pool-Ethereum-WING-Insure-7249-Wing-NFT-Pool-WING-Ins",
            "created_at": "2023-07-07T10:00:01Z",
            "votes": {
                "negative": 0,
                "positive": 0,
                "important": 0,
                "liked": 0,
                "disliked": 0,
                "lol": 0,
                "toxic": 0,
                "saved": 0,
                "comments": 0
            }
        },
        {
            "kind": "news",
            "domain": "@Wing_Finance",
            "source": {
                "title": "Wing Finance Twitter",
                "region": "en",
                "domain": "twitter.com",
                "path": "@wing_finance"
            },
            "title": "Our June COMMUNITY AUCTION has now ended! \u200d\ufe0f\n\nThis month, we bought back and burned \ud835\udfcf,\ud835\udfd5\ud835\udfd0\ud835\udfd6.\ud835\udfd6\ud835\udfd0\ud835\udfd0\ud835\udfce\ud835\udfd2\ud835\udfd7\ud835\udfd1\ud835\udfd2\ud835\udfd3 $WING!\n\nLear\u2026",
            "published_at": "2023-07-05T11:10:01Z",
            "slug": "Our-June-COMMUNITY-AUCTION-has-now-ended-This-month-we-bought-back-and-burned-1728822049345-WING-Lear",
            "currencies": [
                {
                    "code": "WING",
                    "title": "Wing Finance",
                    "slug": "wing-finance",
                    "url": "https:\/\/cryptopanic.com\/news\/wing-finance\/"
                }
            ],
            "id": 18727685,
            "url": "https:\/\/cryptopanic.com\/news\/18727685\/Our-June-COMMUNITY-AUCTION-has-now-ended-This-month-we-bought-back-and-burned-1728822049345-WING-Lear",
            "created_at": "2023-07-05T11:10:01Z",
            "votes": {
                "negative": 0,
                "positive": 0,
                "important": 0,
                "liked": 0,
                "disliked": 0,
                "lol": 0,
                "toxic": 0,
                "saved": 0,
                "comments": 0
            }
        },
        {
            "kind": "news",
            "domain": "@Wing_Finance",
            "source": {
                "title": "Wing Finance Twitter",
                "region": "en",
                "domain": "twitter.com",
                "path": "@wing_finance"
            },
            "title": "RT @beincrypto: The NFT market has seen a slump in the past 24 hours, with the floor prices of top collections taking a dive \n\nDiscover mo\u2026",
            "published_at": "2023-07-03T09:42:25Z",
            "slug": "RT-beincrypto-The-NFT-market-has-seen-a-slump-in-the-past-24-hours-with-the-floor-prices-of-top-collections-taking-a-dive-Discover-mo",
            "currencies": [
                {
                    "code": "WING",
                    "title": "Wing Finance",
                    "slug": "wing-finance",
                    "url": "https:\/\/cryptopanic.com\/news\/wing-finance\/"
                }
            ],
            "id": 18705062,
            "url": "https:\/\/cryptopanic.com\/news\/18705062\/RT-beincrypto-The-NFT-market-has-seen-a-slump-in-the-past-24-hours-with-the-floor-prices-of-top-collections-taking-a-dive-Discover-mo",
            "created_at": "2023-07-03T09:42:25Z",
            "votes": {
                "negative": 0,
                "positive": 0,
                "important": 0,
                "liked": 0,
                "disliked": 0,
                "lol": 0,
                "toxic": 0,
                "saved": 0,
                "comments": 0
            }
        },
        {
            "kind": "news",
            "domain": "@Wing_Finance",
            "source": {
                "title": "Wing Finance Twitter",
                "region": "en",
                "domain": "twitter.com",
                "path": "@wing_finance"
            },
            "title": "In light of the recent attack on #PolyNetwork, #Wing are prioritizing your security more than ever. \n\nThis morning,\u2026",
            "published_at": "2023-07-02T14:07:19Z",
            "slug": "In-light-of-the-recent-attack-on-PolyNetwork-Wing-are-prioritizing-your-security-more-than-ever-This-morning",
            "currencies": [
                {
                    "code": "WING",
                    "title": "Wing Finance",
                    "slug": "wing-finance",
                    "url": "https:\/\/cryptopanic.com\/news\/wing-finance\/"
                }
            ],
            "id": 18705063,
            "url": "https:\/\/cryptopanic.com\/news\/18705063\/In-light-of-the-recent-attack-on-PolyNetwork-Wing-are-prioritizing-your-security-more-than-ever-This-morning",
            "created_at": "2023-07-02T14:07:19Z",
            "votes": {
                "negative": 0,
                "positive": 0,
                "important": 0,
                "liked": 0,
                "disliked": 0,
                "lol": 0,
                "toxic": 0,
                "saved": 0,
                "comments": 0
            }
        },
        {
            "kind": "news",
            "domain": "@Wing_Finance",
            "source": {
                "title": "Wing Finance Twitter",
                "region": "en",
                "domain": "twitter.com",
                "path": "@wing_finance"
            },
            "title": "Check the highlights of #Wing in June 2023  \n \n- Wing Peer-to-Peer pool has received positive feedback from its fi\u2026",
            "published_at": "2023-07-01T06:37:09Z",
            "slug": "Check-the-highlights-of-Wing-in-June-2023-Wing-Peer-to-Peer-pool-has-received-positive-feedback-from-its-fi",
            "currencies": [
                {
                    "code": "WING",
                    "title": "Wing Finance",
                    "slug": "wing-finance",
                    "url": "https:\/\/cryptopanic.com\/news\/wing-finance\/"
                }
            ],
            "id": 18696487,
            "url": "https:\/\/cryptopanic.com\/news\/18696487\/Check-the-highlights-of-Wing-in-June-2023-Wing-Peer-to-Peer-pool-has-received-positive-feedback-from-its-fi",
            "created_at": "2023-07-01T06:37:09Z",
            "votes": {
                "negative": 0,
                "positive": 0,
                "important": 0,
                "liked": 0,
                "disliked": 0,
                "lol": 0,
                "toxic": 0,
                "saved": 0,
                "comments": 0
            }
        },
        {
            "kind": "news",
            "domain": "@Wing_Finance",
            "source": {
                "title": "Wing Finance Twitter",
                "region": "en",
                "domain": "twitter.com",
                "path": "@wing_finance"
            },
            "title": "$WING Yield Farming Rankings\n\n2023\/6\/30\n\n\ud83e\udd47Wing Flash Pool (Ethereum) WING Insure 27.88%\n\ud83e\udd48Wing NFT Pool WING Insu\u2026",
            "published_at": "2023-06-30T07:18:36Z",
            "slug": "WING-Yield-Farming-Rankings-2023630-Wing-Flash-Pool-Ethereum-WING-Insure-2788-Wing-NFT-Pool-WING-Insu",
            "currencies": [
                {
                    "code": "WING",
                    "title": "Wing Finance",
                    "slug": "wing-finance",
                    "url": "https:\/\/cryptopanic.com\/news\/wing-finance\/"
                }
            ],
            "id": 18689247,
            "url": "https:\/\/cryptopanic.com\/news\/18689247\/WING-Yield-Farming-Rankings-2023630-Wing-Flash-Pool-Ethereum-WING-Insure-2788-Wing-NFT-Pool-WING-Insu",
            "created_at": "2023-06-30T07:18:36Z",
            "votes": {
                "negative": 0,
                "positive": 0,
                "important": 0,
                "liked": 0,
                "disliked": 0,
                "lol": 0,
                "toxic": 0,
                "saved": 0,
                "comments": 0
            }
        },
        {
            "kind": "news",
            "domain": "@Wing_Finance",
            "source": {
                "title": "Wing Finance Twitter",
                "region": "en",
                "domain": "twitter.com",
                "path": "@wing_finance"
            },
            "title": "Collateralized loans allow you to borrow against your #crypto holdings \n\n#Wing #NFTPool offers loan collateralizat\u2026",
            "published_at": "2023-06-28T09:04:25Z",
            "slug": "Collateralized-loans-allow-you-to-borrow-against-your-crypto-holdings-Wing-NFTPool-offers-loan-collateralizat",
            "currencies": [
                {
                    "code": "WING",
                    "title": "Wing Finance",
                    "slug": "wing-finance",
                    "url": "https:\/\/cryptopanic.com\/news\/wing-finance\/"
                }
            ],
            "id": 18673207,
            "url": "https:\/\/cryptopanic.com\/news\/18673207\/Collateralized-loans-allow-you-to-borrow-against-your-crypto-holdings-Wing-NFTPool-offers-loan-collateralizat",
            "created_at": "2023-06-28T09:04:25Z",
            "votes": {
                "negative": 0,
                "positive": 0,
                "important": 0,
                "liked": 0,
                "disliked": 0,
                "lol": 0,
                "toxic": 0,
                "saved": 0,
                "comments": 0
            }
        },
        {
            "kind": "news",
            "domain": "@Wing_Finance",
            "source": {
                "title": "Wing Finance Twitter",
                "region": "en",
                "domain": "twitter.com",
                "path": "@wing_finance"
            },
            "title": "RT @CoinMarketCap: #CryptoNews: Hong Kong and Shanghai Banking Corporation (#HSBC) has reportedly introduced its first local #cryptocurrenc\u2026",
            "published_at": "2023-06-27T07:25:45Z",
            "slug": "RT-CoinMarketCap-CryptoNews-Hong-Kong-and-Shanghai-Banking-Corporation-HSBC-has-reportedly-introduced-its-first-local-cryptocurrenc",
            "currencies": [
                {
                    "code": "WING",
                    "title": "Wing Finance",
                    "slug": "wing-finance",
                    "url": "https:\/\/cryptopanic.com\/news\/wing-finance\/"
                }
            ],
            "id": 18664892,
            "url": "https:\/\/cryptopanic.com\/news\/18664892\/RT-CoinMarketCap-CryptoNews-Hong-Kong-and-Shanghai-Banking-Corporation-HSBC-has-reportedly-introduced-its-first-local-cryptocurrenc",
            "created_at": "2023-06-27T07:25:45Z",
            "votes": {
                "negative": 0,
                "positive": 0,
                "important": 0,
                "liked": 0,
                "disliked": 0,
                "lol": 0,
                "toxic": 0,
                "saved": 0,
                "comments": 0
            }
        },
        {
            "kind": "news",
            "domain": "@Wing_Finance",
            "source": {
                "title": "Wing Finance Twitter",
                "region": "en",
                "domain": "twitter.com",
                "path": "@wing_finance"
            },
            "title": " #Wing is soaring through the crypto space!\n\nIn the last two weeks, our market cap has increased by 23.1% \n\nThan\u2026",
            "published_at": "2023-06-26T08:39:18Z",
            "slug": "Wing-is-soaring-through-the-crypto-space-In-the-last-two-weeks-our-market-cap-has-increased-by-231-Than",
            "currencies": [
                {
                    "code": "WING",
                    "title": "Wing Finance",
                    "slug": "wing-finance",
                    "url": "https:\/\/cryptopanic.com\/news\/wing-finance\/"
                }
            ],
            "id": 18656744,
            "url": "https:\/\/cryptopanic.com\/news\/18656744\/Wing-is-soaring-through-the-crypto-space-In-the-last-two-weeks-our-market-cap-has-increased-by-231-Than",
            "created_at": "2023-06-26T08:39:18Z",
            "votes": {
                "negative": 0,
                "positive": 0,
                "important": 0,
                "liked": 0,
                "disliked": 0,
                "lol": 0,
                "toxic": 0,
                "saved": 0,
                "comments": 0
            }
        },
        {
            "kind": "news",
            "domain": "@Wing_Finance",
            "source": {
                "title": "Wing Finance Twitter",
                "region": "en",
                "domain": "twitter.com",
                "path": "@wing_finance"
            },
            "title": "RT @Cointelegraph: Bitcoin at $31,000 is already busy making all-time highs in some places.",
            "published_at": "2023-06-25T09:35:34Z",
            "slug": "RT-Cointelegraph-Bitcoin-at-31000-is-already-busy-making-all-time-highs-in-some-places",
            "currencies": [
                {
                    "code": "WING",
                    "title": "Wing Finance",
                    "slug": "wing-finance",
                    "url": "https:\/\/cryptopanic.com\/news\/wing-finance\/"
                }
            ],
            "id": 18652053,
            "url": "https:\/\/cryptopanic.com\/news\/18652053\/RT-Cointelegraph-Bitcoin-at-31000-is-already-busy-making-all-time-highs-in-some-places",
            "created_at": "2023-06-25T09:35:34Z",
            "votes": {
                "negative": 0,
                "positive": 0,
                "important": 0,
                "liked": 0,
                "disliked": 0,
                "lol": 0,
                "toxic": 0,
                "saved": 0,
                "comments": 0
            }
        },
        {
            "kind": "news",
            "domain": "@Wing_Finance",
            "source": {
                "title": "Wing Finance Twitter",
                "region": "en",
                "domain": "twitter.com",
                "path": "@wing_finance"
            },
            "title": "RT @coingecko: NEWS: @BlackRock has filed an application for a spot #Bitcoin ETF with the SEC.\n\n",
            "published_at": "2023-06-24T15:43:19Z",
            "slug": "RT-coingecko-NEWS-BlackRock-has-filed-an-application-for-a-spot-Bitcoin-ETF-with-the-SEC",
            "currencies": [
                {
                    "code": "WING",
                    "title": "Wing Finance",
                    "slug": "wing-finance",
                    "url": "https:\/\/cryptopanic.com\/news\/wing-finance\/"
                }
            ],
            "id": 18652054,
            "url": "https:\/\/cryptopanic.com\/news\/18652054\/RT-coingecko-NEWS-BlackRock-has-filed-an-application-for-a-spot-Bitcoin-ETF-with-the-SEC",
            "created_at": "2023-06-24T15:43:19Z",
            "votes": {
                "negative": 0,
                "positive": 0,
                "important": 0,
                "liked": 0,
                "disliked": 0,
                "lol": 0,
                "toxic": 0,
                "saved": 0,
                "comments": 0
            }
        },
        {
            "kind": "news",
            "domain": "@Wing_Finance",
            "source": {
                "title": "Wing Finance Twitter",
                "region": "en",
                "domain": "twitter.com",
                "path": "@wing_finance"
            },
            "title": "RT @BSCNews: \n\n Historic Moment: #SEC Gives Green Light to Inaugural Leveraged #Bitcoin Futures ETF, Revolutionizin\u2026",
            "published_at": "2023-06-24T15:42:50Z",
            "slug": "RT-BSCNews-Historic-Moment-SEC-Gives-Green-Light-to-Inaugural-Leveraged-Bitcoin-Futures-ETF-Revolutionizin",
            "currencies": [
                {
                    "code": "WING",
                    "title": "Wing Finance",
                    "slug": "wing-finance",
                    "url": "https:\/\/cryptopanic.com\/news\/wing-finance\/"
                }
            ],
            "id": 18652055,
            "url": "https:\/\/cryptopanic.com\/news\/18652055\/RT-BSCNews-Historic-Moment-SEC-Gives-Green-Light-to-Inaugural-Leveraged-Bitcoin-Futures-ETF-Revolutionizin",
            "created_at": "2023-06-24T15:42:50Z",
            "votes": {
                "negative": 0,
                "positive": 0,
                "important": 0,
                "liked": 0,
                "disliked": 0,
                "lol": 0,
                "toxic": 0,
                "saved": 0,
                "comments": 0
            }
        },
        {
            "kind": "news",
            "domain": "@Wing_Finance",
            "source": {
                "title": "Wing Finance Twitter",
                "region": "en",
                "domain": "twitter.com",
                "path": "@wing_finance"
            },
            "title": " $WING Yield Farming Rankings\n\n 6\/23\/2023\n\n\ud83e\udd47Wing Flash Pool (@ethereum) $WING Insure 27.88%\n\ud83e\udd48Wing NFT Pool $WING\u2026",
            "published_at": "2023-06-23T12:23:16Z",
            "slug": "WING-Yield-Farming-Rankings-6232023-Wing-Flash-Pool-ethereum-WING-Insure-2788-Wing-NFT-Pool-WING",
            "currencies": [
                {
                    "code": "WING",
                    "title": "Wing Finance",
                    "slug": "wing-finance",
                    "url": "https:\/\/cryptopanic.com\/news\/wing-finance\/"
                }
            ],
            "id": 18647676,
            "url": "https:\/\/cryptopanic.com\/news\/18647676\/WING-Yield-Farming-Rankings-6232023-Wing-Flash-Pool-ethereum-WING-Insure-2788-Wing-NFT-Pool-WING",
            "created_at": "2023-06-23T12:23:16Z",
            "votes": {
                "negative": 0,
                "positive": 0,
                "important": 0,
                "liked": 0,
                "disliked": 0,
                "lol": 0,
                "toxic": 0,
                "saved": 0,
                "comments": 0
            }
        },
        {
            "kind": "news",
            "domain": "@Wing_Finance",
            "source": {
                "title": "Wing Finance Twitter",
                "region": "en",
                "domain": "twitter.com",
                "path": "@wing_finance"
            },
            "title": "This month's Community Auction\u200d\ufe0fstarts on June 23 &amp; is only accessible via @ONTOWallet\n\n50% of the revenue will\u2026",
            "published_at": "2023-06-22T09:13:49Z",
            "slug": "This-months-Community-Auctionstarts-on-June-23-amp-is-only-accessible-via-ONTOWallet-50-of-the-revenue-will",
            "currencies": [
                {
                    "code": "WING",
                    "title": "Wing Finance",
                    "slug": "wing-finance",
                    "url": "https:\/\/cryptopanic.com\/news\/wing-finance\/"
                }
            ],
            "id": 18632319,
            "url": "https:\/\/cryptopanic.com\/news\/18632319\/This-months-Community-Auctionstarts-on-June-23-amp-is-only-accessible-via-ONTOWallet-50-of-the-revenue-will",
            "created_at": "2023-06-22T09:13:49Z",
            "votes": {
                "negative": 0,
                "positive": 0,
                "important": 0,
                "liked": 0,
                "disliked": 0,
                "lol": 0,
                "toxic": 0,
                "saved": 0,
                "comments": 0
            }
        },
        {
            "kind": "news",
            "domain": "@Wing_Finance",
            "source": {
                "title": "Wing Finance Twitter",
                "region": "en",
                "domain": "twitter.com",
                "path": "@wing_finance"
            },
            "title": "Flash Pools enable users to earn passive income and provide liquidity for borrowers \ud83e\udd1d\n\nOur Flash Pools are deployed\u2026",
            "published_at": "2023-06-21T03:50:04Z",
            "slug": "Flash-Pools-enable-users-to-earn-passive-income-and-provide-liquidity-for-borrowers-Our-Flash-Pools-are-deployed",
            "currencies": [
                {
                    "code": "WING",
                    "title": "Wing Finance",
                    "slug": "wing-finance",
                    "url": "https:\/\/cryptopanic.com\/news\/wing-finance\/"
                }
            ],
            "id": 18632322,
            "url": "https:\/\/cryptopanic.com\/news\/18632322\/Flash-Pools-enable-users-to-earn-passive-income-and-provide-liquidity-for-borrowers-Our-Flash-Pools-are-deployed",
            "created_at": "2023-06-21T03:50:04Z",
            "votes": {
                "negative": 0,
                "positive": 0,
                "important": 0,
                "liked": 0,
                "disliked": 0,
                "lol": 0,
                "toxic": 0,
                "saved": 0,
                "comments": 0
            }
        },
        {
            "kind": "news",
            "domain": "@Wing_Finance",
            "source": {
                "title": "Wing Finance Twitter",
                "region": "en",
                "domain": "twitter.com",
                "path": "@wing_finance"
            },
            "title": "RT @gate_io: #Bitcoin saw a whopping 6.6% gains within 24H!\n\nWill the world's largest asset management companies - BlackRock, Fidelity, Sc\u2026",
            "published_at": "2023-06-21T03:25:31Z",
            "slug": "RT-gate_io-Bitcoin-saw-a-whopping-66-gains-within-24H-Will-the-worlds-largest-asset-management-companies-BlackRock-Fidelity-Sc",
            "currencies": [
                {
                    "code": "WING",
                    "title": "Wing Finance",
                    "slug": "wing-finance",
                    "url": "https:\/\/cryptopanic.com\/news\/wing-finance\/"
                }
            ],
            "id": 18632323,
            "url": "https:\/\/cryptopanic.com\/news\/18632323\/RT-gate_io-Bitcoin-saw-a-whopping-66-gains-within-24H-Will-the-worlds-largest-asset-management-companies-BlackRock-Fidelity-Sc",
            "created_at": "2023-06-21T03:25:31Z",
            "votes": {
                "negative": 0,
                "positive": 0,
                "important": 0,
                "liked": 0,
                "disliked": 0,
                "lol": 0,
                "toxic": 0,
                "saved": 0,
                "comments": 0
            }
        },
        {
            "kind": "news",
            "domain": "@Wing_Finance",
            "source": {
                "title": "Wing Finance Twitter",
                "region": "en",
                "domain": "twitter.com",
                "path": "@wing_finance"
            },
            "title": "Dive into Flash, #NFT, #P2P, and Inclusive Pools on #Wing \n\nEach pool offers unique benefits for yield farmers \u2026",
            "published_at": "2023-06-20T07:08:46Z",
            "slug": "Dive-into-Flash-NFT-P2P-and-Inclusive-Pools-on-Wing-Each-pool-offers-unique-benefits-for-yield-farmers",
            "currencies": [
                {
                    "code": "WING",
                    "title": "Wing Finance",
                    "slug": "wing-finance",
                    "url": "https:\/\/cryptopanic.com\/news\/wing-finance\/"
                }
            ],
            "id": 18615965,
            "url": "https:\/\/cryptopanic.com\/news\/18615965\/Dive-into-Flash-NFT-P2P-and-Inclusive-Pools-on-Wing-Each-pool-offers-unique-benefits-for-yield-farmers",
            "created_at": "2023-06-20T07:08:46Z",
            "votes": {
                "negative": 0,
                "positive": 0,
                "important": 0,
                "liked": 0,
                "disliked": 0,
                "lol": 0,
                "toxic": 0,
                "saved": 0,
                "comments": 0
            }
        },
        {
            "kind": "news",
            "domain": "@Wing_Finance",
            "source": {
                "title": "Wing Finance Twitter",
                "region": "en",
                "domain": "twitter.com",
                "path": "@wing_finance"
            },
            "title": "RT @TyranoAnalytics:  Explore the top 10 NFT lending projects based on market cap and unlock the potential of your NFTs:\n\n1\u20e3 $NEXO | @Nex\u2026",
            "published_at": "2023-06-19T09:21:54Z",
            "slug": "RT-TyranoAnalytics-Explore-the-top-10-NFT-lending-projects-based-on-market-cap-and-unlock-the-potential-of-your-NFTs-1-NEXO-Nex",
            "currencies": [
                {
                    "code": "WING",
                    "title": "Wing Finance",
                    "slug": "wing-finance",
                    "url": "https:\/\/cryptopanic.com\/news\/wing-finance\/"
                }
            ],
            "id": 18608308,
            "url": "https:\/\/cryptopanic.com\/news\/18608308\/RT-TyranoAnalytics-Explore-the-top-10-NFT-lending-projects-based-on-market-cap-and-unlock-the-potential-of-your-NFTs-1-NEXO-Nex",
            "created_at": "2023-06-19T09:21:54Z",
            "votes": {
                "negative": 0,
                "positive": 0,
                "important": 0,
                "liked": 0,
                "disliked": 0,
                "lol": 0,
                "toxic": 0,
                "saved": 0,
                "comments": 0
            }
        }
    ]
}
