{
    "count": 200,
    "next": "https:\/\/cryptopanic.com\/api\/v1\/posts\/?auth_token=01c356e89ffc1b8eba2127c81fc8c66ee0eace75&kind=news&currencies=UTK&page=2",
    "previous": null,
    "results": [
        {
            "kind": "news",
            "domain": "@UTRUST",
            "source": {
                "title": "UTRUST Twitter",
                "region": "en",
                "domain": "twitter.com",
                "path": "@utrust"
            },
            "title": "RT @PeerMeHQ: @beniaminmincu @UTRUST @twispay with every new launch, we're blown away by the design and functionality of @MultiversX, @UTRU\u2026",
            "published_at": "2023-05-26T22:27:33Z",
            "slug": "RT-PeerMeHQ-beniaminmincu-UTRUST-twispay-with-every-new-launch-were-blown-away-by-the-design-and-functionality-of-MultiversX-UTRU",
            "currencies": [
                {
                    "code": "UTK",
                    "title": "Utrust",
                    "slug": "utrust",
                    "url": "https:\/\/cryptopanic.com\/news\/utrust\/"
                }
            ],
            "id": 18444580,
            "url": "https:\/\/cryptopanic.com\/news\/18444580\/RT-PeerMeHQ-beniaminmincu-UTRUST-twispay-with-every-new-launch-were-blown-away-by-the-design-and-functionality-of-MultiversX-UTRU",
            "created_at": "2023-05-26T22:27:33Z",
            "votes": {
                "negative": 0,
                "positive": 0,
                "important": 0,
                "liked": 0,
                "disliked": 0,
                "lol": 0,
                "toxic": 0,
                "saved": 0,
                "comments": 0
            }
        },
        {
            "kind": "news",
            "domain": "@UTRUST",
            "source": {
                "title": "UTRUST Twitter",
                "region": "en",
                "domain": "twitter.com",
                "path": "@utrust"
            },
            "title": "Tap into new revenue streams, expand on the market, and go global with #xMoney \n\n\ufe0f \n\ufe0f\u2026",
            "published_at": "2023-05-26T20:00:48Z",
            "slug": "Tap-into-new-revenue-streams-expand-on-the-market-and-go-global-with-xMoney",
            "currencies": [
                {
                    "code": "UTK",
                    "title": "Utrust",
                    "slug": "utrust",
                    "url": "https:\/\/cryptopanic.com\/news\/utrust\/"
                }
            ],
            "id": 18444581,
            "url": "https:\/\/cryptopanic.com\/news\/18444581\/Tap-into-new-revenue-streams-expand-on-the-market-and-go-global-with-xMoney",
            "created_at": "2023-05-26T20:00:48Z",
            "votes": {
                "negative": 0,
                "positive": 0,
                "important": 0,
                "liked": 0,
                "disliked": 0,
                "lol": 0,
                "toxic": 0,
                "saved": 0,
                "comments": 0
            }
        },
        {
            "kind": "news",
            "domain": "@UTRUST",
            "source": {
                "title": "UTRUST Twitter",
                "region": "en",
                "domain": "twitter.com",
                "path": "@utrust"
            },
            "title": " $UTK token has received a significant economics improvement proposal. A 4-week window for community feedback is o\u2026",
            "published_at": "2023-05-26T12:25:19Z",
            "slug": "UTK-token-has-received-a-significant-economics-improvement-proposal-A-4-week-window-for-community-feedback-is-o",
            "currencies": [
                {
                    "code": "UTK",
                    "title": "Utrust",
                    "slug": "utrust",
                    "url": "https:\/\/cryptopanic.com\/news\/utrust\/"
                }
            ],
            "id": 18444582,
            "url": "https:\/\/cryptopanic.com\/news\/18444582\/UTK-token-has-received-a-significant-economics-improvement-proposal-A-4-week-window-for-community-feedback-is-o",
            "created_at": "2023-05-26T12:25:19Z",
            "votes": {
                "negative": 0,
                "positive": 0,
                "important": 0,
                "liked": 0,
                "disliked": 0,
                "lol": 0,
                "toxic": 0,
                "saved": 0,
                "comments": 0
            }
        },
        {
            "kind": "news",
            "domain": "@UTRUST",
            "source": {
                "title": "UTRUST Twitter",
                "region": "en",
                "domain": "twitter.com",
                "path": "@utrust"
            },
            "title": "RT @beniaminmincu: 1\/ A significant step has been accomplished. 2 years in the making.\n\n@UTRUST and @twispay are officially evolving into #\u2026",
            "published_at": "2023-05-25T20:46:29Z",
            "slug": "RT-beniaminmincu-1-A-significant-step-has-been-accomplished-2-years-in-the-making-UTRUST-and-twispay-are-officially-evolving-into",
            "currencies": [
                {
                    "code": "UTK",
                    "title": "Utrust",
                    "slug": "utrust",
                    "url": "https:\/\/cryptopanic.com\/news\/utrust\/"
                }
            ],
            "id": 18436844,
            "url": "https:\/\/cryptopanic.com\/news\/18436844\/RT-beniaminmincu-1-A-significant-step-has-been-accomplished-2-years-in-the-making-UTRUST-and-twispay-are-officially-evolving-into",
            "created_at": "2023-05-25T20:46:29Z",
            "votes": {
                "negative": 0,
                "positive": 0,
                "important": 0,
                "liked": 0,
                "disliked": 0,
                "lol": 0,
                "toxic": 0,
                "saved": 0,
                "comments": 0
            }
        },
        {
            "kind": "news",
            "domain": "@UTRUST",
            "source": {
                "title": "UTRUST Twitter",
                "region": "en",
                "domain": "twitter.com",
                "path": "@utrust"
            },
            "title": "RT @xFoudres: OMG, I can't believe it \n\nThank you @UTRUST for this great challenge but also to all the participants who offered very inter\u2026",
            "published_at": "2023-05-25T16:56:34Z",
            "slug": "RT-xFoudres-OMG-I-cant-believe-it-Thank-you-UTRUST-for-this-great-challenge-but-also-to-all-the-participants-who-offered-very-inter",
            "currencies": [
                {
                    "code": "UTK",
                    "title": "Utrust",
                    "slug": "utrust",
                    "url": "https:\/\/cryptopanic.com\/news\/utrust\/"
                }
            ],
            "id": 18436845,
            "url": "https:\/\/cryptopanic.com\/news\/18436845\/RT-xFoudres-OMG-I-cant-believe-it-Thank-you-UTRUST-for-this-great-challenge-but-also-to-all-the-participants-who-offered-very-inter",
            "created_at": "2023-05-25T16:56:34Z",
            "votes": {
                "negative": 0,
                "positive": 0,
                "important": 0,
                "liked": 0,
                "disliked": 0,
                "lol": 0,
                "toxic": 0,
                "saved": 0,
                "comments": 0
            }
        },
        {
            "kind": "news",
            "domain": "@UTRUST",
            "source": {
                "title": "UTRUST Twitter",
                "region": "en",
                "domain": "twitter.com",
                "path": "@utrust"
            },
            "title": "Read between the lines ",
            "published_at": "2023-05-25T16:45:13Z",
            "slug": "Read-between-the-lines",
            "currencies": [
                {
                    "code": "UTK",
                    "title": "Utrust",
                    "slug": "utrust",
                    "url": "https:\/\/cryptopanic.com\/news\/utrust\/"
                }
            ],
            "id": 18436846,
            "url": "https:\/\/cryptopanic.com\/news\/18436846\/Read-between-the-lines",
            "created_at": "2023-05-25T16:45:13Z",
            "votes": {
                "negative": 0,
                "positive": 0,
                "important": 0,
                "liked": 0,
                "disliked": 0,
                "lol": 0,
                "toxic": 0,
                "saved": 0,
                "comments": 0
            }
        },
        {
            "kind": "news",
            "domain": "@UTRUST",
            "source": {
                "title": "UTRUST Twitter",
                "region": "en",
                "domain": "twitter.com",
                "path": "@utrust"
            },
            "title": "1\/\n\nLet the future begin ",
            "published_at": "2023-05-25T14:35:56Z",
            "slug": "1-Let-the-future-begin",
            "currencies": [
                {
                    "code": "UTK",
                    "title": "Utrust",
                    "slug": "utrust",
                    "url": "https:\/\/cryptopanic.com\/news\/utrust\/"
                }
            ],
            "id": 18436847,
            "url": "https:\/\/cryptopanic.com\/news\/18436847\/1-Let-the-future-begin",
            "created_at": "2023-05-25T14:35:56Z",
            "votes": {
                "negative": 0,
                "positive": 0,
                "important": 0,
                "liked": 0,
                "disliked": 0,
                "lol": 0,
                "toxic": 0,
                "saved": 0,
                "comments": 0
            }
        },
        {
            "kind": "news",
            "domain": "@UTRUST",
            "source": {
                "title": "UTRUST Twitter",
                "region": "en",
                "domain": "twitter.com",
                "path": "@utrust"
            },
            "title": "1\/\n\nHundreds of submissions, countless creative ideas, and outstanding contributions from our #community \n\nTrue bu\u2026",
            "published_at": "2023-05-25T12:09:04Z",
            "slug": "1-Hundreds-of-submissions-countless-creative-ideas-and-outstanding-contributions-from-our-community-True-bu",
            "currencies": [
                {
                    "code": "UTK",
                    "title": "Utrust",
                    "slug": "utrust",
                    "url": "https:\/\/cryptopanic.com\/news\/utrust\/"
                }
            ],
            "id": 18436848,
            "url": "https:\/\/cryptopanic.com\/news\/18436848\/1-Hundreds-of-submissions-countless-creative-ideas-and-outstanding-contributions-from-our-community-True-bu",
            "created_at": "2023-05-25T12:09:04Z",
            "votes": {
                "negative": 0,
                "positive": 0,
                "important": 0,
                "liked": 0,
                "disliked": 0,
                "lol": 0,
                "toxic": 0,
                "saved": 0,
                "comments": 0
            }
        },
        {
            "kind": "news",
            "domain": "@UTRUST",
            "source": {
                "title": "UTRUST Twitter",
                "region": "en",
                "domain": "twitter.com",
                "path": "@utrust"
            },
            "title": "RT @MultiversX: Massive effort leading to this moment.\n\nThe xMoney global unveil is here.\n\nJoin @beniaminmincu &amp; @martinhoaragao to be amon\u2026",
            "published_at": "2023-05-25T09:06:55Z",
            "slug": "RT-MultiversX-Massive-effort-leading-to-this-moment-The-xMoney-global-unveil-is-here-Join-beniaminmincu-amp-martinhoaragao-to-be-amon",
            "currencies": [
                {
                    "code": "UTK",
                    "title": "Utrust",
                    "slug": "utrust",
                    "url": "https:\/\/cryptopanic.com\/news\/utrust\/"
                }
            ],
            "id": 18428007,
            "url": "https:\/\/cryptopanic.com\/news\/18428007\/RT-MultiversX-Massive-effort-leading-to-this-moment-The-xMoney-global-unveil-is-here-Join-beniaminmincu-amp-martinhoaragao-to-be-amon",
            "created_at": "2023-05-25T09:06:55Z",
            "votes": {
                "negative": 0,
                "positive": 0,
                "important": 0,
                "liked": 0,
                "disliked": 0,
                "lol": 0,
                "toxic": 0,
                "saved": 0,
                "comments": 0
            }
        },
        {
            "kind": "news",
            "domain": "@UTRUST",
            "source": {
                "title": "UTRUST Twitter",
                "region": "en",
                "domain": "twitter.com",
                "path": "@utrust"
            },
            "title": "Less than 24h to go, community \n\nLeave a  if you're with us!\n\n#utrustxMoney",
            "published_at": "2023-05-24T11:29:43Z",
            "slug": "Less-than-24h-to-go-community-Leave-a-if-youre-with-us-utrustxMoney",
            "currencies": [
                {
                    "code": "UTK",
                    "title": "Utrust",
                    "slug": "utrust",
                    "url": "https:\/\/cryptopanic.com\/news\/utrust\/"
                }
            ],
            "id": 18428008,
            "url": "https:\/\/cryptopanic.com\/news\/18428008\/Less-than-24h-to-go-community-Leave-a-if-youre-with-us-utrustxMoney",
            "created_at": "2023-05-24T11:29:43Z",
            "votes": {
                "negative": 0,
                "positive": 0,
                "important": 0,
                "liked": 0,
                "disliked": 0,
                "lol": 0,
                "toxic": 0,
                "saved": 0,
                "comments": 0
            }
        },
        {
            "kind": "news",
            "domain": "@UTRUST",
            "source": {
                "title": "UTRUST Twitter",
                "region": "en",
                "domain": "twitter.com",
                "path": "@utrust"
            },
            "title": "And the time is over! Thank you all for the amazing #xMoneyFuture submissions \n\nNow, let the jury do the work ",
            "published_at": "2023-05-22T00:11:44Z",
            "slug": "And-the-time-is-over-Thank-you-all-for-the-amazing-xMoneyFuture-submissions-Now-let-the-jury-do-the-work",
            "currencies": [
                {
                    "code": "UTK",
                    "title": "Utrust",
                    "slug": "utrust",
                    "url": "https:\/\/cryptopanic.com\/news\/utrust\/"
                }
            ],
            "id": 18400074,
            "url": "https:\/\/cryptopanic.com\/news\/18400074\/And-the-time-is-over-Thank-you-all-for-the-amazing-xMoneyFuture-submissions-Now-let-the-jury-do-the-work",
            "created_at": "2023-05-22T00:11:44Z",
            "votes": {
                "negative": 0,
                "positive": 0,
                "important": 0,
                "liked": 0,
                "disliked": 0,
                "lol": 0,
                "toxic": 0,
                "saved": 0,
                "comments": 0
            }
        },
        {
            "kind": "news",
            "domain": "@UTRUST",
            "source": {
                "title": "UTRUST Twitter",
                "region": "en",
                "domain": "twitter.com",
                "path": "@utrust"
            },
            "title": "RT @LunarCrush: UTRUST had stand-out activity this week. It has hit AltRank\u2122 \ud83e\udd47 out of the top 5,241 coins.\n\n24-hour activity social engagem\u2026",
            "published_at": "2023-05-21T17:58:39Z",
            "slug": "RT-LunarCrush-UTRUST-had-stand-out-activity-this-week-It-has-hit-AltRankTM-out-of-the-top-5241-coins-24-hour-activity-social-engagem",
            "currencies": [
                {
                    "code": "UTK",
                    "title": "Utrust",
                    "slug": "utrust",
                    "url": "https:\/\/cryptopanic.com\/news\/utrust\/"
                }
            ],
            "id": 18400075,
            "url": "https:\/\/cryptopanic.com\/news\/18400075\/RT-LunarCrush-UTRUST-had-stand-out-activity-this-week-It-has-hit-AltRankTM-out-of-the-top-5241-coins-24-hour-activity-social-engagem",
            "created_at": "2023-05-21T17:58:39Z",
            "votes": {
                "negative": 0,
                "positive": 0,
                "important": 0,
                "liked": 0,
                "disliked": 0,
                "lol": 0,
                "toxic": 0,
                "saved": 0,
                "comments": 0
            }
        },
        {
            "kind": "news",
            "domain": "@UTRUST",
            "source": {
                "title": "UTRUST Twitter",
                "region": "en",
                "domain": "twitter.com",
                "path": "@utrust"
            },
            "title": "If you ever need a synonym for 'builder,' look no further than @beniaminmincu, Founder of @MultiversX.\n\nHe's a visi\u2026",
            "published_at": "2023-05-21T16:16:56Z",
            "slug": "If-you-ever-need-a-synonym-for-builder-look-no-further-than-beniaminmincu-Founder-of-MultiversX-Hes-a-visi",
            "currencies": [
                {
                    "code": "UTK",
                    "title": "Utrust",
                    "slug": "utrust",
                    "url": "https:\/\/cryptopanic.com\/news\/utrust\/"
                }
            ],
            "id": 18400076,
            "url": "https:\/\/cryptopanic.com\/news\/18400076\/If-you-ever-need-a-synonym-for-builder-look-no-further-than-beniaminmincu-Founder-of-MultiversX-Hes-a-visi",
            "created_at": "2023-05-21T16:16:56Z",
            "votes": {
                "negative": 0,
                "positive": 0,
                "important": 0,
                "liked": 0,
                "disliked": 0,
                "lol": 0,
                "toxic": 0,
                "saved": 0,
                "comments": 0
            }
        },
        {
            "kind": "news",
            "domain": "@UTRUST",
            "source": {
                "title": "UTRUST Twitter",
                "region": "en",
                "domain": "twitter.com",
                "path": "@utrust"
            },
            "title": "1\/\n\nHi, community  Welcome to the last weekly recap under Utrust's name. Next week we'll have the 1st official xMo\u2026",
            "published_at": "2023-05-21T11:29:58Z",
            "slug": "1-Hi-community-Welcome-to-the-last-weekly-recap-under-Utrusts-name-Next-week-well-have-the-1st-official-xMo",
            "currencies": [
                {
                    "code": "UTK",
                    "title": "Utrust",
                    "slug": "utrust",
                    "url": "https:\/\/cryptopanic.com\/news\/utrust\/"
                }
            ],
            "id": 18400077,
            "url": "https:\/\/cryptopanic.com\/news\/18400077\/1-Hi-community-Welcome-to-the-last-weekly-recap-under-Utrusts-name-Next-week-well-have-the-1st-official-xMo",
            "created_at": "2023-05-21T11:29:58Z",
            "votes": {
                "negative": 0,
                "positive": 0,
                "important": 0,
                "liked": 0,
                "disliked": 0,
                "lol": 0,
                "toxic": 0,
                "saved": 0,
                "comments": 0
            }
        },
        {
            "kind": "news",
            "domain": "@UTRUST",
            "source": {
                "title": "UTRUST Twitter",
                "region": "en",
                "domain": "twitter.com",
                "path": "@utrust"
            },
            "title": "What do you find most exciting about our upcoming launch milestone on May 25th? ",
            "published_at": "2023-05-20T10:40:39Z",
            "slug": "What-do-you-find-most-exciting-about-our-upcoming-launch-milestone-on-May-25th",
            "currencies": [
                {
                    "code": "UTK",
                    "title": "Utrust",
                    "slug": "utrust",
                    "url": "https:\/\/cryptopanic.com\/news\/utrust\/"
                }
            ],
            "id": 18394162,
            "url": "https:\/\/cryptopanic.com\/news\/18394162\/What-do-you-find-most-exciting-about-our-upcoming-launch-milestone-on-May-25th",
            "created_at": "2023-05-20T10:40:39Z",
            "votes": {
                "negative": 0,
                "positive": 0,
                "important": 0,
                "liked": 0,
                "disliked": 0,
                "lol": 0,
                "toxic": 0,
                "saved": 0,
                "comments": 0
            }
        },
        {
            "kind": "news",
            "domain": "@UTRUST",
            "source": {
                "title": "UTRUST Twitter",
                "region": "en",
                "domain": "twitter.com",
                "path": "@utrust"
            },
            "title": "RT @beniaminmincu: BREAKING: Setting the stage for mainstream adoption.\n\nThe @MultiversX ecosystem is now natively integrated in the @Opera\u2026",
            "published_at": "2023-05-19T23:38:43Z",
            "slug": "RT-beniaminmincu-BREAKING-Setting-the-stage-for-mainstream-adoption-The-MultiversX-ecosystem-is-now-natively-integrated-in-the-Opera",
            "currencies": [
                {
                    "code": "UTK",
                    "title": "Utrust",
                    "slug": "utrust",
                    "url": "https:\/\/cryptopanic.com\/news\/utrust\/"
                }
            ],
            "id": 18389234,
            "url": "https:\/\/cryptopanic.com\/news\/18389234\/RT-beniaminmincu-BREAKING-Setting-the-stage-for-mainstream-adoption-The-MultiversX-ecosystem-is-now-natively-integrated-in-the-Opera",
            "created_at": "2023-05-19T23:38:43Z",
            "votes": {
                "negative": 0,
                "positive": 0,
                "important": 0,
                "liked": 0,
                "disliked": 0,
                "lol": 0,
                "toxic": 0,
                "saved": 0,
                "comments": 0
            }
        },
        {
            "kind": "news",
            "domain": "@UTRUST",
            "source": {
                "title": "UTRUST Twitter",
                "region": "en",
                "domain": "twitter.com",
                "path": "@utrust"
            },
            "title": "What are the benefits of climbing the #xPortal leaderboard? \u200a\n\nBeing recognized as one of the most active (aka top\u2026",
            "published_at": "2023-05-19T12:05:08Z",
            "slug": "What-are-the-benefits-of-climbing-the-xPortal-leaderboard-Being-recognized-as-one-of-the-most-active-aka-top",
            "currencies": [
                {
                    "code": "UTK",
                    "title": "Utrust",
                    "slug": "utrust",
                    "url": "https:\/\/cryptopanic.com\/news\/utrust\/"
                }
            ],
            "id": 18389235,
            "url": "https:\/\/cryptopanic.com\/news\/18389235\/What-are-the-benefits-of-climbing-the-xPortal-leaderboard-Being-recognized-as-one-of-the-most-active-aka-top",
            "created_at": "2023-05-19T12:05:08Z",
            "votes": {
                "negative": 0,
                "positive": 0,
                "important": 0,
                "liked": 0,
                "disliked": 0,
                "lol": 0,
                "toxic": 0,
                "saved": 0,
                "comments": 0
            }
        },
        {
            "kind": "news",
            "domain": "@UTRUST",
            "source": {
                "title": "UTRUST Twitter",
                "region": "en",
                "domain": "twitter.com",
                "path": "@utrust"
            },
            "title": "We see you...  \n#xMoneyFuture\n\n\u200a ",
            "published_at": "2023-05-18T15:51:46Z",
            "slug": "We-see-you-xMoneyFuture",
            "currencies": [
                {
                    "code": "UTK",
                    "title": "Utrust",
                    "slug": "utrust",
                    "url": "https:\/\/cryptopanic.com\/news\/utrust\/"
                }
            ],
            "id": 18381355,
            "url": "https:\/\/cryptopanic.com\/news\/18381355\/We-see-you-xMoneyFuture",
            "created_at": "2023-05-18T15:51:46Z",
            "votes": {
                "negative": 0,
                "positive": 0,
                "important": 0,
                "liked": 0,
                "disliked": 0,
                "lol": 0,
                "toxic": 0,
                "saved": 0,
                "comments": 0
            }
        },
        {
            "kind": "news",
            "domain": "@UTRUST",
            "source": {
                "title": "UTRUST Twitter",
                "region": "en",
                "domain": "twitter.com",
                "path": "@utrust"
            },
            "title": "RT @xPortalApp: By hiding complexity behind its intuitive interface, xPortal makes @MultiversX onboarding feel like a breeze.\n\nHard to beli\u2026",
            "published_at": "2023-05-18T13:39:49Z",
            "slug": "RT-xPortalApp-By-hiding-complexity-behind-its-intuitive-interface-xPortal-makes-MultiversX-onboarding-feel-like-a-breeze-Hard-to-beli",
            "currencies": [
                {
                    "code": "UTK",
                    "title": "Utrust",
                    "slug": "utrust",
                    "url": "https:\/\/cryptopanic.com\/news\/utrust\/"
                }
            ],
            "id": 18381356,
            "url": "https:\/\/cryptopanic.com\/news\/18381356\/RT-xPortalApp-By-hiding-complexity-behind-its-intuitive-interface-xPortal-makes-MultiversX-onboarding-feel-like-a-breeze-Hard-to-beli",
            "created_at": "2023-05-18T13:39:49Z",
            "votes": {
                "negative": 0,
                "positive": 0,
                "important": 0,
                "liked": 0,
                "disliked": 0,
                "lol": 0,
                "toxic": 0,
                "saved": 0,
                "comments": 0
            }
        },
        {
            "kind": "news",
            "domain": "@UTRUST",
            "source": {
                "title": "UTRUST Twitter",
                "region": "en",
                "domain": "twitter.com",
                "path": "@utrust"
            },
            "title": "RT @beniaminmincu: Been spending a lot of time with all our teams, preparing an update about the most important and exciting next steps for\u2026",
            "published_at": "2023-05-18T13:38:53Z",
            "slug": "RT-beniaminmincu-Been-spending-a-lot-of-time-with-all-our-teams-preparing-an-update-about-the-most-important-and-exciting-next-steps-for",
            "currencies": [
                {
                    "code": "UTK",
                    "title": "Utrust",
                    "slug": "utrust",
                    "url": "https:\/\/cryptopanic.com\/news\/utrust\/"
                }
            ],
            "id": 18381357,
            "url": "https:\/\/cryptopanic.com\/news\/18381357\/RT-beniaminmincu-Been-spending-a-lot-of-time-with-all-our-teams-preparing-an-update-about-the-most-important-and-exciting-next-steps-for",
            "created_at": "2023-05-18T13:38:53Z",
            "votes": {
                "negative": 0,
                "positive": 0,
                "important": 0,
                "liked": 0,
                "disliked": 0,
                "lol": 0,
                "toxic": 0,
                "saved": 0,
                "comments": 0
            }
        }
    ]
}
