{
    "count": 200,
    "next": "https:\/\/cryptopanic.com\/api\/v1\/posts\/?auth_token=01c356e89ffc1b8eba2127c81fc8c66ee0eace75&kind=news&currencies=UFT&page=2",
    "previous": null,
    "results": [
        {
            "kind": "news",
            "domain": "@UniLend_Finance",
            "source": {
                "title": "UniLend Finance Twitter",
                "region": "en",
                "domain": "twitter.com",
                "path": "@unilend_finance"
            },
            "title": "UniLend Finance is launching its Newsletter on @ethermail_io\n\nOver 500k EtherMail users can sign up for our newsl\u2026",
            "published_at": "2023-07-11T15:00:40Z",
            "slug": "UniLend-Finance-is-launching-its-Newsletter-on-ethermail_io-Over-500k-EtherMail-users-can-sign-up-for-our-newsl",
            "currencies": [
                {
                    "code": "UFT",
                    "title": "UniLend Finance",
                    "slug": "unlend-finance",
                    "url": "https:\/\/cryptopanic.com\/news\/unlend-finance\/"
                }
            ],
            "id": 18767824,
            "url": "https:\/\/cryptopanic.com\/news\/18767824\/UniLend-Finance-is-launching-its-Newsletter-on-ethermail_io-Over-500k-EtherMail-users-can-sign-up-for-our-newsl",
            "created_at": "2023-07-11T15:00:40Z",
            "votes": {
                "negative": 0,
                "positive": 0,
                "important": 0,
                "liked": 0,
                "disliked": 0,
                "lol": 0,
                "toxic": 0,
                "saved": 0,
                "comments": 0
            }
        },
        {
            "kind": "news",
            "domain": "@UniLend_Finance",
            "source": {
                "title": "UniLend Finance Twitter",
                "region": "en",
                "domain": "twitter.com",
                "path": "@unilend_finance"
            },
            "title": "RT @ethermail_io: \u00a0We're excited to be partnering with @UniLend_Finance! \nGet ready to explore new horizons in #DeFi\u00a0and connect with th\u2026",
            "published_at": "2023-07-11T15:00:30Z",
            "slug": "RT-ethermail_io-Were-excited-to-be-partnering-with-UniLend_Finance-Get-ready-to-explore-new-horizons-in-DeFi-and-connect-with-th",
            "currencies": [
                {
                    "code": "UFT",
                    "title": "UniLend Finance",
                    "slug": "unlend-finance",
                    "url": "https:\/\/cryptopanic.com\/news\/unlend-finance\/"
                }
            ],
            "id": 18767825,
            "url": "https:\/\/cryptopanic.com\/news\/18767825\/RT-ethermail_io-Were-excited-to-be-partnering-with-UniLend_Finance-Get-ready-to-explore-new-horizons-in-DeFi-and-connect-with-th",
            "created_at": "2023-07-11T15:00:30Z",
            "votes": {
                "negative": 0,
                "positive": 0,
                "important": 0,
                "liked": 0,
                "disliked": 0,
                "lol": 0,
                "toxic": 0,
                "saved": 0,
                "comments": 0
            }
        },
        {
            "kind": "news",
            "domain": "@UniLend_Finance",
            "source": {
                "title": "UniLend Finance Twitter",
                "region": "en",
                "domain": "twitter.com",
                "path": "@unilend_finance"
            },
            "title": "UniLend is now listed on @sharemint_xyz as partners\n\n\ufe0fThrough this collaboration, we will expand our flourishing\u2026",
            "published_at": "2023-07-10T16:01:13Z",
            "slug": "UniLend-is-now-listed-on-sharemint_xyz-as-partners-Through-this-collaboration-we-will-expand-our-flourishing",
            "currencies": [
                {
                    "code": "UFT",
                    "title": "UniLend Finance",
                    "slug": "unlend-finance",
                    "url": "https:\/\/cryptopanic.com\/news\/unlend-finance\/"
                }
            ],
            "id": 18759576,
            "url": "https:\/\/cryptopanic.com\/news\/18759576\/UniLend-is-now-listed-on-sharemint_xyz-as-partners-Through-this-collaboration-we-will-expand-our-flourishing",
            "created_at": "2023-07-10T16:01:13Z",
            "votes": {
                "negative": 0,
                "positive": 0,
                "important": 0,
                "liked": 0,
                "disliked": 0,
                "lol": 0,
                "toxic": 0,
                "saved": 0,
                "comments": 0
            }
        },
        {
            "kind": "news",
            "domain": "@UniLend_Finance",
            "source": {
                "title": "UniLend Finance Twitter",
                "region": "en",
                "domain": "twitter.com",
                "path": "@unilend_finance"
            },
            "title": "RT @sharemint_xyz: ShareMint X UniLend\ud83e\udd1d\n\n@UniLend_Finance is now an official ShareMint partner.\n\nProjects are able to reach out to UniLend\u2026",
            "published_at": "2023-07-10T16:01:07Z",
            "slug": "RT-sharemint_xyz-ShareMint-X-UniLend-UniLend_Finance-is-now-an-official-ShareMint-partner-Projects-are-able-to-reach-out-to-UniLend",
            "currencies": [
                {
                    "code": "UFT",
                    "title": "UniLend Finance",
                    "slug": "unlend-finance",
                    "url": "https:\/\/cryptopanic.com\/news\/unlend-finance\/"
                }
            ],
            "id": 18759577,
            "url": "https:\/\/cryptopanic.com\/news\/18759577\/RT-sharemint_xyz-ShareMint-X-UniLend-UniLend_Finance-is-now-an-official-ShareMint-partner-Projects-are-able-to-reach-out-to-UniLend",
            "created_at": "2023-07-10T16:01:07Z",
            "votes": {
                "negative": 0,
                "positive": 0,
                "important": 0,
                "liked": 0,
                "disliked": 0,
                "lol": 0,
                "toxic": 0,
                "saved": 0,
                "comments": 0
            }
        },
        {
            "kind": "news",
            "domain": "@UniLend_Finance",
            "source": {
                "title": "UniLend Finance Twitter",
                "region": "en",
                "domain": "twitter.com",
                "path": "@unilend_finance"
            },
            "title": "1\/Congratulations UniLend x @cctip_com x @Giveaway_HQ Twitter Spaces #AMA Winners\n\nIn case you missed it, catch a\u2026",
            "published_at": "2023-07-10T13:30:29Z",
            "slug": "1Congratulations-UniLend-x-cctip_com-x-Giveaway_HQ-Twitter-Spaces-AMA-Winners-In-case-you-missed-it-catch-a",
            "currencies": [
                {
                    "code": "UFT",
                    "title": "UniLend Finance",
                    "slug": "unlend-finance",
                    "url": "https:\/\/cryptopanic.com\/news\/unlend-finance\/"
                }
            ],
            "id": 18759578,
            "url": "https:\/\/cryptopanic.com\/news\/18759578\/1Congratulations-UniLend-x-cctip_com-x-Giveaway_HQ-Twitter-Spaces-AMA-Winners-In-case-you-missed-it-catch-a",
            "created_at": "2023-07-10T13:30:29Z",
            "votes": {
                "negative": 0,
                "positive": 0,
                "important": 0,
                "liked": 0,
                "disliked": 0,
                "lol": 0,
                "toxic": 0,
                "saved": 0,
                "comments": 0
            }
        },
        {
            "kind": "news",
            "domain": "@UniLend_Finance",
            "source": {
                "title": "UniLend Finance Twitter",
                "region": "en",
                "domain": "twitter.com",
                "path": "@unilend_finance"
            },
            "title": "UniLend's Permissionless Lending &amp; Borrowing Dapp is now listed on @MagicSquareio\ud83e\ude84\n\n\ufe0fSeamlessly access our advance\u2026",
            "published_at": "2023-07-08T14:58:20Z",
            "slug": "UniLends-Permissionless-Lending-amp-Borrowing-Dapp-is-now-listed-on-MagicSquareio-Seamlessly-access-our-advance",
            "currencies": [
                {
                    "code": "UFT",
                    "title": "UniLend Finance",
                    "slug": "unlend-finance",
                    "url": "https:\/\/cryptopanic.com\/news\/unlend-finance\/"
                }
            ],
            "id": 18747235,
            "url": "https:\/\/cryptopanic.com\/news\/18747235\/UniLends-Permissionless-Lending-amp-Borrowing-Dapp-is-now-listed-on-MagicSquareio-Seamlessly-access-our-advance",
            "created_at": "2023-07-08T14:58:20Z",
            "votes": {
                "negative": 0,
                "positive": 0,
                "important": 0,
                "liked": 0,
                "disliked": 0,
                "lol": 0,
                "toxic": 0,
                "saved": 0,
                "comments": 0
            }
        },
        {
            "kind": "news",
            "domain": "@UniLend_Finance",
            "source": {
                "title": "UniLend Finance Twitter",
                "region": "en",
                "domain": "twitter.com",
                "path": "@unilend_finance"
            },
            "title": "Welcoming ZKitty to our ecosystem\n\nTo celebrate our collaboration, we're giving away 25 #ZKitty Whitelist Spots!\u2026",
            "published_at": "2023-07-07T15:01:35Z",
            "slug": "Welcoming-ZKitty-to-our-ecosystem-To-celebrate-our-collaboration-were-giving-away-25-ZKitty-Whitelist-Spots",
            "currencies": [
                {
                    "code": "UFT",
                    "title": "UniLend Finance",
                    "slug": "unlend-finance",
                    "url": "https:\/\/cryptopanic.com\/news\/unlend-finance\/"
                }
            ],
            "id": 18743015,
            "url": "https:\/\/cryptopanic.com\/news\/18743015\/Welcoming-ZKitty-to-our-ecosystem-To-celebrate-our-collaboration-were-giving-away-25-ZKitty-Whitelist-Spots",
            "created_at": "2023-07-07T15:01:35Z",
            "votes": {
                "negative": 0,
                "positive": 0,
                "important": 0,
                "liked": 0,
                "disliked": 0,
                "lol": 0,
                "toxic": 0,
                "saved": 0,
                "comments": 0
            }
        },
        {
            "kind": "news",
            "domain": "@UniLend_Finance",
            "source": {
                "title": "UniLend Finance Twitter",
                "region": "en",
                "domain": "twitter.com",
                "path": "@unilend_finance"
            },
            "title": "RT @ZKitty_DAO: Unilend Finance x ZKitty WL Giveaway \n\nTo celebrate the collab, we're giving away 25 #ZKitty WL Spots!\n\n Follow @UniLend\u2026",
            "published_at": "2023-07-07T15:00:36Z",
            "slug": "RT-ZKitty_DAO-Unilend-Finance-x-ZKitty-WL-Giveaway-To-celebrate-the-collab-were-giving-away-25-ZKitty-WL-Spots-Follow-UniLend",
            "currencies": [
                {
                    "code": "UFT",
                    "title": "UniLend Finance",
                    "slug": "unlend-finance",
                    "url": "https:\/\/cryptopanic.com\/news\/unlend-finance\/"
                }
            ],
            "id": 18743016,
            "url": "https:\/\/cryptopanic.com\/news\/18743016\/RT-ZKitty_DAO-Unilend-Finance-x-ZKitty-WL-Giveaway-To-celebrate-the-collab-were-giving-away-25-ZKitty-WL-Spots-Follow-UniLend",
            "created_at": "2023-07-07T15:00:36Z",
            "votes": {
                "negative": 0,
                "positive": 0,
                "important": 0,
                "liked": 0,
                "disliked": 0,
                "lol": 0,
                "toxic": 0,
                "saved": 0,
                "comments": 0
            }
        },
        {
            "kind": "news",
            "domain": "@UniLend_Finance",
            "source": {
                "title": "UniLend Finance Twitter",
                "region": "en",
                "domain": "twitter.com",
                "path": "@unilend_finance"
            },
            "title": "GM Threads\ud83e\udea1\n\nUniLend Finance has got a new home on #ThreadsApp\ud83e\uddf5\n\n\ud83e\uddf6Time to hop on board as we're about to sew up som\u2026",
            "published_at": "2023-07-06T17:22:07Z",
            "slug": "GM-Threads-UniLend-Finance-has-got-a-new-home-on-ThreadsApp-Time-to-hop-on-board-as-were-about-to-sew-up-som",
            "currencies": [
                {
                    "code": "UFT",
                    "title": "UniLend Finance",
                    "slug": "unlend-finance",
                    "url": "https:\/\/cryptopanic.com\/news\/unlend-finance\/"
                }
            ],
            "id": 18735999,
            "url": "https:\/\/cryptopanic.com\/news\/18735999\/GM-Threads-UniLend-Finance-has-got-a-new-home-on-ThreadsApp-Time-to-hop-on-board-as-were-about-to-sew-up-som",
            "created_at": "2023-07-06T17:22:07Z",
            "votes": {
                "negative": 0,
                "positive": 0,
                "important": 0,
                "liked": 0,
                "disliked": 0,
                "lol": 0,
                "toxic": 0,
                "saved": 0,
                "comments": 0
            }
        },
        {
            "kind": "news",
            "domain": "@UniLend_Finance",
            "source": {
                "title": "UniLend Finance Twitter",
                "region": "en",
                "domain": "twitter.com",
                "path": "@unilend_finance"
            },
            "title": "1\/Hold on tight, our June month recap is here to make a splash!\n\nCrossed 56k Transactions with 15k Unique users o\u2026",
            "published_at": "2023-07-05T17:30:50Z",
            "slug": "1Hold-on-tight-our-June-month-recap-is-here-to-make-a-splash-Crossed-56k-Transactions-with-15k-Unique-users-o",
            "currencies": [
                {
                    "code": "UFT",
                    "title": "UniLend Finance",
                    "slug": "unlend-finance",
                    "url": "https:\/\/cryptopanic.com\/news\/unlend-finance\/"
                }
            ],
            "id": 18727391,
            "url": "https:\/\/cryptopanic.com\/news\/18727391\/1Hold-on-tight-our-June-month-recap-is-here-to-make-a-splash-Crossed-56k-Transactions-with-15k-Unique-users-o",
            "created_at": "2023-07-05T17:30:50Z",
            "votes": {
                "negative": 0,
                "positive": 0,
                "important": 0,
                "liked": 0,
                "disliked": 0,
                "lol": 0,
                "toxic": 0,
                "saved": 0,
                "comments": 0
            }
        },
        {
            "kind": "news",
            "domain": "@UniLend_Finance",
            "source": {
                "title": "UniLend Finance Twitter",
                "region": "en",
                "domain": "twitter.com",
                "path": "@unilend_finance"
            },
            "title": "Tick tock, Only 2\ufe0f\u20e3 hours To Go!\n\nTune In for LIVE Twitter Spaces #AMA with @cctip_com &amp; @Giveaway_HQ | Win $100 i\u2026",
            "published_at": "2023-07-05T10:03:11Z",
            "slug": "Tick-tock-Only-2-hours-To-Go-Tune-In-for-LIVE-Twitter-Spaces-AMA-with-cctip_com-amp-Giveaway_HQ-Win-100-i",
            "currencies": [
                {
                    "code": "UFT",
                    "title": "UniLend Finance",
                    "slug": "unlend-finance",
                    "url": "https:\/\/cryptopanic.com\/news\/unlend-finance\/"
                }
            ],
            "id": 18719352,
            "url": "https:\/\/cryptopanic.com\/news\/18719352\/Tick-tock-Only-2-hours-To-Go-Tune-In-for-LIVE-Twitter-Spaces-AMA-with-cctip_com-amp-Giveaway_HQ-Win-100-i",
            "created_at": "2023-07-05T10:03:11Z",
            "votes": {
                "negative": 0,
                "positive": 0,
                "important": 0,
                "liked": 0,
                "disliked": 0,
                "lol": 0,
                "toxic": 0,
                "saved": 0,
                "comments": 0
            }
        },
        {
            "kind": "news",
            "domain": "@UniLend_Finance",
            "source": {
                "title": "UniLend Finance Twitter",
                "region": "en",
                "domain": "twitter.com",
                "path": "@unilend_finance"
            },
            "title": "RT @MagicSquareio:  Unlock the power of decentralized lending and borrowing with @UniLend_Finance! \n\nThey are creating a Futuristic Base L\u2026",
            "published_at": "2023-07-05T00:09:25Z",
            "slug": "RT-MagicSquareio-Unlock-the-power-of-decentralized-lending-and-borrowing-with-UniLend_Finance-They-are-creating-a-Futuristic-Base-L",
            "currencies": [
                {
                    "code": "UFT",
                    "title": "UniLend Finance",
                    "slug": "unlend-finance",
                    "url": "https:\/\/cryptopanic.com\/news\/unlend-finance\/"
                }
            ],
            "id": 18719353,
            "url": "https:\/\/cryptopanic.com\/news\/18719353\/RT-MagicSquareio-Unlock-the-power-of-decentralized-lending-and-borrowing-with-UniLend_Finance-They-are-creating-a-Futuristic-Base-L",
            "created_at": "2023-07-05T00:09:25Z",
            "votes": {
                "negative": 0,
                "positive": 0,
                "important": 0,
                "liked": 0,
                "disliked": 0,
                "lol": 0,
                "toxic": 0,
                "saved": 0,
                "comments": 0
            }
        },
        {
            "kind": "news",
            "domain": "@UniLend_Finance",
            "source": {
                "title": "UniLend Finance Twitter",
                "region": "en",
                "domain": "twitter.com",
                "path": "@unilend_finance"
            },
            "title": "1\/Meet our new talented 3D\/2D Graphic Designer, Tanya Singh!\u200d\n\nWith extensive experience in graphic designing, T\u2026",
            "published_at": "2023-07-04T17:06:18Z",
            "slug": "1Meet-our-new-talented-3D2D-Graphic-Designer-Tanya-Singh-With-extensive-experience-in-graphic-designing-T",
            "currencies": [
                {
                    "code": "UFT",
                    "title": "UniLend Finance",
                    "slug": "unlend-finance",
                    "url": "https:\/\/cryptopanic.com\/news\/unlend-finance\/"
                }
            ],
            "id": 18719354,
            "url": "https:\/\/cryptopanic.com\/news\/18719354\/1Meet-our-new-talented-3D2D-Graphic-Designer-Tanya-Singh-With-extensive-experience-in-graphic-designing-T",
            "created_at": "2023-07-04T17:06:18Z",
            "votes": {
                "negative": 0,
                "positive": 0,
                "important": 0,
                "liked": 0,
                "disliked": 0,
                "lol": 0,
                "toxic": 0,
                "saved": 0,
                "comments": 0
            }
        },
        {
            "kind": "news",
            "domain": "@UniLend_Finance",
            "source": {
                "title": "UniLend Finance Twitter",
                "region": "en",
                "domain": "twitter.com",
                "path": "@unilend_finance"
            },
            "title": "1\/Join us for #TwitterSpaces with CWallet &amp; Win $100 in #USDT\n\nAwan, Business Developer\u2026",
            "published_at": "2023-07-03T12:30:27Z",
            "slug": "1Join-us-for-TwitterSpaces-with-CWallet-amp-Win-100-in-USDT-Awan-Business-Developer",
            "currencies": [
                {
                    "code": "UFT",
                    "title": "UniLend Finance",
                    "slug": "unlend-finance",
                    "url": "https:\/\/cryptopanic.com\/news\/unlend-finance\/"
                }
            ],
            "id": 18712303,
            "url": "https:\/\/cryptopanic.com\/news\/18712303\/1Join-us-for-TwitterSpaces-with-CWallet-amp-Win-100-in-USDT-Awan-Business-Developer",
            "created_at": "2023-07-03T12:30:27Z",
            "votes": {
                "negative": 0,
                "positive": 0,
                "important": 0,
                "liked": 0,
                "disliked": 0,
                "lol": 0,
                "toxic": 0,
                "saved": 0,
                "comments": 0
            }
        },
        {
            "kind": "news",
            "domain": "@UniLend_Finance",
            "source": {
                "title": "UniLend Finance Twitter",
                "region": "en",
                "domain": "twitter.com",
                "path": "@unilend_finance"
            },
            "title": "RT @Giveaway_HQ: \ud83e\udd73 We are excited to announce the AMA event with @cctip_com and @UniLend_Finance on \u23f0July 5th 12 pm UTC\n\nSet a reminder her\u2026",
            "published_at": "2023-07-03T12:26:27Z",
            "slug": "RT-Giveaway_HQ-We-are-excited-to-announce-the-AMA-event-with-cctip_com-and-UniLend_Finance-on-July-5th-12-pm-UTC-Set-a-reminder-her",
            "currencies": [
                {
                    "code": "UFT",
                    "title": "UniLend Finance",
                    "slug": "unlend-finance",
                    "url": "https:\/\/cryptopanic.com\/news\/unlend-finance\/"
                }
            ],
            "id": 18712304,
            "url": "https:\/\/cryptopanic.com\/news\/18712304\/RT-Giveaway_HQ-We-are-excited-to-announce-the-AMA-event-with-cctip_com-and-UniLend_Finance-on-July-5th-12-pm-UTC-Set-a-reminder-her",
            "created_at": "2023-07-03T12:26:27Z",
            "votes": {
                "negative": 0,
                "positive": 0,
                "important": 0,
                "liked": 0,
                "disliked": 0,
                "lol": 0,
                "toxic": 0,
                "saved": 0,
                "comments": 0
            }
        },
        {
            "kind": "news",
            "domain": "@UniLend_Finance",
            "source": {
                "title": "UniLend Finance Twitter",
                "region": "en",
                "domain": "twitter.com",
                "path": "@unilend_finance"
            },
            "title": "RT @cctip_com: Upcoming AMA with @Giveaway_HQ and @UniLend_Finance \n\nWe are delighted to partner with our friends and host this delighted\u2026",
            "published_at": "2023-07-03T12:26:22Z",
            "slug": "RT-cctip_com-Upcoming-AMA-with-Giveaway_HQ-and-UniLend_Finance-We-are-delighted-to-partner-with-our-friends-and-host-this-delighted",
            "currencies": [
                {
                    "code": "UFT",
                    "title": "UniLend Finance",
                    "slug": "unlend-finance",
                    "url": "https:\/\/cryptopanic.com\/news\/unlend-finance\/"
                }
            ],
            "id": 18712305,
            "url": "https:\/\/cryptopanic.com\/news\/18712305\/RT-cctip_com-Upcoming-AMA-with-Giveaway_HQ-and-UniLend_Finance-We-are-delighted-to-partner-with-our-friends-and-host-this-delighted",
            "created_at": "2023-07-03T12:26:22Z",
            "votes": {
                "negative": 0,
                "positive": 0,
                "important": 0,
                "liked": 0,
                "disliked": 0,
                "lol": 0,
                "toxic": 0,
                "saved": 0,
                "comments": 0
            }
        },
        {
            "kind": "news",
            "domain": "@UniLend_Finance",
            "source": {
                "title": "UniLend Finance Twitter",
                "region": "en",
                "domain": "twitter.com",
                "path": "@unilend_finance"
            },
            "title": "1\/Awarding RV Chauhan (@RvCh02568990) with Pride of UniLend for June 2023!\n\nWe admire your dedication and persist\u2026",
            "published_at": "2023-07-01T14:57:20Z",
            "slug": "1Awarding-RV-Chauhan-RvCh02568990-with-Pride-of-UniLend-for-June-2023-We-admire-your-dedication-and-persist",
            "currencies": [
                {
                    "code": "UFT",
                    "title": "UniLend Finance",
                    "slug": "unlend-finance",
                    "url": "https:\/\/cryptopanic.com\/news\/unlend-finance\/"
                }
            ],
            "id": 18700398,
            "url": "https:\/\/cryptopanic.com\/news\/18700398\/1Awarding-RV-Chauhan-RvCh02568990-with-Pride-of-UniLend-for-June-2023-We-admire-your-dedication-and-persist",
            "created_at": "2023-07-01T14:57:20Z",
            "votes": {
                "negative": 0,
                "positive": 0,
                "important": 0,
                "liked": 0,
                "disliked": 0,
                "lol": 0,
                "toxic": 0,
                "saved": 0,
                "comments": 0
            }
        },
        {
            "kind": "news",
            "domain": "@UniLend_Finance",
            "source": {
                "title": "UniLend Finance Twitter",
                "region": "en",
                "domain": "twitter.com",
                "path": "@unilend_finance"
            },
            "title": "Welcoming @DotbitHQ to our ecosystem with 120k users\n\nThanks to #DotBit team for gifting us \"\"\u2026",
            "published_at": "2023-06-30T15:02:09Z",
            "slug": "Welcoming-DotbitHQ-to-our-ecosystem-with-120k-users-Thanks-to-DotBit-team-for-gifting-us",
            "currencies": [
                {
                    "code": "UFT",
                    "title": "UniLend Finance",
                    "slug": "unlend-finance",
                    "url": "https:\/\/cryptopanic.com\/news\/unlend-finance\/"
                }
            ],
            "id": 18696241,
            "url": "https:\/\/cryptopanic.com\/news\/18696241\/Welcoming-DotbitHQ-to-our-ecosystem-with-120k-users-Thanks-to-DotBit-team-for-gifting-us",
            "created_at": "2023-06-30T15:02:09Z",
            "votes": {
                "negative": 0,
                "positive": 0,
                "important": 0,
                "liked": 0,
                "disliked": 0,
                "lol": 0,
                "toxic": 0,
                "saved": 0,
                "comments": 0
            }
        },
        {
            "kind": "news",
            "domain": "@UniLend_Finance",
            "source": {
                "title": "UniLend Finance Twitter",
                "region": "en",
                "domain": "twitter.com",
                "path": "@unilend_finance"
            },
            "title": "RT @dotbitHQ: Announcing the partnership between @dotbitHQ and @UniLend_Finance! \n\nTogether, we are committed to unlocking a myriad of pos\u2026",
            "published_at": "2023-06-30T15:02:03Z",
            "slug": "RT-dotbitHQ-Announcing-the-partnership-between-dotbitHQ-and-UniLend_Finance-Together-we-are-committed-to-unlocking-a-myriad-of-pos",
            "currencies": [
                {
                    "code": "UFT",
                    "title": "UniLend Finance",
                    "slug": "unlend-finance",
                    "url": "https:\/\/cryptopanic.com\/news\/unlend-finance\/"
                }
            ],
            "id": 18696242,
            "url": "https:\/\/cryptopanic.com\/news\/18696242\/RT-dotbitHQ-Announcing-the-partnership-between-dotbitHQ-and-UniLend_Finance-Together-we-are-committed-to-unlocking-a-myriad-of-pos",
            "created_at": "2023-06-30T15:02:03Z",
            "votes": {
                "negative": 0,
                "positive": 0,
                "important": 0,
                "liked": 0,
                "disliked": 0,
                "lol": 0,
                "toxic": 0,
                "saved": 0,
                "comments": 0
            }
        },
        {
            "kind": "news",
            "domain": "@UniLend_Finance",
            "source": {
                "title": "UniLend Finance Twitter",
                "region": "en",
                "domain": "twitter.com",
                "path": "@unilend_finance"
            },
            "title": "Always ser\ud83e\udee1\nKeep Building &amp; Thriving \ufe0f",
            "published_at": "2023-06-29T18:20:02Z",
            "slug": "Always-ser-Keep-Building-amp-Thriving",
            "currencies": [
                {
                    "code": "UFT",
                    "title": "UniLend Finance",
                    "slug": "unlend-finance",
                    "url": "https:\/\/cryptopanic.com\/news\/unlend-finance\/"
                }
            ],
            "id": 18688966,
            "url": "https:\/\/cryptopanic.com\/news\/18688966\/Always-ser-Keep-Building-amp-Thriving",
            "created_at": "2023-06-29T18:20:02Z",
            "votes": {
                "negative": 0,
                "positive": 0,
                "important": 0,
                "liked": 0,
                "disliked": 0,
                "lol": 0,
                "toxic": 0,
                "saved": 0,
                "comments": 0
            }
        }
    ]
}
