{
    "count": 200,
    "next": "https:\/\/cryptopanic.com\/api\/v1\/posts\/?auth_token=01c356e89ffc1b8eba2127c81fc8c66ee0eace75&kind=news&currencies=NULS&page=2",
    "previous": null,
    "results": [
        {
            "kind": "news",
            "domain": "@Nuls",
            "source": {
                "title": "NULS Twitter",
                "region": "en",
                "domain": "twitter.com",
                "path": "@nuls"
            },
            "title": "NULS mainnet v2.16.0 will meet us on July 18th, a significant upgrade that brings some underlying protocol changes\u2026",
            "published_at": "2023-07-11T13:46:08Z",
            "slug": "NULS-mainnet-v2160-will-meet-us-on-July-18th-a-significant-upgrade-that-brings-some-underlying-protocol-changes",
            "currencies": [
                {
                    "code": "NULS",
                    "title": "Nuls",
                    "slug": "nuls",
                    "url": "https:\/\/cryptopanic.com\/news\/nuls\/"
                }
            ],
            "id": 18765925,
            "url": "https:\/\/cryptopanic.com\/news\/18765925\/NULS-mainnet-v2160-will-meet-us-on-July-18th-a-significant-upgrade-that-brings-some-underlying-protocol-changes",
            "created_at": "2023-07-11T13:46:08Z",
            "votes": {
                "negative": 0,
                "positive": 0,
                "important": 0,
                "liked": 0,
                "disliked": 0,
                "lol": 0,
                "toxic": 0,
                "saved": 0,
                "comments": 0
            }
        },
        {
            "kind": "news",
            "domain": "@Nuls",
            "source": {
                "title": "NULS Twitter",
                "region": "en",
                "domain": "twitter.com",
                "path": "@nuls"
            },
            "title": "RT @BULSDOG:  Hey #BULS gang! \n\nHow are you loving those weekly #NULS drops? Like finding change in your couch, but WAY better! Let us k\u2026",
            "published_at": "2023-07-11T01:23:12Z",
            "slug": "RT-BULSDOG-Hey-BULS-gang-How-are-you-loving-those-weekly-NULS-drops-Like-finding-change-in-your-couch-but-WAY-better-Let-us-k",
            "currencies": [
                {
                    "code": "NULS",
                    "title": "Nuls",
                    "slug": "nuls",
                    "url": "https:\/\/cryptopanic.com\/news\/nuls\/"
                }
            ],
            "id": 18757796,
            "url": "https:\/\/cryptopanic.com\/news\/18757796\/RT-BULSDOG-Hey-BULS-gang-How-are-you-loving-those-weekly-NULS-drops-Like-finding-change-in-your-couch-but-WAY-better-Let-us-k",
            "created_at": "2023-07-11T01:23:12Z",
            "votes": {
                "negative": 0,
                "positive": 0,
                "important": 0,
                "liked": 0,
                "disliked": 0,
                "lol": 0,
                "toxic": 0,
                "saved": 0,
                "comments": 0
            }
        },
        {
            "kind": "news",
            "domain": "@Nuls",
            "source": {
                "title": "NULS Twitter",
                "region": "en",
                "domain": "twitter.com",
                "path": "@nuls"
            },
            "title": "RT @nulswap: Exciting news, #Nulswap community!  \n\nWe've just used half of our generated fees to buy back 58,123 $NSWAP! This #buyback wil\u2026",
            "published_at": "2023-07-11T00:39:24Z",
            "slug": "RT-nulswap-Exciting-news-Nulswap-community-Weve-just-used-half-of-our-generated-fees-to-buy-back-58123-NSWAP-This-buyback-wil",
            "currencies": [
                {
                    "code": "NULS",
                    "title": "Nuls",
                    "slug": "nuls",
                    "url": "https:\/\/cryptopanic.com\/news\/nuls\/"
                }
            ],
            "id": 18757797,
            "url": "https:\/\/cryptopanic.com\/news\/18757797\/RT-nulswap-Exciting-news-Nulswap-community-Weve-just-used-half-of-our-generated-fees-to-buy-back-58123-NSWAP-This-buyback-wil",
            "created_at": "2023-07-11T00:39:24Z",
            "votes": {
                "negative": 0,
                "positive": 0,
                "important": 0,
                "liked": 0,
                "disliked": 0,
                "lol": 0,
                "toxic": 0,
                "saved": 0,
                "comments": 0
            }
        },
        {
            "kind": "news",
            "domain": "@Nuls",
            "source": {
                "title": "NULS Twitter",
                "region": "en",
                "domain": "twitter.com",
                "path": "@nuls"
            },
            "title": "RT @naboxwallet: SwapBox is now seamlessly integrated with NerveBridge, enabling all #NerveBridge users to effortlessly perform cross-chain\u2026",
            "published_at": "2023-07-09T13:58:02Z",
            "slug": "RT-naboxwallet-SwapBox-is-now-seamlessly-integrated-with-NerveBridge-enabling-all-NerveBridge-users-to-effortlessly-perform-cross-chain",
            "currencies": [
                {
                    "code": "NULS",
                    "title": "Nuls",
                    "slug": "nuls",
                    "url": "https:\/\/cryptopanic.com\/news\/nuls\/"
                }
            ],
            "id": 18750669,
            "url": "https:\/\/cryptopanic.com\/news\/18750669\/RT-naboxwallet-SwapBox-is-now-seamlessly-integrated-with-NerveBridge-enabling-all-NerveBridge-users-to-effortlessly-perform-cross-chain",
            "created_at": "2023-07-09T13:58:02Z",
            "votes": {
                "negative": 0,
                "positive": 0,
                "important": 0,
                "liked": 0,
                "disliked": 0,
                "lol": 0,
                "toxic": 0,
                "saved": 0,
                "comments": 0
            }
        },
        {
            "kind": "news",
            "domain": "@Nuls",
            "source": {
                "title": "NULS Twitter",
                "region": "en",
                "domain": "twitter.com",
                "path": "@nuls"
            },
            "title": "RT @nulswap: Boom! #Nulswap is on fire! \n\n100k transactions with $NSWAP and 12k with synthetic $aNSWAP in just 319 days on #NULS \n\nOh, di\u2026",
            "published_at": "2023-07-08T09:00:25Z",
            "slug": "RT-nulswap-Boom-Nulswap-is-on-fire-100k-transactions-with-NSWAP-and-12k-with-synthetic-aNSWAP-in-just-319-days-on-NULS-Oh-di",
            "currencies": [
                {
                    "code": "NULS",
                    "title": "Nuls",
                    "slug": "nuls",
                    "url": "https:\/\/cryptopanic.com\/news\/nuls\/"
                }
            ],
            "id": 18746352,
            "url": "https:\/\/cryptopanic.com\/news\/18746352\/RT-nulswap-Boom-Nulswap-is-on-fire-100k-transactions-with-NSWAP-and-12k-with-synthetic-aNSWAP-in-just-319-days-on-NULS-Oh-di",
            "created_at": "2023-07-08T09:00:25Z",
            "votes": {
                "negative": 0,
                "positive": 0,
                "important": 0,
                "liked": 0,
                "disliked": 0,
                "lol": 0,
                "toxic": 0,
                "saved": 0,
                "comments": 0
            }
        },
        {
            "kind": "news",
            "domain": "@Nuls",
            "source": {
                "title": "NULS Twitter",
                "region": "en",
                "domain": "twitter.com",
                "path": "@nuls"
            },
            "title": "RT @nerve_network: We\u2018re excited to share an upcoming integration with EOS EVM network \n\nThe Nerve products : NerveBridge, NerveSwap, Nerv\u2026",
            "published_at": "2023-07-08T01:08:49Z",
            "slug": "RT-nerve_network-Were-excited-to-share-an-upcoming-integration-with-EOS-EVM-network-The-Nerve-products-NerveBridge-NerveSwap-Nerv",
            "currencies": [
                {
                    "code": "NULS",
                    "title": "Nuls",
                    "slug": "nuls",
                    "url": "https:\/\/cryptopanic.com\/news\/nuls\/"
                },
                {
                    "code": "EOS",
                    "title": "EOS",
                    "slug": "eos",
                    "url": "https:\/\/cryptopanic.com\/news\/eos\/"
                }
            ],
            "id": 18741520,
            "url": "https:\/\/cryptopanic.com\/news\/18741520\/RT-nerve_network-Were-excited-to-share-an-upcoming-integration-with-EOS-EVM-network-The-Nerve-products-NerveBridge-NerveSwap-Nerv",
            "created_at": "2023-07-08T01:08:49Z",
            "votes": {
                "negative": 0,
                "positive": 0,
                "important": 0,
                "liked": 0,
                "disliked": 0,
                "lol": 0,
                "toxic": 0,
                "saved": 0,
                "comments": 0
            }
        },
        {
            "kind": "news",
            "domain": "@Nuls",
            "source": {
                "title": "NULS Twitter",
                "region": "en",
                "domain": "twitter.com",
                "path": "@nuls"
            },
            "title": "Explore NULS on @Ledger \n\nYou can now install the \"NULS App\" and manage your assets on NULS blockchain with your L\u2026",
            "published_at": "2023-07-07T10:42:16Z",
            "slug": "Explore-NULS-on-Ledger-You-can-now-install-the-NULS-App-and-manage-your-assets-on-NULS-blockchain-with-your-L",
            "currencies": [
                {
                    "code": "NULS",
                    "title": "Nuls",
                    "slug": "nuls",
                    "url": "https:\/\/cryptopanic.com\/news\/nuls\/"
                }
            ],
            "id": 18741521,
            "url": "https:\/\/cryptopanic.com\/news\/18741521\/Explore-NULS-on-Ledger-You-can-now-install-the-NULS-App-and-manage-your-assets-on-NULS-blockchain-with-your-L",
            "created_at": "2023-07-07T10:42:16Z",
            "votes": {
                "negative": 0,
                "positive": 0,
                "important": 0,
                "liked": 0,
                "disliked": 0,
                "lol": 0,
                "toxic": 0,
                "saved": 0,
                "comments": 0
            }
        },
        {
            "kind": "news",
            "domain": "@Nuls",
            "source": {
                "title": "NULS Twitter",
                "region": "en",
                "domain": "twitter.com",
                "path": "@nuls"
            },
            "title": "RT @BrasilCriptos:  - NABOX WALLET ON MOBILE, CREATE, BACKUP AND RECOVER WALLET \/ FULL GUIDE.\n\nwatch the video below on YouTube",
            "published_at": "2023-07-06T22:58:03Z",
            "slug": "RT-BrasilCriptos-NABOX-WALLET-ON-MOBILE-CREATE-BACKUP-AND-RECOVER-WALLET-FULL-GUIDE-watch-the-video-below-on-YouTube",
            "currencies": [
                {
                    "code": "NULS",
                    "title": "Nuls",
                    "slug": "nuls",
                    "url": "https:\/\/cryptopanic.com\/news\/nuls\/"
                }
            ],
            "id": 18734043,
            "url": "https:\/\/cryptopanic.com\/news\/18734043\/RT-BrasilCriptos-NABOX-WALLET-ON-MOBILE-CREATE-BACKUP-AND-RECOVER-WALLET-FULL-GUIDE-watch-the-video-below-on-YouTube",
            "created_at": "2023-07-06T22:58:03Z",
            "votes": {
                "negative": 0,
                "positive": 0,
                "important": 0,
                "liked": 0,
                "disliked": 0,
                "lol": 0,
                "toxic": 0,
                "saved": 0,
                "comments": 0
            }
        },
        {
            "kind": "news",
            "domain": "@Nuls",
            "source": {
                "title": "NULS Twitter",
                "region": "en",
                "domain": "twitter.com",
                "path": "@nuls"
            },
            "title": "RT @nerc20cash: THE #NERC WHITELIST IS NOW OPEN\n\nHow to applyKeep reading \u2935\ufe0f\n\n1\/ Retweet, \ufe0f, tag 3\n2\/ Follow @nerc20cash \n3\/ Join http\u2026",
            "published_at": "2023-07-06T00:30:49Z",
            "slug": "RT-nerc20cash-THE-NERC-WHITELIST-IS-NOW-OPEN-How-to-applyKeep-reading-1-Retweet-tag-3-2-Follow-nerc20cash-3-Join-http",
            "currencies": [
                {
                    "code": "NULS",
                    "title": "Nuls",
                    "slug": "nuls",
                    "url": "https:\/\/cryptopanic.com\/news\/nuls\/"
                }
            ],
            "id": 18725583,
            "url": "https:\/\/cryptopanic.com\/news\/18725583\/RT-nerc20cash-THE-NERC-WHITELIST-IS-NOW-OPEN-How-to-applyKeep-reading-1-Retweet-tag-3-2-Follow-nerc20cash-3-Join-http",
            "created_at": "2023-07-06T00:30:49Z",
            "votes": {
                "negative": 0,
                "positive": 0,
                "important": 0,
                "liked": 0,
                "disliked": 0,
                "lol": 0,
                "toxic": 0,
                "saved": 0,
                "comments": 0
            }
        },
        {
            "kind": "news",
            "domain": "@Nuls",
            "source": {
                "title": "NULS Twitter",
                "region": "en",
                "domain": "twitter.com",
                "path": "@nuls"
            },
            "title": "RT @nulswap:  Over 1M #NULS staked on #Nulswap! \n\nOur amazing community's trust is paving the way to the #LSD - Liquidity Staking Derivati\u2026",
            "published_at": "2023-07-06T00:15:43Z",
            "slug": "RT-nulswap-Over-1M-NULS-staked-on-Nulswap-Our-amazing-communitys-trust-is-paving-the-way-to-the-LSD-Liquidity-Staking-Derivati",
            "currencies": [
                {
                    "code": "NULS",
                    "title": "Nuls",
                    "slug": "nuls",
                    "url": "https:\/\/cryptopanic.com\/news\/nuls\/"
                }
            ],
            "id": 18725584,
            "url": "https:\/\/cryptopanic.com\/news\/18725584\/RT-nulswap-Over-1M-NULS-staked-on-Nulswap-Our-amazing-communitys-trust-is-paving-the-way-to-the-LSD-Liquidity-Staking-Derivati",
            "created_at": "2023-07-06T00:15:43Z",
            "votes": {
                "negative": 0,
                "positive": 0,
                "important": 0,
                "liked": 0,
                "disliked": 0,
                "lol": 0,
                "toxic": 0,
                "saved": 0,
                "comments": 0
            }
        },
        {
            "kind": "news",
            "domain": "@Nuls",
            "source": {
                "title": "NULS Twitter",
                "region": "en",
                "domain": "twitter.com",
                "path": "@nuls"
            },
            "title": "Our partner @nerc20cash has started a whitelist campaign, apply for a ticket to get involved \u2935\ufe0f\u2026",
            "published_at": "2023-07-04T17:32:51Z",
            "slug": "Our-partner-nerc20cash-has-started-a-whitelist-campaign-apply-for-a-ticket-to-get-involved",
            "currencies": [
                {
                    "code": "NULS",
                    "title": "Nuls",
                    "slug": "nuls",
                    "url": "https:\/\/cryptopanic.com\/news\/nuls\/"
                }
            ],
            "id": 18717681,
            "url": "https:\/\/cryptopanic.com\/news\/18717681\/Our-partner-nerc20cash-has-started-a-whitelist-campaign-apply-for-a-ticket-to-get-involved",
            "created_at": "2023-07-04T17:32:51Z",
            "votes": {
                "negative": 0,
                "positive": 0,
                "important": 0,
                "liked": 0,
                "disliked": 0,
                "lol": 0,
                "toxic": 0,
                "saved": 0,
                "comments": 0
            }
        },
        {
            "kind": "news",
            "domain": "@Nuls",
            "source": {
                "title": "NULS Twitter",
                "region": "en",
                "domain": "twitter.com",
                "path": "@nuls"
            },
            "title": "To support our ecosystem partners @wormhole_3, @nerc20cash and @Nulsmoon let's join in the #TweetToEarn activity on\u2026",
            "published_at": "2023-07-04T06:58:44Z",
            "slug": "To-support-our-ecosystem-partners-wormhole_3-nerc20cash-and-Nulsmoon-lets-join-in-the-TweetToEarn-activity-on",
            "currencies": [
                {
                    "code": "NULS",
                    "title": "Nuls",
                    "slug": "nuls",
                    "url": "https:\/\/cryptopanic.com\/news\/nuls\/"
                }
            ],
            "id": 18710574,
            "url": "https:\/\/cryptopanic.com\/news\/18710574\/To-support-our-ecosystem-partners-wormhole_3-nerc20cash-and-Nulsmoon-lets-join-in-the-TweetToEarn-activity-on",
            "created_at": "2023-07-04T06:58:44Z",
            "votes": {
                "negative": 0,
                "positive": 0,
                "important": 0,
                "liked": 0,
                "disliked": 0,
                "lol": 0,
                "toxic": 0,
                "saved": 0,
                "comments": 0
            }
        },
        {
            "kind": "news",
            "domain": "@Nuls",
            "source": {
                "title": "NULS Twitter",
                "region": "en",
                "domain": "twitter.com",
                "path": "@nuls"
            },
            "title": "NULS Community Briefing \/ 2nd Half of Jun in 2023\n\nNULS multi-signature tool optimized\n@nerc20cash v2 launched on\u2026",
            "published_at": "2023-07-03T15:34:24Z",
            "slug": "NULS-Community-Briefing-2nd-Half-of-Jun-in-2023-NULS-multi-signature-tool-optimized-nerc20cash-v2-launched-on",
            "currencies": [
                {
                    "code": "NULS",
                    "title": "Nuls",
                    "slug": "nuls",
                    "url": "https:\/\/cryptopanic.com\/news\/nuls\/"
                }
            ],
            "id": 18710575,
            "url": "https:\/\/cryptopanic.com\/news\/18710575\/NULS-Community-Briefing-2nd-Half-of-Jun-in-2023-NULS-multi-signature-tool-optimized-nerc20cash-v2-launched-on",
            "created_at": "2023-07-03T15:34:24Z",
            "votes": {
                "negative": 0,
                "positive": 0,
                "important": 0,
                "liked": 0,
                "disliked": 0,
                "lol": 0,
                "toxic": 0,
                "saved": 0,
                "comments": 0
            }
        },
        {
            "kind": "news",
            "domain": "@Nuls",
            "source": {
                "title": "NULS Twitter",
                "region": "en",
                "domain": "twitter.com",
                "path": "@nuls"
            },
            "title": "RT @nerc20cash: The $NERC token will be launched on platform through its liquidity mode, read the proposal below an\u2026",
            "published_at": "2023-07-02T17:37:50Z",
            "slug": "RT-nerc20cash-The-NERC-token-will-be-launched-on-platform-through-its-liquidity-mode-read-the-proposal-below-an",
            "currencies": [
                {
                    "code": "NULS",
                    "title": "Nuls",
                    "slug": "nuls",
                    "url": "https:\/\/cryptopanic.com\/news\/nuls\/"
                }
            ],
            "id": 18703764,
            "url": "https:\/\/cryptopanic.com\/news\/18703764\/RT-nerc20cash-The-NERC-token-will-be-launched-on-platform-through-its-liquidity-mode-read-the-proposal-below-an",
            "created_at": "2023-07-02T17:37:50Z",
            "votes": {
                "negative": 0,
                "positive": 0,
                "important": 0,
                "liked": 0,
                "disliked": 0,
                "lol": 0,
                "toxic": 0,
                "saved": 0,
                "comments": 0
            }
        },
        {
            "kind": "news",
            "domain": "@Nuls",
            "source": {
                "title": "NULS Twitter",
                "region": "en",
                "domain": "twitter.com",
                "path": "@nuls"
            },
            "title": "RT @nerc20cash: Launch your own #MemeCoins on using the \"Liquidity Mode\"\n\nSet a ratio of 30%~50% token added as l\u2026",
            "published_at": "2023-06-28T16:34:32Z",
            "slug": "RT-nerc20cash-Launch-your-own-MemeCoins-on-using-the-Liquidity-Mode-Set-a-ratio-of-3050-token-added-as-l",
            "currencies": [
                {
                    "code": "NULS",
                    "title": "Nuls",
                    "slug": "nuls",
                    "url": "https:\/\/cryptopanic.com\/news\/nuls\/"
                }
            ],
            "id": 18679188,
            "url": "https:\/\/cryptopanic.com\/news\/18679188\/RT-nerc20cash-Launch-your-own-MemeCoins-on-using-the-Liquidity-Mode-Set-a-ratio-of-3050-token-added-as-l",
            "created_at": "2023-06-28T16:34:32Z",
            "votes": {
                "negative": 0,
                "positive": 0,
                "important": 0,
                "liked": 0,
                "disliked": 0,
                "lol": 0,
                "toxic": 0,
                "saved": 0,
                "comments": 0
            }
        },
        {
            "kind": "news",
            "domain": "@Nuls",
            "source": {
                "title": "NULS Twitter",
                "region": "en",
                "domain": "twitter.com",
                "path": "@nuls"
            },
            "title": "RT @nerc20cash: 200 $NULS Giveaway to the community, enter now \u2935\ufe0f\n\n* Retweet, \ufe0f, tag 3\n* Follow @nerc20cash &amp; @Nuls \n* Join our Discord\n*\u2026",
            "published_at": "2023-06-28T05:58:58Z",
            "slug": "RT-nerc20cash-200-NULS-Giveaway-to-the-community-enter-now-Retweet-tag-3-Follow-nerc20cash-amp-Nuls-Join-our-Discord",
            "currencies": [
                {
                    "code": "NULS",
                    "title": "Nuls",
                    "slug": "nuls",
                    "url": "https:\/\/cryptopanic.com\/news\/nuls\/"
                }
            ],
            "id": 18670983,
            "url": "https:\/\/cryptopanic.com\/news\/18670983\/RT-nerc20cash-200-NULS-Giveaway-to-the-community-enter-now-Retweet-tag-3-Follow-nerc20cash-amp-Nuls-Join-our-Discord",
            "created_at": "2023-06-28T05:58:58Z",
            "votes": {
                "negative": 0,
                "positive": 0,
                "important": 0,
                "liked": 0,
                "disliked": 0,
                "lol": 0,
                "toxic": 0,
                "saved": 0,
                "comments": 0
            }
        },
        {
            "kind": "news",
            "domain": "@Nuls",
            "source": {
                "title": "NULS Twitter",
                "region": "en",
                "domain": "twitter.com",
                "path": "@nuls"
            },
            "title": "RT @nerc20cash: The #Tokenomics of $NERC will be determined through community consensus. @nerc20cash is committed to supporting the communi\u2026",
            "published_at": "2023-06-27T10:50:15Z",
            "slug": "RT-nerc20cash-The-Tokenomics-of-NERC-will-be-determined-through-community-consensus-nerc20cash-is-committed-to-supporting-the-communi",
            "currencies": [
                {
                    "code": "NULS",
                    "title": "Nuls",
                    "slug": "nuls",
                    "url": "https:\/\/cryptopanic.com\/news\/nuls\/"
                }
            ],
            "id": 18670984,
            "url": "https:\/\/cryptopanic.com\/news\/18670984\/RT-nerc20cash-The-Tokenomics-of-NERC-will-be-determined-through-community-consensus-nerc20cash-is-committed-to-supporting-the-communi",
            "created_at": "2023-06-27T10:50:15Z",
            "votes": {
                "negative": 0,
                "positive": 0,
                "important": 0,
                "liked": 0,
                "disliked": 0,
                "lol": 0,
                "toxic": 0,
                "saved": 0,
                "comments": 0
            }
        },
        {
            "kind": "news",
            "domain": "@Nuls",
            "source": {
                "title": "NULS Twitter",
                "region": "en",
                "domain": "twitter.com",
                "path": "@nuls"
            },
            "title": "RT @naboxwallet:  Limited Time Offer! SwapBox presents a Zero-Fee Event for USDT Cross-Chain Swaps! \n\n\u23f0Jun 27th - July 17th\n\nDon't miss th\u2026",
            "published_at": "2023-06-27T08:22:57Z",
            "slug": "RT-naboxwallet-Limited-Time-Offer-SwapBox-presents-a-Zero-Fee-Event-for-USDT-Cross-Chain-Swaps-Jun-27th-July-17th-Dont-miss-th",
            "currencies": [
                {
                    "code": "NULS",
                    "title": "Nuls",
                    "slug": "nuls",
                    "url": "https:\/\/cryptopanic.com\/news\/nuls\/"
                }
            ],
            "id": 18662717,
            "url": "https:\/\/cryptopanic.com\/news\/18662717\/RT-naboxwallet-Limited-Time-Offer-SwapBox-presents-a-Zero-Fee-Event-for-USDT-Cross-Chain-Swaps-Jun-27th-July-17th-Dont-miss-th",
            "created_at": "2023-06-27T08:22:57Z",
            "votes": {
                "negative": 0,
                "positive": 0,
                "important": 0,
                "liked": 0,
                "disliked": 0,
                "lol": 0,
                "toxic": 0,
                "saved": 0,
                "comments": 0
            }
        },
        {
            "kind": "news",
            "domain": "@Nuls",
            "source": {
                "title": "NULS Twitter",
                "region": "en",
                "domain": "twitter.com",
                "path": "@nuls"
            },
            "title": "We're pleased to share that @TO_PAYSme is now activated on \n\nPOCM supply - 50,000,000 $TO\u2026",
            "published_at": "2023-06-26T21:09:00Z",
            "slug": "Were-pleased-to-share-that-TO_PAYSme-is-now-activated-on-POCM-supply-50000000-TO",
            "currencies": [
                {
                    "code": "NULS",
                    "title": "Nuls",
                    "slug": "nuls",
                    "url": "https:\/\/cryptopanic.com\/news\/nuls\/"
                }
            ],
            "id": 18662718,
            "url": "https:\/\/cryptopanic.com\/news\/18662718\/Were-pleased-to-share-that-TO_PAYSme-is-now-activated-on-POCM-supply-50000000-TO",
            "created_at": "2023-06-26T21:09:00Z",
            "votes": {
                "negative": 0,
                "positive": 0,
                "important": 0,
                "liked": 0,
                "disliked": 0,
                "lol": 0,
                "toxic": 0,
                "saved": 0,
                "comments": 0
            }
        },
        {
            "kind": "news",
            "domain": "@Nuls",
            "source": {
                "title": "NULS Twitter",
                "region": "en",
                "domain": "twitter.com",
                "path": "@nuls"
            },
            "title": "ENULSID can function as an ENS domain, you can use your #ENULSID as a valid subdomain in the ENS ecosystem \u2026",
            "published_at": "2023-06-26T16:27:05Z",
            "slug": "ENULSID-can-function-as-an-ENS-domain-you-can-use-your-ENULSID-as-a-valid-subdomain-in-the-ENS-ecosystem",
            "currencies": [
                {
                    "code": "NULS",
                    "title": "Nuls",
                    "slug": "nuls",
                    "url": "https:\/\/cryptopanic.com\/news\/nuls\/"
                }
            ],
            "id": 18662719,
            "url": "https:\/\/cryptopanic.com\/news\/18662719\/ENULSID-can-function-as-an-ENS-domain-you-can-use-your-ENULSID-as-a-valid-subdomain-in-the-ENS-ecosystem",
            "created_at": "2023-06-26T16:27:05Z",
            "votes": {
                "negative": 0,
                "positive": 0,
                "important": 0,
                "liked": 0,
                "disliked": 0,
                "lol": 0,
                "toxic": 0,
                "saved": 0,
                "comments": 0
            }
        }
    ]
}
