{
    "count": 200,
    "next": "https:\/\/cryptopanic.com\/api\/v1\/posts\/?auth_token=01c356e89ffc1b8eba2127c81fc8c66ee0eace75&kind=news&currencies=NFT&page=2",
    "previous": null,
    "results": [
        {
            "kind": "news",
            "domain": "@apenftorg",
            "source": {
                "title": "APENFT Twitter",
                "region": "en",
                "domain": "twitter.com",
                "path": "@apenftorg"
            },
            "title": "Some updates on the #APENFT website:\n\n\ufe0fBatch open mystery boxes\n\ufe0fOn-chain synchronization optimization\n\ufe0fVisual\u2026",
            "published_at": "2023-07-11T11:06:44Z",
            "slug": "Some-updates-on-the-APENFT-website-Batch-open-mystery-boxes-On-chain-synchronization-optimization-Visual",
            "currencies": [
                {
                    "code": "NFT",
                    "title": "APENFT",
                    "slug": "apenft",
                    "url": "https:\/\/cryptopanic.com\/news\/apenft\/"
                }
            ],
            "id": 18762355,
            "url": "https:\/\/cryptopanic.com\/news\/18762355\/Some-updates-on-the-APENFT-website-Batch-open-mystery-boxes-On-chain-synchronization-optimization-Visual",
            "created_at": "2023-07-11T11:06:44Z",
            "votes": {
                "negative": 0,
                "positive": 0,
                "important": 0,
                "liked": 0,
                "disliked": 0,
                "lol": 0,
                "toxic": 0,
                "saved": 0,
                "comments": 0
            }
        },
        {
            "kind": "news",
            "domain": "@apenftorg",
            "source": {
                "title": "APENFT Twitter",
                "region": "en",
                "domain": "twitter.com",
                "path": "@apenftorg"
            },
            "title": "GM! Remember to mint your Sapce NFT!",
            "published_at": "2023-07-10T03:21:28Z",
            "slug": "GM-Remember-to-mint-your-Sapce-NFT",
            "currencies": [
                {
                    "code": "NFT",
                    "title": "APENFT",
                    "slug": "apenft",
                    "url": "https:\/\/cryptopanic.com\/news\/apenft\/"
                }
            ],
            "id": 18748628,
            "url": "https:\/\/cryptopanic.com\/news\/18748628\/GM-Remember-to-mint-your-Sapce-NFT",
            "created_at": "2023-07-10T03:21:28Z",
            "votes": {
                "negative": 0,
                "positive": 0,
                "important": 0,
                "liked": 0,
                "disliked": 0,
                "lol": 0,
                "toxic": 0,
                "saved": 0,
                "comments": 0
            }
        },
        {
            "kind": "news",
            "domain": "@apenftorg",
            "source": {
                "title": "APENFT Twitter",
                "region": "en",
                "domain": "twitter.com",
                "path": "@apenftorg"
            },
            "title": "\ud83e\udd73Be sure to mint your Space #NFT if you are among the winners! It only costs 2% of the estimated cost shown in the\u2026",
            "published_at": "2023-07-07T09:25:35Z",
            "slug": "Be-sure-to-mint-your-Space-NFT-if-you-are-among-the-winners-It-only-costs-2-of-the-estimated-cost-shown-in-the",
            "currencies": [
                {
                    "code": "NFT",
                    "title": "APENFT",
                    "slug": "apenft",
                    "url": "https:\/\/cryptopanic.com\/news\/apenft\/"
                }
            ],
            "id": 18738491,
            "url": "https:\/\/cryptopanic.com\/news\/18738491\/Be-sure-to-mint-your-Space-NFT-if-you-are-among-the-winners-It-only-costs-2-of-the-estimated-cost-shown-in-the",
            "created_at": "2023-07-07T09:25:35Z",
            "votes": {
                "negative": 0,
                "positive": 0,
                "important": 0,
                "liked": 0,
                "disliked": 0,
                "lol": 0,
                "toxic": 0,
                "saved": 0,
                "comments": 0
            }
        },
        {
            "kind": "news",
            "domain": "@apenftorg",
            "source": {
                "title": "APENFT Twitter",
                "region": "en",
                "domain": "twitter.com",
                "path": "@apenftorg"
            },
            "title": "Free Mint has started",
            "published_at": "2023-07-07T06:32:04Z",
            "slug": "Free-Mint-has-started",
            "currencies": [
                {
                    "code": "NFT",
                    "title": "APENFT",
                    "slug": "apenft",
                    "url": "https:\/\/cryptopanic.com\/news\/apenft\/"
                }
            ],
            "id": 18738492,
            "url": "https:\/\/cryptopanic.com\/news\/18738492\/Free-Mint-has-started",
            "created_at": "2023-07-07T06:32:04Z",
            "votes": {
                "negative": 0,
                "positive": 0,
                "important": 0,
                "liked": 0,
                "disliked": 0,
                "lol": 0,
                "toxic": 0,
                "saved": 0,
                "comments": 0
            }
        },
        {
            "kind": "news",
            "domain": "@apenftorg",
            "source": {
                "title": "APENFT Twitter",
                "region": "en",
                "domain": "twitter.com",
                "path": "@apenftorg"
            },
            "title": "RT @winnfthero: \ud83e\udd73The WIN NFT HERO x Huobi 1st Space mission event has ended and a total of 1,000 #Huobi Space NFTs are available for free m\u2026",
            "published_at": "2023-07-06T07:53:11Z",
            "slug": "RT-winnfthero-The-WIN-NFT-HERO-x-Huobi-1st-Space-mission-event-has-ended-and-a-total-of-1000-Huobi-Space-NFTs-are-available-for-free-m",
            "currencies": [
                {
                    "code": "NFT",
                    "title": "APENFT",
                    "slug": "apenft",
                    "url": "https:\/\/cryptopanic.com\/news\/apenft\/"
                },
                {
                    "code": "HT",
                    "title": "Huobi",
                    "slug": "huobi-token",
                    "url": "https:\/\/cryptopanic.com\/news\/huobi-token\/"
                }
            ],
            "id": 18730550,
            "url": "https:\/\/cryptopanic.com\/news\/18730550\/RT-winnfthero-The-WIN-NFT-HERO-x-Huobi-1st-Space-mission-event-has-ended-and-a-total-of-1000-Huobi-Space-NFTs-are-available-for-free-m",
            "created_at": "2023-07-06T07:53:11Z",
            "votes": {
                "negative": 0,
                "positive": 0,
                "important": 0,
                "liked": 0,
                "disliked": 0,
                "lol": 0,
                "toxic": 0,
                "saved": 0,
                "comments": 0
            }
        },
        {
            "kind": "news",
            "domain": "@apenftorg",
            "source": {
                "title": "APENFT Twitter",
                "region": "en",
                "domain": "twitter.com",
                "path": "@apenftorg"
            },
            "title": "\ud83e\udd11Congrats to the #winners!\n@Rudihrt48210441\n@tilotoma_2\n@ChinSuncha\n@Canopy_820\n@AleeyahSamrat\n@Xwinairdrop69\u2026",
            "published_at": "2023-07-06T07:11:29Z",
            "slug": "Congrats-to-the-winners-Rudihrt48210441-tilotoma_2-ChinSuncha-Canopy_820-AleeyahSamrat-Xwinairdrop69",
            "currencies": [
                {
                    "code": "NFT",
                    "title": "APENFT",
                    "slug": "apenft",
                    "url": "https:\/\/cryptopanic.com\/news\/apenft\/"
                }
            ],
            "id": 18730551,
            "url": "https:\/\/cryptopanic.com\/news\/18730551\/Congrats-to-the-winners-Rudihrt48210441-tilotoma_2-ChinSuncha-Canopy_820-AleeyahSamrat-Xwinairdrop69",
            "created_at": "2023-07-06T07:11:29Z",
            "votes": {
                "negative": 0,
                "positive": 0,
                "important": 0,
                "liked": 0,
                "disliked": 0,
                "lol": 0,
                "toxic": 0,
                "saved": 0,
                "comments": 0
            }
        },
        {
            "kind": "news",
            "domain": "@apenftorg",
            "source": {
                "title": "APENFT Twitter",
                "region": "en",
                "domain": "twitter.com",
                "path": "@apenftorg"
            },
            "title": "Users need to spend about 2 #TRX to mint 1 Space NFT successfully, the cost of opening the #mystery box is also abo\u2026",
            "published_at": "2023-07-06T03:52:36Z",
            "slug": "Users-need-to-spend-about-2-TRX-to-mint-1-Space-NFT-successfully-the-cost-of-opening-the-mystery-box-is-also-abo",
            "currencies": [
                {
                    "code": "NFT",
                    "title": "APENFT",
                    "slug": "apenft",
                    "url": "https:\/\/cryptopanic.com\/news\/apenft\/"
                }
            ],
            "id": 18722031,
            "url": "https:\/\/cryptopanic.com\/news\/18722031\/Users-need-to-spend-about-2-TRX-to-mint-1-Space-NFT-successfully-the-cost-of-opening-the-mystery-box-is-also-abo",
            "created_at": "2023-07-06T03:52:36Z",
            "votes": {
                "negative": 0,
                "positive": 0,
                "important": 0,
                "liked": 0,
                "disliked": 0,
                "lol": 0,
                "toxic": 0,
                "saved": 0,
                "comments": 0
            }
        },
        {
            "kind": "news",
            "domain": "@apenftorg",
            "source": {
                "title": "APENFT Twitter",
                "region": "en",
                "domain": "twitter.com",
                "path": "@apenftorg"
            },
            "title": "#Whitelist freemint has started, click to participate",
            "published_at": "2023-07-05T09:00:16Z",
            "slug": "Whitelist-freemint-has-started-click-to-participate",
            "currencies": [
                {
                    "code": "NFT",
                    "title": "APENFT",
                    "slug": "apenft",
                    "url": "https:\/\/cryptopanic.com\/news\/apenft\/"
                }
            ],
            "id": 18722032,
            "url": "https:\/\/cryptopanic.com\/news\/18722032\/Whitelist-freemint-has-started-click-to-participate",
            "created_at": "2023-07-05T09:00:16Z",
            "votes": {
                "negative": 0,
                "positive": 0,
                "important": 0,
                "liked": 0,
                "disliked": 0,
                "lol": 0,
                "toxic": 0,
                "saved": 0,
                "comments": 0
            }
        },
        {
            "kind": "news",
            "domain": "@apenftorg",
            "source": {
                "title": "APENFT Twitter",
                "region": "en",
                "domain": "twitter.com",
                "path": "@apenftorg"
            },
            "title": "[APENFT] Space NFT Whitelist Campaign Winner Announcement\n\n\ud83e\udd73A total of 1,000 #Huobi Space NFTs will be available fo\u2026",
            "published_at": "2023-07-05T07:42:37Z",
            "slug": "APENFT-Space-NFT-Whitelist-Campaign-Winner-Announcement-A-total-of-1000-Huobi-Space-NFTs-will-be-available-fo",
            "currencies": [
                {
                    "code": "NFT",
                    "title": "APENFT",
                    "slug": "apenft",
                    "url": "https:\/\/cryptopanic.com\/news\/apenft\/"
                }
            ],
            "id": 18722033,
            "url": "https:\/\/cryptopanic.com\/news\/18722033\/APENFT-Space-NFT-Whitelist-Campaign-Winner-Announcement-A-total-of-1000-Huobi-Space-NFTs-will-be-available-fo",
            "created_at": "2023-07-05T07:42:37Z",
            "votes": {
                "negative": 0,
                "positive": 0,
                "important": 0,
                "liked": 0,
                "disliked": 0,
                "lol": 0,
                "toxic": 0,
                "saved": 0,
                "comments": 0
            }
        },
        {
            "kind": "news",
            "domain": "@apenftorg",
            "source": {
                "title": "APENFT Twitter",
                "region": "en",
                "domain": "twitter.com",
                "path": "@apenftorg"
            },
            "title": "RT @Sin7y_Labs: We are proud to announce the successful completion of Ola's seed round funding, securing a total of $3 million, co-led by @\u2026",
            "published_at": "2023-07-04T15:58:20Z",
            "slug": "RT-Sin7y_Labs-We-are-proud-to-announce-the-successful-completion-of-Olas-seed-round-funding-securing-a-total-of-3-million-co-led-by",
            "currencies": [
                {
                    "code": "NFT",
                    "title": "APENFT",
                    "slug": "apenft",
                    "url": "https:\/\/cryptopanic.com\/news\/apenft\/"
                }
            ],
            "id": 18714478,
            "url": "https:\/\/cryptopanic.com\/news\/18714478\/RT-Sin7y_Labs-We-are-proud-to-announce-the-successful-completion-of-Olas-seed-round-funding-securing-a-total-of-3-million-co-led-by",
            "created_at": "2023-07-04T15:58:20Z",
            "votes": {
                "negative": 0,
                "positive": 0,
                "important": 0,
                "liked": 0,
                "disliked": 0,
                "lol": 0,
                "toxic": 0,
                "saved": 0,
                "comments": 0
            }
        },
        {
            "kind": "news",
            "domain": "@apenftorg",
            "source": {
                "title": "APENFT Twitter",
                "region": "en",
                "domain": "twitter.com",
                "path": "@apenftorg"
            },
            "title": "\ud83e\udd73 The campaign has ended, you can link your wallet on the #campaign page () to see how many\u2026",
            "published_at": "2023-07-04T07:16:53Z",
            "slug": "The-campaign-has-ended-you-can-link-your-wallet-on-the-campaign-page-to-see-how-many",
            "currencies": [
                {
                    "code": "NFT",
                    "title": "APENFT",
                    "slug": "apenft",
                    "url": "https:\/\/cryptopanic.com\/news\/apenft\/"
                }
            ],
            "id": 18714480,
            "url": "https:\/\/cryptopanic.com\/news\/18714480\/The-campaign-has-ended-you-can-link-your-wallet-on-the-campaign-page-to-see-how-many",
            "created_at": "2023-07-04T07:16:53Z",
            "votes": {
                "negative": 0,
                "positive": 0,
                "important": 0,
                "liked": 0,
                "disliked": 0,
                "lol": 0,
                "toxic": 0,
                "saved": 0,
                "comments": 0
            }
        },
        {
            "kind": "news",
            "domain": "@apenftorg",
            "source": {
                "title": "APENFT Twitter",
                "region": "en",
                "domain": "twitter.com",
                "path": "@apenftorg"
            },
            "title": "30 minutes left to start the #AMA!",
            "published_at": "2023-07-04T01:29:21Z",
            "slug": "30-minutes-left-to-start-the-AMA",
            "currencies": [
                {
                    "code": "NFT",
                    "title": "APENFT",
                    "slug": "apenft",
                    "url": "https:\/\/cryptopanic.com\/news\/apenft\/"
                }
            ],
            "id": 18707094,
            "url": "https:\/\/cryptopanic.com\/news\/18707094\/30-minutes-left-to-start-the-AMA",
            "created_at": "2023-07-04T01:29:21Z",
            "votes": {
                "negative": 0,
                "positive": 0,
                "important": 0,
                "liked": 0,
                "disliked": 0,
                "lol": 0,
                "toxic": 0,
                "saved": 0,
                "comments": 0
            }
        },
        {
            "kind": "news",
            "domain": "@apenftorg",
            "source": {
                "title": "APENFT Twitter",
                "region": "en",
                "domain": "twitter.com",
                "path": "@apenftorg"
            },
            "title": "#APENFT #AMA Series with @KaratDAO!\n\n\ufe0fRules and Reward:\n- Follow @apenftorg &amp; @KaratDAO &amp; RT &amp;\ufe0f&amp; @ 3 friends, 10\u2026",
            "published_at": "2023-07-03T06:49:40Z",
            "slug": "APENFT-AMA-Series-with-KaratDAO-Rules-and-Reward-Follow-apenftorg-amp-KaratDAO-amp-RT-ampamp-3-friends-10",
            "currencies": [
                {
                    "code": "NFT",
                    "title": "APENFT",
                    "slug": "apenft",
                    "url": "https:\/\/cryptopanic.com\/news\/apenft\/"
                }
            ],
            "id": 18707095,
            "url": "https:\/\/cryptopanic.com\/news\/18707095\/APENFT-AMA-Series-with-KaratDAO-Rules-and-Reward-Follow-apenftorg-amp-KaratDAO-amp-RT-ampamp-3-friends-10",
            "created_at": "2023-07-03T06:49:40Z",
            "votes": {
                "negative": 0,
                "positive": 0,
                "important": 0,
                "liked": 0,
                "disliked": 0,
                "lol": 0,
                "toxic": 0,
                "saved": 0,
                "comments": 0
            }
        },
        {
            "kind": "news",
            "domain": "@apenftorg",
            "source": {
                "title": "APENFT Twitter",
                "region": "en",
                "domain": "twitter.com",
                "path": "@apenftorg"
            },
            "title": "RT @trondao: Discover a brand new innovation set to launch on #TRON.\n\nSeamless Integration\nFostering Flexibility\nSecurity and Stability\u2026",
            "published_at": "2023-06-30T09:57:26Z",
            "slug": "RT-trondao-Discover-a-brand-new-innovation-set-to-launch-on-TRON-Seamless-Integration-Fostering-Flexibility-Security-and-Stability",
            "currencies": [
                {
                    "code": "NFT",
                    "title": "APENFT",
                    "slug": "apenft",
                    "url": "https:\/\/cryptopanic.com\/news\/apenft\/"
                }
            ],
            "id": 18691622,
            "url": "https:\/\/cryptopanic.com\/news\/18691622\/RT-trondao-Discover-a-brand-new-innovation-set-to-launch-on-TRON-Seamless-Integration-Fostering-Flexibility-Security-and-Stability",
            "created_at": "2023-06-30T09:57:26Z",
            "votes": {
                "negative": 0,
                "positive": 0,
                "important": 0,
                "liked": 0,
                "disliked": 0,
                "lol": 0,
                "toxic": 0,
                "saved": 0,
                "comments": 0
            }
        },
        {
            "kind": "news",
            "domain": "@apenftorg",
            "source": {
                "title": "APENFT Twitter",
                "region": "en",
                "domain": "twitter.com",
                "path": "@apenftorg"
            },
            "title": "\ud83e\udd11Get your free Sapce #NFTs here: \n\n\n\n\n\n#Gleam #Campaign #Airdrops\u2026",
            "published_at": "2023-06-29T10:20:49Z",
            "slug": "Get-your-free-Sapce-NFTs-here-Gleam-Campaign-Airdrops",
            "currencies": [
                {
                    "code": "NFT",
                    "title": "APENFT",
                    "slug": "apenft",
                    "url": "https:\/\/cryptopanic.com\/news\/apenft\/"
                }
            ],
            "id": 18683590,
            "url": "https:\/\/cryptopanic.com\/news\/18683590\/Get-your-free-Sapce-NFTs-here-Gleam-Campaign-Airdrops",
            "created_at": "2023-06-29T10:20:49Z",
            "votes": {
                "negative": 0,
                "positive": 0,
                "important": 0,
                "liked": 0,
                "disliked": 0,
                "lol": 0,
                "toxic": 0,
                "saved": 0,
                "comments": 0
            }
        },
        {
            "kind": "news",
            "domain": "@apenftorg",
            "source": {
                "title": "APENFT Twitter",
                "region": "en",
                "domain": "twitter.com",
                "path": "@apenftorg"
            },
            "title": "Join us to get up to 7 free Huobi Space NFTs\n\n1\u20e3 \n\n2\u20e3",
            "published_at": "2023-06-28T09:58:22Z",
            "slug": "Join-us-to-get-up-to-7-free-Huobi-Space-NFTs-1-2",
            "currencies": [
                {
                    "code": "NFT",
                    "title": "APENFT",
                    "slug": "apenft",
                    "url": "https:\/\/cryptopanic.com\/news\/apenft\/"
                },
                {
                    "code": "HT",
                    "title": "Huobi",
                    "slug": "huobi-token",
                    "url": "https:\/\/cryptopanic.com\/news\/huobi-token\/"
                }
            ],
            "id": 18675502,
            "url": "https:\/\/cryptopanic.com\/news\/18675502\/Join-us-to-get-up-to-7-free-Huobi-Space-NFTs-1-2",
            "created_at": "2023-06-28T09:58:22Z",
            "votes": {
                "negative": 0,
                "positive": 0,
                "important": 0,
                "liked": 0,
                "disliked": 0,
                "lol": 0,
                "toxic": 0,
                "saved": 0,
                "comments": 0
            }
        },
        {
            "kind": "news",
            "domain": "@apenftorg",
            "source": {
                "title": "APENFT Twitter",
                "region": "en",
                "domain": "twitter.com",
                "path": "@apenftorg"
            },
            "title": "RT @justinsuntron: Celebrating 5 years of #TRON\u2019s independence! A huge thank you to our incredible \u2019s continue to #BUIDLtheFu\u2026",
            "published_at": "2023-06-27T06:38:49Z",
            "slug": "RT-justinsuntron-Celebrating-5-years-of-TRONs-independence-A-huge-thank-you-to-our-incredible-s-continue-to-BUIDLtheFu",
            "currencies": [
                {
                    "code": "NFT",
                    "title": "APENFT",
                    "slug": "apenft",
                    "url": "https:\/\/cryptopanic.com\/news\/apenft\/"
                }
            ],
            "id": 18667280,
            "url": "https:\/\/cryptopanic.com\/news\/18667280\/RT-justinsuntron-Celebrating-5-years-of-TRONs-independence-A-huge-thank-you-to-our-incredible-s-continue-to-BUIDLtheFu",
            "created_at": "2023-06-27T06:38:49Z",
            "votes": {
                "negative": 0,
                "positive": 0,
                "important": 0,
                "liked": 0,
                "disliked": 0,
                "lol": 0,
                "toxic": 0,
                "saved": 0,
                "comments": 0
            }
        },
        {
            "kind": "news",
            "domain": "@apenftorg",
            "source": {
                "title": "APENFT Twitter",
                "region": "en",
                "domain": "twitter.com",
                "path": "@apenftorg"
            },
            "title": "Each address can mint up to 7 Space #NFTs! \n\nJoin us",
            "published_at": "2023-06-26T10:32:56Z",
            "slug": "Each-address-can-mint-up-to-7-Space-NFTs-Join-us",
            "currencies": [
                {
                    "code": "NFT",
                    "title": "APENFT",
                    "slug": "apenft",
                    "url": "https:\/\/cryptopanic.com\/news\/apenft\/"
                }
            ],
            "id": 18658985,
            "url": "https:\/\/cryptopanic.com\/news\/18658985\/Each-address-can-mint-up-to-7-Space-NFTs-Join-us",
            "created_at": "2023-06-26T10:32:56Z",
            "votes": {
                "negative": 0,
                "positive": 0,
                "important": 0,
                "liked": 0,
                "disliked": 0,
                "lol": 0,
                "toxic": 0,
                "saved": 0,
                "comments": 0
            }
        },
        {
            "kind": "news",
            "domain": "@apenftorg",
            "source": {
                "title": "APENFT Twitter",
                "region": "en",
                "domain": "twitter.com",
                "path": "@apenftorg"
            },
            "title": "\ud83e\udd73Congrats to the #winners!\n@RafsanRakibRaj \n@davidevans6969 \n@syedjilan25524 \n@Cooee88733511 \n@Serene0399\u2026",
            "published_at": "2023-06-26T08:06:49Z",
            "slug": "Congrats-to-the-winners-RafsanRakibRaj-davidevans6969-syedjilan25524-Cooee88733511-Serene0399",
            "currencies": [
                {
                    "code": "NFT",
                    "title": "APENFT",
                    "slug": "apenft",
                    "url": "https:\/\/cryptopanic.com\/news\/apenft\/"
                }
            ],
            "id": 18658986,
            "url": "https:\/\/cryptopanic.com\/news\/18658986\/Congrats-to-the-winners-RafsanRakibRaj-davidevans6969-syedjilan25524-Cooee88733511-Serene0399",
            "created_at": "2023-06-26T08:06:49Z",
            "votes": {
                "negative": 0,
                "positive": 0,
                "important": 0,
                "liked": 0,
                "disliked": 0,
                "lol": 0,
                "toxic": 0,
                "saved": 0,
                "comments": 0
            }
        },
        {
            "kind": "news",
            "domain": "@apenftorg",
            "source": {
                "title": "APENFT Twitter",
                "region": "en",
                "domain": "twitter.com",
                "path": "@apenftorg"
            },
            "title": "Bringing change in the NFT Marketplace! ",
            "published_at": "2023-06-25T10:24:44Z",
            "slug": "Bringing-change-in-the-NFT-Marketplace",
            "currencies": [
                {
                    "code": "NFT",
                    "title": "APENFT",
                    "slug": "apenft",
                    "url": "https:\/\/cryptopanic.com\/news\/apenft\/"
                }
            ],
            "id": 18653181,
            "url": "https:\/\/cryptopanic.com\/news\/18653181\/Bringing-change-in-the-NFT-Marketplace",
            "created_at": "2023-06-25T10:24:44Z",
            "votes": {
                "negative": 0,
                "positive": 0,
                "important": 0,
                "liked": 0,
                "disliked": 0,
                "lol": 0,
                "toxic": 0,
                "saved": 0,
                "comments": 0
            }
        }
    ]
}
