{
    "count": 200,
    "next": "https:\/\/cryptopanic.com\/api\/v1\/posts\/?auth_token=01c356e89ffc1b8eba2127c81fc8c66ee0eace75&kind=news&currencies=MTLX&page=2",
    "previous": null,
    "results": [
        {
            "kind": "news",
            "domain": "@Mettalex",
            "source": {
                "title": "Mettalex Twitter",
                "region": "en",
                "domain": "twitter.com",
                "path": "@mettalex"
            },
            "title": "#Oracles are essential for the #blockchain's communication with the outside world \ud83e\uddd0\n\nOn #DeFi's future and real-wor\u2026",
            "published_at": "2021-12-14T16:15:00Z",
            "slug": "Oracles-are-essential-for-the-blockchains-communication-with-the-outside-world-On-DeFis-future-and-real-wor",
            "currencies": [
                {
                    "code": "MTLX",
                    "title": "Mettalex",
                    "slug": "mettalex",
                    "url": "https:\/\/cryptopanic.com\/news\/mettalex\/"
                }
            ],
            "id": 13673660,
            "url": "https:\/\/cryptopanic.com\/news\/13673660\/Oracles-are-essential-for-the-blockchains-communication-with-the-outside-world-On-DeFis-future-and-real-wor",
            "created_at": "2021-12-14T16:15:00Z",
            "votes": {
                "negative": 0,
                "positive": 0,
                "important": 0,
                "liked": 0,
                "disliked": 0,
                "lol": 0,
                "toxic": 0,
                "saved": 0,
                "comments": 0
            }
        },
        {
            "kind": "news",
            "domain": "@Mettalex",
            "source": {
                "title": "Mettalex Twitter",
                "region": "en",
                "domain": "twitter.com",
                "path": "@mettalex"
            },
            "title": "RT @Fetch_ai: The first ever @fetch_ai governance proposal to increase the max active validator set is now in its voting stage! \n\nWe\u2019d lik\u2026",
            "published_at": "2021-12-14T13:36:46Z",
            "slug": "RT-Fetch_ai-The-first-ever-fetch_ai-governance-proposal-to-increase-the-max-active-validator-set-is-now-in-its-voting-stage-Wed-lik",
            "currencies": [
                {
                    "code": "MTLX",
                    "title": "Mettalex",
                    "slug": "mettalex",
                    "url": "https:\/\/cryptopanic.com\/news\/mettalex\/"
                }
            ],
            "id": 13673661,
            "url": "https:\/\/cryptopanic.com\/news\/13673661\/RT-Fetch_ai-The-first-ever-fetch_ai-governance-proposal-to-increase-the-max-active-validator-set-is-now-in-its-voting-stage-Wed-lik",
            "created_at": "2021-12-14T13:36:46Z",
            "votes": {
                "negative": 0,
                "positive": 0,
                "important": 0,
                "liked": 0,
                "disliked": 0,
                "lol": 0,
                "toxic": 0,
                "saved": 0,
                "comments": 0
            }
        },
        {
            "kind": "news",
            "domain": "@Mettalex",
            "source": {
                "title": "Mettalex Twitter",
                "region": "en",
                "domain": "twitter.com",
                "path": "@mettalex"
            },
            "title": "#Mettalex's $FET market got settled and Version 2 is now deployed \n\n@PancakeSwap #liquidity providers can deposit\u2026",
            "published_at": "2021-12-14T13:15:00Z",
            "slug": "Mettalexs-FET-market-got-settled-and-Version-2-is-now-deployed-PancakeSwap-liquidity-providers-can-deposit",
            "currencies": [
                {
                    "code": "MTLX",
                    "title": "Mettalex",
                    "slug": "mettalex",
                    "url": "https:\/\/cryptopanic.com\/news\/mettalex\/"
                }
            ],
            "id": 13673662,
            "url": "https:\/\/cryptopanic.com\/news\/13673662\/Mettalexs-FET-market-got-settled-and-Version-2-is-now-deployed-PancakeSwap-liquidity-providers-can-deposit",
            "created_at": "2021-12-14T13:15:00Z",
            "votes": {
                "negative": 0,
                "positive": 0,
                "important": 0,
                "liked": 0,
                "disliked": 0,
                "lol": 0,
                "toxic": 0,
                "saved": 0,
                "comments": 0
            }
        },
        {
            "kind": "news",
            "domain": "@Mettalex",
            "source": {
                "title": "Mettalex Twitter",
                "region": "en",
                "domain": "twitter.com",
                "path": "@mettalex"
            },
            "title": "Do not leave your portfolio without protection \n\n#Mettalex #DEX is the most straightforward and easy-to-use\u2026",
            "published_at": "2021-12-14T10:00:02Z",
            "slug": "Do-not-leave-your-portfolio-without-protection-Mettalex-DEX-is-the-most-straightforward-and-easy-to-use",
            "currencies": [
                {
                    "code": "MTLX",
                    "title": "Mettalex",
                    "slug": "mettalex",
                    "url": "https:\/\/cryptopanic.com\/news\/mettalex\/"
                }
            ],
            "id": 13673663,
            "url": "https:\/\/cryptopanic.com\/news\/13673663\/Do-not-leave-your-portfolio-without-protection-Mettalex-DEX-is-the-most-straightforward-and-easy-to-use",
            "created_at": "2021-12-14T10:00:02Z",
            "votes": {
                "negative": 0,
                "positive": 0,
                "important": 0,
                "liked": 0,
                "disliked": 0,
                "lol": 0,
                "toxic": 0,
                "saved": 0,
                "comments": 0
            }
        },
        {
            "kind": "news",
            "domain": "@Mettalex",
            "source": {
                "title": "Mettalex Twitter",
                "region": "en",
                "domain": "twitter.com",
                "path": "@mettalex"
            },
            "title": "You can now long or short $TSLA on #Mettalex \n\nThe #DEX is capital-efficient, user-friendly, and open to everyone\u2026",
            "published_at": "2021-12-13T16:30:00Z",
            "slug": "You-can-now-long-or-short-TSLA-on-Mettalex-The-DEX-is-capital-efficient-user-friendly-and-open-to-everyone",
            "currencies": [
                {
                    "code": "MTLX",
                    "title": "Mettalex",
                    "slug": "mettalex",
                    "url": "https:\/\/cryptopanic.com\/news\/mettalex\/"
                }
            ],
            "id": 13661545,
            "url": "https:\/\/cryptopanic.com\/news\/13661545\/You-can-now-long-or-short-TSLA-on-Mettalex-The-DEX-is-capital-efficient-user-friendly-and-open-to-everyone",
            "created_at": "2021-12-13T16:30:00Z",
            "votes": {
                "negative": 0,
                "positive": 0,
                "important": 0,
                "liked": 0,
                "disliked": 0,
                "lol": 0,
                "toxic": 0,
                "saved": 0,
                "comments": 0
            }
        },
        {
            "kind": "news",
            "domain": "@Mettalex",
            "source": {
                "title": "Mettalex Twitter",
                "region": "en",
                "domain": "twitter.com",
                "path": "@mettalex"
            },
            "title": "UI\/UX Update \n\nHave you heard that you no longer need a #wallet to visit #Mettalex? \n\nYou can go to the #DEX and\u2026",
            "published_at": "2021-12-13T13:30:01Z",
            "slug": "UIUX-Update-Have-you-heard-that-you-no-longer-need-a-wallet-to-visit-Mettalex-You-can-go-to-the-DEX-and",
            "currencies": [
                {
                    "code": "MTLX",
                    "title": "Mettalex",
                    "slug": "mettalex",
                    "url": "https:\/\/cryptopanic.com\/news\/mettalex\/"
                }
            ],
            "id": 13661546,
            "url": "https:\/\/cryptopanic.com\/news\/13661546\/UIUX-Update-Have-you-heard-that-you-no-longer-need-a-wallet-to-visit-Mettalex-You-can-go-to-the-DEX-and",
            "created_at": "2021-12-13T13:30:01Z",
            "votes": {
                "negative": 0,
                "positive": 0,
                "important": 0,
                "liked": 0,
                "disliked": 0,
                "lol": 0,
                "toxic": 0,
                "saved": 0,
                "comments": 0
            }
        },
        {
            "kind": "news",
            "domain": "@Mettalex",
            "source": {
                "title": "Mettalex Twitter",
                "region": "en",
                "domain": "twitter.com",
                "path": "@mettalex"
            },
            "title": "The @polars_io Trading Competition is on!\n\n\ufe0fIf you are on the BLACK TEAM side then retweet this post. The more ret\u2026",
            "published_at": "2021-12-13T09:02:00Z",
            "slug": "The-polars_io-Trading-Competition-is-on-If-you-are-on-the-BLACK-TEAM-side-then-retweet-this-post-The-more-ret",
            "currencies": [
                {
                    "code": "MTLX",
                    "title": "Mettalex",
                    "slug": "mettalex",
                    "url": "https:\/\/cryptopanic.com\/news\/mettalex\/"
                }
            ],
            "id": 13661547,
            "url": "https:\/\/cryptopanic.com\/news\/13661547\/The-polars_io-Trading-Competition-is-on-If-you-are-on-the-BLACK-TEAM-side-then-retweet-this-post-The-more-ret",
            "created_at": "2021-12-13T09:02:00Z",
            "votes": {
                "negative": 0,
                "positive": 0,
                "important": 0,
                "liked": 0,
                "disliked": 0,
                "lol": 0,
                "toxic": 0,
                "saved": 0,
                "comments": 0
            }
        },
        {
            "kind": "news",
            "domain": "@Mettalex",
            "source": {
                "title": "Mettalex Twitter",
                "region": "en",
                "domain": "twitter.com",
                "path": "@mettalex"
            },
            "title": "The @polars_io Trading Competition is on!\n\n\ufe0fIf you are on the WHITE TEAM side then retweet this post. The more ret\u2026",
            "published_at": "2021-12-13T09:00:01Z",
            "slug": "The-polars_io-Trading-Competition-is-on-If-you-are-on-the-WHITE-TEAM-side-then-retweet-this-post-The-more-ret",
            "currencies": [
                {
                    "code": "MTLX",
                    "title": "Mettalex",
                    "slug": "mettalex",
                    "url": "https:\/\/cryptopanic.com\/news\/mettalex\/"
                }
            ],
            "id": 13661548,
            "url": "https:\/\/cryptopanic.com\/news\/13661548\/The-polars_io-Trading-Competition-is-on-If-you-are-on-the-WHITE-TEAM-side-then-retweet-this-post-The-more-ret",
            "created_at": "2021-12-13T09:00:01Z",
            "votes": {
                "negative": 0,
                "positive": 0,
                "important": 0,
                "liked": 0,
                "disliked": 0,
                "lol": 0,
                "toxic": 0,
                "saved": 0,
                "comments": 0
            }
        },
        {
            "kind": "news",
            "domain": "@Mettalex",
            "source": {
                "title": "Mettalex Twitter",
                "region": "en",
                "domain": "twitter.com",
                "path": "@mettalex"
            },
            "title": "#YieldFarmers have plenty of opportunities to earn lucrative yields on @BinanceChain \n\nRead our short overview of\u2026",
            "published_at": "2021-12-12T16:00:01Z",
            "slug": "YieldFarmers-have-plenty-of-opportunities-to-earn-lucrative-yields-on-BinanceChain-Read-our-short-overview-of",
            "currencies": [
                {
                    "code": "MTLX",
                    "title": "Mettalex",
                    "slug": "mettalex",
                    "url": "https:\/\/cryptopanic.com\/news\/mettalex\/"
                }
            ],
            "id": 13651054,
            "url": "https:\/\/cryptopanic.com\/news\/13651054\/YieldFarmers-have-plenty-of-opportunities-to-earn-lucrative-yields-on-BinanceChain-Read-our-short-overview-of",
            "created_at": "2021-12-12T16:00:01Z",
            "votes": {
                "negative": 0,
                "positive": 0,
                "important": 0,
                "liked": 0,
                "disliked": 0,
                "lol": 0,
                "toxic": 0,
                "saved": 0,
                "comments": 0
            }
        },
        {
            "kind": "news",
            "domain": "@Mettalex",
            "source": {
                "title": "Mettalex Twitter",
                "region": "en",
                "domain": "twitter.com",
                "path": "@mettalex"
            },
            "title": "2021 has been a real roller coaster for #commodity markets\ud83e\udd14\n\nWe were quite lucky to have Phillip Price - long-term\u2026",
            "published_at": "2021-12-12T13:30:00Z",
            "slug": "2021-has-been-a-real-roller-coaster-for-commodity-markets-We-were-quite-lucky-to-have-Phillip-Price-long-term",
            "currencies": [
                {
                    "code": "MTLX",
                    "title": "Mettalex",
                    "slug": "mettalex",
                    "url": "https:\/\/cryptopanic.com\/news\/mettalex\/"
                }
            ],
            "id": 13651055,
            "url": "https:\/\/cryptopanic.com\/news\/13651055\/2021-has-been-a-real-roller-coaster-for-commodity-markets-We-were-quite-lucky-to-have-Phillip-Price-long-term",
            "created_at": "2021-12-12T13:30:00Z",
            "votes": {
                "negative": 0,
                "positive": 0,
                "important": 0,
                "liked": 0,
                "disliked": 0,
                "lol": 0,
                "toxic": 0,
                "saved": 0,
                "comments": 0
            }
        },
        {
            "kind": "news",
            "domain": "@Mettalex",
            "source": {
                "title": "Mettalex Twitter",
                "region": "en",
                "domain": "twitter.com",
                "path": "@mettalex"
            },
            "title": "China's #iron and #steel industry plans to reach its carbon emissions peak by 2025\ud83e\udd14\n\nConsequently, it will start\u2026",
            "published_at": "2021-12-12T10:00:02Z",
            "slug": "Chinas-iron-and-steel-industry-plans-to-reach-its-carbon-emissions-peak-by-2025-Consequently-it-will-start",
            "currencies": [
                {
                    "code": "MTLX",
                    "title": "Mettalex",
                    "slug": "mettalex",
                    "url": "https:\/\/cryptopanic.com\/news\/mettalex\/"
                }
            ],
            "id": 13651056,
            "url": "https:\/\/cryptopanic.com\/news\/13651056\/Chinas-iron-and-steel-industry-plans-to-reach-its-carbon-emissions-peak-by-2025-Consequently-it-will-start",
            "created_at": "2021-12-12T10:00:02Z",
            "votes": {
                "negative": 0,
                "positive": 0,
                "important": 0,
                "liked": 0,
                "disliked": 0,
                "lol": 0,
                "toxic": 0,
                "saved": 0,
                "comments": 0
            }
        },
        {
            "kind": "news",
            "domain": "@Mettalex",
            "source": {
                "title": "Mettalex Twitter",
                "region": "en",
                "domain": "twitter.com",
                "path": "@mettalex"
            },
            "title": "#Commodities prices climb faster than in previous recoveries, signaling a supercycle \ud83e\udd14\n\nThe current rally's inflati\u2026",
            "published_at": "2021-12-11T12:30:00Z",
            "slug": "Commodities-prices-climb-faster-than-in-previous-recoveries-signaling-a-supercycle-The-current-rallys-inflati",
            "currencies": [
                {
                    "code": "MTLX",
                    "title": "Mettalex",
                    "slug": "mettalex",
                    "url": "https:\/\/cryptopanic.com\/news\/mettalex\/"
                }
            ],
            "id": 13642499,
            "url": "https:\/\/cryptopanic.com\/news\/13642499\/Commodities-prices-climb-faster-than-in-previous-recoveries-signaling-a-supercycle-The-current-rallys-inflati",
            "created_at": "2021-12-11T12:30:00Z",
            "votes": {
                "negative": 0,
                "positive": 0,
                "important": 0,
                "liked": 0,
                "disliked": 0,
                "lol": 0,
                "toxic": 0,
                "saved": 0,
                "comments": 0
            }
        },
        {
            "kind": "news",
            "domain": "@Mettalex",
            "source": {
                "title": "Mettalex Twitter",
                "region": "en",
                "domain": "twitter.com",
                "path": "@mettalex"
            },
            "title": "Calling all $MTLX #YieldFarmers out there\n\nThe $MTLX @omnic_pro_ farms currently offer up to 205% APY \n\nThey will\u2026",
            "published_at": "2021-12-11T09:30:00Z",
            "slug": "Calling-all-MTLX-YieldFarmers-out-there-The-MTLX-omnic_pro_-farms-currently-offer-up-to-205-APY-They-will",
            "currencies": [
                {
                    "code": "MTLX",
                    "title": "Mettalex",
                    "slug": "mettalex",
                    "url": "https:\/\/cryptopanic.com\/news\/mettalex\/"
                }
            ],
            "id": 13642500,
            "url": "https:\/\/cryptopanic.com\/news\/13642500\/Calling-all-MTLX-YieldFarmers-out-there-The-MTLX-omnic_pro_-farms-currently-offer-up-to-205-APY-They-will",
            "created_at": "2021-12-11T09:30:00Z",
            "votes": {
                "negative": 0,
                "positive": 0,
                "important": 0,
                "liked": 0,
                "disliked": 0,
                "lol": 0,
                "toxic": 0,
                "saved": 0,
                "comments": 0
            }
        },
        {
            "kind": "news",
            "domain": "@Mettalex",
            "source": {
                "title": "Mettalex Twitter",
                "region": "en",
                "domain": "twitter.com",
                "path": "@mettalex"
            },
            "title": "We are glad to present our new series #MettalexResearch whose 1st piece explores #DeFi 2.0\n\nWe look into\u2026",
            "published_at": "2021-12-10T15:30:00Z",
            "slug": "We-are-glad-to-present-our-new-series-MettalexResearch-whose-1st-piece-explores-DeFi-20-We-look-into",
            "currencies": [
                {
                    "code": "MTLX",
                    "title": "Mettalex",
                    "slug": "mettalex",
                    "url": "https:\/\/cryptopanic.com\/news\/mettalex\/"
                }
            ],
            "id": 13633456,
            "url": "https:\/\/cryptopanic.com\/news\/13633456\/We-are-glad-to-present-our-new-series-MettalexResearch-whose-1st-piece-explores-DeFi-20-We-look-into",
            "created_at": "2021-12-10T15:30:00Z",
            "votes": {
                "negative": 0,
                "positive": 0,
                "important": 0,
                "liked": 0,
                "disliked": 0,
                "lol": 0,
                "toxic": 0,
                "saved": 0,
                "comments": 0
            }
        },
        {
            "kind": "news",
            "domain": "@Mettalex",
            "source": {
                "title": "Mettalex Twitter",
                "region": "en",
                "domain": "twitter.com",
                "path": "@mettalex"
            },
            "title": "Wondering how to transfer your $MTLX tokens from @ethereum to @BinanceChain?\n\nUsing the AnySwap bridge is one of th\u2026",
            "published_at": "2021-12-10T13:00:02Z",
            "slug": "Wondering-how-to-transfer-your-MTLX-tokens-from-ethereum-to-BinanceChain-Using-the-AnySwap-bridge-is-one-of-th",
            "currencies": [
                {
                    "code": "MTLX",
                    "title": "Mettalex",
                    "slug": "mettalex",
                    "url": "https:\/\/cryptopanic.com\/news\/mettalex\/"
                }
            ],
            "id": 13633457,
            "url": "https:\/\/cryptopanic.com\/news\/13633457\/Wondering-how-to-transfer-your-MTLX-tokens-from-ethereum-to-BinanceChain-Using-the-AnySwap-bridge-is-one-of-th",
            "created_at": "2021-12-10T13:00:02Z",
            "votes": {
                "negative": 0,
                "positive": 0,
                "important": 0,
                "liked": 0,
                "disliked": 0,
                "lol": 0,
                "toxic": 0,
                "saved": 0,
                "comments": 0
            }
        },
        {
            "kind": "news",
            "domain": "@Mettalex",
            "source": {
                "title": "Mettalex Twitter",
                "region": "en",
                "domain": "twitter.com",
                "path": "@mettalex"
            },
            "title": "#Mettalex's $FET market currently offers an asymmetric investment opportunity \ud83e\udd14\n\nMeanwhile, the MTLXBUSD pool distr\u2026",
            "published_at": "2021-12-10T10:15:00Z",
            "slug": "Mettalexs-FET-market-currently-offers-an-asymmetric-investment-opportunity-Meanwhile-the-MTLXBUSD-pool-distr",
            "currencies": [
                {
                    "code": "MTLX",
                    "title": "Mettalex",
                    "slug": "mettalex",
                    "url": "https:\/\/cryptopanic.com\/news\/mettalex\/"
                }
            ],
            "id": 13633458,
            "url": "https:\/\/cryptopanic.com\/news\/13633458\/Mettalexs-FET-market-currently-offers-an-asymmetric-investment-opportunity-Meanwhile-the-MTLXBUSD-pool-distr",
            "created_at": "2021-12-10T10:15:00Z",
            "votes": {
                "negative": 0,
                "positive": 0,
                "important": 0,
                "liked": 0,
                "disliked": 0,
                "lol": 0,
                "toxic": 0,
                "saved": 0,
                "comments": 0
            }
        },
        {
            "kind": "news",
            "domain": "@Mettalex",
            "source": {
                "title": "Mettalex Twitter",
                "region": "en",
                "domain": "twitter.com",
                "path": "@mettalex"
            },
            "title": "Thank you to all the #MettaTitans who are giving us feedback on how to improve #Mettalex \n\nWe hear you and we grea\u2026",
            "published_at": "2021-12-09T15:00:00Z",
            "slug": "Thank-you-to-all-the-MettaTitans-who-are-giving-us-feedback-on-how-to-improve-Mettalex-We-hear-you-and-we-grea",
            "currencies": [
                {
                    "code": "MTLX",
                    "title": "Mettalex",
                    "slug": "mettalex",
                    "url": "https:\/\/cryptopanic.com\/news\/mettalex\/"
                }
            ],
            "id": 13622502,
            "url": "https:\/\/cryptopanic.com\/news\/13622502\/Thank-you-to-all-the-MettaTitans-who-are-giving-us-feedback-on-how-to-improve-Mettalex-We-hear-you-and-we-grea",
            "created_at": "2021-12-09T15:00:00Z",
            "votes": {
                "negative": 0,
                "positive": 0,
                "important": 0,
                "liked": 0,
                "disliked": 0,
                "lol": 0,
                "toxic": 0,
                "saved": 0,
                "comments": 0
            }
        },
        {
            "kind": "news",
            "domain": "@Mettalex",
            "source": {
                "title": "Mettalex Twitter",
                "region": "en",
                "domain": "twitter.com",
                "path": "@mettalex"
            },
            "title": "Smaller and more efficient #nuclear power plant backed by @BillGates to be built in the USA \n\nThe project promises\u2026",
            "published_at": "2021-12-09T12:30:00Z",
            "slug": "Smaller-and-more-efficient-nuclear-power-plant-backed-by-BillGates-to-be-built-in-the-USA-The-project-promises",
            "currencies": [
                {
                    "code": "MTLX",
                    "title": "Mettalex",
                    "slug": "mettalex",
                    "url": "https:\/\/cryptopanic.com\/news\/mettalex\/"
                }
            ],
            "id": 13622503,
            "url": "https:\/\/cryptopanic.com\/news\/13622503\/Smaller-and-more-efficient-nuclear-power-plant-backed-by-BillGates-to-be-built-in-the-USA-The-project-promises",
            "created_at": "2021-12-09T12:30:00Z",
            "votes": {
                "negative": 0,
                "positive": 0,
                "important": 0,
                "liked": 0,
                "disliked": 0,
                "lol": 0,
                "toxic": 0,
                "saved": 0,
                "comments": 0
            }
        },
        {
            "kind": "news",
            "domain": "@Mettalex",
            "source": {
                "title": "Mettalex Twitter",
                "region": "en",
                "domain": "twitter.com",
                "path": "@mettalex"
            },
            "title": "Are you still wondering what #Mettalex actually is?\n\nA while ago @vdramaliev presented the #DEX at @ScrapCommunity'\u2026",
            "published_at": "2021-12-09T09:30:00Z",
            "slug": "Are-you-still-wondering-what-Mettalex-actually-is-A-while-ago-vdramaliev-presented-the-DEX-at-ScrapCommunity",
            "currencies": [
                {
                    "code": "MTLX",
                    "title": "Mettalex",
                    "slug": "mettalex",
                    "url": "https:\/\/cryptopanic.com\/news\/mettalex\/"
                }
            ],
            "id": 13622504,
            "url": "https:\/\/cryptopanic.com\/news\/13622504\/Are-you-still-wondering-what-Mettalex-actually-is-A-while-ago-vdramaliev-presented-the-DEX-at-ScrapCommunity",
            "created_at": "2021-12-09T09:30:00Z",
            "votes": {
                "negative": 0,
                "positive": 0,
                "important": 0,
                "liked": 0,
                "disliked": 0,
                "lol": 0,
                "toxic": 0,
                "saved": 0,
                "comments": 0
            }
        },
        {
            "kind": "news",
            "domain": "@Mettalex",
            "source": {
                "title": "Mettalex Twitter",
                "region": "en",
                "domain": "twitter.com",
                "path": "@mettalex"
            },
            "title": "RT @atomix_defi: Big thanks to Yvan Nasr @omniscia_io for this great conversation on auditing #DeFi protocols\n\n@Omniscia_sec have validate\u2026",
            "published_at": "2021-12-09T09:12:50Z",
            "slug": "RT-atomix_defi-Big-thanks-to-Yvan-Nasr-omniscia_io-for-this-great-conversation-on-auditing-DeFi-protocols-Omniscia_sec-have-validate",
            "currencies": [
                {
                    "code": "MTLX",
                    "title": "Mettalex",
                    "slug": "mettalex",
                    "url": "https:\/\/cryptopanic.com\/news\/mettalex\/"
                }
            ],
            "id": 13622505,
            "url": "https:\/\/cryptopanic.com\/news\/13622505\/RT-atomix_defi-Big-thanks-to-Yvan-Nasr-omniscia_io-for-this-great-conversation-on-auditing-DeFi-protocols-Omniscia_sec-have-validate",
            "created_at": "2021-12-09T09:12:50Z",
            "votes": {
                "negative": 0,
                "positive": 0,
                "important": 0,
                "liked": 0,
                "disliked": 0,
                "lol": 0,
                "toxic": 0,
                "saved": 0,
                "comments": 0
            }
        }
    ]
}
