{
    "count": 200,
    "next": "https:\/\/cryptopanic.com\/api\/v1\/posts\/?auth_token=01c356e89ffc1b8eba2127c81fc8c66ee0eace75&kind=news&currencies=CTSI&page=2",
    "previous": null,
    "results": [
        {
            "kind": "news",
            "domain": "@cartesiproject",
            "source": {
                "title": "Cartesi Twitter",
                "region": "en",
                "domain": "twitter.com",
                "path": "@cartesiproject"
            },
            "title": "We\u2019re opening the doors to a new era with a rejuvenation of the Cartesi branding!\n\nAlongside unveiling the refreshe\u2026",
            "published_at": "2023-07-11T14:49:41Z",
            "slug": "Were-opening-the-doors-to-a-new-era-with-a-rejuvenation-of-the-Cartesi-branding-Alongside-unveiling-the-refreshe",
            "currencies": [
                {
                    "code": "CTSI",
                    "title": "Cartesi",
                    "slug": "cartesi",
                    "url": "https:\/\/cryptopanic.com\/news\/cartesi\/"
                }
            ],
            "id": 18763224,
            "url": "https:\/\/cryptopanic.com\/news\/18763224\/Were-opening-the-doors-to-a-new-era-with-a-rejuvenation-of-the-Cartesi-branding-Alongside-unveiling-the-refreshe",
            "created_at": "2023-07-11T14:49:41Z",
            "votes": {
                "negative": 0,
                "positive": 0,
                "important": 0,
                "liked": 0,
                "disliked": 0,
                "lol": 0,
                "toxic": 0,
                "saved": 0,
                "comments": 0
            }
        },
        {
            "kind": "news",
            "domain": "@cartesiproject",
            "source": {
                "title": "Cartesi Twitter",
                "region": "en",
                "domain": "twitter.com",
                "path": "@cartesiproject"
            },
            "title": "We\u2019ve got something exciting to share\u2026  \n\nCan you guess what it is?",
            "published_at": "2023-07-10T15:00:49Z",
            "slug": "Weve-got-something-exciting-to-share-Can-you-guess-what-it-is",
            "currencies": [
                {
                    "code": "CTSI",
                    "title": "Cartesi",
                    "slug": "cartesi",
                    "url": "https:\/\/cryptopanic.com\/news\/cartesi\/"
                }
            ],
            "id": 18755063,
            "url": "https:\/\/cryptopanic.com\/news\/18755063\/Weve-got-something-exciting-to-share-Can-you-guess-what-it-is",
            "created_at": "2023-07-10T15:00:49Z",
            "votes": {
                "negative": 0,
                "positive": 0,
                "important": 0,
                "liked": 0,
                "disliked": 0,
                "lol": 0,
                "toxic": 0,
                "saved": 0,
                "comments": 0
            }
        },
        {
            "kind": "news",
            "domain": "@cartesiproject",
            "source": {
                "title": "Cartesi Twitter",
                "region": "en",
                "domain": "twitter.com",
                "path": "@cartesiproject"
            },
            "title": "Save the date: Cartesi X Nec Mergitur, Web3 Meet-Up, 20 July 19:30 CEST\nJoin us for an opportunity to learn how Car\u2026",
            "published_at": "2023-07-10T10:00:42Z",
            "slug": "Save-the-date-Cartesi-X-Nec-Mergitur-Web3-Meet-Up-20-July-1930-CEST-Join-us-for-an-opportunity-to-learn-how-Car",
            "currencies": [
                {
                    "code": "CTSI",
                    "title": "Cartesi",
                    "slug": "cartesi",
                    "url": "https:\/\/cryptopanic.com\/news\/cartesi\/"
                }
            ],
            "id": 18755064,
            "url": "https:\/\/cryptopanic.com\/news\/18755064\/Save-the-date-Cartesi-X-Nec-Mergitur-Web3-Meet-Up-20-July-1930-CEST-Join-us-for-an-opportunity-to-learn-how-Car",
            "created_at": "2023-07-10T10:00:42Z",
            "votes": {
                "negative": 0,
                "positive": 0,
                "important": 0,
                "liked": 0,
                "disliked": 0,
                "lol": 0,
                "toxic": 0,
                "saved": 0,
                "comments": 0
            }
        },
        {
            "kind": "news",
            "domain": "@cartesiproject",
            "source": {
                "title": "Cartesi Twitter",
                "region": "en",
                "domain": "twitter.com",
                "path": "@cartesiproject"
            },
            "title": "Excited to join our second Epic L2 Day to kick off @ETHGlobal Paris festivities!\n\nJoin us, @epicweb3 and this amazi\u2026",
            "published_at": "2023-07-10T09:29:20Z",
            "slug": "Excited-to-join-our-second-Epic-L2-Day-to-kick-off-ETHGlobal-Paris-festivities-Join-us-epicweb3-and-this-amazi",
            "currencies": [
                {
                    "code": "CTSI",
                    "title": "Cartesi",
                    "slug": "cartesi",
                    "url": "https:\/\/cryptopanic.com\/news\/cartesi\/"
                }
            ],
            "id": 18755065,
            "url": "https:\/\/cryptopanic.com\/news\/18755065\/Excited-to-join-our-second-Epic-L2-Day-to-kick-off-ETHGlobal-Paris-festivities-Join-us-epicweb3-and-this-amazi",
            "created_at": "2023-07-10T09:29:20Z",
            "votes": {
                "negative": 0,
                "positive": 0,
                "important": 0,
                "liked": 0,
                "disliked": 0,
                "lol": 0,
                "toxic": 0,
                "saved": 0,
                "comments": 0
            }
        },
        {
            "kind": "news",
            "domain": "@cartesiproject",
            "source": {
                "title": "Cartesi Twitter",
                "region": "en",
                "domain": "twitter.com",
                "path": "@cartesiproject"
            },
            "title": "Think you know ZK? How about running Linux inside the Cartesi VM inside a @RiscZero Knowledge Proof? Learn more abo\u2026",
            "published_at": "2023-07-08T13:01:02Z",
            "slug": "Think-you-know-ZK-How-about-running-Linux-inside-the-Cartesi-VM-inside-a-RiscZero-Knowledge-Proof-Learn-more-abo",
            "currencies": [
                {
                    "code": "CTSI",
                    "title": "Cartesi",
                    "slug": "cartesi",
                    "url": "https:\/\/cryptopanic.com\/news\/cartesi\/"
                }
            ],
            "id": 18744958,
            "url": "https:\/\/cryptopanic.com\/news\/18744958\/Think-you-know-ZK-How-about-running-Linux-inside-the-Cartesi-VM-inside-a-RiscZero-Knowledge-Proof-Learn-more-abo",
            "created_at": "2023-07-08T13:01:02Z",
            "votes": {
                "negative": 0,
                "positive": 0,
                "important": 0,
                "liked": 0,
                "disliked": 0,
                "lol": 0,
                "toxic": 0,
                "saved": 0,
                "comments": 0
            }
        },
        {
            "kind": "news",
            "domain": "@cartesiproject",
            "source": {
                "title": "Cartesi Twitter",
                "region": "en",
                "domain": "twitter.com",
                "path": "@cartesiproject"
            },
            "title": "RT @KRYPTOSPHERE_: Was amazing to meet the @cartesiproject team &amp; community during @eth_barcelona \n \nWe will be doing an online introducti\u2026",
            "published_at": "2023-07-08T08:36:13Z",
            "slug": "RT-KRYPTOSPHERE_-Was-amazing-to-meet-the-cartesiproject-team-amp-community-during-eth_barcelona-We-will-be-doing-an-online-introducti",
            "currencies": [
                {
                    "code": "CTSI",
                    "title": "Cartesi",
                    "slug": "cartesi",
                    "url": "https:\/\/cryptopanic.com\/news\/cartesi\/"
                }
            ],
            "id": 18744959,
            "url": "https:\/\/cryptopanic.com\/news\/18744959\/RT-KRYPTOSPHERE_-Was-amazing-to-meet-the-cartesiproject-team-amp-community-during-eth_barcelona-We-will-be-doing-an-online-introducti",
            "created_at": "2023-07-08T08:36:13Z",
            "votes": {
                "negative": 0,
                "positive": 0,
                "important": 0,
                "liked": 0,
                "disliked": 0,
                "lol": 0,
                "toxic": 0,
                "saved": 0,
                "comments": 0
            }
        },
        {
            "kind": "news",
            "domain": "@cartesiproject",
            "source": {
                "title": "Cartesi Twitter",
                "region": "en",
                "domain": "twitter.com",
                "path": "@cartesiproject"
            },
            "title": "RT @bmaia_expat: Great day on the first @cartesiproject meetup in Rio de Janeiro. Great tech talks and interest to learn how Cartesi will a\u2026",
            "published_at": "2023-07-07T18:25:49Z",
            "slug": "RT-bmaia_expat-Great-day-on-the-first-cartesiproject-meetup-in-Rio-de-Janeiro-Great-tech-talks-and-interest-to-learn-how-Cartesi-will-a",
            "currencies": [
                {
                    "code": "CTSI",
                    "title": "Cartesi",
                    "slug": "cartesi",
                    "url": "https:\/\/cryptopanic.com\/news\/cartesi\/"
                }
            ],
            "id": 18739226,
            "url": "https:\/\/cryptopanic.com\/news\/18739226\/RT-bmaia_expat-Great-day-on-the-first-cartesiproject-meetup-in-Rio-de-Janeiro-Great-tech-talks-and-interest-to-learn-how-Cartesi-will-a",
            "created_at": "2023-07-07T18:25:49Z",
            "votes": {
                "negative": 0,
                "positive": 0,
                "important": 0,
                "liked": 0,
                "disliked": 0,
                "lol": 0,
                "toxic": 0,
                "saved": 0,
                "comments": 0
            }
        },
        {
            "kind": "news",
            "domain": "@cartesiproject",
            "source": {
                "title": "Cartesi Twitter",
                "region": "en",
                "domain": "twitter.com",
                "path": "@cartesiproject"
            },
            "title": "Beep beep, Game Builder Community Call #5 incoming! This time with guest speaker, @damor_eth, CEO of @PlaymintUK, t\u2026",
            "published_at": "2023-07-07T15:00:32Z",
            "slug": "Beep-beep-Game-Builder-Community-Call-5-incoming-This-time-with-guest-speaker-damor_eth-CEO-of-PlaymintUK-t",
            "currencies": [
                {
                    "code": "CTSI",
                    "title": "Cartesi",
                    "slug": "cartesi",
                    "url": "https:\/\/cryptopanic.com\/news\/cartesi\/"
                }
            ],
            "id": 18739227,
            "url": "https:\/\/cryptopanic.com\/news\/18739227\/Beep-beep-Game-Builder-Community-Call-5-incoming-This-time-with-guest-speaker-damor_eth-CEO-of-PlaymintUK-t",
            "created_at": "2023-07-07T15:00:32Z",
            "votes": {
                "negative": 0,
                "positive": 0,
                "important": 0,
                "liked": 0,
                "disliked": 0,
                "lol": 0,
                "toxic": 0,
                "saved": 0,
                "comments": 0
            }
        },
        {
            "kind": "news",
            "domain": "@cartesiproject",
            "source": {
                "title": "Cartesi Twitter",
                "region": "en",
                "domain": "twitter.com",
                "path": "@cartesiproject"
            },
            "title": "That\u2019s a wrap on another brilliant Cartesi IRL meetup, this time in Brazil with @CodigoBrazuca! \n\nWant to stay in t\u2026",
            "published_at": "2023-07-07T13:00:21Z",
            "slug": "Thats-a-wrap-on-another-brilliant-Cartesi-IRL-meetup-this-time-in-Brazil-with-CodigoBrazuca-Want-to-stay-in-t",
            "currencies": [
                {
                    "code": "CTSI",
                    "title": "Cartesi",
                    "slug": "cartesi",
                    "url": "https:\/\/cryptopanic.com\/news\/cartesi\/"
                }
            ],
            "id": 18739228,
            "url": "https:\/\/cryptopanic.com\/news\/18739228\/Thats-a-wrap-on-another-brilliant-Cartesi-IRL-meetup-this-time-in-Brazil-with-CodigoBrazuca-Want-to-stay-in-t",
            "created_at": "2023-07-07T13:00:21Z",
            "votes": {
                "negative": 0,
                "positive": 0,
                "important": 0,
                "liked": 0,
                "disliked": 0,
                "lol": 0,
                "toxic": 0,
                "saved": 0,
                "comments": 0
            }
        },
        {
            "kind": "news",
            "domain": "@cartesiproject",
            "source": {
                "title": "Cartesi Twitter",
                "region": "en",
                "domain": "twitter.com",
                "path": "@cartesiproject"
            },
            "title": "RT @CryptoCyn: Great days at @eth_barcelona with my fellow Cartesian, @daniel0rtga! It has been awesome reconnecting with #Web3 frens and f\u2026",
            "published_at": "2023-07-07T10:21:52Z",
            "slug": "RT-CryptoCyn-Great-days-at-eth_barcelona-with-my-fellow-Cartesian-daniel0rtga-It-has-been-awesome-reconnecting-with-Web3-frens-and-f",
            "currencies": [
                {
                    "code": "CTSI",
                    "title": "Cartesi",
                    "slug": "cartesi",
                    "url": "https:\/\/cryptopanic.com\/news\/cartesi\/"
                }
            ],
            "id": 18739229,
            "url": "https:\/\/cryptopanic.com\/news\/18739229\/RT-CryptoCyn-Great-days-at-eth_barcelona-with-my-fellow-Cartesian-daniel0rtga-It-has-been-awesome-reconnecting-with-Web3-frens-and-f",
            "created_at": "2023-07-07T10:21:52Z",
            "votes": {
                "negative": 0,
                "positive": 0,
                "important": 0,
                "liked": 0,
                "disliked": 0,
                "lol": 0,
                "toxic": 0,
                "saved": 0,
                "comments": 0
            }
        },
        {
            "kind": "news",
            "domain": "@cartesiproject",
            "source": {
                "title": "Cartesi Twitter",
                "region": "en",
                "domain": "twitter.com",
                "path": "@cartesiproject"
            },
            "title": "June has been an absolute blast, packed with progress across research and development, vibrant community moments, a\u2026",
            "published_at": "2023-07-06T15:03:07Z",
            "slug": "June-has-been-an-absolute-blast-packed-with-progress-across-research-and-development-vibrant-community-moments-a",
            "currencies": [
                {
                    "code": "CTSI",
                    "title": "Cartesi",
                    "slug": "cartesi",
                    "url": "https:\/\/cryptopanic.com\/news\/cartesi\/"
                }
            ],
            "id": 18731424,
            "url": "https:\/\/cryptopanic.com\/news\/18731424\/June-has-been-an-absolute-blast-packed-with-progress-across-research-and-development-vibrant-community-moments-a",
            "created_at": "2023-07-06T15:03:07Z",
            "votes": {
                "negative": 0,
                "positive": 0,
                "important": 0,
                "liked": 0,
                "disliked": 0,
                "lol": 0,
                "toxic": 0,
                "saved": 0,
                "comments": 0
            }
        },
        {
            "kind": "news",
            "domain": "@cartesiproject",
            "source": {
                "title": "Cartesi Twitter",
                "region": "en",
                "domain": "twitter.com",
                "path": "@cartesiproject"
            },
            "title": "The Cartesi Community Grants Program is always looking for feedback from our amazing community! There are various p\u2026",
            "published_at": "2023-07-06T13:02:13Z",
            "slug": "The-Cartesi-Community-Grants-Program-is-always-looking-for-feedback-from-our-amazing-community-There-are-various-p",
            "currencies": [
                {
                    "code": "CTSI",
                    "title": "Cartesi",
                    "slug": "cartesi",
                    "url": "https:\/\/cryptopanic.com\/news\/cartesi\/"
                }
            ],
            "id": 18731425,
            "url": "https:\/\/cryptopanic.com\/news\/18731425\/The-Cartesi-Community-Grants-Program-is-always-looking-for-feedback-from-our-amazing-community-There-are-various-p",
            "created_at": "2023-07-06T13:02:13Z",
            "votes": {
                "negative": 0,
                "positive": 0,
                "important": 0,
                "liked": 0,
                "disliked": 0,
                "lol": 0,
                "toxic": 0,
                "saved": 0,
                "comments": 0
            }
        },
        {
            "kind": "news",
            "domain": "@cartesiproject",
            "source": {
                "title": "Cartesi Twitter",
                "region": "en",
                "domain": "twitter.com",
                "path": "@cartesiproject"
            },
            "title": "We love seeing our community across the world rock Cartesi swag! \ud83e\udd29\n\nWant some swag to call your own? Keep an eye on\u2026",
            "published_at": "2023-07-06T10:41:11Z",
            "slug": "We-love-seeing-our-community-across-the-world-rock-Cartesi-swag-Want-some-swag-to-call-your-own-Keep-an-eye-on",
            "currencies": [
                {
                    "code": "CTSI",
                    "title": "Cartesi",
                    "slug": "cartesi",
                    "url": "https:\/\/cryptopanic.com\/news\/cartesi\/"
                }
            ],
            "id": 18731426,
            "url": "https:\/\/cryptopanic.com\/news\/18731426\/We-love-seeing-our-community-across-the-world-rock-Cartesi-swag-Want-some-swag-to-call-your-own-Keep-an-eye-on",
            "created_at": "2023-07-06T10:41:11Z",
            "votes": {
                "negative": 0,
                "positive": 0,
                "important": 0,
                "liked": 0,
                "disliked": 0,
                "lol": 0,
                "toxic": 0,
                "saved": 0,
                "comments": 0
            }
        },
        {
            "kind": "news",
            "domain": "@cartesiproject",
            "source": {
                "title": "Cartesi Twitter",
                "region": "en",
                "domain": "twitter.com",
                "path": "@cartesiproject"
            },
            "title": "Thank you to everyone who joined us at yesterday\u2019s meet-up with @W3B_Lab_Madrid! We had an absolute blast connectin\u2026",
            "published_at": "2023-07-05T15:00:34Z",
            "slug": "Thank-you-to-everyone-who-joined-us-at-yesterdays-meet-up-with-W3B_Lab_Madrid-We-had-an-absolute-blast-connectin",
            "currencies": [
                {
                    "code": "CTSI",
                    "title": "Cartesi",
                    "slug": "cartesi",
                    "url": "https:\/\/cryptopanic.com\/news\/cartesi\/"
                }
            ],
            "id": 18722828,
            "url": "https:\/\/cryptopanic.com\/news\/18722828\/Thank-you-to-everyone-who-joined-us-at-yesterdays-meet-up-with-W3B_Lab_Madrid-We-had-an-absolute-blast-connectin",
            "created_at": "2023-07-05T15:00:34Z",
            "votes": {
                "negative": 0,
                "positive": 0,
                "important": 0,
                "liked": 0,
                "disliked": 0,
                "lol": 0,
                "toxic": 0,
                "saved": 0,
                "comments": 0
            }
        },
        {
            "kind": "news",
            "domain": "@cartesiproject",
            "source": {
                "title": "Cartesi Twitter",
                "region": "en",
                "domain": "twitter.com",
                "path": "@cartesiproject"
            },
            "title": "Whether you\u2019re online, or in person, we\u2019re collaborating with the @KRYPTOSPHERE_ Student Association in the run up\u2026",
            "published_at": "2023-07-05T08:11:05Z",
            "slug": "Whether-youre-online-or-in-person-were-collaborating-with-the-KRYPTOSPHERE_-Student-Association-in-the-run-up",
            "currencies": [
                {
                    "code": "CTSI",
                    "title": "Cartesi",
                    "slug": "cartesi",
                    "url": "https:\/\/cryptopanic.com\/news\/cartesi\/"
                }
            ],
            "id": 18722829,
            "url": "https:\/\/cryptopanic.com\/news\/18722829\/Whether-youre-online-or-in-person-were-collaborating-with-the-KRYPTOSPHERE_-Student-Association-in-the-run-up",
            "created_at": "2023-07-05T08:11:05Z",
            "votes": {
                "negative": 0,
                "positive": 0,
                "important": 0,
                "liked": 0,
                "disliked": 0,
                "lol": 0,
                "toxic": 0,
                "saved": 0,
                "comments": 0
            }
        },
        {
            "kind": "news",
            "domain": "@cartesiproject",
            "source": {
                "title": "Cartesi Twitter",
                "region": "en",
                "domain": "twitter.com",
                "path": "@cartesiproject"
            },
            "title": "We're excited to announce the release of Cartesi Rollups 0.9.0 and alongside that, we're rolling out our revamped d\u2026",
            "published_at": "2023-07-04T15:00:27Z",
            "slug": "Were-excited-to-announce-the-release-of-Cartesi-Rollups-090-and-alongside-that-were-rolling-out-our-revamped-d",
            "currencies": [
                {
                    "code": "CTSI",
                    "title": "Cartesi",
                    "slug": "cartesi",
                    "url": "https:\/\/cryptopanic.com\/news\/cartesi\/"
                }
            ],
            "id": 18715265,
            "url": "https:\/\/cryptopanic.com\/news\/18715265\/Were-excited-to-announce-the-release-of-Cartesi-Rollups-090-and-alongside-that-were-rolling-out-our-revamped-d",
            "created_at": "2023-07-04T15:00:27Z",
            "votes": {
                "negative": 0,
                "positive": 0,
                "important": 0,
                "liked": 0,
                "disliked": 0,
                "lol": 0,
                "toxic": 0,
                "saved": 0,
                "comments": 0
            }
        },
        {
            "kind": "news",
            "domain": "@cartesiproject",
            "source": {
                "title": "Cartesi Twitter",
                "region": "en",
                "domain": "twitter.com",
                "path": "@cartesiproject"
            },
            "title": "Another winner breakdown? Absolutely! With ETHGlobal Paris just around the corner, we\u2019ve got just what you need to\u2026",
            "published_at": "2023-07-04T13:00:11Z",
            "slug": "Another-winner-breakdown-Absolutely-With-ETHGlobal-Paris-just-around-the-corner-weve-got-just-what-you-need-to",
            "currencies": [
                {
                    "code": "CTSI",
                    "title": "Cartesi",
                    "slug": "cartesi",
                    "url": "https:\/\/cryptopanic.com\/news\/cartesi\/"
                }
            ],
            "id": 18715266,
            "url": "https:\/\/cryptopanic.com\/news\/18715266\/Another-winner-breakdown-Absolutely-With-ETHGlobal-Paris-just-around-the-corner-weve-got-just-what-you-need-to",
            "created_at": "2023-07-04T13:00:11Z",
            "votes": {
                "negative": 0,
                "positive": 0,
                "important": 0,
                "liked": 0,
                "disliked": 0,
                "lol": 0,
                "toxic": 0,
                "saved": 0,
                "comments": 0
            }
        },
        {
            "kind": "news",
            "domain": "@cartesiproject",
            "source": {
                "title": "Cartesi Twitter",
                "region": "en",
                "domain": "twitter.com",
                "path": "@cartesiproject"
            },
            "title": "Want to know more about Cartesi and how to get involved? Sign up to our meet-up in Rio de Janeiro, brought to you b\u2026",
            "published_at": "2023-07-03T13:01:07Z",
            "slug": "Want-to-know-more-about-Cartesi-and-how-to-get-involved-Sign-up-to-our-meet-up-in-Rio-de-Janeiro-brought-to-you-b",
            "currencies": [
                {
                    "code": "CTSI",
                    "title": "Cartesi",
                    "slug": "cartesi",
                    "url": "https:\/\/cryptopanic.com\/news\/cartesi\/"
                }
            ],
            "id": 18707947,
            "url": "https:\/\/cryptopanic.com\/news\/18707947\/Want-to-know-more-about-Cartesi-and-how-to-get-involved-Sign-up-to-our-meet-up-in-Rio-de-Janeiro-brought-to-you-b",
            "created_at": "2023-07-03T13:01:07Z",
            "votes": {
                "negative": 0,
                "positive": 0,
                "important": 0,
                "liked": 0,
                "disliked": 0,
                "lol": 0,
                "toxic": 0,
                "saved": 0,
                "comments": 0
            }
        },
        {
            "kind": "news",
            "domain": "@cartesiproject",
            "source": {
                "title": "Cartesi Twitter",
                "region": "en",
                "domain": "twitter.com",
                "path": "@cartesiproject"
            },
            "title": "We've just wrapped up an awesome release as we continually work on improving the on-chain architecture. Now, I know\u2026",
            "published_at": "2023-06-30T15:01:32Z",
            "slug": "Weve-just-wrapped-up-an-awesome-release-as-we-continually-work-on-improving-the-on-chain-architecture-Now-I-know",
            "currencies": [
                {
                    "code": "CTSI",
                    "title": "Cartesi",
                    "slug": "cartesi",
                    "url": "https:\/\/cryptopanic.com\/news\/cartesi\/"
                }
            ],
            "id": 18692443,
            "url": "https:\/\/cryptopanic.com\/news\/18692443\/Weve-just-wrapped-up-an-awesome-release-as-we-continually-work-on-improving-the-on-chain-architecture-Now-I-know",
            "created_at": "2023-06-30T15:01:32Z",
            "votes": {
                "negative": 0,
                "positive": 0,
                "important": 0,
                "liked": 0,
                "disliked": 0,
                "lol": 0,
                "toxic": 0,
                "saved": 0,
                "comments": 0
            }
        },
        {
            "kind": "news",
            "domain": "@cartesiproject",
            "source": {
                "title": "Cartesi Twitter",
                "region": "en",
                "domain": "twitter.com",
                "path": "@cartesiproject"
            },
            "title": "Tune into our Cartesi Coders Monthly call right now! \n\nHead on over there",
            "published_at": "2023-06-30T13:00:34Z",
            "slug": "Tune-into-our-Cartesi-Coders-Monthly-call-right-now-Head-on-over-there",
            "currencies": [
                {
                    "code": "CTSI",
                    "title": "Cartesi",
                    "slug": "cartesi",
                    "url": "https:\/\/cryptopanic.com\/news\/cartesi\/"
                }
            ],
            "id": 18692444,
            "url": "https:\/\/cryptopanic.com\/news\/18692444\/Tune-into-our-Cartesi-Coders-Monthly-call-right-now-Head-on-over-there",
            "created_at": "2023-06-30T13:00:34Z",
            "votes": {
                "negative": 0,
                "positive": 0,
                "important": 0,
                "liked": 0,
                "disliked": 0,
                "lol": 0,
                "toxic": 0,
                "saved": 0,
                "comments": 0
            }
        }
    ]
}
