{
    "count": 200,
    "next": "https:\/\/cryptopanic.com\/api\/v1\/posts\/?auth_token=01c356e89ffc1b8eba2127c81fc8c66ee0eace75&kind=news&currencies=DENT&page=2",
    "previous": null,
    "results": [
        {
            "kind": "news",
            "domain": "@dentcoin",
            "source": {
                "title": "Dent Twitter",
                "region": "en",
                "domain": "twitter.com",
                "path": "@dentcoin"
            },
            "title": "RT @subsquid: We are thrilled to be joining our new partners @dentcoin on their mission to make mobile #eSIM connectivity accessible and af\u2026",
            "published_at": "2023-07-11T17:56:45Z",
            "slug": "RT-subsquid-We-are-thrilled-to-be-joining-our-new-partners-dentcoin-on-their-mission-to-make-mobile-eSIM-connectivity-accessible-and-af",
            "currencies": [
                {
                    "code": "DENT",
                    "title": "Dent",
                    "slug": "dent",
                    "url": "https:\/\/cryptopanic.com\/news\/dent\/"
                }
            ],
            "id": 18763735,
            "url": "https:\/\/cryptopanic.com\/news\/18763735\/RT-subsquid-We-are-thrilled-to-be-joining-our-new-partners-dentcoin-on-their-mission-to-make-mobile-eSIM-connectivity-accessible-and-af",
            "created_at": "2023-07-11T17:56:45Z",
            "votes": {
                "negative": 0,
                "positive": 0,
                "important": 0,
                "liked": 0,
                "disliked": 0,
                "lol": 0,
                "toxic": 0,
                "saved": 0,
                "comments": 0
            }
        },
        {
            "kind": "news",
            "domain": "@dentcoin",
            "source": {
                "title": "Dent Twitter",
                "region": "en",
                "domain": "twitter.com",
                "path": "@dentcoin"
            },
            "title": "Attention #Android users! The wait is over. The Affiliate Program is now available on Android!  Share the benefi\u2026",
            "published_at": "2023-07-07T09:31:16Z",
            "slug": "Attention-Android-users-The-wait-is-over-The-Affiliate-Program-is-now-available-on-Android-Share-the-benefi",
            "currencies": [
                {
                    "code": "DENT",
                    "title": "Dent",
                    "slug": "dent",
                    "url": "https:\/\/cryptopanic.com\/news\/dent\/"
                }
            ],
            "id": 18739664,
            "url": "https:\/\/cryptopanic.com\/news\/18739664\/Attention-Android-users-The-wait-is-over-The-Affiliate-Program-is-now-available-on-Android-Share-the-benefi",
            "created_at": "2023-07-07T09:31:16Z",
            "votes": {
                "negative": 0,
                "positive": 0,
                "important": 0,
                "liked": 0,
                "disliked": 0,
                "lol": 0,
                "toxic": 0,
                "saved": 0,
                "comments": 0
            }
        },
        {
            "kind": "news",
            "domain": "@dentcoin",
            "source": {
                "title": "Dent Twitter",
                "region": "en",
                "domain": "twitter.com",
                "path": "@dentcoin"
            },
            "title": "\ud83c\udd95 We have launched our #DENT affiliate program for all the supporters, bloggers, travelers, influencers and travel\u2026",
            "published_at": "2023-06-29T19:35:42Z",
            "slug": "We-have-launched-our-DENT-affiliate-program-for-all-the-supporters-bloggers-travelers-influencers-and-travel",
            "currencies": [
                {
                    "code": "DENT",
                    "title": "Dent",
                    "slug": "dent",
                    "url": "https:\/\/cryptopanic.com\/news\/dent\/"
                }
            ],
            "id": 18685023,
            "url": "https:\/\/cryptopanic.com\/news\/18685023\/We-have-launched-our-DENT-affiliate-program-for-all-the-supporters-bloggers-travelers-influencers-and-travel",
            "created_at": "2023-06-29T19:35:42Z",
            "votes": {
                "negative": 0,
                "positive": 0,
                "important": 0,
                "liked": 0,
                "disliked": 0,
                "lol": 0,
                "toxic": 0,
                "saved": 0,
                "comments": 0
            }
        },
        {
            "kind": "news",
            "domain": "@dentcoin",
            "source": {
                "title": "Dent Twitter",
                "region": "en",
                "domain": "twitter.com",
                "path": "@dentcoin"
            },
            "title": "DENT Team is attending #PolkadotDecoded @Polkadot in Copenhagen! Motivated by our #DENTNet development, an IPFS int\u2026",
            "published_at": "2023-06-28T14:24:18Z",
            "slug": "DENT-Team-is-attending-PolkadotDecoded-Polkadot-in-Copenhagen-Motivated-by-our-DENTNet-development-an-IPFS-int",
            "currencies": [
                {
                    "code": "DENT",
                    "title": "Dent",
                    "slug": "dent",
                    "url": "https:\/\/cryptopanic.com\/news\/dent\/"
                }
            ],
            "id": 18676964,
            "url": "https:\/\/cryptopanic.com\/news\/18676964\/DENT-Team-is-attending-PolkadotDecoded-Polkadot-in-Copenhagen-Motivated-by-our-DENTNet-development-an-IPFS-int",
            "created_at": "2023-06-28T14:24:18Z",
            "votes": {
                "negative": 0,
                "positive": 0,
                "important": 0,
                "liked": 0,
                "disliked": 0,
                "lol": 0,
                "toxic": 0,
                "saved": 0,
                "comments": 0
            }
        },
        {
            "kind": "news",
            "domain": "@dentcoin",
            "source": {
                "title": "Dent Twitter",
                "region": "en",
                "domain": "twitter.com",
                "path": "@dentcoin"
            },
            "title": "We successfully enabled Voice minutes purchase on our #DENTNET development chain using the #DENT App. As you can se\u2026",
            "published_at": "2023-06-15T14:47:10Z",
            "slug": "We-successfully-enabled-Voice-minutes-purchase-on-our-DENTNET-development-chain-using-the-DENT-App-As-you-can-se",
            "currencies": [
                {
                    "code": "DENT",
                    "title": "Dent",
                    "slug": "dent",
                    "url": "https:\/\/cryptopanic.com\/news\/dent\/"
                }
            ],
            "id": 18586454,
            "url": "https:\/\/cryptopanic.com\/news\/18586454\/We-successfully-enabled-Voice-minutes-purchase-on-our-DENTNET-development-chain-using-the-DENT-App-As-you-can-se",
            "created_at": "2023-06-15T14:47:10Z",
            "votes": {
                "negative": 0,
                "positive": 0,
                "important": 0,
                "liked": 0,
                "disliked": 0,
                "lol": 0,
                "toxic": 0,
                "saved": 0,
                "comments": 0
            }
        },
        {
            "kind": "news",
            "domain": "@dentcoin",
            "source": {
                "title": "Dent Twitter",
                "region": "en",
                "domain": "twitter.com",
                "path": "@dentcoin"
            },
            "title": "Why limit yourself to one carrier when you can access multiple networks with #DENT eSIM? Join the growing community\u2026",
            "published_at": "2023-06-12T15:50:47Z",
            "slug": "Why-limit-yourself-to-one-carrier-when-you-can-access-multiple-networks-with-DENT-eSIM-Join-the-growing-community",
            "currencies": [
                {
                    "code": "DENT",
                    "title": "Dent",
                    "slug": "dent",
                    "url": "https:\/\/cryptopanic.com\/news\/dent\/"
                }
            ],
            "id": 18561853,
            "url": "https:\/\/cryptopanic.com\/news\/18561853\/Why-limit-yourself-to-one-carrier-when-you-can-access-multiple-networks-with-DENT-eSIM-Join-the-growing-community",
            "created_at": "2023-06-12T15:50:47Z",
            "votes": {
                "negative": 0,
                "positive": 0,
                "important": 0,
                "liked": 0,
                "disliked": 0,
                "lol": 0,
                "toxic": 0,
                "saved": 0,
                "comments": 0
            }
        },
        {
            "kind": "news",
            "domain": "@dentcoin",
            "source": {
                "title": "Dent Twitter",
                "region": "en",
                "domain": "twitter.com",
                "path": "@dentcoin"
            },
            "title": "We are thrilled to announce the launch of our new corporate website!   Discover the enhan\u2026",
            "published_at": "2023-05-23T09:11:17Z",
            "slug": "We-are-thrilled-to-announce-the-launch-of-our-new-corporate-website-Discover-the-enhan",
            "currencies": [
                {
                    "code": "DENT",
                    "title": "Dent",
                    "slug": "dent",
                    "url": "https:\/\/cryptopanic.com\/news\/dent\/"
                }
            ],
            "id": 18413448,
            "url": "https:\/\/cryptopanic.com\/news\/18413448\/We-are-thrilled-to-announce-the-launch-of-our-new-corporate-website-Discover-the-enhan",
            "created_at": "2023-05-23T09:11:17Z",
            "votes": {
                "negative": 0,
                "positive": 0,
                "important": 0,
                "liked": 0,
                "disliked": 0,
                "lol": 0,
                "toxic": 0,
                "saved": 0,
                "comments": 0
            }
        },
        {
            "kind": "news",
            "domain": "@dentcoin",
            "source": {
                "title": "Dent Twitter",
                "region": "en",
                "domain": "twitter.com",
                "path": "@dentcoin"
            },
            "title": "We've been testing for quite some time now and you guys approved  We are now launching 30 days validity #eSIM data\u2026",
            "published_at": "2023-05-12T18:30:40Z",
            "slug": "Weve-been-testing-for-quite-some-time-now-and-you-guys-approved-We-are-now-launching-30-days-validity-eSIM-data",
            "currencies": [
                {
                    "code": "DENT",
                    "title": "Dent",
                    "slug": "dent",
                    "url": "https:\/\/cryptopanic.com\/news\/dent\/"
                }
            ],
            "id": 18330351,
            "url": "https:\/\/cryptopanic.com\/news\/18330351\/Weve-been-testing-for-quite-some-time-now-and-you-guys-approved-We-are-now-launching-30-days-validity-eSIM-data",
            "created_at": "2023-05-12T18:30:40Z",
            "votes": {
                "negative": 0,
                "positive": 0,
                "important": 0,
                "liked": 0,
                "disliked": 0,
                "lol": 0,
                "toxic": 0,
                "saved": 0,
                "comments": 0
            }
        },
        {
            "kind": "news",
            "domain": "@dentcoin",
            "source": {
                "title": "Dent Twitter",
                "region": "en",
                "domain": "twitter.com",
                "path": "@dentcoin"
            },
            "title": "The WiFi Map app with #DENT eSIM Android SDK integration is now live in the Google Play Store! Get ready to enjoy t\u2026",
            "published_at": "2023-05-08T06:37:12Z",
            "slug": "The-WiFi-Map-app-with-DENT-eSIM-Android-SDK-integration-is-now-live-in-the-Google-Play-Store-Get-ready-to-enjoy-t",
            "currencies": [
                {
                    "code": "DENT",
                    "title": "Dent",
                    "slug": "dent",
                    "url": "https:\/\/cryptopanic.com\/news\/dent\/"
                }
            ],
            "id": 18287062,
            "url": "https:\/\/cryptopanic.com\/news\/18287062\/The-WiFi-Map-app-with-DENT-eSIM-Android-SDK-integration-is-now-live-in-the-Google-Play-Store-Get-ready-to-enjoy-t",
            "created_at": "2023-05-08T06:37:12Z",
            "votes": {
                "negative": 0,
                "positive": 0,
                "important": 0,
                "liked": 0,
                "disliked": 0,
                "lol": 0,
                "toxic": 0,
                "saved": 0,
                "comments": 0
            }
        },
        {
            "kind": "news",
            "domain": "@dentcoin",
            "source": {
                "title": "Dent Twitter",
                "region": "en",
                "domain": "twitter.com",
                "path": "@dentcoin"
            },
            "title": "The worlds 1st Telco Blockchain #DENTnet is running since over 450 days and has produced over 13 million blocks on\u2026",
            "published_at": "2023-03-31T08:30:58Z",
            "slug": "The-worlds-1st-Telco-Blockchain-DENTnet-is-running-since-over-450-days-and-has-produced-over-13-million-blocks-on",
            "currencies": [
                {
                    "code": "DENT",
                    "title": "Dent",
                    "slug": "dent",
                    "url": "https:\/\/cryptopanic.com\/news\/dent\/"
                }
            ],
            "id": 18012212,
            "url": "https:\/\/cryptopanic.com\/news\/18012212\/The-worlds-1st-Telco-Blockchain-DENTnet-is-running-since-over-450-days-and-has-produced-over-13-million-blocks-on",
            "created_at": "2023-03-31T08:30:58Z",
            "votes": {
                "negative": 0,
                "positive": 0,
                "important": 0,
                "liked": 0,
                "disliked": 0,
                "lol": 0,
                "toxic": 0,
                "saved": 0,
                "comments": 0
            }
        },
        {
            "kind": "news",
            "domain": "@dentcoin",
            "source": {
                "title": "Dent Twitter",
                "region": "en",
                "domain": "twitter.com",
                "path": "@dentcoin"
            },
            "title": " Get your hands on the 30 days data packs during #Binance deals in March and save up to 45% on #eSIM data! Check\u2026",
            "published_at": "2023-03-01T16:31:50Z",
            "slug": "Get-your-hands-on-the-30-days-data-packs-during-Binance-deals-in-March-and-save-up-to-45-on-eSIM-data-Check",
            "currencies": [
                {
                    "code": "DENT",
                    "title": "Dent",
                    "slug": "dent",
                    "url": "https:\/\/cryptopanic.com\/news\/dent\/"
                }
            ],
            "id": 17765632,
            "url": "https:\/\/cryptopanic.com\/news\/17765632\/Get-your-hands-on-the-30-days-data-packs-during-Binance-deals-in-March-and-save-up-to-45-on-eSIM-data-Check",
            "created_at": "2023-03-01T16:31:50Z",
            "votes": {
                "negative": 0,
                "positive": 0,
                "important": 0,
                "liked": 0,
                "disliked": 0,
                "lol": 0,
                "toxic": 0,
                "saved": 0,
                "comments": 0
            }
        },
        {
            "kind": "news",
            "domain": "@dentcoin",
            "source": {
                "title": "Dent Twitter",
                "region": "en",
                "domain": "twitter.com",
                "path": "@dentcoin"
            },
            "title": "RT @binance: Explore new deals on #Binance Marketplace this March \ud83e\udee1\n\nAll users can enjoy discounts of up to 45%, as well as up to $5 in Tra\u2026",
            "published_at": "2023-02-28T16:20:11Z",
            "slug": "RT-binance-Explore-new-deals-on-Binance-Marketplace-this-March-All-users-can-enjoy-discounts-of-up-to-45-as-well-as-up-to-5-in-Tra",
            "currencies": [
                {
                    "code": "DENT",
                    "title": "Dent",
                    "slug": "dent",
                    "url": "https:\/\/cryptopanic.com\/news\/dent\/"
                }
            ],
            "id": 17755699,
            "url": "https:\/\/cryptopanic.com\/news\/17755699\/RT-binance-Explore-new-deals-on-Binance-Marketplace-this-March-All-users-can-enjoy-discounts-of-up-to-45-as-well-as-up-to-5-in-Tra",
            "created_at": "2023-02-28T16:20:11Z",
            "votes": {
                "negative": 0,
                "positive": 0,
                "important": 0,
                "liked": 0,
                "disliked": 0,
                "lol": 0,
                "toxic": 0,
                "saved": 0,
                "comments": 0
            }
        },
        {
            "kind": "news",
            "domain": "@dentcoin",
            "source": {
                "title": "Dent Twitter",
                "region": "en",
                "domain": "twitter.com",
                "path": "@dentcoin"
            },
            "title": "#DENT Team is attending Mobile World Congress, the most important #Mobile event of the year",
            "published_at": "2023-02-28T12:21:16Z",
            "slug": "DENT-Team-is-attending-Mobile-World-Congress-the-most-important-Mobile-event-of-the-year",
            "currencies": [
                {
                    "code": "DENT",
                    "title": "Dent",
                    "slug": "dent",
                    "url": "https:\/\/cryptopanic.com\/news\/dent\/"
                }
            ],
            "id": 17754851,
            "url": "https:\/\/cryptopanic.com\/news\/17754851\/DENT-Team-is-attending-Mobile-World-Congress-the-most-important-Mobile-event-of-the-year",
            "created_at": "2023-02-28T12:21:16Z",
            "votes": {
                "negative": 0,
                "positive": 0,
                "important": 0,
                "liked": 0,
                "disliked": 0,
                "lol": 0,
                "toxic": 0,
                "saved": 0,
                "comments": 0
            }
        },
        {
            "kind": "news",
            "domain": "@dentcoin",
            "source": {
                "title": "Dent Twitter",
                "region": "en",
                "domain": "twitter.com",
                "path": "@dentcoin"
            },
            "title": "Great to be part of this journey to do our part to remove CO2 from this planet by creating world-class Biochar that\u2026",
            "published_at": "2023-02-17T12:01:03Z",
            "slug": "Great-to-be-part-of-this-journey-to-do-our-part-to-remove-CO2-from-this-planet-by-creating-world-class-Biochar-that",
            "currencies": [
                {
                    "code": "DENT",
                    "title": "Dent",
                    "slug": "dent",
                    "url": "https:\/\/cryptopanic.com\/news\/dent\/"
                }
            ],
            "id": 17666539,
            "url": "https:\/\/cryptopanic.com\/news\/17666539\/Great-to-be-part-of-this-journey-to-do-our-part-to-remove-CO2-from-this-planet-by-creating-world-class-Biochar-that",
            "created_at": "2023-02-17T12:01:03Z",
            "votes": {
                "negative": 0,
                "positive": 0,
                "important": 0,
                "liked": 0,
                "disliked": 0,
                "lol": 0,
                "toxic": 0,
                "saved": 0,
                "comments": 0
            }
        },
        {
            "kind": "news",
            "domain": "@dentcoin",
            "source": {
                "title": "Dent Twitter",
                "region": "en",
                "domain": "twitter.com",
                "path": "@dentcoin"
            },
            "title": " You can now use Binance Pay to purchase eSIM mobile data and #DENT Tokens within the DENT Apps! You can now sig\u2026",
            "published_at": "2023-02-09T10:49:24Z",
            "slug": "You-can-now-use-Binance-Pay-to-purchase-eSIM-mobile-data-and-DENT-Tokens-within-the-DENT-Apps-You-can-now-sig",
            "currencies": [
                {
                    "code": "DENT",
                    "title": "Dent",
                    "slug": "dent",
                    "url": "https:\/\/cryptopanic.com\/news\/dent\/"
                }
            ],
            "id": 17595957,
            "url": "https:\/\/cryptopanic.com\/news\/17595957\/You-can-now-use-Binance-Pay-to-purchase-eSIM-mobile-data-and-DENT-Tokens-within-the-DENT-Apps-You-can-now-sig",
            "created_at": "2023-02-09T10:49:24Z",
            "votes": {
                "negative": 0,
                "positive": 0,
                "important": 0,
                "liked": 0,
                "disliked": 0,
                "lol": 0,
                "toxic": 0,
                "saved": 0,
                "comments": 0
            }
        },
        {
            "kind": "news",
            "domain": "@dentcoin",
            "source": {
                "title": "Dent Twitter",
                "region": "en",
                "domain": "twitter.com",
                "path": "@dentcoin"
            },
            "title": " Network location now available on Android too!\nDENT app 4.3.1 includes the Network Location feature powered by DB\u2026",
            "published_at": "2023-01-30T10:19:17Z",
            "slug": "Network-location-now-available-on-Android-too-DENT-app-431-includes-the-Network-Location-feature-powered-by-DB",
            "currencies": [
                {
                    "code": "DENT",
                    "title": "Dent",
                    "slug": "dent",
                    "url": "https:\/\/cryptopanic.com\/news\/dent\/"
                }
            ],
            "id": 17505627,
            "url": "https:\/\/cryptopanic.com\/news\/17505627\/Network-location-now-available-on-Android-too-DENT-app-431-includes-the-Network-Location-feature-powered-by-DB",
            "created_at": "2023-01-30T10:19:17Z",
            "votes": {
                "negative": 0,
                "positive": 0,
                "important": 0,
                "liked": 0,
                "disliked": 0,
                "lol": 0,
                "toxic": 0,
                "saved": 0,
                "comments": 0
            }
        },
        {
            "kind": "news",
            "domain": "@dentcoin",
            "source": {
                "title": "Dent Twitter",
                "region": "en",
                "domain": "twitter.com",
                "path": "@dentcoin"
            },
            "title": " New in the #Binance Marketplace: The #DENT Mini-App! Get connected with DENT eSIM Data right in the Binance App.\u2026",
            "published_at": "2022-12-07T16:26:02Z",
            "slug": "New-in-the-Binance-Marketplace-The-DENT-Mini-App-Get-connected-with-DENT-eSIM-Data-right-in-the-Binance-App",
            "currencies": [
                {
                    "code": "DENT",
                    "title": "Dent",
                    "slug": "dent",
                    "url": "https:\/\/cryptopanic.com\/news\/dent\/"
                }
            ],
            "id": 17094106,
            "url": "https:\/\/cryptopanic.com\/news\/17094106\/New-in-the-Binance-Marketplace-The-DENT-Mini-App-Get-connected-with-DENT-eSIM-Data-right-in-the-Binance-App",
            "created_at": "2022-12-07T16:26:02Z",
            "votes": {
                "negative": 0,
                "positive": 0,
                "important": 0,
                "liked": 0,
                "disliked": 0,
                "lol": 0,
                "toxic": 0,
                "saved": 0,
                "comments": 0
            }
        },
        {
            "kind": "news",
            "domain": "@dentcoin",
            "source": {
                "title": "Dent Twitter",
                "region": "en",
                "domain": "twitter.com",
                "path": "@dentcoin"
            },
            "title": "Another major feature has arrived in the #DENT App! The latest app version 4.3.1 includes the Network Location fe\u2026",
            "published_at": "2022-11-16T13:37:40Z",
            "slug": "Another-major-feature-has-arrived-in-the-DENT-App-The-latest-app-version-431-includes-the-Network-Location-fe",
            "currencies": [
                {
                    "code": "DENT",
                    "title": "Dent",
                    "slug": "dent",
                    "url": "https:\/\/cryptopanic.com\/news\/dent\/"
                }
            ],
            "id": 16913287,
            "url": "https:\/\/cryptopanic.com\/news\/16913287\/Another-major-feature-has-arrived-in-the-DENT-App-The-latest-app-version-431-includes-the-Network-Location-fe",
            "created_at": "2022-11-16T13:37:40Z",
            "votes": {
                "negative": 0,
                "positive": 0,
                "important": 0,
                "liked": 0,
                "disliked": 0,
                "lol": 0,
                "toxic": 0,
                "saved": 0,
                "comments": 0
            }
        },
        {
            "kind": "news",
            "domain": "@dentcoin",
            "source": {
                "title": "Dent Twitter",
                "region": "en",
                "domain": "twitter.com",
                "path": "@dentcoin"
            },
            "title": "\ufe0f We are ready for the FIFA World Cup in Qatar 2022  @FIFAWorldCup  #DENT #eSIM mobile data has you covered in\u2026",
            "published_at": "2022-11-04T09:59:05Z",
            "slug": "We-are-ready-for-the-FIFA-World-Cup-in-Qatar-2022-FIFAWorldCup-DENT-eSIM-mobile-data-has-you-covered-in",
            "currencies": [
                {
                    "code": "DENT",
                    "title": "Dent",
                    "slug": "dent",
                    "url": "https:\/\/cryptopanic.com\/news\/dent\/"
                }
            ],
            "id": 16800102,
            "url": "https:\/\/cryptopanic.com\/news\/16800102\/We-are-ready-for-the-FIFA-World-Cup-in-Qatar-2022-FIFAWorldCup-DENT-eSIM-mobile-data-has-you-covered-in",
            "created_at": "2022-11-04T09:59:05Z",
            "votes": {
                "negative": 0,
                "positive": 0,
                "important": 0,
                "liked": 0,
                "disliked": 0,
                "lol": 0,
                "toxic": 0,
                "saved": 0,
                "comments": 0
            }
        },
        {
            "kind": "news",
            "domain": "@dentcoin",
            "source": {
                "title": "Dent Twitter",
                "region": "en",
                "domain": "twitter.com",
                "path": "@dentcoin"
            },
            "title": "Team in action at the 5G and Telco Cloud Event #NetworkX in Amsterdam, showing first time t\u2026",
            "published_at": "2022-10-19T06:33:25Z",
            "slug": "Team-in-action-at-the-5G-and-Telco-Cloud-Event-NetworkX-in-Amsterdam-showing-first-time-t",
            "currencies": [
                {
                    "code": "DENT",
                    "title": "Dent",
                    "slug": "dent",
                    "url": "https:\/\/cryptopanic.com\/news\/dent\/"
                }
            ],
            "id": 16642512,
            "url": "https:\/\/cryptopanic.com\/news\/16642512\/Team-in-action-at-the-5G-and-Telco-Cloud-Event-NetworkX-in-Amsterdam-showing-first-time-t",
            "created_at": "2022-10-19T06:33:25Z",
            "votes": {
                "negative": 0,
                "positive": 0,
                "important": 0,
                "liked": 0,
                "disliked": 0,
                "lol": 0,
                "toxic": 0,
                "saved": 0,
                "comments": 0
            }
        }
    ]
}
