{
    "count": 200,
    "next": "https:\/\/cryptopanic.com\/api\/v1\/posts\/?auth_token=01c356e89ffc1b8eba2127c81fc8c66ee0eace75&kind=news&currencies=CVC&page=2",
    "previous": null,
    "results": [
        {
            "kind": "news",
            "domain": "@civickey",
            "source": {
                "title": "Civic Twitter",
                "region": "en",
                "domain": "twitter.com",
                "path": "@civickey"
            },
            "title": "We\u2019re giving FIVE Ocean Explorers to the community on July 14:\n1. Follow @civickey\n2. Publish your profile with a P\u2026",
            "published_at": "2023-07-11T16:36:09Z",
            "slug": "Were-giving-FIVE-Ocean-Explorers-to-the-community-on-July-14-1-Follow-civickey-2-Publish-your-profile-with-a-P",
            "currencies": [
                {
                    "code": "CVC",
                    "title": "Civic",
                    "slug": "civic",
                    "url": "https:\/\/cryptopanic.com\/news\/civic\/"
                }
            ],
            "id": 18763326,
            "url": "https:\/\/cryptopanic.com\/news\/18763326\/Were-giving-FIVE-Ocean-Explorers-to-the-community-on-July-14-1-Follow-civickey-2-Publish-your-profile-with-a-P",
            "created_at": "2023-07-11T16:36:09Z",
            "votes": {
                "negative": 0,
                "positive": 0,
                "important": 0,
                "liked": 0,
                "disliked": 0,
                "lol": 0,
                "toxic": 0,
                "saved": 0,
                "comments": 0
            }
        },
        {
            "kind": "news",
            "domain": "@civickey",
            "source": {
                "title": "Civic Twitter",
                "region": "en",
                "domain": "twitter.com",
                "path": "@civickey"
            },
            "title": "RT @ExplorersNFT: We've teamed up with @civickey for a shot at an Explorer!\n\nDetails in thread below!",
            "published_at": "2023-07-10T18:26:06Z",
            "slug": "RT-ExplorersNFT-Weve-teamed-up-with-civickey-for-a-shot-at-an-Explorer-Details-in-thread-below",
            "currencies": [
                {
                    "code": "CVC",
                    "title": "Civic",
                    "slug": "civic",
                    "url": "https:\/\/cryptopanic.com\/news\/civic\/"
                }
            ],
            "id": 18755171,
            "url": "https:\/\/cryptopanic.com\/news\/18755171\/RT-ExplorersNFT-Weve-teamed-up-with-civickey-for-a-shot-at-an-Explorer-Details-in-thread-below",
            "created_at": "2023-07-10T18:26:06Z",
            "votes": {
                "negative": 0,
                "positive": 0,
                "important": 0,
                "liked": 0,
                "disliked": 0,
                "lol": 0,
                "toxic": 0,
                "saved": 0,
                "comments": 0
            }
        },
        {
            "kind": "news",
            "domain": "@civickey",
            "source": {
                "title": "Civic Twitter",
                "region": "en",
                "domain": "twitter.com",
                "path": "@civickey"
            },
            "title": "1\/ We are THRILLED to do an exclusive giveaway with @ExplorersNFT.\n\nWe\u2019re giving FIVE Ocean Explorers to the commun\u2026",
            "published_at": "2023-07-10T17:45:03Z",
            "slug": "1-We-are-THRILLED-to-do-an-exclusive-giveaway-with-ExplorersNFT-Were-giving-FIVE-Ocean-Explorers-to-the-commun",
            "currencies": [
                {
                    "code": "CVC",
                    "title": "Civic",
                    "slug": "civic",
                    "url": "https:\/\/cryptopanic.com\/news\/civic\/"
                }
            ],
            "id": 18755172,
            "url": "https:\/\/cryptopanic.com\/news\/18755172\/1-We-are-THRILLED-to-do-an-exclusive-giveaway-with-ExplorersNFT-Were-giving-FIVE-Ocean-Explorers-to-the-commun",
            "created_at": "2023-07-10T17:45:03Z",
            "votes": {
                "negative": 0,
                "positive": 0,
                "important": 0,
                "liked": 0,
                "disliked": 0,
                "lol": 0,
                "toxic": 0,
                "saved": 0,
                "comments": 0
            }
        },
        {
            "kind": "news",
            "domain": "@civickey",
            "source": {
                "title": "Civic Twitter",
                "region": "en",
                "domain": "twitter.com",
                "path": "@civickey"
            },
            "title": "In Q2 of 2023, we introduced our enterprise-grade identity and access management service, Civic Pass Platform; adde\u2026",
            "published_at": "2023-07-10T16:04:46Z",
            "slug": "In-Q2-of-2023-we-introduced-our-enterprise-grade-identity-and-access-management-service-Civic-Pass-Platform-adde",
            "currencies": [
                {
                    "code": "CVC",
                    "title": "Civic",
                    "slug": "civic",
                    "url": "https:\/\/cryptopanic.com\/news\/civic\/"
                }
            ],
            "id": 18755173,
            "url": "https:\/\/cryptopanic.com\/news\/18755173\/In-Q2-of-2023-we-introduced-our-enterprise-grade-identity-and-access-management-service-Civic-Pass-Platform-adde",
            "created_at": "2023-07-10T16:04:46Z",
            "votes": {
                "negative": 0,
                "positive": 0,
                "important": 0,
                "liked": 0,
                "disliked": 0,
                "lol": 0,
                "toxic": 0,
                "saved": 0,
                "comments": 0
            }
        },
        {
            "kind": "news",
            "domain": "@civickey",
            "source": {
                "title": "Civic Twitter",
                "region": "en",
                "domain": "twitter.com",
                "path": "@civickey"
            },
            "title": "Details tomorrow.\n\n\u200d\ufe0f\u200d\ufe0f\u200d\ufe0f\n\ncc @ExplorersNFT",
            "published_at": "2023-07-09T14:33:00Z",
            "slug": "Details-tomorrow-cc-ExplorersNFT",
            "currencies": [
                {
                    "code": "CVC",
                    "title": "Civic",
                    "slug": "civic",
                    "url": "https:\/\/cryptopanic.com\/news\/civic\/"
                }
            ],
            "id": 18749162,
            "url": "https:\/\/cryptopanic.com\/news\/18749162\/Details-tomorrow-cc-ExplorersNFT",
            "created_at": "2023-07-09T14:33:00Z",
            "votes": {
                "negative": 0,
                "positive": 0,
                "important": 0,
                "liked": 0,
                "disliked": 0,
                "lol": 0,
                "toxic": 0,
                "saved": 0,
                "comments": 0
            }
        },
        {
            "kind": "news",
            "domain": "@civickey",
            "source": {
                "title": "Civic Twitter",
                "region": "en",
                "domain": "twitter.com",
                "path": "@civickey"
            },
            "title": "Filled to the brim with treasure, that ship!\n\nDetails coming soon\u2026\n\n\n\ncc @ExplorersNFT",
            "published_at": "2023-07-08T14:30:00Z",
            "slug": "Filled-to-the-brim-with-treasure-that-ship-Details-coming-soon-cc-ExplorersNFT",
            "currencies": [
                {
                    "code": "CVC",
                    "title": "Civic",
                    "slug": "civic",
                    "url": "https:\/\/cryptopanic.com\/news\/civic\/"
                }
            ],
            "id": 18745002,
            "url": "https:\/\/cryptopanic.com\/news\/18745002\/Filled-to-the-brim-with-treasure-that-ship-Details-coming-soon-cc-ExplorersNFT",
            "created_at": "2023-07-08T14:30:00Z",
            "votes": {
                "negative": 0,
                "positive": 0,
                "important": 0,
                "liked": 0,
                "disliked": 0,
                "lol": 0,
                "toxic": 0,
                "saved": 0,
                "comments": 0
            }
        },
        {
            "kind": "news",
            "domain": "@civickey",
            "source": {
                "title": "Civic Twitter",
                "region": "en",
                "domain": "twitter.com",
                "path": "@civickey"
            },
            "title": "Ahoy, thar! Something fantastic is on the horizon.\n\nWhat could it be, @ExplorersNFT?\n\n",
            "published_at": "2023-07-07T22:46:47Z",
            "slug": "Ahoy-thar-Something-fantastic-is-on-the-horizon-What-could-it-be-ExplorersNFT",
            "currencies": [
                {
                    "code": "CVC",
                    "title": "Civic",
                    "slug": "civic",
                    "url": "https:\/\/cryptopanic.com\/news\/civic\/"
                }
            ],
            "id": 18739308,
            "url": "https:\/\/cryptopanic.com\/news\/18739308\/Ahoy-thar-Something-fantastic-is-on-the-horizon-What-could-it-be-ExplorersNFT",
            "created_at": "2023-07-07T22:46:47Z",
            "votes": {
                "negative": 0,
                "positive": 0,
                "important": 0,
                "liked": 0,
                "disliked": 0,
                "lol": 0,
                "toxic": 0,
                "saved": 0,
                "comments": 0
            }
        },
        {
            "kind": "news",
            "domain": "@civickey",
            "source": {
                "title": "Civic Twitter",
                "region": "en",
                "domain": "twitter.com",
                "path": "@civickey"
            },
            "title": "RT @_Dean_Machine: Had a call with @danbkelleher a few days ago and shared some initial thoughts on our new DAO tooling initiatives for @Re\u2026",
            "published_at": "2023-07-07T15:31:31Z",
            "slug": "RT-_Dean_Machine-Had-a-call-with-danbkelleher-a-few-days-ago-and-shared-some-initial-thoughts-on-our-new-DAO-tooling-initiatives-for-Re",
            "currencies": [
                {
                    "code": "CVC",
                    "title": "Civic",
                    "slug": "civic",
                    "url": "https:\/\/cryptopanic.com\/news\/civic\/"
                }
            ],
            "id": 18739309,
            "url": "https:\/\/cryptopanic.com\/news\/18739309\/RT-_Dean_Machine-Had-a-call-with-danbkelleher-a-few-days-ago-and-shared-some-initial-thoughts-on-our-new-DAO-tooling-initiatives-for-Re",
            "created_at": "2023-07-07T15:31:31Z",
            "votes": {
                "negative": 0,
                "positive": 0,
                "important": 0,
                "liked": 0,
                "disliked": 0,
                "lol": 0,
                "toxic": 0,
                "saved": 0,
                "comments": 0
            }
        },
        {
            "kind": "news",
            "domain": "@civickey",
            "source": {
                "title": "Civic Twitter",
                "region": "en",
                "domain": "twitter.com",
                "path": "@civickey"
            },
            "title": "RT @DaeshawnBallard: Who can help me round out the solana version? Here are a few that come to mind:\n\nApp layer: @saydialect @solarplex_xyz\u2026",
            "published_at": "2023-07-07T15:31:06Z",
            "slug": "RT-DaeshawnBallard-Who-can-help-me-round-out-the-solana-version-Here-are-a-few-that-come-to-mind-App-layer-saydialect-solarplex_xyz",
            "currencies": [
                {
                    "code": "CVC",
                    "title": "Civic",
                    "slug": "civic",
                    "url": "https:\/\/cryptopanic.com\/news\/civic\/"
                },
                {
                    "code": "SOL",
                    "title": "Solana",
                    "slug": "solana",
                    "url": "https:\/\/cryptopanic.com\/news\/solana\/"
                }
            ],
            "id": 18739310,
            "url": "https:\/\/cryptopanic.com\/news\/18739310\/RT-DaeshawnBallard-Who-can-help-me-round-out-the-solana-version-Here-are-a-few-that-come-to-mind-App-layer-saydialect-solarplex_xyz",
            "created_at": "2023-07-07T15:31:06Z",
            "votes": {
                "negative": 0,
                "positive": 0,
                "important": 0,
                "liked": 0,
                "disliked": 0,
                "lol": 0,
                "toxic": 0,
                "saved": 0,
                "comments": 0
            }
        },
        {
            "kind": "news",
            "domain": "@civickey",
            "source": {
                "title": "Civic Twitter",
                "region": "en",
                "domain": "twitter.com",
                "path": "@civickey"
            },
            "title": "RT @civickey: ICYMI: We are thrilled to award prizes to Civic bounty winners for the @Web3athon_xyz on @xdc_community",
            "published_at": "2023-07-07T03:33:55Z",
            "slug": "RT-civickey-ICYMI-We-are-thrilled-to-award-prizes-to-Civic-bounty-winners-for-the-Web3athon_xyz-on-xdc_community",
            "currencies": [
                {
                    "code": "CVC",
                    "title": "Civic",
                    "slug": "civic",
                    "url": "https:\/\/cryptopanic.com\/news\/civic\/"
                }
            ],
            "id": 18731517,
            "url": "https:\/\/cryptopanic.com\/news\/18731517\/RT-civickey-ICYMI-We-are-thrilled-to-award-prizes-to-Civic-bounty-winners-for-the-Web3athon_xyz-on-xdc_community",
            "created_at": "2023-07-07T03:33:55Z",
            "votes": {
                "negative": 0,
                "positive": 0,
                "important": 0,
                "liked": 0,
                "disliked": 0,
                "lol": 0,
                "toxic": 0,
                "saved": 0,
                "comments": 0
            }
        },
        {
            "kind": "news",
            "domain": "@civickey",
            "source": {
                "title": "Civic Twitter",
                "region": "en",
                "domain": "twitter.com",
                "path": "@civickey"
            },
            "title": "Show off your NFTs, all in one place. \n\nTry out with a few easy steps \u2b07\ufe0f",
            "published_at": "2023-07-05T14:22:00Z",
            "slug": "Show-off-your-NFTs-all-in-one-place-Try-out-with-a-few-easy-steps",
            "currencies": [
                {
                    "code": "CVC",
                    "title": "Civic",
                    "slug": "civic",
                    "url": "https:\/\/cryptopanic.com\/news\/civic\/"
                }
            ],
            "id": 18722941,
            "url": "https:\/\/cryptopanic.com\/news\/18722941\/Show-off-your-NFTs-all-in-one-place-Try-out-with-a-few-easy-steps",
            "created_at": "2023-07-05T14:22:00Z",
            "votes": {
                "negative": 0,
                "positive": 0,
                "important": 0,
                "liked": 0,
                "disliked": 0,
                "lol": 0,
                "toxic": 0,
                "saved": 0,
                "comments": 0
            }
        },
        {
            "kind": "news",
            "domain": "@civickey",
            "source": {
                "title": "Civic Twitter",
                "region": "en",
                "domain": "twitter.com",
                "path": "@civickey"
            },
            "title": "We've partnered with @uniquevcs -- check it out!",
            "published_at": "2023-07-04T14:18:00Z",
            "slug": "Weve-partnered-with-uniquevcs-check-it-out",
            "currencies": [
                {
                    "code": "CVC",
                    "title": "Civic",
                    "slug": "civic",
                    "url": "https:\/\/cryptopanic.com\/news\/civic\/"
                }
            ],
            "id": 18715361,
            "url": "https:\/\/cryptopanic.com\/news\/18715361\/Weve-partnered-with-uniquevcs-check-it-out",
            "created_at": "2023-07-04T14:18:00Z",
            "votes": {
                "negative": 0,
                "positive": 0,
                "important": 0,
                "liked": 0,
                "disliked": 0,
                "lol": 0,
                "toxic": 0,
                "saved": 0,
                "comments": 0
            }
        },
        {
            "kind": "news",
            "domain": "@civickey",
            "source": {
                "title": "Civic Twitter",
                "region": "en",
                "domain": "twitter.com",
                "path": "@civickey"
            },
            "title": "ICYMI: We\u2019ve partnered with for investor identity verification on their platform. ",
            "published_at": "2023-07-03T14:15:00Z",
            "slug": "ICYMI-Weve-partnered-with-for-investor-identity-verification-on-their-platform",
            "currencies": [
                {
                    "code": "CVC",
                    "title": "Civic",
                    "slug": "civic",
                    "url": "https:\/\/cryptopanic.com\/news\/civic\/"
                }
            ],
            "id": 18708041,
            "url": "https:\/\/cryptopanic.com\/news\/18708041\/ICYMI-Weve-partnered-with-for-investor-identity-verification-on-their-platform",
            "created_at": "2023-07-03T14:15:00Z",
            "votes": {
                "negative": 0,
                "positive": 0,
                "important": 0,
                "liked": 0,
                "disliked": 0,
                "lol": 0,
                "toxic": 0,
                "saved": 0,
                "comments": 0
            }
        },
        {
            "kind": "news",
            "domain": "@civickey",
            "source": {
                "title": "Civic Twitter",
                "region": "en",
                "domain": "twitter.com",
                "path": "@civickey"
            },
            "title": "Keep your community safe, no matter the chain.",
            "published_at": "2023-07-02T15:17:00Z",
            "slug": "Keep-your-community-safe-no-matter-the-chain",
            "currencies": [
                {
                    "code": "CVC",
                    "title": "Civic",
                    "slug": "civic",
                    "url": "https:\/\/cryptopanic.com\/news\/civic\/"
                }
            ],
            "id": 18702170,
            "url": "https:\/\/cryptopanic.com\/news\/18702170\/Keep-your-community-safe-no-matter-the-chain",
            "created_at": "2023-07-02T15:17:00Z",
            "votes": {
                "negative": 0,
                "positive": 0,
                "important": 0,
                "liked": 0,
                "disliked": 0,
                "lol": 0,
                "toxic": 0,
                "saved": 0,
                "comments": 0
            }
        },
        {
            "kind": "news",
            "domain": "@civickey",
            "source": {
                "title": "Civic Twitter",
                "region": "en",
                "domain": "twitter.com",
                "path": "@civickey"
            },
            "title": "Get in the driver's seat with Civic Pass.",
            "published_at": "2023-07-01T14:07:00Z",
            "slug": "Get-in-the-drivers-seat-with-Civic-Pass",
            "currencies": [
                {
                    "code": "CVC",
                    "title": "Civic",
                    "slug": "civic",
                    "url": "https:\/\/cryptopanic.com\/news\/civic\/"
                }
            ],
            "id": 18698120,
            "url": "https:\/\/cryptopanic.com\/news\/18698120\/Get-in-the-drivers-seat-with-Civic-Pass",
            "created_at": "2023-07-01T14:07:00Z",
            "votes": {
                "negative": 0,
                "positive": 0,
                "important": 0,
                "liked": 0,
                "disliked": 0,
                "lol": 0,
                "toxic": 0,
                "saved": 0,
                "comments": 0
            }
        },
        {
            "kind": "news",
            "domain": "@civickey",
            "source": {
                "title": "Civic Twitter",
                "region": "en",
                "domain": "twitter.com",
                "path": "@civickey"
            },
            "title": "ICYMI: We are thrilled to award prizes to Civic bounty winners for the @Web3athon_xyz on @xdc_community",
            "published_at": "2023-06-30T14:07:00Z",
            "slug": "ICYMI-We-are-thrilled-to-award-prizes-to-Civic-bounty-winners-for-the-Web3athon_xyz-on-xdc_community",
            "currencies": [
                {
                    "code": "CVC",
                    "title": "Civic",
                    "slug": "civic",
                    "url": "https:\/\/cryptopanic.com\/news\/civic\/"
                }
            ],
            "id": 18692541,
            "url": "https:\/\/cryptopanic.com\/news\/18692541\/ICYMI-We-are-thrilled-to-award-prizes-to-Civic-bounty-winners-for-the-Web3athon_xyz-on-xdc_community",
            "created_at": "2023-06-30T14:07:00Z",
            "votes": {
                "negative": 0,
                "positive": 0,
                "important": 0,
                "liked": 0,
                "disliked": 0,
                "lol": 0,
                "toxic": 0,
                "saved": 0,
                "comments": 0
            }
        },
        {
            "kind": "news",
            "domain": "@civickey",
            "source": {
                "title": "Civic Twitter",
                "region": "en",
                "domain": "twitter.com",
                "path": "@civickey"
            },
            "title": "ICYMI: We joined the @arbitrum community! Hear all about it on your own time, just push play ",
            "published_at": "2023-06-30T04:00:12Z",
            "slug": "ICYMI-We-joined-the-arbitrum-community-Hear-all-about-it-on-your-own-time-just-push-play",
            "currencies": [
                {
                    "code": "CVC",
                    "title": "Civic",
                    "slug": "civic",
                    "url": "https:\/\/cryptopanic.com\/news\/civic\/"
                }
            ],
            "id": 18684598,
            "url": "https:\/\/cryptopanic.com\/news\/18684598\/ICYMI-We-joined-the-arbitrum-community-Hear-all-about-it-on-your-own-time-just-push-play",
            "created_at": "2023-06-30T04:00:12Z",
            "votes": {
                "negative": 0,
                "positive": 0,
                "important": 0,
                "liked": 0,
                "disliked": 0,
                "lol": 0,
                "toxic": 0,
                "saved": 0,
                "comments": 0
            }
        },
        {
            "kind": "news",
            "domain": "@civickey",
            "source": {
                "title": "Civic Twitter",
                "region": "en",
                "domain": "twitter.com",
                "path": "@civickey"
            },
            "title": "RT @civickey: Thrilled to join the @arbitrum community and offer support for Civic Pass! \n\nHearing about Civic Pass for the 1st time? It\u2019s\u2026",
            "published_at": "2023-06-28T20:49:11Z",
            "slug": "RT-civickey-Thrilled-to-join-the-arbitrum-community-and-offer-support-for-Civic-Pass-Hearing-about-Civic-Pass-for-the-1st-time-Its",
            "currencies": [
                {
                    "code": "CVC",
                    "title": "Civic",
                    "slug": "civic",
                    "url": "https:\/\/cryptopanic.com\/news\/civic\/"
                }
            ],
            "id": 18676528,
            "url": "https:\/\/cryptopanic.com\/news\/18676528\/RT-civickey-Thrilled-to-join-the-arbitrum-community-and-offer-support-for-Civic-Pass-Hearing-about-Civic-Pass-for-the-1st-time-Its",
            "created_at": "2023-06-28T20:49:11Z",
            "votes": {
                "negative": 0,
                "positive": 0,
                "important": 0,
                "liked": 0,
                "disliked": 0,
                "lol": 0,
                "toxic": 0,
                "saved": 0,
                "comments": 0
            }
        },
        {
            "kind": "news",
            "domain": "@civickey",
            "source": {
                "title": "Civic Twitter",
                "region": "en",
                "domain": "twitter.com",
                "path": "@civickey"
            },
            "title": "1\/ We\u2019re thrilled to offer THREE prizes for a back-end integration of Civic Pass in conjunction with the\u2026",
            "published_at": "2023-06-27T21:44:54Z",
            "slug": "1-Were-thrilled-to-offer-THREE-prizes-for-a-back-end-integration-of-Civic-Pass-in-conjunction-with-the",
            "currencies": [
                {
                    "code": "CVC",
                    "title": "Civic",
                    "slug": "civic",
                    "url": "https:\/\/cryptopanic.com\/news\/civic\/"
                }
            ],
            "id": 18668286,
            "url": "https:\/\/cryptopanic.com\/news\/18668286\/1-Were-thrilled-to-offer-THREE-prizes-for-a-back-end-integration-of-Civic-Pass-in-conjunction-with-the",
            "created_at": "2023-06-27T21:44:54Z",
            "votes": {
                "negative": 0,
                "positive": 0,
                "important": 0,
                "liked": 0,
                "disliked": 0,
                "lol": 0,
                "toxic": 0,
                "saved": 0,
                "comments": 0
            }
        },
        {
            "kind": "news",
            "domain": "@civickey",
            "source": {
                "title": "Civic Twitter",
                "region": "en",
                "domain": "twitter.com",
                "path": "@civickey"
            },
            "title": "RT @xdc_community:  Join us at the Awards Ceremony!\nThank you to all projects that submitted to the @web3athon hackathon &amp; a special thank\u2026",
            "published_at": "2023-06-26T17:16:51Z",
            "slug": "RT-xdc_community-Join-us-at-the-Awards-Ceremony-Thank-you-to-all-projects-that-submitted-to-the-web3athon-hackathon-amp-a-special-thank",
            "currencies": [
                {
                    "code": "CVC",
                    "title": "Civic",
                    "slug": "civic",
                    "url": "https:\/\/cryptopanic.com\/news\/civic\/"
                }
            ],
            "id": 18660033,
            "url": "https:\/\/cryptopanic.com\/news\/18660033\/RT-xdc_community-Join-us-at-the-Awards-Ceremony-Thank-you-to-all-projects-that-submitted-to-the-web3athon-hackathon-amp-a-special-thank",
            "created_at": "2023-06-26T17:16:51Z",
            "votes": {
                "negative": 0,
                "positive": 0,
                "important": 0,
                "liked": 0,
                "disliked": 0,
                "lol": 0,
                "toxic": 0,
                "saved": 0,
                "comments": 0
            }
        }
    ]
}
