{
    "count": 200,
    "next": "https:\/\/cryptopanic.com\/api\/v1\/posts\/?auth_token=01c356e89ffc1b8eba2127c81fc8c66ee0eace75&kind=news&currencies=PIVX&page=2",
    "previous": null,
    "results": [
        {
            "kind": "news",
            "domain": "@_PIVX",
            "source": {
                "title": "PIVX Twitter",
                "region": "en",
                "domain": "twitter.com",
                "path": "@_pivx"
            },
            "title": "RT @_PIVX: Get Ready for the $PIVX\/ $BTC Trading Competition, happening July 12th - July 21st! \n\nTo learn more",
            "published_at": "2023-07-12T04:08:23Z",
            "slug": "RT-_PIVX-Get-Ready-for-the-PIVX-BTC-Trading-Competition-happening-July-12th-July-21st-To-learn-more",
            "currencies": [
                {
                    "code": "PIVX",
                    "title": "PIVX",
                    "slug": "pivx",
                    "url": "https:\/\/cryptopanic.com\/news\/pivx\/"
                }
            ],
            "id": 18766253,
            "url": "https:\/\/cryptopanic.com\/news\/18766253\/RT-_PIVX-Get-Ready-for-the-PIVX-BTC-Trading-Competition-happening-July-12th-July-21st-To-learn-more",
            "created_at": "2023-07-12T04:08:23Z",
            "votes": {
                "negative": 0,
                "positive": 0,
                "important": 0,
                "liked": 0,
                "disliked": 0,
                "lol": 0,
                "toxic": 0,
                "saved": 0,
                "comments": 0
            }
        },
        {
            "kind": "news",
            "domain": "@_PIVX",
            "source": {
                "title": "PIVX Twitter",
                "region": "en",
                "domain": "twitter.com",
                "path": "@_pivx"
            },
            "title": "RT @PIVX_Labs: It's the fiiiinal count-dowwwwnn\n\nIf you're not in #PIVX Labs, get in and strap your seatbelt, it's PIVX Promo Party time.\u2026",
            "published_at": "2023-07-11T16:43:13Z",
            "slug": "RT-PIVX_Labs-Its-the-fiiiinal-count-dowwwwnn-If-youre-not-in-PIVX-Labs-get-in-and-strap-your-seatbelt-its-PIVX-Promo-Party-time",
            "currencies": [
                {
                    "code": "PIVX",
                    "title": "PIVX",
                    "slug": "pivx",
                    "url": "https:\/\/cryptopanic.com\/news\/pivx\/"
                }
            ],
            "id": 18766254,
            "url": "https:\/\/cryptopanic.com\/news\/18766254\/RT-PIVX_Labs-Its-the-fiiiinal-count-dowwwwnn-If-youre-not-in-PIVX-Labs-get-in-and-strap-your-seatbelt-its-PIVX-Promo-Party-time",
            "created_at": "2023-07-11T16:43:13Z",
            "votes": {
                "negative": 0,
                "positive": 0,
                "important": 0,
                "liked": 0,
                "disliked": 0,
                "lol": 0,
                "toxic": 0,
                "saved": 0,
                "comments": 0
            }
        },
        {
            "kind": "news",
            "domain": "@_PIVX",
            "source": {
                "title": "PIVX Twitter",
                "region": "en",
                "domain": "twitter.com",
                "path": "@_pivx"
            },
            "title": "Get Ready for the $PIVX\/ $BTC Trading Competition, happening July 12th - July 21st! \n\nTo learn more:\u2026",
            "published_at": "2023-07-11T14:10:00Z",
            "slug": "Get-Ready-for-the-PIVX-BTC-Trading-Competition-happening-July-12th-July-21st-To-learn-more",
            "currencies": [
                {
                    "code": "PIVX",
                    "title": "PIVX",
                    "slug": "pivx",
                    "url": "https:\/\/cryptopanic.com\/news\/pivx\/"
                }
            ],
            "id": 18766255,
            "url": "https:\/\/cryptopanic.com\/news\/18766255\/Get-Ready-for-the-PIVX-BTC-Trading-Competition-happening-July-12th-July-21st-To-learn-more",
            "created_at": "2023-07-11T14:10:00Z",
            "votes": {
                "negative": 0,
                "positive": 0,
                "important": 0,
                "liked": 0,
                "disliked": 0,
                "lol": 0,
                "toxic": 0,
                "saved": 0,
                "comments": 0
            }
        },
        {
            "kind": "news",
            "domain": "@_PIVX",
            "source": {
                "title": "PIVX Twitter",
                "region": "en",
                "domain": "twitter.com",
                "path": "@_pivx"
            },
            "title": "RT @WhiteBit: Get Ready for the $PIVX\/$BTC Trading Competition\n\n$PIVX\/$BTC trading competition is around the corner",
            "published_at": "2023-07-11T14:06:30Z",
            "slug": "RT-WhiteBit-Get-Ready-for-the-PIVXBTC-Trading-Competition-PIVXBTC-trading-competition-is-around-the-corner",
            "currencies": [
                {
                    "code": "PIVX",
                    "title": "PIVX",
                    "slug": "pivx",
                    "url": "https:\/\/cryptopanic.com\/news\/pivx\/"
                }
            ],
            "id": 18766256,
            "url": "https:\/\/cryptopanic.com\/news\/18766256\/RT-WhiteBit-Get-Ready-for-the-PIVXBTC-Trading-Competition-PIVXBTC-trading-competition-is-around-the-corner",
            "created_at": "2023-07-11T14:06:30Z",
            "votes": {
                "negative": 0,
                "positive": 0,
                "important": 0,
                "liked": 0,
                "disliked": 0,
                "lol": 0,
                "toxic": 0,
                "saved": 0,
                "comments": 0
            }
        },
        {
            "kind": "news",
            "domain": "@_PIVX",
            "source": {
                "title": "PIVX Twitter",
                "region": "en",
                "domain": "twitter.com",
                "path": "@_pivx"
            },
            "title": "RT @PIVX_Labs: \ud83e\uddea\ufe0f Labs - Our Story\n\nDive into our epic journey - from humble beginnings to paving the future of #PIVX.\n\nRead our legendar\u2026",
            "published_at": "2023-07-10T16:35:37Z",
            "slug": "RT-PIVX_Labs-Labs-Our-Story-Dive-into-our-epic-journey-from-humble-beginnings-to-paving-the-future-of-PIVX-Read-our-legendar",
            "currencies": [
                {
                    "code": "PIVX",
                    "title": "PIVX",
                    "slug": "pivx",
                    "url": "https:\/\/cryptopanic.com\/news\/pivx\/"
                }
            ],
            "id": 18758108,
            "url": "https:\/\/cryptopanic.com\/news\/18758108\/RT-PIVX_Labs-Labs-Our-Story-Dive-into-our-epic-journey-from-humble-beginnings-to-paving-the-future-of-PIVX-Read-our-legendar",
            "created_at": "2023-07-10T16:35:37Z",
            "votes": {
                "negative": 0,
                "positive": 0,
                "important": 0,
                "liked": 0,
                "disliked": 0,
                "lol": 0,
                "toxic": 0,
                "saved": 0,
                "comments": 0
            }
        },
        {
            "kind": "news",
            "domain": "@_PIVX",
            "source": {
                "title": "PIVX Twitter",
                "region": "en",
                "domain": "twitter.com",
                "path": "@_pivx"
            },
            "title": "RT @PIVX_Labs: \u231b\ufe0f2 days to go...\n\nEarn #PIVX #rewards securely, even on a mobile device. #Stake, unstake and see all your history at a gla\u2026",
            "published_at": "2023-07-10T14:25:16Z",
            "slug": "RT-PIVX_Labs-2-days-to-go-Earn-PIVX-rewards-securely-even-on-a-mobile-device-Stake-unstake-and-see-all-your-history-at-a-gla",
            "currencies": [
                {
                    "code": "PIVX",
                    "title": "PIVX",
                    "slug": "pivx",
                    "url": "https:\/\/cryptopanic.com\/news\/pivx\/"
                }
            ],
            "id": 18758109,
            "url": "https:\/\/cryptopanic.com\/news\/18758109\/RT-PIVX_Labs-2-days-to-go-Earn-PIVX-rewards-securely-even-on-a-mobile-device-Stake-unstake-and-see-all-your-history-at-a-gla",
            "created_at": "2023-07-10T14:25:16Z",
            "votes": {
                "negative": 0,
                "positive": 0,
                "important": 0,
                "liked": 0,
                "disliked": 0,
                "lol": 0,
                "toxic": 0,
                "saved": 0,
                "comments": 0
            }
        },
        {
            "kind": "news",
            "domain": "@_PIVX",
            "source": {
                "title": "PIVX Twitter",
                "region": "en",
                "domain": "twitter.com",
                "path": "@_pivx"
            },
            "title": "RT @PIVXcommunity: Summer-proof your crypto portfolio with $PIVX #SHIELD. \ufe0f\ufe0f\n\nEnsuring #financialprivacy is your right and a key aspect o\u2026",
            "published_at": "2023-07-10T13:11:08Z",
            "slug": "RT-PIVXcommunity-Summer-proof-your-crypto-portfolio-with-PIVX-SHIELD-Ensuring-financialprivacy-is-your-right-and-a-key-aspect-o",
            "currencies": [
                {
                    "code": "PIVX",
                    "title": "PIVX",
                    "slug": "pivx",
                    "url": "https:\/\/cryptopanic.com\/news\/pivx\/"
                }
            ],
            "id": 18758110,
            "url": "https:\/\/cryptopanic.com\/news\/18758110\/RT-PIVXcommunity-Summer-proof-your-crypto-portfolio-with-PIVX-SHIELD-Ensuring-financialprivacy-is-your-right-and-a-key-aspect-o",
            "created_at": "2023-07-10T13:11:08Z",
            "votes": {
                "negative": 0,
                "positive": 0,
                "important": 0,
                "liked": 0,
                "disliked": 0,
                "lol": 0,
                "toxic": 0,
                "saved": 0,
                "comments": 0
            }
        },
        {
            "kind": "news",
            "domain": "@_PIVX",
            "source": {
                "title": "PIVX Twitter",
                "region": "en",
                "domain": "twitter.com",
                "path": "@_pivx"
            },
            "title": "RT @PIVX_Labs: \u231b\ufe0f 3 days to go...\n\nEasily track your #PIVX transactions. Every send, receive and staking transaction is logged in a detail\u2026",
            "published_at": "2023-07-09T14:50:54Z",
            "slug": "RT-PIVX_Labs-3-days-to-go-Easily-track-your-PIVX-transactions-Every-send-receive-and-staking-transaction-is-logged-in-a-detail",
            "currencies": [
                {
                    "code": "PIVX",
                    "title": "PIVX",
                    "slug": "pivx",
                    "url": "https:\/\/cryptopanic.com\/news\/pivx\/"
                }
            ],
            "id": 18750876,
            "url": "https:\/\/cryptopanic.com\/news\/18750876\/RT-PIVX_Labs-3-days-to-go-Easily-track-your-PIVX-transactions-Every-send-receive-and-staking-transaction-is-logged-in-a-detail",
            "created_at": "2023-07-09T14:50:54Z",
            "votes": {
                "negative": 0,
                "positive": 0,
                "important": 0,
                "liked": 0,
                "disliked": 0,
                "lol": 0,
                "toxic": 0,
                "saved": 0,
                "comments": 0
            }
        },
        {
            "kind": "news",
            "domain": "@_PIVX",
            "source": {
                "title": "PIVX Twitter",
                "region": "en",
                "domain": "twitter.com",
                "path": "@_pivx"
            },
            "title": "RT @ParticlProject: The future of cryptocurrency is PRIVATE !",
            "published_at": "2023-07-08T21:42:56Z",
            "slug": "RT-ParticlProject-The-future-of-cryptocurrency-is-PRIVATE",
            "currencies": [
                {
                    "code": "PIVX",
                    "title": "PIVX",
                    "slug": "pivx",
                    "url": "https:\/\/cryptopanic.com\/news\/pivx\/"
                }
            ],
            "id": 18746515,
            "url": "https:\/\/cryptopanic.com\/news\/18746515\/RT-ParticlProject-The-future-of-cryptocurrency-is-PRIVATE",
            "created_at": "2023-07-08T21:42:56Z",
            "votes": {
                "negative": 0,
                "positive": 0,
                "important": 0,
                "liked": 0,
                "disliked": 0,
                "lol": 0,
                "toxic": 0,
                "saved": 0,
                "comments": 0
            }
        },
        {
            "kind": "news",
            "domain": "@_PIVX",
            "source": {
                "title": "PIVX Twitter",
                "region": "en",
                "domain": "twitter.com",
                "path": "@_pivx"
            },
            "title": "RT @PIVX_Labs: \u231b\ufe0f 4 days to go...\n\nView and vote on #DAO proposals from your mobile device. Actively participate in the #decentralized dem\u2026",
            "published_at": "2023-07-08T16:09:24Z",
            "slug": "RT-PIVX_Labs-4-days-to-go-View-and-vote-on-DAO-proposals-from-your-mobile-device-Actively-participate-in-the-decentralized-dem",
            "currencies": [
                {
                    "code": "PIVX",
                    "title": "PIVX",
                    "slug": "pivx",
                    "url": "https:\/\/cryptopanic.com\/news\/pivx\/"
                }
            ],
            "id": 18746516,
            "url": "https:\/\/cryptopanic.com\/news\/18746516\/RT-PIVX_Labs-4-days-to-go-View-and-vote-on-DAO-proposals-from-your-mobile-device-Actively-participate-in-the-decentralized-dem",
            "created_at": "2023-07-08T16:09:24Z",
            "votes": {
                "negative": 0,
                "positive": 0,
                "important": 0,
                "liked": 0,
                "disliked": 0,
                "lol": 0,
                "toxic": 0,
                "saved": 0,
                "comments": 0
            }
        },
        {
            "kind": "news",
            "domain": "@_PIVX",
            "source": {
                "title": "PIVX Twitter",
                "region": "en",
                "domain": "twitter.com",
                "path": "@_pivx"
            },
            "title": "RT @PIVX_Labs: \u231b\ufe0f 5 days to go...\n\nSend, receive and store your #PIVX in a secure and convenient web wallet. Protect your financial infor\u2026",
            "published_at": "2023-07-07T15:10:35Z",
            "slug": "RT-PIVX_Labs-5-days-to-go-Send-receive-and-store-your-PIVX-in-a-secure-and-convenient-web-wallet-Protect-your-financial-infor",
            "currencies": [
                {
                    "code": "PIVX",
                    "title": "PIVX",
                    "slug": "pivx",
                    "url": "https:\/\/cryptopanic.com\/news\/pivx\/"
                }
            ],
            "id": 18741815,
            "url": "https:\/\/cryptopanic.com\/news\/18741815\/RT-PIVX_Labs-5-days-to-go-Send-receive-and-store-your-PIVX-in-a-secure-and-convenient-web-wallet-Protect-your-financial-infor",
            "created_at": "2023-07-07T15:10:35Z",
            "votes": {
                "negative": 0,
                "positive": 0,
                "important": 0,
                "liked": 0,
                "disliked": 0,
                "lol": 0,
                "toxic": 0,
                "saved": 0,
                "comments": 0
            }
        },
        {
            "kind": "news",
            "domain": "@_PIVX",
            "source": {
                "title": "PIVX Twitter",
                "region": "en",
                "domain": "twitter.com",
                "path": "@_pivx"
            },
            "title": "RT @thegreatestdoc: @resistancemoney The ideals you talk about continue to be pursued in the background. The real place to look is privacy\u2026",
            "published_at": "2023-07-07T13:46:16Z",
            "slug": "RT-thegreatestdoc-resistancemoney-The-ideals-you-talk-about-continue-to-be-pursued-in-the-background-The-real-place-to-look-is-privacy",
            "currencies": [
                {
                    "code": "PIVX",
                    "title": "PIVX",
                    "slug": "pivx",
                    "url": "https:\/\/cryptopanic.com\/news\/pivx\/"
                }
            ],
            "id": 18741816,
            "url": "https:\/\/cryptopanic.com\/news\/18741816\/RT-thegreatestdoc-resistancemoney-The-ideals-you-talk-about-continue-to-be-pursued-in-the-background-The-real-place-to-look-is-privacy",
            "created_at": "2023-07-07T13:46:16Z",
            "votes": {
                "negative": 0,
                "positive": 0,
                "important": 0,
                "liked": 0,
                "disliked": 0,
                "lol": 0,
                "toxic": 0,
                "saved": 0,
                "comments": 0
            }
        },
        {
            "kind": "news",
            "domain": "@_PIVX",
            "source": {
                "title": "PIVX Twitter",
                "region": "en",
                "domain": "twitter.com",
                "path": "@_pivx"
            },
            "title": "RT @PIVX_Labs: \u231b\ufe0f 6 days to go...\n\nWhile you're waiting... join our event on the 12th, we're hosting a Launch Party that you won't want to\u2026",
            "published_at": "2023-07-06T13:06:23Z",
            "slug": "RT-PIVX_Labs-6-days-to-go-While-youre-waiting-join-our-event-on-the-12th-were-hosting-a-Launch-Party-that-you-wont-want-to",
            "currencies": [
                {
                    "code": "PIVX",
                    "title": "PIVX",
                    "slug": "pivx",
                    "url": "https:\/\/cryptopanic.com\/news\/pivx\/"
                }
            ],
            "id": 18734427,
            "url": "https:\/\/cryptopanic.com\/news\/18734427\/RT-PIVX_Labs-6-days-to-go-While-youre-waiting-join-our-event-on-the-12th-were-hosting-a-Launch-Party-that-you-wont-want-to",
            "created_at": "2023-07-06T13:06:23Z",
            "votes": {
                "negative": 0,
                "positive": 0,
                "important": 0,
                "liked": 0,
                "disliked": 0,
                "lol": 0,
                "toxic": 0,
                "saved": 0,
                "comments": 0
            }
        },
        {
            "kind": "news",
            "domain": "@_PIVX",
            "source": {
                "title": "PIVX Twitter",
                "region": "en",
                "domain": "twitter.com",
                "path": "@_pivx"
            },
            "title": "RT @JSKitteh: Over two years of long development for this.\n\nFrom a one-man hobby prototype, to an all-in-one Beast of an app, developed by\u2026",
            "published_at": "2023-07-05T18:16:09Z",
            "slug": "RT-JSKitteh-Over-two-years-of-long-development-for-this-From-a-one-man-hobby-prototype-to-an-all-in-one-Beast-of-an-app-developed-by",
            "currencies": [
                {
                    "code": "PIVX",
                    "title": "PIVX",
                    "slug": "pivx",
                    "url": "https:\/\/cryptopanic.com\/news\/pivx\/"
                }
            ],
            "id": 18725917,
            "url": "https:\/\/cryptopanic.com\/news\/18725917\/RT-JSKitteh-Over-two-years-of-long-development-for-this-From-a-one-man-hobby-prototype-to-an-all-in-one-Beast-of-an-app-developed-by",
            "created_at": "2023-07-05T18:16:09Z",
            "votes": {
                "negative": 0,
                "positive": 0,
                "important": 0,
                "liked": 0,
                "disliked": 0,
                "lol": 0,
                "toxic": 0,
                "saved": 0,
                "comments": 0
            }
        },
        {
            "kind": "news",
            "domain": "@_PIVX",
            "source": {
                "title": "PIVX Twitter",
                "region": "en",
                "domain": "twitter.com",
                "path": "@_pivx"
            },
            "title": "RT @BiconomyCom: #BICONOMYEXCHANGE MARKET STATS  \n\nTOP GAINERS IN #BICONOMY \n\n$VINU @VitaInuCoin\n$ZIL @zilliqa\n$T @TheTNetwork\n$PIVX @_\u2026",
            "published_at": "2023-07-05T16:15:32Z",
            "slug": "RT-BiconomyCom-BICONOMYEXCHANGE-MARKET-STATS-TOP-GAINERS-IN-BICONOMY-VINU-VitaInuCoin-ZIL-zilliqa-T-TheTNetwork-PIVX-_",
            "currencies": [
                {
                    "code": "PIVX",
                    "title": "PIVX",
                    "slug": "pivx",
                    "url": "https:\/\/cryptopanic.com\/news\/pivx\/"
                }
            ],
            "id": 18725918,
            "url": "https:\/\/cryptopanic.com\/news\/18725918\/RT-BiconomyCom-BICONOMYEXCHANGE-MARKET-STATS-TOP-GAINERS-IN-BICONOMY-VINU-VitaInuCoin-ZIL-zilliqa-T-TheTNetwork-PIVX-_",
            "created_at": "2023-07-05T16:15:32Z",
            "votes": {
                "negative": 0,
                "positive": 0,
                "important": 0,
                "liked": 0,
                "disliked": 0,
                "lol": 0,
                "toxic": 0,
                "saved": 0,
                "comments": 0
            }
        },
        {
            "kind": "news",
            "domain": "@_PIVX",
            "source": {
                "title": "PIVX Twitter",
                "region": "en",
                "domain": "twitter.com",
                "path": "@_pivx"
            },
            "title": "RT @JSKitteh: Over two years of long development for this.\n\nFrom a one-man hobby prototype, to an all-in-one Beast of an app, developed by\u2026",
            "published_at": "2023-07-04T15:39:22Z",
            "slug": "RT-JSKitteh-Over-two-years-of-long-development-for-this-From-a-one-man-hobby-prototype-to-an-all-in-one-Beast-of-an-app-developed-by",
            "currencies": [
                {
                    "code": "PIVX",
                    "title": "PIVX",
                    "slug": "pivx",
                    "url": "https:\/\/cryptopanic.com\/news\/pivx\/"
                }
            ],
            "id": 18718018,
            "url": "https:\/\/cryptopanic.com\/news\/18718018\/RT-JSKitteh-Over-two-years-of-long-development-for-this-From-a-one-man-hobby-prototype-to-an-all-in-one-Beast-of-an-app-developed-by",
            "created_at": "2023-07-04T15:39:22Z",
            "votes": {
                "negative": 0,
                "positive": 0,
                "important": 0,
                "liked": 0,
                "disliked": 0,
                "lol": 0,
                "toxic": 0,
                "saved": 0,
                "comments": 0
            }
        },
        {
            "kind": "news",
            "domain": "@_PIVX",
            "source": {
                "title": "PIVX Twitter",
                "region": "en",
                "domain": "twitter.com",
                "path": "@_pivx"
            },
            "title": "Get ready to buy $PIVX hassle-free on , with @ChangeNOW_io's widget!\nNow you can swap $PIVX\u2026",
            "published_at": "2023-07-04T12:16:24Z",
            "slug": "Get-ready-to-buy-PIVX-hassle-free-on-with-ChangeNOW_ios-widget-Now-you-can-swap-PIVX",
            "currencies": [
                {
                    "code": "PIVX",
                    "title": "PIVX",
                    "slug": "pivx",
                    "url": "https:\/\/cryptopanic.com\/news\/pivx\/"
                }
            ],
            "id": 18718019,
            "url": "https:\/\/cryptopanic.com\/news\/18718019\/Get-ready-to-buy-PIVX-hassle-free-on-with-ChangeNOW_ios-widget-Now-you-can-swap-PIVX",
            "created_at": "2023-07-04T12:16:24Z",
            "votes": {
                "negative": 0,
                "positive": 0,
                "important": 0,
                "liked": 0,
                "disliked": 0,
                "lol": 0,
                "toxic": 0,
                "saved": 0,
                "comments": 0
            }
        },
        {
            "kind": "news",
            "domain": "@_PIVX",
            "source": {
                "title": "PIVX Twitter",
                "region": "en",
                "domain": "twitter.com",
                "path": "@_pivx"
            },
            "title": "RT @StealthEX_io: StealthEX values privacy, this's why you can swap anonymous\/private assets with us!\n\n$XMR - @monero \n$ARRR - @PirateChai\u2026",
            "published_at": "2023-07-03T17:29:25Z",
            "slug": "RT-StealthEX_io-StealthEX-values-privacy-thiss-why-you-can-swap-anonymousprivate-assets-with-us-XMR-monero-ARRR-PirateChai",
            "currencies": [
                {
                    "code": "PIVX",
                    "title": "PIVX",
                    "slug": "pivx",
                    "url": "https:\/\/cryptopanic.com\/news\/pivx\/"
                }
            ],
            "id": 18710868,
            "url": "https:\/\/cryptopanic.com\/news\/18710868\/RT-StealthEX_io-StealthEX-values-privacy-thiss-why-you-can-swap-anonymousprivate-assets-with-us-XMR-monero-ARRR-PirateChai",
            "created_at": "2023-07-03T17:29:25Z",
            "votes": {
                "negative": 0,
                "positive": 0,
                "important": 0,
                "liked": 0,
                "disliked": 0,
                "lol": 0,
                "toxic": 0,
                "saved": 0,
                "comments": 0
            }
        },
        {
            "kind": "news",
            "domain": "@_PIVX",
            "source": {
                "title": "PIVX Twitter",
                "region": "en",
                "domain": "twitter.com",
                "path": "@_pivx"
            },
            "title": "RT @CoinstoreExc:  NEW COIN LISTING ON COINSTORE \nWelcome @_PIVX $PIVX\n\n\u23f0 Trade time: 30 June 2023, 18:00 (UTC+8)\n Withdrawal time: 30 Ju\u2026",
            "published_at": "2023-07-03T09:21:28Z",
            "slug": "RT-CoinstoreExc-NEW-COIN-LISTING-ON-COINSTORE-Welcome-_PIVX-PIVX-Trade-time-30-June-2023-1800-UTC8-Withdrawal-time-30-Ju",
            "currencies": [
                {
                    "code": "PIVX",
                    "title": "PIVX",
                    "slug": "pivx",
                    "url": "https:\/\/cryptopanic.com\/news\/pivx\/"
                }
            ],
            "id": 18710869,
            "url": "https:\/\/cryptopanic.com\/news\/18710869\/RT-CoinstoreExc-NEW-COIN-LISTING-ON-COINSTORE-Welcome-_PIVX-PIVX-Trade-time-30-June-2023-1800-UTC8-Withdrawal-time-30-Ju",
            "created_at": "2023-07-03T09:21:28Z",
            "votes": {
                "negative": 0,
                "positive": 0,
                "important": 0,
                "liked": 0,
                "disliked": 0,
                "lol": 0,
                "toxic": 0,
                "saved": 0,
                "comments": 0
            }
        },
        {
            "kind": "news",
            "domain": "@_PIVX",
            "source": {
                "title": "PIVX Twitter",
                "region": "en",
                "domain": "twitter.com",
                "path": "@_pivx"
            },
            "title": "RT @PIVXcommunity: Tired of prying  on your transactions? \n#SHIELD them with #PIVX!\n\n\nTotal #Privacy when you want\u2026",
            "published_at": "2023-07-02T13:22:39Z",
            "slug": "RT-PIVXcommunity-Tired-of-prying-on-your-transactions-SHIELD-them-with-PIVX-Total-Privacy-when-you-want",
            "currencies": [
                {
                    "code": "PIVX",
                    "title": "PIVX",
                    "slug": "pivx",
                    "url": "https:\/\/cryptopanic.com\/news\/pivx\/"
                }
            ],
            "id": 18703969,
            "url": "https:\/\/cryptopanic.com\/news\/18703969\/RT-PIVXcommunity-Tired-of-prying-on-your-transactions-SHIELD-them-with-PIVX-Total-Privacy-when-you-want",
            "created_at": "2023-07-02T13:22:39Z",
            "votes": {
                "negative": 0,
                "positive": 0,
                "important": 0,
                "liked": 0,
                "disliked": 0,
                "lol": 0,
                "toxic": 0,
                "saved": 0,
                "comments": 0
            }
        }
    ]
}
