{
    "count": 200,
    "next": "https:\/\/cryptopanic.com\/api\/v1\/posts\/?auth_token=01c356e89ffc1b8eba2127c81fc8c66ee0eace75&kind=news&currencies=CYBER&page=2",
    "previous": null,
    "results": [
        {
            "kind": "news",
            "domain": "@cyberpunkcity",
            "source": {
                "title": "Cyberpunk City Twitter",
                "region": "en",
                "domain": "twitter.com",
                "path": "@cyberpunkcity"
            },
            "title": "RT @serb_daniel: Welcome to Romania , Sibiu. Looking forward to your event @cyberpunkcity",
            "published_at": "2023-07-10T13:53:24Z",
            "slug": "RT-serb_daniel-Welcome-to-Romania-Sibiu-Looking-forward-to-your-event-cyberpunkcity",
            "currencies": [
                {
                    "code": "CYBER",
                    "title": "Cyberpunk City",
                    "slug": "cyberpunk-city",
                    "url": "https:\/\/cryptopanic.com\/news\/cyberpunk-city\/"
                }
            ],
            "id": 18755486,
            "url": "https:\/\/cryptopanic.com\/news\/18755486\/RT-serb_daniel-Welcome-to-Romania-Sibiu-Looking-forward-to-your-event-cyberpunkcity",
            "created_at": "2023-07-10T13:53:24Z",
            "votes": {
                "negative": 0,
                "positive": 0,
                "important": 0,
                "liked": 0,
                "disliked": 0,
                "lol": 0,
                "toxic": 0,
                "saved": 0,
                "comments": 0
            }
        },
        {
            "kind": "news",
            "domain": "@cyberpunkcity",
            "source": {
                "title": "Cyberpunk City Twitter",
                "region": "en",
                "domain": "twitter.com",
                "path": "@cyberpunkcity"
            },
            "title": "RT @itheum: \ud83e\udd41Drum Roll\ud83e\udd41\n\nThe time has come. We're delighted to announce the Trailblazer Data NFT #Airdrop &amp; 150,000 $ITHEUM competition is\u2026",
            "published_at": "2023-07-10T12:54:41Z",
            "slug": "RT-itheum-Drum-Roll-The-time-has-come-Were-delighted-to-announce-the-Trailblazer-Data-NFT-Airdrop-amp-150000-ITHEUM-competition-is",
            "currencies": [
                {
                    "code": "CYBER",
                    "title": "Cyberpunk City",
                    "slug": "cyberpunk-city",
                    "url": "https:\/\/cryptopanic.com\/news\/cyberpunk-city\/"
                }
            ],
            "id": 18755487,
            "url": "https:\/\/cryptopanic.com\/news\/18755487\/RT-itheum-Drum-Roll-The-time-has-come-Were-delighted-to-announce-the-Trailblazer-Data-NFT-Airdrop-amp-150000-ITHEUM-competition-is",
            "created_at": "2023-07-10T12:54:41Z",
            "votes": {
                "negative": 0,
                "positive": 0,
                "important": 0,
                "liked": 0,
                "disliked": 0,
                "lol": 0,
                "toxic": 0,
                "saved": 0,
                "comments": 0
            }
        },
        {
            "kind": "news",
            "domain": "@cyberpunkcity",
            "source": {
                "title": "Cyberpunk City Twitter",
                "region": "en",
                "domain": "twitter.com",
                "path": "@cyberpunkcity"
            },
            "title": "RT @crypton_56: @bleich_kevin @Dr_Brioche @xoxnoNFTs @FrameItNFT @KroganCoin @EneftorX @cyberpunkcity \n@GiantsVillage \n@FrameItNFT coin\n@Cl\u2026",
            "published_at": "2023-07-10T12:23:58Z",
            "slug": "RT-crypton_56-bleich_kevin-Dr_Brioche-xoxnoNFTs-FrameItNFT-KroganCoin-EneftorX-cyberpunkcity-GiantsVillage-FrameItNFT-coin-Cl",
            "currencies": [
                {
                    "code": "CYBER",
                    "title": "Cyberpunk City",
                    "slug": "cyberpunk-city",
                    "url": "https:\/\/cryptopanic.com\/news\/cyberpunk-city\/"
                }
            ],
            "id": 18755488,
            "url": "https:\/\/cryptopanic.com\/news\/18755488\/RT-crypton_56-bleich_kevin-Dr_Brioche-xoxnoNFTs-FrameItNFT-KroganCoin-EneftorX-cyberpunkcity-GiantsVillage-FrameItNFT-coin-Cl",
            "created_at": "2023-07-10T12:23:58Z",
            "votes": {
                "negative": 0,
                "positive": 0,
                "important": 0,
                "liked": 0,
                "disliked": 0,
                "lol": 0,
                "toxic": 0,
                "saved": 0,
                "comments": 0
            }
        },
        {
            "kind": "news",
            "domain": "@cyberpunkcity",
            "source": {
                "title": "Cyberpunk City Twitter",
                "region": "en",
                "domain": "twitter.com",
                "path": "@cyberpunkcity"
            },
            "title": "The June update (2023) was posted \n\nSome topics covered:\n- Alpha Release\n- Fixes &amp; Additions\n- Events\n- Stats \n\nJu\u2026",
            "published_at": "2023-07-08T11:40:32Z",
            "slug": "The-June-update-2023-was-posted-Some-topics-covered-Alpha-Release-Fixes-amp-Additions-Events-Stats-Ju",
            "currencies": [
                {
                    "code": "CYBER",
                    "title": "Cyberpunk City",
                    "slug": "cyberpunk-city",
                    "url": "https:\/\/cryptopanic.com\/news\/cyberpunk-city\/"
                }
            ],
            "id": 18745183,
            "url": "https:\/\/cryptopanic.com\/news\/18745183\/The-June-update-2023-was-posted-Some-topics-covered-Alpha-Release-Fixes-amp-Additions-Events-Stats-Ju",
            "created_at": "2023-07-08T11:40:32Z",
            "votes": {
                "negative": 0,
                "positive": 0,
                "important": 0,
                "liked": 0,
                "disliked": 0,
                "lol": 0,
                "toxic": 0,
                "saved": 0,
                "comments": 0
            }
        },
        {
            "kind": "news",
            "domain": "@cyberpunkcity",
            "source": {
                "title": "Cyberpunk City Twitter",
                "region": "en",
                "domain": "twitter.com",
                "path": "@cyberpunkcity"
            },
            "title": " Exciting news! Cyberpunk City Co-Founders are coming to Sibiu, Romania!  Join us for a community meetup on July\u2026",
            "published_at": "2023-07-07T14:14:27Z",
            "slug": "Exciting-news-Cyberpunk-City-Co-Founders-are-coming-to-Sibiu-Romania-Join-us-for-a-community-meetup-on-July",
            "currencies": [
                {
                    "code": "CYBER",
                    "title": "Cyberpunk City",
                    "slug": "cyberpunk-city",
                    "url": "https:\/\/cryptopanic.com\/news\/cyberpunk-city\/"
                }
            ],
            "id": 18739541,
            "url": "https:\/\/cryptopanic.com\/news\/18739541\/Exciting-news-Cyberpunk-City-Co-Founders-are-coming-to-Sibiu-Romania-Join-us-for-a-community-meetup-on-July",
            "created_at": "2023-07-07T14:14:27Z",
            "votes": {
                "negative": 0,
                "positive": 0,
                "important": 0,
                "liked": 0,
                "disliked": 0,
                "lol": 0,
                "toxic": 0,
                "saved": 0,
                "comments": 0
            }
        },
        {
            "kind": "news",
            "domain": "@cyberpunkcity",
            "source": {
                "title": "Cyberpunk City Twitter",
                "region": "en",
                "domain": "twitter.com",
                "path": "@cyberpunkcity"
            },
            "title": "RT @jackmelar36: \ud83e\uddf5These are basically 5 important reminders in one thread in relation to what Cyberpunk City still offers until this very m\u2026",
            "published_at": "2023-07-07T12:44:37Z",
            "slug": "RT-jackmelar36-These-are-basically-5-important-reminders-in-one-thread-in-relation-to-what-Cyberpunk-City-still-offers-until-this-very-m",
            "currencies": [
                {
                    "code": "CYBER",
                    "title": "Cyberpunk City",
                    "slug": "cyberpunk-city",
                    "url": "https:\/\/cryptopanic.com\/news\/cyberpunk-city\/"
                }
            ],
            "id": 18739542,
            "url": "https:\/\/cryptopanic.com\/news\/18739542\/RT-jackmelar36-These-are-basically-5-important-reminders-in-one-thread-in-relation-to-what-Cyberpunk-City-still-offers-until-this-very-m",
            "created_at": "2023-07-07T12:44:37Z",
            "votes": {
                "negative": 0,
                "positive": 0,
                "important": 0,
                "liked": 0,
                "disliked": 0,
                "lol": 0,
                "toxic": 0,
                "saved": 0,
                "comments": 0
            }
        },
        {
            "kind": "news",
            "domain": "@cyberpunkcity",
            "source": {
                "title": "Cyberpunk City Twitter",
                "region": "en",
                "domain": "twitter.com",
                "path": "@cyberpunkcity"
            },
            "title": "RT @ash_swap: We are proud to introduce AshSwap Ignite, the next big update on AshSwap \n\nWith new features on Mainnet, we aim to develop a\u2026",
            "published_at": "2023-07-04T15:03:27Z",
            "slug": "RT-ash_swap-We-are-proud-to-introduce-AshSwap-Ignite-the-next-big-update-on-AshSwap-With-new-features-on-Mainnet-we-aim-to-develop-a",
            "currencies": [
                {
                    "code": "CYBER",
                    "title": "Cyberpunk City",
                    "slug": "cyberpunk-city",
                    "url": "https:\/\/cryptopanic.com\/news\/cyberpunk-city\/"
                }
            ],
            "id": 18715621,
            "url": "https:\/\/cryptopanic.com\/news\/18715621\/RT-ash_swap-We-are-proud-to-introduce-AshSwap-Ignite-the-next-big-update-on-AshSwap-With-new-features-on-Mainnet-we-aim-to-develop-a",
            "created_at": "2023-07-04T15:03:27Z",
            "votes": {
                "negative": 0,
                "positive": 0,
                "important": 0,
                "liked": 0,
                "disliked": 0,
                "lol": 0,
                "toxic": 0,
                "saved": 0,
                "comments": 0
            }
        },
        {
            "kind": "news",
            "domain": "@cyberpunkcity",
            "source": {
                "title": "Cyberpunk City Twitter",
                "region": "en",
                "domain": "twitter.com",
                "path": "@cyberpunkcity"
            },
            "title": "\ufe0f 116,000 $CYBER was distributed to 834 #CitizenNFT owners (3600 NFTs). \n\n If you want to earn 30 $CYBER per Cit\u2026",
            "published_at": "2023-07-01T13:24:20Z",
            "slug": "116000-CYBER-was-distributed-to-834-CitizenNFT-owners-3600-NFTs-If-you-want-to-earn-30-CYBER-per-Cit",
            "currencies": [
                {
                    "code": "CYBER",
                    "title": "Cyberpunk City",
                    "slug": "cyberpunk-city",
                    "url": "https:\/\/cryptopanic.com\/news\/cyberpunk-city\/"
                }
            ],
            "id": 18698290,
            "url": "https:\/\/cryptopanic.com\/news\/18698290\/116000-CYBER-was-distributed-to-834-CitizenNFT-owners-3600-NFTs-If-you-want-to-earn-30-CYBER-per-Cit",
            "created_at": "2023-07-01T13:24:20Z",
            "votes": {
                "negative": 0,
                "positive": 0,
                "important": 0,
                "liked": 0,
                "disliked": 0,
                "lol": 0,
                "toxic": 0,
                "saved": 0,
                "comments": 0
            }
        },
        {
            "kind": "news",
            "domain": "@cyberpunkcity",
            "source": {
                "title": "Cyberpunk City Twitter",
                "region": "en",
                "domain": "twitter.com",
                "path": "@cyberpunkcity"
            },
            "title": "RT @cyberpunkstake: \u203c\ufe0f 52,000 $CYBER of staking rewards have been distributed to 200+ delegators. \n\n Cyberpunk Stake is the most profitab\u2026",
            "published_at": "2023-06-23T11:35:32Z",
            "slug": "RT-cyberpunkstake-52000-CYBER-of-staking-rewards-have-been-distributed-to-200-delegators-Cyberpunk-Stake-is-the-most-profitab",
            "currencies": [
                {
                    "code": "CYBER",
                    "title": "Cyberpunk City",
                    "slug": "cyberpunk-city",
                    "url": "https:\/\/cryptopanic.com\/news\/cyberpunk-city\/"
                }
            ],
            "id": 18643835,
            "url": "https:\/\/cryptopanic.com\/news\/18643835\/RT-cyberpunkstake-52000-CYBER-of-staking-rewards-have-been-distributed-to-200-delegators-Cyberpunk-Stake-is-the-most-profitab",
            "created_at": "2023-06-23T11:35:32Z",
            "votes": {
                "negative": 0,
                "positive": 0,
                "important": 0,
                "liked": 0,
                "disliked": 0,
                "lol": 0,
                "toxic": 0,
                "saved": 0,
                "comments": 0
            }
        },
        {
            "kind": "news",
            "domain": "@cyberpunkcity",
            "source": {
                "title": "Cyberpunk City Twitter",
                "region": "en",
                "domain": "twitter.com",
                "path": "@cyberpunkcity"
            },
            "title": "RT @symbiosis_nft: @symbiosis_nft X @cyberpunkcity\n\nThe first Katana model is playable into the Cyberpunk City universe ! \n\nRacers, it's o\u2026",
            "published_at": "2023-06-20T17:53:40Z",
            "slug": "RT-symbiosis_nft-symbiosis_nft-X-cyberpunkcity-The-first-Katana-model-is-playable-into-the-Cyberpunk-City-universe-Racers-its-o",
            "currencies": [
                {
                    "code": "CYBER",
                    "title": "Cyberpunk City",
                    "slug": "cyberpunk-city",
                    "url": "https:\/\/cryptopanic.com\/news\/cyberpunk-city\/"
                }
            ],
            "id": 18619483,
            "url": "https:\/\/cryptopanic.com\/news\/18619483\/RT-symbiosis_nft-symbiosis_nft-X-cyberpunkcity-The-first-Katana-model-is-playable-into-the-Cyberpunk-City-universe-Racers-its-o",
            "created_at": "2023-06-20T17:53:40Z",
            "votes": {
                "negative": 0,
                "positive": 0,
                "important": 0,
                "liked": 0,
                "disliked": 0,
                "lol": 0,
                "toxic": 0,
                "saved": 0,
                "comments": 0
            }
        },
        {
            "kind": "news",
            "domain": "@cyberpunkcity",
            "source": {
                "title": "Cyberpunk City Twitter",
                "region": "en",
                "domain": "twitter.com",
                "path": "@cyberpunkcity"
            },
            "title": " @ash_swap aggregator is now available on MAINNET. \n\nCyberpunk City will make the integration of AshSwap's aggrega\u2026",
            "published_at": "2023-06-17T16:48:03Z",
            "slug": "ash_swap-aggregator-is-now-available-on-MAINNET-Cyberpunk-City-will-make-the-integration-of-AshSwaps-aggrega",
            "currencies": [
                {
                    "code": "CYBER",
                    "title": "Cyberpunk City",
                    "slug": "cyberpunk-city",
                    "url": "https:\/\/cryptopanic.com\/news\/cyberpunk-city\/"
                }
            ],
            "id": 18601043,
            "url": "https:\/\/cryptopanic.com\/news\/18601043\/ash_swap-aggregator-is-now-available-on-MAINNET-Cyberpunk-City-will-make-the-integration-of-AshSwaps-aggrega",
            "created_at": "2023-06-17T16:48:03Z",
            "votes": {
                "negative": 0,
                "positive": 0,
                "important": 0,
                "liked": 0,
                "disliked": 0,
                "lol": 0,
                "toxic": 0,
                "saved": 0,
                "comments": 0
            }
        },
        {
            "kind": "news",
            "domain": "@cyberpunkcity",
            "source": {
                "title": "Cyberpunk City Twitter",
                "region": "en",
                "domain": "twitter.com",
                "path": "@cyberpunkcity"
            },
            "title": " Exciting news!\n\nThe next version of Alpha is now LIVE! \n\n\n\nGet ready for a new experienc\u2026",
            "published_at": "2023-06-14T22:13:01Z",
            "slug": "Exciting-news-The-next-version-of-Alpha-is-now-LIVE-Get-ready-for-a-new-experienc",
            "currencies": [
                {
                    "code": "CYBER",
                    "title": "Cyberpunk City",
                    "slug": "cyberpunk-city",
                    "url": "https:\/\/cryptopanic.com\/news\/cyberpunk-city\/"
                }
            ],
            "id": 18578459,
            "url": "https:\/\/cryptopanic.com\/news\/18578459\/Exciting-news-The-next-version-of-Alpha-is-now-LIVE-Get-ready-for-a-new-experienc",
            "created_at": "2023-06-14T22:13:01Z",
            "votes": {
                "negative": 0,
                "positive": 0,
                "important": 0,
                "liked": 0,
                "disliked": 0,
                "lol": 0,
                "toxic": 0,
                "saved": 0,
                "comments": 0
            }
        },
        {
            "kind": "news",
            "domain": "@cyberpunkcity",
            "source": {
                "title": "Cyberpunk City Twitter",
                "region": "en",
                "domain": "twitter.com",
                "path": "@cyberpunkcity"
            },
            "title": "The May update (2023) was posted \n\nSome topics covered:\n- Alpha Timeline \n- Panel Discussion \n- Stats \n\nThis mo\u2026",
            "published_at": "2023-06-09T14:21:42Z",
            "slug": "The-May-update-2023-was-posted-Some-topics-covered-Alpha-Timeline-Panel-Discussion-Stats-This-mo",
            "currencies": [
                {
                    "code": "CYBER",
                    "title": "Cyberpunk City",
                    "slug": "cyberpunk-city",
                    "url": "https:\/\/cryptopanic.com\/news\/cyberpunk-city\/"
                }
            ],
            "id": 18544714,
            "url": "https:\/\/cryptopanic.com\/news\/18544714\/The-May-update-2023-was-posted-Some-topics-covered-Alpha-Timeline-Panel-Discussion-Stats-This-mo",
            "created_at": "2023-06-09T14:21:42Z",
            "votes": {
                "negative": 0,
                "positive": 0,
                "important": 0,
                "liked": 0,
                "disliked": 0,
                "lol": 0,
                "toxic": 0,
                "saved": 0,
                "comments": 0
            }
        },
        {
            "kind": "news",
            "domain": "@cyberpunkcity",
            "source": {
                "title": "Cyberpunk City Twitter",
                "region": "en",
                "domain": "twitter.com",
                "path": "@cyberpunkcity"
            },
            "title": "RT @ThePalmTreeNW: 1\/16 Welcome to @cyberpunkcity, where the future has arrived! \n\nExciting news! The long-awaited Alpha version of @Multi\u2026",
            "published_at": "2023-06-09T11:14:18Z",
            "slug": "RT-ThePalmTreeNW-116-Welcome-to-cyberpunkcity-where-the-future-has-arrived-Exciting-news-The-long-awaited-Alpha-version-of-Multi",
            "currencies": [
                {
                    "code": "CYBER",
                    "title": "Cyberpunk City",
                    "slug": "cyberpunk-city",
                    "url": "https:\/\/cryptopanic.com\/news\/cyberpunk-city\/"
                }
            ],
            "id": 18544715,
            "url": "https:\/\/cryptopanic.com\/news\/18544715\/RT-ThePalmTreeNW-116-Welcome-to-cyberpunkcity-where-the-future-has-arrived-Exciting-news-The-long-awaited-Alpha-version-of-Multi",
            "created_at": "2023-06-09T11:14:18Z",
            "votes": {
                "negative": 0,
                "positive": 0,
                "important": 0,
                "liked": 0,
                "disliked": 0,
                "lol": 0,
                "toxic": 0,
                "saved": 0,
                "comments": 0
            }
        },
        {
            "kind": "news",
            "domain": "@cyberpunkcity",
            "source": {
                "title": "Cyberpunk City Twitter",
                "region": "en",
                "domain": "twitter.com",
                "path": "@cyberpunkcity"
            },
            "title": "RT @UneMandale: Day 2 of @cyberpunkcity ALPHA exploration !\nFollow Jasna Snow around the City!\n\n\n$CYBER @Multiver\u2026",
            "published_at": "2023-06-08T19:13:24Z",
            "slug": "RT-UneMandale-Day-2-of-cyberpunkcity-ALPHA-exploration-Follow-Jasna-Snow-around-the-City-CYBER-Multiver",
            "currencies": [
                {
                    "code": "CYBER",
                    "title": "Cyberpunk City",
                    "slug": "cyberpunk-city",
                    "url": "https:\/\/cryptopanic.com\/news\/cyberpunk-city\/"
                }
            ],
            "id": 18536357,
            "url": "https:\/\/cryptopanic.com\/news\/18536357\/RT-UneMandale-Day-2-of-cyberpunkcity-ALPHA-exploration-Follow-Jasna-Snow-around-the-City-CYBER-Multiver",
            "created_at": "2023-06-08T19:13:24Z",
            "votes": {
                "negative": 0,
                "positive": 0,
                "important": 0,
                "liked": 0,
                "disliked": 0,
                "lol": 0,
                "toxic": 0,
                "saved": 0,
                "comments": 0
            }
        },
        {
            "kind": "news",
            "domain": "@cyberpunkcity",
            "source": {
                "title": "Cyberpunk City Twitter",
                "region": "en",
                "domain": "twitter.com",
                "path": "@cyberpunkcity"
            },
            "title": " Great News!\n \n\u231b\ufe0fThe moment we've been waiting for is finally here.\n \n Cyberpunk City (Alpha version) is now LIVE\u2026",
            "published_at": "2023-06-06T17:16:11Z",
            "slug": "Great-News-The-moment-weve-been-waiting-for-is-finally-here-Cyberpunk-City-Alpha-version-is-now-LIVE",
            "currencies": [
                {
                    "code": "CYBER",
                    "title": "Cyberpunk City",
                    "slug": "cyberpunk-city",
                    "url": "https:\/\/cryptopanic.com\/news\/cyberpunk-city\/"
                }
            ],
            "id": 18519138,
            "url": "https:\/\/cryptopanic.com\/news\/18519138\/Great-News-The-moment-weve-been-waiting-for-is-finally-here-Cyberpunk-City-Alpha-version-is-now-LIVE",
            "created_at": "2023-06-06T17:16:11Z",
            "votes": {
                "negative": 0,
                "positive": 0,
                "important": 0,
                "liked": 0,
                "disliked": 0,
                "lol": 0,
                "toxic": 0,
                "saved": 0,
                "comments": 0
            }
        },
        {
            "kind": "news",
            "domain": "@cyberpunkcity",
            "source": {
                "title": "Cyberpunk City Twitter",
                "region": "en",
                "domain": "twitter.com",
                "path": "@cyberpunkcity"
            },
            "title": " Explore the world of Cyberpunk City Metaverse and learn more about the Alpha game test.\n\n Here is everything you\u2026",
            "published_at": "2023-06-06T14:49:38Z",
            "slug": "Explore-the-world-of-Cyberpunk-City-Metaverse-and-learn-more-about-the-Alpha-game-test-Here-is-everything-you",
            "currencies": [
                {
                    "code": "CYBER",
                    "title": "Cyberpunk City",
                    "slug": "cyberpunk-city",
                    "url": "https:\/\/cryptopanic.com\/news\/cyberpunk-city\/"
                }
            ],
            "id": 18519139,
            "url": "https:\/\/cryptopanic.com\/news\/18519139\/Explore-the-world-of-Cyberpunk-City-Metaverse-and-learn-more-about-the-Alpha-game-test-Here-is-everything-you",
            "created_at": "2023-06-06T14:49:38Z",
            "votes": {
                "negative": 0,
                "positive": 0,
                "important": 0,
                "liked": 0,
                "disliked": 0,
                "lol": 0,
                "toxic": 0,
                "saved": 0,
                "comments": 0
            }
        },
        {
            "kind": "news",
            "domain": "@cyberpunkcity",
            "source": {
                "title": "Cyberpunk City Twitter",
                "region": "en",
                "domain": "twitter.com",
                "path": "@cyberpunkcity"
            },
            "title": "RT @xoxnoNFTs: \ufe0fRECAP OF THE WEEK\ufe0f\n\n Collections from @cyberpunkcity and @wecowcow are up +200%\n\ud83e\udd8d @ElrondApes are back to #1 spot\n @C\u2026",
            "published_at": "2023-06-04T17:30:19Z",
            "slug": "RT-xoxnoNFTs-RECAP-OF-THE-WEEK-Collections-from-cyberpunkcity-and-wecowcow-are-up-200-ElrondApes-are-back-to-1-spot-C",
            "currencies": [
                {
                    "code": "CYBER",
                    "title": "Cyberpunk City",
                    "slug": "cyberpunk-city",
                    "url": "https:\/\/cryptopanic.com\/news\/cyberpunk-city\/"
                }
            ],
            "id": 18503134,
            "url": "https:\/\/cryptopanic.com\/news\/18503134\/RT-xoxnoNFTs-RECAP-OF-THE-WEEK-Collections-from-cyberpunkcity-and-wecowcow-are-up-200-ElrondApes-are-back-to-1-spot-C",
            "created_at": "2023-06-04T17:30:19Z",
            "votes": {
                "negative": 0,
                "positive": 0,
                "important": 0,
                "liked": 0,
                "disliked": 0,
                "lol": 0,
                "toxic": 0,
                "saved": 0,
                "comments": 0
            }
        },
        {
            "kind": "news",
            "domain": "@cyberpunkcity",
            "source": {
                "title": "Cyberpunk City Twitter",
                "region": "en",
                "domain": "twitter.com",
                "path": "@cyberpunkcity"
            },
            "title": "RT @xPortalApp: \ud83e\udd41 And... That's a wrap!\n\nCongratulations to May\u2019s top Metaverse explorers in the @cyberpunkcity-powered challenge.\n\nKeep th\u2026",
            "published_at": "2023-06-02T09:00:32Z",
            "slug": "RT-xPortalApp-And-Thats-a-wrap-Congratulations-to-Mays-top-Metaverse-explorers-in-the-cyberpunkcity-powered-challenge-Keep-th",
            "currencies": [
                {
                    "code": "CYBER",
                    "title": "Cyberpunk City",
                    "slug": "cyberpunk-city",
                    "url": "https:\/\/cryptopanic.com\/news\/cyberpunk-city\/"
                }
            ],
            "id": 18491980,
            "url": "https:\/\/cryptopanic.com\/news\/18491980\/RT-xPortalApp-And-Thats-a-wrap-Congratulations-to-Mays-top-Metaverse-explorers-in-the-cyberpunkcity-powered-challenge-Keep-th",
            "created_at": "2023-06-02T09:00:32Z",
            "votes": {
                "negative": 0,
                "positive": 0,
                "important": 0,
                "liked": 0,
                "disliked": 0,
                "lol": 0,
                "toxic": 0,
                "saved": 0,
                "comments": 0
            }
        },
        {
            "kind": "news",
            "domain": "@cyberpunkcity",
            "source": {
                "title": "Cyberpunk City Twitter",
                "region": "en",
                "domain": "twitter.com",
                "path": "@cyberpunkcity"
            },
            "title": "\ufe0f 108,000 $CYBER was distributed to 706 #CitizenNFT owners (3600 NFTs).\n\n If you want to earn 30 $CYBER per\u2026",
            "published_at": "2023-06-01T09:12:07Z",
            "slug": "108000-CYBER-was-distributed-to-706-CitizenNFT-owners-3600-NFTs-If-you-want-to-earn-30-CYBER-per",
            "currencies": [
                {
                    "code": "CYBER",
                    "title": "Cyberpunk City",
                    "slug": "cyberpunk-city",
                    "url": "https:\/\/cryptopanic.com\/news\/cyberpunk-city\/"
                }
            ],
            "id": 18483753,
            "url": "https:\/\/cryptopanic.com\/news\/18483753\/108000-CYBER-was-distributed-to-706-CitizenNFT-owners-3600-NFTs-If-you-want-to-earn-30-CYBER-per",
            "created_at": "2023-06-01T09:12:07Z",
            "votes": {
                "negative": 0,
                "positive": 0,
                "important": 0,
                "liked": 0,
                "disliked": 0,
                "lol": 0,
                "toxic": 0,
                "saved": 0,
                "comments": 0
            }
        }
    ]
}
