{
    "count": 200,
    "next": "https:\/\/cryptopanic.com\/api\/v1\/posts\/?auth_token=01c356e89ffc1b8eba2127c81fc8c66ee0eace75&kind=news&currencies=VIDT&page=2",
    "previous": null,
    "results": [
        {
            "kind": "news",
            "domain": "@VIDT_DAO",
            "source": {
                "title": "VIDT DAO Twitter",
                "region": "en",
                "domain": "twitter.com",
                "path": "@vidt_dao"
            },
            "title": "RT @VIDT_DAOWL: this must be my best DAOWL yet \ud83e\udd79\n\n #BTC #BNB $VIDT DAOWL #DOGE #VIDT",
            "published_at": "2023-01-31T15:13:34Z",
            "slug": "RT-VIDT_DAOWL-this-must-be-my-best-DAOWL-yet-BTC-BNB-VIDT-DAOWL-DOGE-VIDT",
            "currencies": [
                {
                    "code": "VIDT",
                    "title": "VIDT DAO",
                    "slug": "vidt-dao",
                    "url": "https:\/\/cryptopanic.com\/news\/vidt-dao\/"
                }
            ],
            "id": 17524575,
            "url": "https:\/\/cryptopanic.com\/news\/17524575\/RT-VIDT_DAOWL-this-must-be-my-best-DAOWL-yet-BTC-BNB-VIDT-DAOWL-DOGE-VIDT",
            "created_at": "2023-01-31T15:13:34Z",
            "votes": {
                "negative": 0,
                "positive": 0,
                "important": 0,
                "liked": 0,
                "disliked": 0,
                "lol": 0,
                "toxic": 0,
                "saved": 0,
                "comments": 0
            }
        },
        {
            "kind": "news",
            "domain": "@VIDT_DAO",
            "source": {
                "title": "VIDT DAO Twitter",
                "region": "en",
                "domain": "twitter.com",
                "path": "@vidt_dao"
            },
            "title": "Power to the people indeed!\n\n\"Whether it concerns applied #AI, machine learning, NLP, big data analytics, 5G or\u2026",
            "published_at": "2023-01-31T13:51:00Z",
            "slug": "Power-to-the-people-indeed-Whether-it-concerns-applied-AI-machine-learning-NLP-big-data-analytics-5G-or",
            "currencies": [
                {
                    "code": "VIDT",
                    "title": "VIDT DAO",
                    "slug": "vidt-dao",
                    "url": "https:\/\/cryptopanic.com\/news\/vidt-dao\/"
                }
            ],
            "id": 17524576,
            "url": "https:\/\/cryptopanic.com\/news\/17524576\/Power-to-the-people-indeed-Whether-it-concerns-applied-AI-machine-learning-NLP-big-data-analytics-5G-or",
            "created_at": "2023-01-31T13:51:00Z",
            "votes": {
                "negative": 0,
                "positive": 0,
                "important": 0,
                "liked": 0,
                "disliked": 0,
                "lol": 0,
                "toxic": 0,
                "saved": 0,
                "comments": 0
            }
        },
        {
            "kind": "news",
            "domain": "@VIDT_DAO",
            "source": {
                "title": "VIDT DAO Twitter",
                "region": "en",
                "domain": "twitter.com",
                "path": "@vidt_dao"
            },
            "title": "RT @LunarCrush: Which #altcoin do you think deserves \"Coin of the Month\"  honors for Jan 2023",
            "published_at": "2023-01-31T10:22:38Z",
            "slug": "RT-LunarCrush-Which-altcoin-do-you-think-deserves-Coin-of-the-Month-honors-for-Jan-2023",
            "currencies": [
                {
                    "code": "VIDT",
                    "title": "VIDT DAO",
                    "slug": "vidt-dao",
                    "url": "https:\/\/cryptopanic.com\/news\/vidt-dao\/"
                }
            ],
            "id": 17524577,
            "url": "https:\/\/cryptopanic.com\/news\/17524577\/RT-LunarCrush-Which-altcoin-do-you-think-deserves-Coin-of-the-Month-honors-for-Jan-2023",
            "created_at": "2023-01-31T10:22:38Z",
            "votes": {
                "negative": 0,
                "positive": 0,
                "important": 0,
                "liked": 0,
                "disliked": 0,
                "lol": 0,
                "toxic": 0,
                "saved": 0,
                "comments": 0
            }
        },
        {
            "kind": "news",
            "domain": "@VIDT_DAO",
            "source": {
                "title": "VIDT DAO Twitter",
                "region": "en",
                "domain": "twitter.com",
                "path": "@vidt_dao"
            },
            "title": "Great news! A team of seasoned social media experts just did their first proposal on the VIDT DAO Snapshot page!\u2026",
            "published_at": "2023-01-31T08:04:35Z",
            "slug": "Great-news-A-team-of-seasoned-social-media-experts-just-did-their-first-proposal-on-the-VIDT-DAO-Snapshot-page",
            "currencies": [
                {
                    "code": "VIDT",
                    "title": "VIDT DAO",
                    "slug": "vidt-dao",
                    "url": "https:\/\/cryptopanic.com\/news\/vidt-dao\/"
                }
            ],
            "id": 17514948,
            "url": "https:\/\/cryptopanic.com\/news\/17514948\/Great-news-A-team-of-seasoned-social-media-experts-just-did-their-first-proposal-on-the-VIDT-DAO-Snapshot-page",
            "created_at": "2023-01-31T08:04:35Z",
            "votes": {
                "negative": 0,
                "positive": 0,
                "important": 0,
                "liked": 0,
                "disliked": 0,
                "lol": 0,
                "toxic": 0,
                "saved": 0,
                "comments": 0
            }
        },
        {
            "kind": "news",
            "domain": "@VIDT_DAO",
            "source": {
                "title": "VIDT DAO Twitter",
                "region": "en",
                "domain": "twitter.com",
                "path": "@vidt_dao"
            },
            "title": "Agreed! and still very proud of the $VIDT DAO audit by @CertiK, one of the best in the industry!\u2026",
            "published_at": "2023-01-29T17:30:15Z",
            "slug": "Agreed-and-still-very-proud-of-the-VIDT-DAO-audit-by-CertiK-one-of-the-best-in-the-industry",
            "currencies": [
                {
                    "code": "VIDT",
                    "title": "VIDT DAO",
                    "slug": "vidt-dao",
                    "url": "https:\/\/cryptopanic.com\/news\/vidt-dao\/"
                }
            ],
            "id": 17505113,
            "url": "https:\/\/cryptopanic.com\/news\/17505113\/Agreed-and-still-very-proud-of-the-VIDT-DAO-audit-by-CertiK-one-of-the-best-in-the-industry",
            "created_at": "2023-01-29T17:30:15Z",
            "votes": {
                "negative": 0,
                "positive": 0,
                "important": 0,
                "liked": 0,
                "disliked": 0,
                "lol": 0,
                "toxic": 0,
                "saved": 0,
                "comments": 0
            }
        },
        {
            "kind": "news",
            "domain": "@VIDT_DAO",
            "source": {
                "title": "VIDT DAO Twitter",
                "region": "en",
                "domain": "twitter.com",
                "path": "@vidt_dao"
            },
            "title": "The people in the images below are generated by #AI and are not real..\n\n.. but what is real?\n\nAs we enter an era wh\u2026",
            "published_at": "2023-01-29T15:39:39Z",
            "slug": "The-people-in-the-images-below-are-generated-by-AI-and-are-not-real-but-what-is-real-As-we-enter-an-era-wh",
            "currencies": [
                {
                    "code": "VIDT",
                    "title": "VIDT DAO",
                    "slug": "vidt-dao",
                    "url": "https:\/\/cryptopanic.com\/news\/vidt-dao\/"
                }
            ],
            "id": 17505114,
            "url": "https:\/\/cryptopanic.com\/news\/17505114\/The-people-in-the-images-below-are-generated-by-AI-and-are-not-real-but-what-is-real-As-we-enter-an-era-wh",
            "created_at": "2023-01-29T15:39:39Z",
            "votes": {
                "negative": 0,
                "positive": 0,
                "important": 0,
                "liked": 0,
                "disliked": 0,
                "lol": 0,
                "toxic": 0,
                "saved": 0,
                "comments": 0
            }
        },
        {
            "kind": "news",
            "domain": "@VIDT_DAO",
            "source": {
                "title": "VIDT DAO Twitter",
                "region": "en",
                "domain": "twitter.com",
                "path": "@vidt_dao"
            },
            "title": "Haha, nice one ",
            "published_at": "2023-01-29T09:33:08Z",
            "slug": "Haha-nice-one",
            "currencies": [
                {
                    "code": "VIDT",
                    "title": "VIDT DAO",
                    "slug": "vidt-dao",
                    "url": "https:\/\/cryptopanic.com\/news\/vidt-dao\/"
                }
            ],
            "id": 17499497,
            "url": "https:\/\/cryptopanic.com\/news\/17499497\/Haha-nice-one",
            "created_at": "2023-01-29T09:33:08Z",
            "votes": {
                "negative": 0,
                "positive": 0,
                "important": 0,
                "liked": 0,
                "disliked": 0,
                "lol": 0,
                "toxic": 0,
                "saved": 0,
                "comments": 0
            }
        },
        {
            "kind": "news",
            "domain": "@VIDT_DAO",
            "source": {
                "title": "VIDT DAO Twitter",
                "region": "en",
                "domain": "twitter.com",
                "path": "@vidt_dao"
            },
            "title": "Why build on VIDT Tech?\n\n\"Whether it concerns applied #AI, machine learning, NLP, big data analytics, 5G or #IoT\u2026 d\u2026",
            "published_at": "2023-01-26T08:37:46Z",
            "slug": "Why-build-on-VIDT-Tech-Whether-it-concerns-applied-AI-machine-learning-NLP-big-data-analytics-5G-or-IoT-d",
            "currencies": [
                {
                    "code": "VIDT",
                    "title": "VIDT DAO",
                    "slug": "vidt-dao",
                    "url": "https:\/\/cryptopanic.com\/news\/vidt-dao\/"
                }
            ],
            "id": 17476595,
            "url": "https:\/\/cryptopanic.com\/news\/17476595\/Why-build-on-VIDT-Tech-Whether-it-concerns-applied-AI-machine-learning-NLP-big-data-analytics-5G-or-IoT-d",
            "created_at": "2023-01-26T08:37:46Z",
            "votes": {
                "negative": 0,
                "positive": 0,
                "important": 0,
                "liked": 0,
                "disliked": 0,
                "lol": 0,
                "toxic": 0,
                "saved": 0,
                "comments": 0
            }
        },
        {
            "kind": "news",
            "domain": "@VIDT_DAO",
            "source": {
                "title": "VIDT DAO Twitter",
                "region": "en",
                "domain": "twitter.com",
                "path": "@vidt_dao"
            },
            "title": "Awesome.. thanks @CertiK, @CertiKCommunity and @GenxAnalytics for the mention \ud83e\udef6 \n\nFor more info, also check out th\u2026",
            "published_at": "2023-01-24T15:39:24Z",
            "slug": "Awesome-thanks-CertiK-CertiKCommunity-and-GenxAnalytics-for-the-mention-For-more-info-also-check-out-th",
            "currencies": [
                {
                    "code": "VIDT",
                    "title": "VIDT DAO",
                    "slug": "vidt-dao",
                    "url": "https:\/\/cryptopanic.com\/news\/vidt-dao\/"
                }
            ],
            "id": 17467280,
            "url": "https:\/\/cryptopanic.com\/news\/17467280\/Awesome-thanks-CertiK-CertiKCommunity-and-GenxAnalytics-for-the-mention-For-more-info-also-check-out-th",
            "created_at": "2023-01-24T15:39:24Z",
            "votes": {
                "negative": 0,
                "positive": 0,
                "important": 0,
                "liked": 0,
                "disliked": 0,
                "lol": 0,
                "toxic": 0,
                "saved": 0,
                "comments": 0
            }
        },
        {
            "kind": "news",
            "domain": "@VIDT_DAO",
            "source": {
                "title": "VIDT DAO Twitter",
                "region": "en",
                "domain": "twitter.com",
                "path": "@vidt_dao"
            },
            "title": "Benefits of Combining #AI &amp; $VIDT DAO\n3\/3, Decentralised Validation of AI Data\n\nUsing VIDT Tech to time-stamp AI pr\u2026",
            "published_at": "2023-01-24T13:28:29Z",
            "slug": "Benefits-of-Combining-AI-amp-VIDT-DAO-33-Decentralised-Validation-of-AI-Data-Using-VIDT-Tech-to-time-stamp-AI-pr",
            "currencies": [
                {
                    "code": "VIDT",
                    "title": "VIDT DAO",
                    "slug": "vidt-dao",
                    "url": "https:\/\/cryptopanic.com\/news\/vidt-dao\/"
                }
            ],
            "id": 17467281,
            "url": "https:\/\/cryptopanic.com\/news\/17467281\/Benefits-of-Combining-AI-amp-VIDT-DAO-33-Decentralised-Validation-of-AI-Data-Using-VIDT-Tech-to-time-stamp-AI-pr",
            "created_at": "2023-01-24T13:28:29Z",
            "votes": {
                "negative": 0,
                "positive": 0,
                "important": 0,
                "liked": 0,
                "disliked": 0,
                "lol": 0,
                "toxic": 0,
                "saved": 0,
                "comments": 0
            }
        },
        {
            "kind": "news",
            "domain": "@VIDT_DAO",
            "source": {
                "title": "VIDT DAO Twitter",
                "region": "en",
                "domain": "twitter.com",
                "path": "@vidt_dao"
            },
            "title": "\ud83e\udd70\ud83e\udef6 absolutely love it\u2026 please keep those DAOWL-memes coming!\n\nFor more $VIDT memes, you can also check out:\u2026",
            "published_at": "2023-01-23T15:32:21Z",
            "slug": "absolutely-love-it-please-keep-those-DAOWL-memes-coming-For-more-VIDT-memes-you-can-also-check-out",
            "currencies": [
                {
                    "code": "VIDT",
                    "title": "VIDT DAO",
                    "slug": "vidt-dao",
                    "url": "https:\/\/cryptopanic.com\/news\/vidt-dao\/"
                }
            ],
            "id": 17458174,
            "url": "https:\/\/cryptopanic.com\/news\/17458174\/absolutely-love-it-please-keep-those-DAOWL-memes-coming-For-more-VIDT-memes-you-can-also-check-out",
            "created_at": "2023-01-23T15:32:21Z",
            "votes": {
                "negative": 0,
                "positive": 0,
                "important": 0,
                "liked": 0,
                "disliked": 0,
                "lol": 0,
                "toxic": 0,
                "saved": 0,
                "comments": 0
            }
        },
        {
            "kind": "news",
            "domain": "@VIDT_DAO",
            "source": {
                "title": "VIDT DAO Twitter",
                "region": "en",
                "domain": "twitter.com",
                "path": "@vidt_dao"
            },
            "title": "Benefits of Combining #AI &amp; $VIDT DAO\n2\/3, Automated Contract Execution\n\n#AI is used to analyse terms of a contrac\u2026",
            "published_at": "2023-01-22T09:10:40Z",
            "slug": "Benefits-of-Combining-AI-amp-VIDT-DAO-23-Automated-Contract-Execution-AI-is-used-to-analyse-terms-of-a-contrac",
            "currencies": [
                {
                    "code": "VIDT",
                    "title": "VIDT DAO",
                    "slug": "vidt-dao",
                    "url": "https:\/\/cryptopanic.com\/news\/vidt-dao\/"
                }
            ],
            "id": 17444101,
            "url": "https:\/\/cryptopanic.com\/news\/17444101\/Benefits-of-Combining-AI-amp-VIDT-DAO-23-Automated-Contract-Execution-AI-is-used-to-analyse-terms-of-a-contrac",
            "created_at": "2023-01-22T09:10:40Z",
            "votes": {
                "negative": 0,
                "positive": 0,
                "important": 0,
                "liked": 0,
                "disliked": 0,
                "lol": 0,
                "toxic": 0,
                "saved": 0,
                "comments": 0
            }
        },
        {
            "kind": "news",
            "domain": "@VIDT_DAO",
            "source": {
                "title": "VIDT DAO Twitter",
                "region": "en",
                "domain": "twitter.com",
                "path": "@vidt_dao"
            },
            "title": "Benefits of Combining #AI &amp; $VIDT DAO\n1\/3, Reduce risk of cyber attacks\n\n#AI can be used to detect &amp; respond to cy\u2026",
            "published_at": "2023-01-20T17:27:04Z",
            "slug": "Benefits-of-Combining-AI-amp-VIDT-DAO-13-Reduce-risk-of-cyber-attacks-AI-can-be-used-to-detect-amp-respond-to-cy",
            "currencies": [
                {
                    "code": "VIDT",
                    "title": "VIDT DAO",
                    "slug": "vidt-dao",
                    "url": "https:\/\/cryptopanic.com\/news\/vidt-dao\/"
                }
            ],
            "id": 17438165,
            "url": "https:\/\/cryptopanic.com\/news\/17438165\/Benefits-of-Combining-AI-amp-VIDT-DAO-13-Reduce-risk-of-cyber-attacks-AI-can-be-used-to-detect-amp-respond-to-cy",
            "created_at": "2023-01-20T17:27:04Z",
            "votes": {
                "negative": 0,
                "positive": 0,
                "important": 0,
                "liked": 0,
                "disliked": 0,
                "lol": 0,
                "toxic": 0,
                "saved": 0,
                "comments": 0
            }
        },
        {
            "kind": "news",
            "domain": "@VIDT_DAO",
            "source": {
                "title": "VIDT DAO Twitter",
                "region": "en",
                "domain": "twitter.com",
                "path": "@vidt_dao"
            },
            "title": "By adding timestamps to key data such as AI-generated predictive maintenance alerts, #AI prompts and installed firm\u2026",
            "published_at": "2023-01-18T09:45:59Z",
            "slug": "By-adding-timestamps-to-key-data-such-as-AI-generated-predictive-maintenance-alerts-AI-prompts-and-installed-firm",
            "currencies": [
                {
                    "code": "VIDT",
                    "title": "VIDT DAO",
                    "slug": "vidt-dao",
                    "url": "https:\/\/cryptopanic.com\/news\/vidt-dao\/"
                }
            ],
            "id": 17410552,
            "url": "https:\/\/cryptopanic.com\/news\/17410552\/By-adding-timestamps-to-key-data-such-as-AI-generated-predictive-maintenance-alerts-AI-prompts-and-installed-firm",
            "created_at": "2023-01-18T09:45:59Z",
            "votes": {
                "negative": 0,
                "positive": 0,
                "important": 0,
                "liked": 0,
                "disliked": 0,
                "lol": 0,
                "toxic": 0,
                "saved": 0,
                "comments": 0
            }
        },
        {
            "kind": "news",
            "domain": "@VIDT_DAO",
            "source": {
                "title": "VIDT DAO Twitter",
                "region": "en",
                "domain": "twitter.com",
                "path": "@vidt_dao"
            },
            "title": "Thanks for the mention! Indeed great to see growing interest in $VIDT DAO Tech! \n\nAlso nice to see integrators like\u2026",
            "published_at": "2023-01-17T16:16:51Z",
            "slug": "Thanks-for-the-mention-Indeed-great-to-see-growing-interest-in-VIDT-DAO-Tech-Also-nice-to-see-integrators-like",
            "currencies": [
                {
                    "code": "VIDT",
                    "title": "VIDT DAO",
                    "slug": "vidt-dao",
                    "url": "https:\/\/cryptopanic.com\/news\/vidt-dao\/"
                }
            ],
            "id": 17410553,
            "url": "https:\/\/cryptopanic.com\/news\/17410553\/Thanks-for-the-mention-Indeed-great-to-see-growing-interest-in-VIDT-DAO-Tech-Also-nice-to-see-integrators-like",
            "created_at": "2023-01-17T16:16:51Z",
            "votes": {
                "negative": 0,
                "positive": 0,
                "important": 0,
                "liked": 0,
                "disliked": 0,
                "lol": 0,
                "toxic": 0,
                "saved": 0,
                "comments": 0
            }
        },
        {
            "kind": "news",
            "domain": "@VIDT_DAO",
            "source": {
                "title": "VIDT DAO Twitter",
                "region": "en",
                "domain": "twitter.com",
                "path": "@vidt_dao"
            },
            "title": "\ud83e\udd18Been using our $VIDT DAO live dashboard with @LunarCrush Level 5 for some time now... and it simply rocks\n\nHighl\u2026",
            "published_at": "2023-01-17T08:17:26Z",
            "slug": "Been-using-our-VIDT-DAO-live-dashboard-with-LunarCrush-Level-5-for-some-time-now-and-it-simply-rocks-Highl",
            "currencies": [
                {
                    "code": "VIDT",
                    "title": "VIDT DAO",
                    "slug": "vidt-dao",
                    "url": "https:\/\/cryptopanic.com\/news\/vidt-dao\/"
                }
            ],
            "id": 17401282,
            "url": "https:\/\/cryptopanic.com\/news\/17401282\/Been-using-our-VIDT-DAO-live-dashboard-with-LunarCrush-Level-5-for-some-time-now-and-it-simply-rocks-Highl",
            "created_at": "2023-01-17T08:17:26Z",
            "votes": {
                "negative": 0,
                "positive": 0,
                "important": 0,
                "liked": 0,
                "disliked": 0,
                "lol": 0,
                "toxic": 0,
                "saved": 0,
                "comments": 0
            }
        },
        {
            "kind": "news",
            "domain": "@VIDT_DAO",
            "source": {
                "title": "VIDT DAO Twitter",
                "region": "en",
                "domain": "twitter.com",
                "path": "@vidt_dao"
            },
            "title": " Applied #AI (Machine Learning &amp; NLP)\n Big Data Analytics\n Future of Connectivity (5G &amp; #IoT)\n\nDecentralised\u2026",
            "published_at": "2023-01-16T07:34:03Z",
            "slug": "Applied-AI-Machine-Learning-amp-NLP-Big-Data-Analytics-Future-of-Connectivity-5G-amp-IoT-Decentralised",
            "currencies": [
                {
                    "code": "VIDT",
                    "title": "VIDT DAO",
                    "slug": "vidt-dao",
                    "url": "https:\/\/cryptopanic.com\/news\/vidt-dao\/"
                }
            ],
            "id": 17392743,
            "url": "https:\/\/cryptopanic.com\/news\/17392743\/Applied-AI-Machine-Learning-amp-NLP-Big-Data-Analytics-Future-of-Connectivity-5G-amp-IoT-Decentralised",
            "created_at": "2023-01-16T07:34:03Z",
            "votes": {
                "negative": 0,
                "positive": 0,
                "important": 0,
                "liked": 0,
                "disliked": 0,
                "lol": 0,
                "toxic": 0,
                "saved": 0,
                "comments": 0
            }
        },
        {
            "kind": "news",
            "domain": "@VIDT_DAO",
            "source": {
                "title": "VIDT DAO Twitter",
                "region": "en",
                "domain": "twitter.com",
                "path": "@vidt_dao"
            },
            "title": "With the $VIDT DAO Token anyone can become a decentralised digital notary!\n\n\n\nPS Love the DA\u2026",
            "published_at": "2023-01-15T11:20:58Z",
            "slug": "With-the-VIDT-DAO-Token-anyone-can-become-a-decentralised-digital-notary-PS-Love-the-DA",
            "currencies": [
                {
                    "code": "VIDT",
                    "title": "VIDT DAO",
                    "slug": "vidt-dao",
                    "url": "https:\/\/cryptopanic.com\/news\/vidt-dao\/"
                }
            ],
            "id": 17392744,
            "url": "https:\/\/cryptopanic.com\/news\/17392744\/With-the-VIDT-DAO-Token-anyone-can-become-a-decentralised-digital-notary-PS-Love-the-DA",
            "created_at": "2023-01-15T11:20:58Z",
            "votes": {
                "negative": 0,
                "positive": 0,
                "important": 0,
                "liked": 0,
                "disliked": 0,
                "lol": 0,
                "toxic": 0,
                "saved": 0,
                "comments": 0
            }
        },
        {
            "kind": "news",
            "domain": "@VIDT_DAO",
            "source": {
                "title": "VIDT DAO Twitter",
                "region": "en",
                "domain": "twitter.com",
                "path": "@vidt_dao"
            },
            "title": "\"The unpredictable nature of deep learning model predictions is a growing concern for global #AI adoption.\n\nDecentr\u2026",
            "published_at": "2023-01-13T12:14:42Z",
            "slug": "The-unpredictable-nature-of-deep-learning-model-predictions-is-a-growing-concern-for-global-AI-adoption-Decentr",
            "currencies": [
                {
                    "code": "VIDT",
                    "title": "VIDT DAO",
                    "slug": "vidt-dao",
                    "url": "https:\/\/cryptopanic.com\/news\/vidt-dao\/"
                }
            ],
            "id": 17381268,
            "url": "https:\/\/cryptopanic.com\/news\/17381268\/The-unpredictable-nature-of-deep-learning-model-predictions-is-a-growing-concern-for-global-AI-adoption-Decentr",
            "created_at": "2023-01-13T12:14:42Z",
            "votes": {
                "negative": 0,
                "positive": 0,
                "important": 0,
                "liked": 0,
                "disliked": 0,
                "lol": 0,
                "toxic": 0,
                "saved": 0,
                "comments": 0
            }
        },
        {
            "kind": "news",
            "domain": "@VIDT_DAO",
            "source": {
                "title": "VIDT DAO Twitter",
                "region": "en",
                "domain": "twitter.com",
                "path": "@vidt_dao"
            },
            "title": "Thanks for the mention! Indeed great to see $VIDT DAO integrators like exploring the benefi\u2026",
            "published_at": "2023-01-11T07:47:12Z",
            "slug": "Thanks-for-the-mention-Indeed-great-to-see-VIDT-DAO-integrators-like-exploring-the-benefi",
            "currencies": [
                {
                    "code": "VIDT",
                    "title": "VIDT DAO",
                    "slug": "vidt-dao",
                    "url": "https:\/\/cryptopanic.com\/news\/vidt-dao\/"
                }
            ],
            "id": 17353791,
            "url": "https:\/\/cryptopanic.com\/news\/17353791\/Thanks-for-the-mention-Indeed-great-to-see-VIDT-DAO-integrators-like-exploring-the-benefi",
            "created_at": "2023-01-11T07:47:12Z",
            "votes": {
                "negative": 0,
                "positive": 0,
                "important": 0,
                "liked": 0,
                "disliked": 0,
                "lol": 0,
                "toxic": 0,
                "saved": 0,
                "comments": 0
            }
        }
    ]
}
