{
    "count": 200,
    "next": "https:\/\/cryptopanic.com\/api\/v1\/posts\/?auth_token=01c356e89ffc1b8eba2127c81fc8c66ee0eace75&kind=news&currencies=IOST&page=2",
    "previous": null,
    "results": [
        {
            "kind": "news",
            "domain": "@IOST_Official",
            "source": {
                "title": "IOST Twitter",
                "region": "en",
                "domain": "twitter.com",
                "path": "@iost_official"
            },
            "title": " Get ready for an exclusive opportunity! \n\n We're thrilled to unveil the #iMuxic #NFT campaign by #IOST &amp;\u2026",
            "published_at": "2023-07-11T12:06:02Z",
            "slug": "Get-ready-for-an-exclusive-opportunity-Were-thrilled-to-unveil-the-iMuxic-NFT-campaign-by-IOST-amp",
            "currencies": [
                {
                    "code": "IOST",
                    "title": "IOST",
                    "slug": "iostoken",
                    "url": "https:\/\/cryptopanic.com\/news\/iostoken\/"
                }
            ],
            "id": 18764918,
            "url": "https:\/\/cryptopanic.com\/news\/18764918\/Get-ready-for-an-exclusive-opportunity-Were-thrilled-to-unveil-the-iMuxic-NFT-campaign-by-IOST-amp",
            "created_at": "2023-07-11T12:06:02Z",
            "votes": {
                "negative": 0,
                "positive": 0,
                "important": 0,
                "liked": 0,
                "disliked": 0,
                "lol": 0,
                "toxic": 0,
                "saved": 0,
                "comments": 0
            }
        },
        {
            "kind": "news",
            "domain": "@IOST_Official",
            "source": {
                "title": "IOST Twitter",
                "region": "en",
                "domain": "twitter.com",
                "path": "@iost_official"
            },
            "title": "RT @BuidlerCon2023: BuidlerCon2023's Twitter Space will be live!\n\nTopic\uff1aExploring the Path of Non-EVM Innovation\n\nGuest \uff1a@Blake7Jeong @A\u2026",
            "published_at": "2023-07-11T09:11:48Z",
            "slug": "RT-BuidlerCon2023-BuidlerCon2023s-Twitter-Space-will-be-live-TopicExploring-the-Path-of-Non-EVM-Innovation-Guest-Blake7Jeong-A",
            "currencies": [
                {
                    "code": "IOST",
                    "title": "IOST",
                    "slug": "iostoken",
                    "url": "https:\/\/cryptopanic.com\/news\/iostoken\/"
                }
            ],
            "id": 18764919,
            "url": "https:\/\/cryptopanic.com\/news\/18764919\/RT-BuidlerCon2023-BuidlerCon2023s-Twitter-Space-will-be-live-TopicExploring-the-Path-of-Non-EVM-Innovation-Guest-Blake7Jeong-A",
            "created_at": "2023-07-11T09:11:48Z",
            "votes": {
                "negative": 0,
                "positive": 0,
                "important": 0,
                "liked": 0,
                "disliked": 0,
                "lol": 0,
                "toxic": 0,
                "saved": 0,
                "comments": 0
            }
        },
        {
            "kind": "news",
            "domain": "@IOST_Official",
            "source": {
                "title": "IOST Twitter",
                "region": "en",
                "domain": "twitter.com",
                "path": "@iost_official"
            },
            "title": " #IOST is thrilled to co-host the 10th-anniversary charity music event of Love Foundation in #HongKong \n\n\ufe0f Join u\u2026",
            "published_at": "2023-07-10T12:03:15Z",
            "slug": "IOST-is-thrilled-to-co-host-the-10th-anniversary-charity-music-event-of-Love-Foundation-in-HongKong-Join-u",
            "currencies": [
                {
                    "code": "IOST",
                    "title": "IOST",
                    "slug": "iostoken",
                    "url": "https:\/\/cryptopanic.com\/news\/iostoken\/"
                }
            ],
            "id": 18756756,
            "url": "https:\/\/cryptopanic.com\/news\/18756756\/IOST-is-thrilled-to-co-host-the-10th-anniversary-charity-music-event-of-Love-Foundation-in-HongKong-Join-u",
            "created_at": "2023-07-10T12:03:15Z",
            "votes": {
                "negative": 0,
                "positive": 0,
                "important": 0,
                "liked": 0,
                "disliked": 0,
                "lol": 0,
                "toxic": 0,
                "saved": 0,
                "comments": 0
            }
        },
        {
            "kind": "news",
            "domain": "@IOST_Official",
            "source": {
                "title": "IOST Twitter",
                "region": "en",
                "domain": "twitter.com",
                "path": "@iost_official"
            },
            "title": "\ufe0f gm gm, #iostians! Sending positive #IOST vibes for a productive and fulfilling week ahead ",
            "published_at": "2023-07-10T07:41:23Z",
            "slug": "gm-gm-iostians-Sending-positive-IOST-vibes-for-a-productive-and-fulfilling-week-ahead",
            "currencies": [
                {
                    "code": "IOST",
                    "title": "IOST",
                    "slug": "iostoken",
                    "url": "https:\/\/cryptopanic.com\/news\/iostoken\/"
                }
            ],
            "id": 18750049,
            "url": "https:\/\/cryptopanic.com\/news\/18750049\/gm-gm-iostians-Sending-positive-IOST-vibes-for-a-productive-and-fulfilling-week-ahead",
            "created_at": "2023-07-10T07:41:23Z",
            "votes": {
                "negative": 0,
                "positive": 0,
                "important": 0,
                "liked": 0,
                "disliked": 0,
                "lol": 0,
                "toxic": 0,
                "saved": 0,
                "comments": 0
            }
        },
        {
            "kind": "news",
            "domain": "@IOST_Official",
            "source": {
                "title": "IOST Twitter",
                "region": "en",
                "domain": "twitter.com",
                "path": "@iost_official"
            },
            "title": " Join us in revolutionizing the world of art with #Web3! \n\n ArtGroup @artracx, powered by #IOST, is transforming\u2026",
            "published_at": "2023-07-07T10:13:23Z",
            "slug": "Join-us-in-revolutionizing-the-world-of-art-with-Web3-ArtGroup-artracx-powered-by-IOST-is-transforming",
            "currencies": [
                {
                    "code": "IOST",
                    "title": "IOST",
                    "slug": "iostoken",
                    "url": "https:\/\/cryptopanic.com\/news\/iostoken\/"
                }
            ],
            "id": 18740636,
            "url": "https:\/\/cryptopanic.com\/news\/18740636\/Join-us-in-revolutionizing-the-world-of-art-with-Web3-ArtGroup-artracx-powered-by-IOST-is-transforming",
            "created_at": "2023-07-07T10:13:23Z",
            "votes": {
                "negative": 0,
                "positive": 0,
                "important": 0,
                "liked": 0,
                "disliked": 0,
                "lol": 0,
                "toxic": 0,
                "saved": 0,
                "comments": 0
            }
        },
        {
            "kind": "news",
            "domain": "@IOST_Official",
            "source": {
                "title": "IOST Twitter",
                "region": "en",
                "domain": "twitter.com",
                "path": "@iost_official"
            },
            "title": " Excited to join Asia's largest #Web3 conference, @WebX_Asia hosted by @coin_post! \n\n Discover groundbreaking\u2026",
            "published_at": "2023-07-06T09:09:07Z",
            "slug": "Excited-to-join-Asias-largest-Web3-conference-WebX_Asia-hosted-by-coin_post-Discover-groundbreaking",
            "currencies": [
                {
                    "code": "IOST",
                    "title": "IOST",
                    "slug": "iostoken",
                    "url": "https:\/\/cryptopanic.com\/news\/iostoken\/"
                }
            ],
            "id": 18733037,
            "url": "https:\/\/cryptopanic.com\/news\/18733037\/Excited-to-join-Asias-largest-Web3-conference-WebX_Asia-hosted-by-coin_post-Discover-groundbreaking",
            "created_at": "2023-07-06T09:09:07Z",
            "votes": {
                "negative": 0,
                "positive": 0,
                "important": 0,
                "liked": 0,
                "disliked": 0,
                "lol": 0,
                "toxic": 0,
                "saved": 0,
                "comments": 0
            }
        },
        {
            "kind": "news",
            "domain": "@IOST_Official",
            "source": {
                "title": "IOST Twitter",
                "region": "en",
                "domain": "twitter.com",
                "path": "@iost_official"
            },
            "title": " gm gm, #iostians! May this week bring you success, opportunities, and memorable moments! ",
            "published_at": "2023-07-03T07:44:43Z",
            "slug": "gm-gm-iostians-May-this-week-bring-you-success-opportunities-and-memorable-moments",
            "currencies": [
                {
                    "code": "IOST",
                    "title": "IOST",
                    "slug": "iostoken",
                    "url": "https:\/\/cryptopanic.com\/news\/iostoken\/"
                }
            ],
            "id": 18709569,
            "url": "https:\/\/cryptopanic.com\/news\/18709569\/gm-gm-iostians-May-this-week-bring-you-success-opportunities-and-memorable-moments",
            "created_at": "2023-07-03T07:44:43Z",
            "votes": {
                "negative": 0,
                "positive": 0,
                "important": 0,
                "liked": 0,
                "disliked": 0,
                "lol": 0,
                "toxic": 0,
                "saved": 0,
                "comments": 0
            }
        },
        {
            "kind": "news",
            "domain": "@IOST_Official",
            "source": {
                "title": "IOST Twitter",
                "region": "en",
                "domain": "twitter.com",
                "path": "@iost_official"
            },
            "title": " Check out the latest trading volume for #IOST! \n\n June 16 - June 29, 2023\n $IOST reached a peak trading volume\u2026",
            "published_at": "2023-06-30T10:41:31Z",
            "slug": "Check-out-the-latest-trading-volume-for-IOST-June-16-June-29-2023-IOST-reached-a-peak-trading-volume",
            "currencies": [
                {
                    "code": "IOST",
                    "title": "IOST",
                    "slug": "iostoken",
                    "url": "https:\/\/cryptopanic.com\/news\/iostoken\/"
                }
            ],
            "id": 18693939,
            "url": "https:\/\/cryptopanic.com\/news\/18693939\/Check-out-the-latest-trading-volume-for-IOST-June-16-June-29-2023-IOST-reached-a-peak-trading-volume",
            "created_at": "2023-06-30T10:41:31Z",
            "votes": {
                "negative": 0,
                "positive": 0,
                "important": 0,
                "liked": 0,
                "disliked": 0,
                "lol": 0,
                "toxic": 0,
                "saved": 0,
                "comments": 0
            }
        },
        {
            "kind": "news",
            "domain": "@IOST_Official",
            "source": {
                "title": "IOST Twitter",
                "region": "en",
                "domain": "twitter.com",
                "path": "@iost_official"
            },
            "title": "1\/2  #IOST's plugin wallet, iWallet, has undergone a major upgrade and is now rebranded as iWallet Pro! \n Enjoy\u2026",
            "published_at": "2023-06-28T10:02:26Z",
            "slug": "12-IOSTs-plugin-wallet-iWallet-has-undergone-a-major-upgrade-and-is-now-rebranded-as-iWallet-Pro-Enjoy",
            "currencies": [
                {
                    "code": "IOST",
                    "title": "IOST",
                    "slug": "iostoken",
                    "url": "https:\/\/cryptopanic.com\/news\/iostoken\/"
                }
            ],
            "id": 18678120,
            "url": "https:\/\/cryptopanic.com\/news\/18678120\/12-IOSTs-plugin-wallet-iWallet-has-undergone-a-major-upgrade-and-is-now-rebranded-as-iWallet-Pro-Enjoy",
            "created_at": "2023-06-28T10:02:26Z",
            "votes": {
                "negative": 0,
                "positive": 0,
                "important": 0,
                "liked": 0,
                "disliked": 0,
                "lol": 0,
                "toxic": 0,
                "saved": 0,
                "comments": 0
            }
        },
        {
            "kind": "news",
            "domain": "@IOST_Official",
            "source": {
                "title": "IOST Twitter",
                "region": "en",
                "domain": "twitter.com",
                "path": "@iost_official"
            },
            "title": " See you there!",
            "published_at": "2023-06-27T12:02:39Z",
            "slug": "See-you-there",
            "currencies": [
                {
                    "code": "IOST",
                    "title": "IOST",
                    "slug": "iostoken",
                    "url": "https:\/\/cryptopanic.com\/news\/iostoken\/"
                }
            ],
            "id": 18669887,
            "url": "https:\/\/cryptopanic.com\/news\/18669887\/See-you-there",
            "created_at": "2023-06-27T12:02:39Z",
            "votes": {
                "negative": 0,
                "positive": 0,
                "important": 0,
                "liked": 0,
                "disliked": 0,
                "lol": 0,
                "toxic": 0,
                "saved": 0,
                "comments": 0
            }
        },
        {
            "kind": "news",
            "domain": "@IOST_Official",
            "source": {
                "title": "IOST Twitter",
                "region": "en",
                "domain": "twitter.com",
                "path": "@iost_official"
            },
            "title": "RT @DeBox_Social: Join us in welcoming @IOST_Official to the \n@DeBox_Social community !\n\nIOST, Simplified for Developers, BUIDLT for Ever\u2026",
            "published_at": "2023-06-27T09:19:02Z",
            "slug": "RT-DeBox_Social-Join-us-in-welcoming-IOST_Official-to-the-DeBox_Social-community-IOST-Simplified-for-Developers-BUIDLT-for-Ever",
            "currencies": [
                {
                    "code": "IOST",
                    "title": "IOST",
                    "slug": "iostoken",
                    "url": "https:\/\/cryptopanic.com\/news\/iostoken\/"
                }
            ],
            "id": 18669888,
            "url": "https:\/\/cryptopanic.com\/news\/18669888\/RT-DeBox_Social-Join-us-in-welcoming-IOST_Official-to-the-DeBox_Social-community-IOST-Simplified-for-Developers-BUIDLT-for-Ever",
            "created_at": "2023-06-27T09:19:02Z",
            "votes": {
                "negative": 0,
                "positive": 0,
                "important": 0,
                "liked": 0,
                "disliked": 0,
                "lol": 0,
                "toxic": 0,
                "saved": 0,
                "comments": 0
            }
        },
        {
            "kind": "news",
            "domain": "@IOST_Official",
            "source": {
                "title": "IOST Twitter",
                "region": "en",
                "domain": "twitter.com",
                "path": "@iost_official"
            },
            "title": " Participants of this event! Please note that you must: \n\ufe0f Install the #TwiPlay extension before 15:59 UTC June 2\u2026",
            "published_at": "2023-06-26T14:54:48Z",
            "slug": "Participants-of-this-event-Please-note-that-you-must-Install-the-TwiPlay-extension-before-1559-UTC-June-2",
            "currencies": [
                {
                    "code": "IOST",
                    "title": "IOST",
                    "slug": "iostoken",
                    "url": "https:\/\/cryptopanic.com\/news\/iostoken\/"
                }
            ],
            "id": 18661672,
            "url": "https:\/\/cryptopanic.com\/news\/18661672\/Participants-of-this-event-Please-note-that-you-must-Install-the-TwiPlay-extension-before-1559-UTC-June-2",
            "created_at": "2023-06-26T14:54:48Z",
            "votes": {
                "negative": 0,
                "positive": 0,
                "important": 0,
                "liked": 0,
                "disliked": 0,
                "lol": 0,
                "toxic": 0,
                "saved": 0,
                "comments": 0
            }
        },
        {
            "kind": "news",
            "domain": "@IOST_Official",
            "source": {
                "title": "IOST Twitter",
                "region": "en",
                "domain": "twitter.com",
                "path": "@iost_official"
            },
            "title": " gm, gm! Wishing you all a bright and productive day ahead \ufe0f",
            "published_at": "2023-06-26T08:05:13Z",
            "slug": "gm-gm-Wishing-you-all-a-bright-and-productive-day-ahead",
            "currencies": [
                {
                    "code": "IOST",
                    "title": "IOST",
                    "slug": "iostoken",
                    "url": "https:\/\/cryptopanic.com\/news\/iostoken\/"
                }
            ],
            "id": 18661673,
            "url": "https:\/\/cryptopanic.com\/news\/18661673\/gm-gm-Wishing-you-all-a-bright-and-productive-day-ahead",
            "created_at": "2023-06-26T08:05:13Z",
            "votes": {
                "negative": 0,
                "positive": 0,
                "important": 0,
                "liked": 0,
                "disliked": 0,
                "lol": 0,
                "toxic": 0,
                "saved": 0,
                "comments": 0
            }
        },
        {
            "kind": "news",
            "domain": "@IOST_Official",
            "source": {
                "title": "IOST Twitter",
                "region": "en",
                "domain": "twitter.com",
                "path": "@iost_official"
            },
            "title": "\ud83c\udde6\ud83c\uddea Missed the epic #IOST #Dubai Meetup? Don't worry. We've got you covered! \n\n\ud83e\udee1 Read our event recap to catch up on\u2026",
            "published_at": "2023-06-23T11:44:52Z",
            "slug": "Missed-the-epic-IOST-Dubai-Meetup-Dont-worry-Weve-got-you-covered-Read-our-event-recap-to-catch-up-on",
            "currencies": [
                {
                    "code": "IOST",
                    "title": "IOST",
                    "slug": "iostoken",
                    "url": "https:\/\/cryptopanic.com\/news\/iostoken\/"
                }
            ],
            "id": 18644953,
            "url": "https:\/\/cryptopanic.com\/news\/18644953\/Missed-the-epic-IOST-Dubai-Meetup-Dont-worry-Weve-got-you-covered-Read-our-event-recap-to-catch-up-on",
            "created_at": "2023-06-23T11:44:52Z",
            "votes": {
                "negative": 0,
                "positive": 0,
                "important": 0,
                "liked": 0,
                "disliked": 0,
                "lol": 0,
                "toxic": 0,
                "saved": 0,
                "comments": 0
            }
        },
        {
            "kind": "news",
            "domain": "@IOST_Official",
            "source": {
                "title": "IOST Twitter",
                "region": "en",
                "domain": "twitter.com",
                "path": "@iost_official"
            },
            "title": "\ud83c\udded\ud83c\uddf0 IOST x #HongKong-based metaverse platform - #AiR Metaverse\n\n Pioneering an international, open, and diverse met\u2026",
            "published_at": "2023-06-21T10:02:42Z",
            "slug": "IOST-x-HongKong-based-metaverse-platform-AiR-Metaverse-Pioneering-an-international-open-and-diverse-met",
            "currencies": [
                {
                    "code": "IOST",
                    "title": "IOST",
                    "slug": "iostoken",
                    "url": "https:\/\/cryptopanic.com\/news\/iostoken\/"
                }
            ],
            "id": 18628795,
            "url": "https:\/\/cryptopanic.com\/news\/18628795\/IOST-x-HongKong-based-metaverse-platform-AiR-Metaverse-Pioneering-an-international-open-and-diverse-met",
            "created_at": "2023-06-21T10:02:42Z",
            "votes": {
                "negative": 0,
                "positive": 0,
                "important": 0,
                "liked": 0,
                "disliked": 0,
                "lol": 0,
                "toxic": 0,
                "saved": 0,
                "comments": 0
            }
        },
        {
            "kind": "news",
            "domain": "@IOST_Official",
            "source": {
                "title": "IOST Twitter",
                "region": "en",
                "domain": "twitter.com",
                "path": "@iost_official"
            },
            "title": "RT @coin_voice: Interview with @IOST_Official CEO-Blake Jeong\uff0cTalk About biggest successes and failures of the past year in the IOST ecosy\u2026",
            "published_at": "2023-06-21T06:40:21Z",
            "slug": "RT-coin_voice-Interview-with-IOST_Official-CEO-Blake-JeongTalk-About-biggest-successes-and-failures-of-the-past-year-in-the-IOST-ecosy",
            "currencies": [
                {
                    "code": "IOST",
                    "title": "IOST",
                    "slug": "iostoken",
                    "url": "https:\/\/cryptopanic.com\/news\/iostoken\/"
                }
            ],
            "id": 18620801,
            "url": "https:\/\/cryptopanic.com\/news\/18620801\/RT-coin_voice-Interview-with-IOST_Official-CEO-Blake-JeongTalk-About-biggest-successes-and-failures-of-the-past-year-in-the-IOST-ecosy",
            "created_at": "2023-06-21T06:40:21Z",
            "votes": {
                "negative": 0,
                "positive": 0,
                "important": 0,
                "liked": 0,
                "disliked": 0,
                "lol": 0,
                "toxic": 0,
                "saved": 0,
                "comments": 0
            }
        },
        {
            "kind": "news",
            "domain": "@IOST_Official",
            "source": {
                "title": "IOST Twitter",
                "region": "en",
                "domain": "twitter.com",
                "path": "@iost_official"
            },
            "title": "RT @IOST_Official:  Beware of Scams, iostians!\n\n Protect your assets, stay vigilant, and watch out for these common scams:\n\n Fake Airdro\u2026",
            "published_at": "2023-06-20T20:26:01Z",
            "slug": "RT-IOST_Official-Beware-of-Scams-iostians-Protect-your-assets-stay-vigilant-and-watch-out-for-these-common-scams-Fake-Airdro",
            "currencies": [
                {
                    "code": "IOST",
                    "title": "IOST",
                    "slug": "iostoken",
                    "url": "https:\/\/cryptopanic.com\/news\/iostoken\/"
                }
            ],
            "id": 18620803,
            "url": "https:\/\/cryptopanic.com\/news\/18620803\/RT-IOST_Official-Beware-of-Scams-iostians-Protect-your-assets-stay-vigilant-and-watch-out-for-these-common-scams-Fake-Airdro",
            "created_at": "2023-06-20T20:26:01Z",
            "votes": {
                "negative": 0,
                "positive": 0,
                "important": 0,
                "liked": 0,
                "disliked": 0,
                "lol": 0,
                "toxic": 0,
                "saved": 0,
                "comments": 0
            }
        },
        {
            "kind": "news",
            "domain": "@IOST_Official",
            "source": {
                "title": "IOST Twitter",
                "region": "en",
                "domain": "twitter.com",
                "path": "@iost_official"
            },
            "title": " Join the #IOST Club on @DeBox_Social for exclusive benefits and #airdrops! \ud83e\udde7\n\n1. Download the #DeBox App\n2. Log i\u2026",
            "published_at": "2023-06-20T10:49:46Z",
            "slug": "Join-the-IOST-Club-on-DeBox_Social-for-exclusive-benefits-and-airdrops-1-Download-the-DeBox-App-2-Log-i",
            "currencies": [
                {
                    "code": "IOST",
                    "title": "IOST",
                    "slug": "iostoken",
                    "url": "https:\/\/cryptopanic.com\/news\/iostoken\/"
                }
            ],
            "id": 18620805,
            "url": "https:\/\/cryptopanic.com\/news\/18620805\/Join-the-IOST-Club-on-DeBox_Social-for-exclusive-benefits-and-airdrops-1-Download-the-DeBox-App-2-Log-i",
            "created_at": "2023-06-20T10:49:46Z",
            "votes": {
                "negative": 0,
                "positive": 0,
                "important": 0,
                "liked": 0,
                "disliked": 0,
                "lol": 0,
                "toxic": 0,
                "saved": 0,
                "comments": 0
            }
        },
        {
            "kind": "news",
            "domain": "@IOST_Official",
            "source": {
                "title": "IOST Twitter",
                "region": "en",
                "domain": "twitter.com",
                "path": "@iost_official"
            },
            "title": "1\/  Exciting news! \ud83e\udee1 $IOST was listed as a compliant token following the #crypto regulations set by @InfoBappebti\u2026",
            "published_at": "2023-06-19T12:33:02Z",
            "slug": "1-Exciting-news-IOST-was-listed-as-a-compliant-token-following-the-crypto-regulations-set-by-InfoBappebti",
            "currencies": [
                {
                    "code": "IOST",
                    "title": "IOST",
                    "slug": "iostoken",
                    "url": "https:\/\/cryptopanic.com\/news\/iostoken\/"
                }
            ],
            "id": 18612716,
            "url": "https:\/\/cryptopanic.com\/news\/18612716\/1-Exciting-news-IOST-was-listed-as-a-compliant-token-following-the-crypto-regulations-set-by-InfoBappebti",
            "created_at": "2023-06-19T12:33:02Z",
            "votes": {
                "negative": 0,
                "positive": 0,
                "important": 0,
                "liked": 0,
                "disliked": 0,
                "lol": 0,
                "toxic": 0,
                "saved": 0,
                "comments": 0
            }
        },
        {
            "kind": "news",
            "domain": "@IOST_Official",
            "source": {
                "title": "IOST Twitter",
                "region": "en",
                "domain": "twitter.com",
                "path": "@iost_official"
            },
            "title": " Check out the latest trading volume for #IOST! \n\n June 02 - June 15, 2023\n $IOST reached a peak trading volume\u2026",
            "published_at": "2023-06-16T12:07:54Z",
            "slug": "Check-out-the-latest-trading-volume-for-IOST-June-02-June-15-2023-IOST-reached-a-peak-trading-volume",
            "currencies": [
                {
                    "code": "IOST",
                    "title": "IOST",
                    "slug": "iostoken",
                    "url": "https:\/\/cryptopanic.com\/news\/iostoken\/"
                }
            ],
            "id": 18596405,
            "url": "https:\/\/cryptopanic.com\/news\/18596405\/Check-out-the-latest-trading-volume-for-IOST-June-02-June-15-2023-IOST-reached-a-peak-trading-volume",
            "created_at": "2023-06-16T12:07:54Z",
            "votes": {
                "negative": 0,
                "positive": 0,
                "important": 0,
                "liked": 0,
                "disliked": 0,
                "lol": 0,
                "toxic": 0,
                "saved": 0,
                "comments": 0
            }
        }
    ]
}
