{
    "count": 200,
    "next": "https:\/\/cryptopanic.com\/api\/v1\/posts\/?auth_token=01c356e89ffc1b8eba2127c81fc8c66ee0eace75&kind=news&currencies=NEO&page=2",
    "previous": null,
    "results": [
        {
            "kind": "news",
            "domain": "neonewstoday.com",
            "source": {
                "title": "NEO News Today",
                "region": "en",
                "domain": "neonewstoday.com",
                "path": null
            },
            "title": "Neo News: Week in Review \u2013 September 25 \u2013 October 1",
            "published_at": "2023-10-02T13:38:29Z",
            "slug": "Neo-News-Week-in-Review-September-25-October-1",
            "currencies": [
                {
                    "code": "NEO",
                    "title": "NEO",
                    "slug": "neo",
                    "url": "https:\/\/cryptopanic.com\/news\/neo\/"
                }
            ],
            "id": 18942117,
            "url": "https:\/\/cryptopanic.com\/news\/18942117\/Neo-News-Week-in-Review-September-25-October-1",
            "created_at": "2023-10-02T13:38:29Z",
            "votes": {
                "negative": 0,
                "positive": 0,
                "important": 0,
                "liked": 0,
                "disliked": 0,
                "lol": 0,
                "toxic": 0,
                "saved": 0,
                "comments": 0
            }
        },
        {
            "kind": "news",
            "domain": "neonewstoday.com",
            "source": {
                "title": "NEO News Today",
                "region": "en",
                "domain": "neonewstoday.com",
                "path": null
            },
            "title": "Flamingo celebrates third anniversary with rewards campaign, adds new pages and features",
            "published_at": "2023-09-28T00:17:57Z",
            "slug": "Flamingo-celebrates-third-anniversary-with-rewards-campaign-adds-new-pages-and-features",
            "currencies": [
                {
                    "code": "NEO",
                    "title": "NEO",
                    "slug": "neo",
                    "url": "https:\/\/cryptopanic.com\/news\/neo\/"
                }
            ],
            "id": 18933303,
            "url": "https:\/\/cryptopanic.com\/news\/18933303\/Flamingo-celebrates-third-anniversary-with-rewards-campaign-adds-new-pages-and-features",
            "created_at": "2023-09-28T00:17:57Z",
            "votes": {
                "negative": 0,
                "positive": 0,
                "important": 0,
                "liked": 0,
                "disliked": 0,
                "lol": 0,
                "toxic": 0,
                "saved": 0,
                "comments": 0
            }
        },
        {
            "kind": "news",
            "domain": "neonewstoday.com",
            "source": {
                "title": "NEO News Today",
                "region": "en",
                "domain": "neonewstoday.com",
                "path": null
            },
            "title": "Rich Rines \u2013 Core DAO \u2013 The Smart Economy Podcast: Episode 47",
            "published_at": "2023-09-28T00:10:55Z",
            "slug": "Rich-Rines-Core-DAO-The-Smart-Economy-Podcast-Episode-47",
            "currencies": [
                {
                    "code": "NEO",
                    "title": "NEO",
                    "slug": "neo",
                    "url": "https:\/\/cryptopanic.com\/news\/neo\/"
                }
            ],
            "id": 18933304,
            "url": "https:\/\/cryptopanic.com\/news\/18933304\/Rich-Rines-Core-DAO-The-Smart-Economy-Podcast-Episode-47",
            "created_at": "2023-09-28T00:10:55Z",
            "votes": {
                "negative": 0,
                "positive": 0,
                "important": 0,
                "liked": 0,
                "disliked": 0,
                "lol": 0,
                "toxic": 0,
                "saved": 0,
                "comments": 0
            }
        },
        {
            "kind": "news",
            "domain": "neonewstoday.com",
            "source": {
                "title": "NEO News Today",
                "region": "en",
                "domain": "neonewstoday.com",
                "path": null
            },
            "title": "Four winners emerge from Seoul GAS Station, magipop and SuperSquad en route to finale in Hong Kong",
            "published_at": "2023-09-27T01:10:37Z",
            "slug": "Four-winners-emerge-from-Seoul-GAS-Station-magipop-and-SuperSquad-en-route-to-finale-in-Hong-Kong",
            "currencies": [
                {
                    "code": "NEO",
                    "title": "NEO",
                    "slug": "neo",
                    "url": "https:\/\/cryptopanic.com\/news\/neo\/"
                }
            ],
            "id": 18930591,
            "url": "https:\/\/cryptopanic.com\/news\/18930591\/Four-winners-emerge-from-Seoul-GAS-Station-magipop-and-SuperSquad-en-route-to-finale-in-Hong-Kong",
            "created_at": "2023-09-27T01:10:37Z",
            "votes": {
                "negative": 0,
                "positive": 0,
                "important": 0,
                "liked": 0,
                "disliked": 0,
                "lol": 0,
                "toxic": 0,
                "saved": 0,
                "comments": 0
            }
        },
        {
            "kind": "news",
            "domain": "neonewstoday.com",
            "source": {
                "title": "NEO News Today",
                "region": "en",
                "domain": "neonewstoday.com",
                "path": null
            },
            "title": "Neo News: Week in Review \u2013 September 18 \u2013 September 24",
            "published_at": "2023-09-25T13:36:50Z",
            "slug": "Neo-News-Week-in-Review-September-18-September-24",
            "currencies": [
                {
                    "code": "NEO",
                    "title": "NEO",
                    "slug": "neo",
                    "url": "https:\/\/cryptopanic.com\/news\/neo\/"
                }
            ],
            "id": 18926598,
            "url": "https:\/\/cryptopanic.com\/news\/18926598\/Neo-News-Week-in-Review-September-18-September-24",
            "created_at": "2023-09-25T13:36:50Z",
            "votes": {
                "negative": 0,
                "positive": 0,
                "important": 0,
                "liked": 0,
                "disliked": 0,
                "lol": 0,
                "toxic": 0,
                "saved": 0,
                "comments": 0
            }
        },
        {
            "kind": "news",
            "domain": "neonewstoday.com",
            "source": {
                "title": "NEO News Today",
                "region": "en",
                "domain": "neonewstoday.com",
                "path": null
            },
            "title": "Quirky Soul College announces the \u201cHollow World Story\u201d: An interactive NFT storytelling venture",
            "published_at": "2023-09-25T02:42:55Z",
            "slug": "Quirky-Soul-College-announces-the-Hollow-World-Story-An-interactive-NFT-storytelling-venture",
            "currencies": [
                {
                    "code": "NEO",
                    "title": "NEO",
                    "slug": "neo",
                    "url": "https:\/\/cryptopanic.com\/news\/neo\/"
                }
            ],
            "id": 18925334,
            "url": "https:\/\/cryptopanic.com\/news\/18925334\/Quirky-Soul-College-announces-the-Hollow-World-Story-An-interactive-NFT-storytelling-venture",
            "created_at": "2023-09-25T02:42:55Z",
            "votes": {
                "negative": 0,
                "positive": 0,
                "important": 0,
                "liked": 0,
                "disliked": 0,
                "lol": 0,
                "toxic": 0,
                "saved": 0,
                "comments": 0
            }
        },
        {
            "kind": "news",
            "domain": "neonewstoday.com",
            "source": {
                "title": "NEO News Today",
                "region": "en",
                "domain": "neonewstoday.com",
                "path": null
            },
            "title": "COZ joining Colorado Motion Meetup to discuss NFI technology and urban exploration",
            "published_at": "2023-09-21T01:12:56Z",
            "slug": "COZ-joining-Colorado-Motion-Meetup-to-discuss-NFI-technology-and-urban-exploration",
            "currencies": [
                {
                    "code": "NEO",
                    "title": "NEO",
                    "slug": "neo",
                    "url": "https:\/\/cryptopanic.com\/news\/neo\/"
                }
            ],
            "id": 18917783,
            "url": "https:\/\/cryptopanic.com\/news\/18917783\/COZ-joining-Colorado-Motion-Meetup-to-discuss-NFI-technology-and-urban-exploration",
            "created_at": "2023-09-21T01:12:56Z",
            "votes": {
                "negative": 0,
                "positive": 0,
                "important": 0,
                "liked": 0,
                "disliked": 0,
                "lol": 0,
                "toxic": 0,
                "saved": 0,
                "comments": 0
            }
        },
        {
            "kind": "news",
            "domain": "neonewstoday.com",
            "source": {
                "title": "NEO News Today",
                "region": "en",
                "domain": "neonewstoday.com",
                "path": null
            },
            "title": "Neo hosts booth at TOKEN2049 Singapore featuring OneBand activation",
            "published_at": "2023-09-20T02:58:37Z",
            "slug": "Neo-hosts-booth-at-TOKEN2049-Singapore-featuring-OneBand-activation",
            "currencies": [
                {
                    "code": "NEO",
                    "title": "NEO",
                    "slug": "neo",
                    "url": "https:\/\/cryptopanic.com\/news\/neo\/"
                }
            ],
            "id": 18915058,
            "url": "https:\/\/cryptopanic.com\/news\/18915058\/Neo-hosts-booth-at-TOKEN2049-Singapore-featuring-OneBand-activation",
            "created_at": "2023-09-20T02:58:37Z",
            "votes": {
                "negative": 0,
                "positive": 0,
                "important": 0,
                "liked": 0,
                "disliked": 0,
                "lol": 0,
                "toxic": 0,
                "saved": 0,
                "comments": 0
            }
        },
        {
            "kind": "news",
            "domain": "neonewstoday.com",
            "source": {
                "title": "NEO News Today",
                "region": "en",
                "domain": "neonewstoday.com",
                "path": null
            },
            "title": "Neo News: Week in Review \u2013 September 11 \u2013 September 17",
            "published_at": "2023-09-18T13:46:15Z",
            "slug": "Neo-News-Week-in-Review-September-11-September-17",
            "currencies": [
                {
                    "code": "NEO",
                    "title": "NEO",
                    "slug": "neo",
                    "url": "https:\/\/cryptopanic.com\/news\/neo\/"
                }
            ],
            "id": 18910938,
            "url": "https:\/\/cryptopanic.com\/news\/18910938\/Neo-News-Week-in-Review-September-11-September-17",
            "created_at": "2023-09-18T13:46:15Z",
            "votes": {
                "negative": 0,
                "positive": 0,
                "important": 0,
                "liked": 0,
                "disliked": 0,
                "lol": 0,
                "toxic": 0,
                "saved": 0,
                "comments": 0
            }
        },
        {
            "kind": "news",
            "domain": "neonewstoday.com",
            "source": {
                "title": "NEO News Today",
                "region": "en",
                "domain": "neonewstoday.com",
                "path": null
            },
            "title": "NeoSPCC upgrades NeoGo to full Neo core v3.6.0 compatibility",
            "published_at": "2023-09-17T20:01:14Z",
            "slug": "NeoSPCC-upgrades-NeoGo-to-full-Neo-core-v360-compatibility",
            "currencies": [
                {
                    "code": "NEO",
                    "title": "NEO",
                    "slug": "neo",
                    "url": "https:\/\/cryptopanic.com\/news\/neo\/"
                }
            ],
            "id": 18909320,
            "url": "https:\/\/cryptopanic.com\/news\/18909320\/NeoSPCC-upgrades-NeoGo-to-full-Neo-core-v360-compatibility",
            "created_at": "2023-09-17T20:01:14Z",
            "votes": {
                "negative": 0,
                "positive": 0,
                "important": 0,
                "liked": 0,
                "disliked": 0,
                "lol": 0,
                "toxic": 0,
                "saved": 0,
                "comments": 0
            }
        },
        {
            "kind": "news",
            "domain": "neonewstoday.com",
            "source": {
                "title": "NEO News Today",
                "region": "en",
                "domain": "neonewstoday.com",
                "path": null
            },
            "title": "Chen Zhuling \u2013 RockX \u2013 The Smart Economy Podcast: Episode 46",
            "published_at": "2023-09-16T21:49:41Z",
            "slug": "Chen-Zhuling-RockX-The-Smart-Economy-Podcast-Episode-46",
            "currencies": [
                {
                    "code": "NEO",
                    "title": "NEO",
                    "slug": "neo",
                    "url": "https:\/\/cryptopanic.com\/news\/neo\/"
                }
            ],
            "id": 18908386,
            "url": "https:\/\/cryptopanic.com\/news\/18908386\/Chen-Zhuling-RockX-The-Smart-Economy-Podcast-Episode-46",
            "created_at": "2023-09-16T21:49:41Z",
            "votes": {
                "negative": 0,
                "positive": 0,
                "important": 0,
                "liked": 0,
                "disliked": 0,
                "lol": 0,
                "toxic": 0,
                "saved": 0,
                "comments": 0
            }
        },
        {
            "kind": "news",
            "domain": "neonewstoday.com",
            "source": {
                "title": "NEO News Today",
                "region": "en",
                "domain": "neonewstoday.com",
                "path": null
            },
            "title": "Kekkai, Chainrewardz, and FUO win awards at Tokyo GAS Station",
            "published_at": "2023-09-15T07:09:22Z",
            "slug": "Kekkai-Chainrewardz-and-FUO-win-awards-at-Tokyo-GAS-Station",
            "currencies": [
                {
                    "code": "NEO",
                    "title": "NEO",
                    "slug": "neo",
                    "url": "https:\/\/cryptopanic.com\/news\/neo\/"
                }
            ],
            "id": 18905334,
            "url": "https:\/\/cryptopanic.com\/news\/18905334\/Kekkai-Chainrewardz-and-FUO-win-awards-at-Tokyo-GAS-Station",
            "created_at": "2023-09-15T07:09:22Z",
            "votes": {
                "negative": 0,
                "positive": 0,
                "important": 0,
                "liked": 0,
                "disliked": 0,
                "lol": 0,
                "toxic": 0,
                "saved": 0,
                "comments": 0
            }
        },
        {
            "kind": "news",
            "domain": "neonewstoday.com",
            "source": {
                "title": "NEO News Today",
                "region": "en",
                "domain": "neonewstoday.com",
                "path": null
            },
            "title": "AxLabs introduces the 1ClickNode deployment service, opens pre-registration",
            "published_at": "2023-09-15T04:21:21Z",
            "slug": "AxLabs-introduces-the-1ClickNode-deployment-service-opens-pre-registration",
            "currencies": [
                {
                    "code": "NEO",
                    "title": "NEO",
                    "slug": "neo",
                    "url": "https:\/\/cryptopanic.com\/news\/neo\/"
                }
            ],
            "id": 18904700,
            "url": "https:\/\/cryptopanic.com\/news\/18904700\/AxLabs-introduces-the-1ClickNode-deployment-service-opens-pre-registration",
            "created_at": "2023-09-15T04:21:21Z",
            "votes": {
                "negative": 0,
                "positive": 0,
                "important": 0,
                "liked": 0,
                "disliked": 0,
                "lol": 0,
                "toxic": 0,
                "saved": 0,
                "comments": 0
            }
        },
        {
            "kind": "news",
            "domain": "neonewstoday.com",
            "source": {
                "title": "NEO News Today",
                "region": "en",
                "domain": "neonewstoday.com",
                "path": null
            },
            "title": "Flamingo restores cross-chain functionality after two-month hiatus following Poly Network attack",
            "published_at": "2023-09-13T16:04:20Z",
            "slug": "Flamingo-restores-cross-chain-functionality-after-two-month-hiatus-following-Poly-Network-attack",
            "currencies": [
                {
                    "code": "NEO",
                    "title": "NEO",
                    "slug": "neo",
                    "url": "https:\/\/cryptopanic.com\/news\/neo\/"
                }
            ],
            "id": 18900909,
            "url": "https:\/\/cryptopanic.com\/news\/18900909\/Flamingo-restores-cross-chain-functionality-after-two-month-hiatus-following-Poly-Network-attack",
            "created_at": "2023-09-13T16:04:20Z",
            "votes": {
                "negative": 0,
                "positive": 0,
                "important": 0,
                "liked": 0,
                "disliked": 0,
                "lol": 0,
                "toxic": 0,
                "saved": 0,
                "comments": 0
            }
        },
        {
            "kind": "news",
            "domain": "neonewstoday.com",
            "source": {
                "title": "NEO News Today",
                "region": "en",
                "domain": "neonewstoday.com",
                "path": null
            },
            "title": "Neo upgrades TestNet to Neo v3.6.0 and plans second hard fork",
            "published_at": "2023-09-12T18:57:30Z",
            "slug": "Neo-upgrades-TestNet-to-Neo-v360-and-plans-second-hard-fork",
            "currencies": [
                {
                    "code": "NEO",
                    "title": "NEO",
                    "slug": "neo",
                    "url": "https:\/\/cryptopanic.com\/news\/neo\/"
                }
            ],
            "id": 18898411,
            "url": "https:\/\/cryptopanic.com\/news\/18898411\/Neo-upgrades-TestNet-to-Neo-v360-and-plans-second-hard-fork",
            "created_at": "2023-09-12T18:57:30Z",
            "votes": {
                "negative": 0,
                "positive": 0,
                "important": 0,
                "liked": 0,
                "disliked": 0,
                "lol": 0,
                "toxic": 0,
                "saved": 0,
                "comments": 0
            }
        },
        {
            "kind": "news",
            "domain": "neonewstoday.com",
            "source": {
                "title": "NEO News Today",
                "region": "en",
                "domain": "neonewstoday.com",
                "path": null
            },
            "title": "GAS Station Winners: Ho Chi Minh City, Vietnam",
            "published_at": "2023-09-12T18:25:12Z",
            "slug": "GAS-Station-Winners-Ho-Chi-Minh-City-Vietnam",
            "currencies": [
                {
                    "code": "NEO",
                    "title": "NEO",
                    "slug": "neo",
                    "url": "https:\/\/cryptopanic.com\/news\/neo\/"
                }
            ],
            "id": 18898351,
            "url": "https:\/\/cryptopanic.com\/news\/18898351\/GAS-Station-Winners-Ho-Chi-Minh-City-Vietnam",
            "created_at": "2023-09-12T18:25:12Z",
            "votes": {
                "negative": 0,
                "positive": 0,
                "important": 0,
                "liked": 0,
                "disliked": 0,
                "lol": 0,
                "toxic": 0,
                "saved": 0,
                "comments": 0
            }
        },
        {
            "kind": "news",
            "domain": "neonewstoday.com",
            "source": {
                "title": "NEO News Today",
                "region": "en",
                "domain": "neonewstoday.com",
                "path": null
            },
            "title": "Neo News: Week in Review \u2013 September 4 \u2013 September 10",
            "published_at": "2023-09-11T21:03:24Z",
            "slug": "Neo-News-Week-in-Review-September-4-September-10",
            "currencies": [
                {
                    "code": "NEO",
                    "title": "NEO",
                    "slug": "neo",
                    "url": "https:\/\/cryptopanic.com\/news\/neo\/"
                }
            ],
            "id": 18895423,
            "url": "https:\/\/cryptopanic.com\/news\/18895423\/Neo-News-Week-in-Review-September-4-September-10",
            "created_at": "2023-09-11T21:03:24Z",
            "votes": {
                "negative": 0,
                "positive": 0,
                "important": 0,
                "liked": 0,
                "disliked": 0,
                "lol": 0,
                "toxic": 0,
                "saved": 0,
                "comments": 0
            }
        },
        {
            "kind": "news",
            "domain": "neonewstoday.com",
            "source": {
                "title": "NEO News Today",
                "region": "en",
                "domain": "neonewstoday.com",
                "path": null
            },
            "title": "COZ sunsets NeoScan, its original blockchain explorer for Neo Legacy",
            "published_at": "2023-09-11T19:53:34Z",
            "slug": "COZ-sunsets-NeoScan-its-original-blockchain-explorer-for-Neo-Legacy",
            "currencies": [
                {
                    "code": "NEO",
                    "title": "NEO",
                    "slug": "neo",
                    "url": "https:\/\/cryptopanic.com\/news\/neo\/"
                }
            ],
            "id": 18895284,
            "url": "https:\/\/cryptopanic.com\/news\/18895284\/COZ-sunsets-NeoScan-its-original-blockchain-explorer-for-Neo-Legacy",
            "created_at": "2023-09-11T19:53:34Z",
            "votes": {
                "negative": 0,
                "positive": 0,
                "important": 0,
                "liked": 0,
                "disliked": 0,
                "lol": 0,
                "toxic": 0,
                "saved": 0,
                "comments": 0
            }
        },
        {
            "kind": "news",
            "domain": "neonewstoday.com",
            "source": {
                "title": "NEO News Today",
                "region": "en",
                "domain": "neonewstoday.com",
                "path": null
            },
            "title": "Battle Hardened launches Vendor smart contract, alternative token distribution method for new projects",
            "published_at": "2023-09-10T17:05:20Z",
            "slug": "Battle-Hardened-launches-Vendor-smart-contract-alternative-token-distribution-method-for-new-projects",
            "currencies": [
                {
                    "code": "NEO",
                    "title": "NEO",
                    "slug": "neo",
                    "url": "https:\/\/cryptopanic.com\/news\/neo\/"
                }
            ],
            "id": 18892785,
            "url": "https:\/\/cryptopanic.com\/news\/18892785\/Battle-Hardened-launches-Vendor-smart-contract-alternative-token-distribution-method-for-new-projects",
            "created_at": "2023-09-10T17:05:20Z",
            "votes": {
                "negative": 0,
                "positive": 0,
                "important": 0,
                "liked": 0,
                "disliked": 0,
                "lol": 0,
                "toxic": 0,
                "saved": 0,
                "comments": 0
            }
        },
        {
            "kind": "news",
            "domain": "neonewstoday.com",
            "source": {
                "title": "NEO News Today",
                "region": "en",
                "domain": "neonewstoday.com",
                "path": null
            },
            "title": "Flamingo Finance now sponsoring Meme2Earn contests",
            "published_at": "2023-09-07T03:02:17Z",
            "slug": "Flamingo-Finance-now-sponsoring-Meme2Earn-contests",
            "currencies": [
                {
                    "code": "NEO",
                    "title": "NEO",
                    "slug": "neo",
                    "url": "https:\/\/cryptopanic.com\/news\/neo\/"
                }
            ],
            "id": 18885331,
            "url": "https:\/\/cryptopanic.com\/news\/18885331\/Flamingo-Finance-now-sponsoring-Meme2Earn-contests",
            "created_at": "2023-09-07T03:02:17Z",
            "votes": {
                "negative": 0,
                "positive": 0,
                "important": 0,
                "liked": 0,
                "disliked": 0,
                "lol": 0,
                "toxic": 0,
                "saved": 0,
                "comments": 0
            }
        }
    ]
}
