{
    "count": 200,
    "next": "https:\/\/cryptopanic.com\/api\/v1\/posts\/?auth_token=01c356e89ffc1b8eba2127c81fc8c66ee0eace75&kind=news&currencies=SUPER&page=2",
    "previous": null,
    "results": [
        {
            "kind": "news",
            "domain": "@supercoinv2",
            "source": {
                "title": "SuperCoin Twitter",
                "region": "en",
                "domain": "twitter.com",
                "path": "@supercoinv2"
            },
            "title": "We've extended the blockexplorer for another 3 months.",
            "published_at": "2023-07-11T19:53:51Z",
            "slug": "Weve-extended-the-blockexplorer-for-another-3-months",
            "currencies": [
                {
                    "code": "SUPER",
                    "title": "SuperCoin",
                    "slug": null,
                    "url": "https:\/\/cryptopanic.com\/news\/None\/"
                }
            ],
            "id": 18767387,
            "url": "https:\/\/cryptopanic.com\/news\/18767387\/Weve-extended-the-blockexplorer-for-another-3-months",
            "created_at": "2023-07-11T19:53:51Z",
            "votes": {
                "negative": 0,
                "positive": 0,
                "important": 0,
                "liked": 0,
                "disliked": 0,
                "lol": 0,
                "toxic": 0,
                "saved": 0,
                "comments": 0
            }
        },
        {
            "kind": "news",
            "domain": "@PeerMeHQ",
            "source": {
                "title": "PeerMe SUPER Twitter",
                "region": "en",
                "domain": "twitter.com",
                "path": "@peermehq"
            },
            "title": "NEW: Quest TopUps!\n\n\u2013 accelerate getting work done like never before by adding further incentives for completion\u2026",
            "published_at": "2023-07-11T17:44:09Z",
            "slug": "NEW-Quest-TopUps-accelerate-getting-work-done-like-never-before-by-adding-further-incentives-for-completion",
            "currencies": [
                {
                    "code": "SUPER",
                    "title": "PeerMe SUPER",
                    "slug": "superciety",
                    "url": "https:\/\/cryptopanic.com\/news\/superciety\/"
                }
            ],
            "id": 18766367,
            "url": "https:\/\/cryptopanic.com\/news\/18766367\/NEW-Quest-TopUps-accelerate-getting-work-done-like-never-before-by-adding-further-incentives-for-completion",
            "created_at": "2023-07-11T17:44:09Z",
            "votes": {
                "negative": 0,
                "positive": 0,
                "important": 0,
                "liked": 0,
                "disliked": 0,
                "lol": 0,
                "toxic": 0,
                "saved": 0,
                "comments": 0
            }
        },
        {
            "kind": "news",
            "domain": "@PeerMeHQ",
            "source": {
                "title": "PeerMe SUPER Twitter",
                "region": "en",
                "domain": "twitter.com",
                "path": "@peermehq"
            },
            "title": "Just in for a cozy Sunday: we have upgraded the Quests experience to make it even easier to use:\n\n Improved naviga\u2026",
            "published_at": "2023-07-09T17:45:52Z",
            "slug": "Just-in-for-a-cozy-Sunday-we-have-upgraded-the-Quests-experience-to-make-it-even-easier-to-use-Improved-naviga",
            "currencies": [
                {
                    "code": "SUPER",
                    "title": "PeerMe SUPER",
                    "slug": "superciety",
                    "url": "https:\/\/cryptopanic.com\/news\/superciety\/"
                }
            ],
            "id": 18750931,
            "url": "https:\/\/cryptopanic.com\/news\/18750931\/Just-in-for-a-cozy-Sunday-we-have-upgraded-the-Quests-experience-to-make-it-even-easier-to-use-Improved-naviga",
            "created_at": "2023-07-09T17:45:52Z",
            "votes": {
                "negative": 0,
                "positive": 0,
                "important": 0,
                "liked": 0,
                "disliked": 0,
                "lol": 0,
                "toxic": 0,
                "saved": 0,
                "comments": 0
            }
        },
        {
            "kind": "news",
            "domain": "@PeerMeHQ",
            "source": {
                "title": "PeerMe SUPER Twitter",
                "region": "en",
                "domain": "twitter.com",
                "path": "@peermehq"
            },
            "title": "Only 30 more minutes to go until the one &amp; only Pepi Pincu joins us as a guest for a fun quiz night!\ufe0f\n\nJoin us as\u2026",
            "published_at": "2023-07-06T16:31:03Z",
            "slug": "Only-30-more-minutes-to-go-until-the-one-amp-only-Pepi-Pincu-joins-us-as-a-guest-for-a-fun-quiz-night-Join-us-as",
            "currencies": [
                {
                    "code": "SUPER",
                    "title": "PeerMe SUPER",
                    "slug": "superciety",
                    "url": "https:\/\/cryptopanic.com\/news\/superciety\/"
                }
            ],
            "id": 18734514,
            "url": "https:\/\/cryptopanic.com\/news\/18734514\/Only-30-more-minutes-to-go-until-the-one-amp-only-Pepi-Pincu-joins-us-as-a-guest-for-a-fun-quiz-night-Join-us-as",
            "created_at": "2023-07-06T16:31:03Z",
            "votes": {
                "negative": 0,
                "positive": 0,
                "important": 0,
                "liked": 0,
                "disliked": 0,
                "lol": 0,
                "toxic": 0,
                "saved": 0,
                "comments": 0
            }
        },
        {
            "kind": "news",
            "domain": "@PeerMeHQ",
            "source": {
                "title": "PeerMe SUPER Twitter",
                "region": "en",
                "domain": "twitter.com",
                "path": "@peermehq"
            },
            "title": "RT @_Official_CPA: \ufe0fThrilled to announce the integration of our staking platform with our friends and partners from @PeerMeHQ \nWhat does\u2026",
            "published_at": "2023-07-05T17:40:41Z",
            "slug": "RT-_Official_CPA-Thrilled-to-announce-the-integration-of-our-staking-platform-with-our-friends-and-partners-from-PeerMeHQ-What-does",
            "currencies": [
                {
                    "code": "SUPER",
                    "title": "PeerMe SUPER",
                    "slug": "superciety",
                    "url": "https:\/\/cryptopanic.com\/news\/superciety\/"
                }
            ],
            "id": 18726029,
            "url": "https:\/\/cryptopanic.com\/news\/18726029\/RT-_Official_CPA-Thrilled-to-announce-the-integration-of-our-staking-platform-with-our-friends-and-partners-from-PeerMeHQ-What-does",
            "created_at": "2023-07-05T17:40:41Z",
            "votes": {
                "negative": 0,
                "positive": 0,
                "important": 0,
                "liked": 0,
                "disliked": 0,
                "lol": 0,
                "toxic": 0,
                "saved": 0,
                "comments": 0
            }
        },
        {
            "kind": "news",
            "domain": "@PeerMeHQ",
            "source": {
                "title": "PeerMe SUPER Twitter",
                "region": "en",
                "domain": "twitter.com",
                "path": "@peermehq"
            },
            "title": "1\/ NEW: @_Official_CPA becomes the first token staking pool provider to integrate with our #DAOs \n\n\u2013 enabling all\u2026",
            "published_at": "2023-07-05T17:13:43Z",
            "slug": "1-NEW-_Official_CPA-becomes-the-first-token-staking-pool-provider-to-integrate-with-our-DAOs-enabling-all",
            "currencies": [
                {
                    "code": "SUPER",
                    "title": "PeerMe SUPER",
                    "slug": "superciety",
                    "url": "https:\/\/cryptopanic.com\/news\/superciety\/"
                }
            ],
            "id": 18726030,
            "url": "https:\/\/cryptopanic.com\/news\/18726030\/1-NEW-_Official_CPA-becomes-the-first-token-staking-pool-provider-to-integrate-with-our-DAOs-enabling-all",
            "created_at": "2023-07-05T17:13:43Z",
            "votes": {
                "negative": 0,
                "positive": 0,
                "important": 0,
                "liked": 0,
                "disliked": 0,
                "lol": 0,
                "toxic": 0,
                "saved": 0,
                "comments": 0
            }
        },
        {
            "kind": "news",
            "domain": "@PeerMeHQ",
            "source": {
                "title": "PeerMe SUPER Twitter",
                "region": "en",
                "domain": "twitter.com",
                "path": "@peermehq"
            },
            "title": "NEW: $MEX from @xExchangeApp and $UTK from @xMoney_com are now whitelisted for PeerMe Quests!\n\n ready to be used\u2026",
            "published_at": "2023-07-03T18:02:52Z",
            "slug": "NEW-MEX-from-xExchangeApp-and-UTK-from-xMoney_com-are-now-whitelisted-for-PeerMe-Quests-ready-to-be-used",
            "currencies": [
                {
                    "code": "SUPER",
                    "title": "PeerMe SUPER",
                    "slug": "superciety",
                    "url": "https:\/\/cryptopanic.com\/news\/superciety\/"
                }
            ],
            "id": 18710980,
            "url": "https:\/\/cryptopanic.com\/news\/18710980\/NEW-MEX-from-xExchangeApp-and-UTK-from-xMoney_com-are-now-whitelisted-for-PeerMe-Quests-ready-to-be-used",
            "created_at": "2023-07-03T18:02:52Z",
            "votes": {
                "negative": 0,
                "positive": 0,
                "important": 0,
                "liked": 0,
                "disliked": 0,
                "lol": 0,
                "toxic": 0,
                "saved": 0,
                "comments": 0
            }
        },
        {
            "kind": "news",
            "domain": "@PeerMeHQ",
            "source": {
                "title": "PeerMe SUPER Twitter",
                "region": "en",
                "domain": "twitter.com",
                "path": "@peermehq"
            },
            "title": "Exciting Update: We've doubled the maximum amount of Proposal Options from 4 to 8, thanks to your feedback!\ufe0f\n\n th\u2026",
            "published_at": "2023-07-02T18:53:29Z",
            "slug": "Exciting-Update-Weve-doubled-the-maximum-amount-of-Proposal-Options-from-4-to-8-thanks-to-your-feedback-th",
            "currencies": [
                {
                    "code": "SUPER",
                    "title": "PeerMe SUPER",
                    "slug": "superciety",
                    "url": "https:\/\/cryptopanic.com\/news\/superciety\/"
                }
            ],
            "id": 18704018,
            "url": "https:\/\/cryptopanic.com\/news\/18704018\/Exciting-Update-Weve-doubled-the-maximum-amount-of-Proposal-Options-from-4-to-8-thanks-to-your-feedback-th",
            "created_at": "2023-07-02T18:53:29Z",
            "votes": {
                "negative": 0,
                "positive": 0,
                "important": 0,
                "liked": 0,
                "disliked": 0,
                "lol": 0,
                "toxic": 0,
                "saved": 0,
                "comments": 0
            }
        },
        {
            "kind": "news",
            "domain": "@PeerMeHQ",
            "source": {
                "title": "PeerMe SUPER Twitter",
                "region": "en",
                "domain": "twitter.com",
                "path": "@peermehq"
            },
            "title": "DAOs, being fundamentally smart contracts, offer near-limitless opportunities for automation &amp; integration \ud83e\udde0\n\nPairi\u2026",
            "published_at": "2023-07-01T15:22:52Z",
            "slug": "DAOs-being-fundamentally-smart-contracts-offer-near-limitless-opportunities-for-automation-amp-integration-Pairi",
            "currencies": [
                {
                    "code": "SUPER",
                    "title": "PeerMe SUPER",
                    "slug": "superciety",
                    "url": "https:\/\/cryptopanic.com\/news\/superciety\/"
                }
            ],
            "id": 18699711,
            "url": "https:\/\/cryptopanic.com\/news\/18699711\/DAOs-being-fundamentally-smart-contracts-offer-near-limitless-opportunities-for-automation-amp-integration-Pairi",
            "created_at": "2023-07-01T15:22:52Z",
            "votes": {
                "negative": 0,
                "positive": 0,
                "important": 0,
                "liked": 0,
                "disliked": 0,
                "lol": 0,
                "toxic": 0,
                "saved": 0,
                "comments": 0
            }
        },
        {
            "kind": "news",
            "domain": "@PeerMeHQ",
            "source": {
                "title": "PeerMe SUPER Twitter",
                "region": "en",
                "domain": "twitter.com",
                "path": "@peermehq"
            },
            "title": "Amazing NEWS: you can now find our (or better said your) $SUPER tokens within the @Ledger Live app!\n#HypergrowthX\u2026",
            "published_at": "2023-06-29T15:47:23Z",
            "slug": "Amazing-NEWS-you-can-now-find-our-or-better-said-your-SUPER-tokens-within-the-Ledger-Live-app-HypergrowthX",
            "currencies": [
                {
                    "code": "SUPER",
                    "title": "PeerMe SUPER",
                    "slug": "superciety",
                    "url": "https:\/\/cryptopanic.com\/news\/superciety\/"
                }
            ],
            "id": 18687569,
            "url": "https:\/\/cryptopanic.com\/news\/18687569\/Amazing-NEWS-you-can-now-find-our-or-better-said-your-SUPER-tokens-within-the-Ledger-Live-app-HypergrowthX",
            "created_at": "2023-06-29T15:47:23Z",
            "votes": {
                "negative": 0,
                "positive": 0,
                "important": 0,
                "liked": 0,
                "disliked": 0,
                "lol": 0,
                "toxic": 0,
                "saved": 0,
                "comments": 0
            }
        },
        {
            "kind": "news",
            "domain": "@PeerMeHQ",
            "source": {
                "title": "PeerMe SUPER Twitter",
                "region": "en",
                "domain": "twitter.com",
                "path": "@peermehq"
            },
            "title": "Nothing more heart-warming than a shoutout from our peers\n\nAnd we definitely appreciate the wishes for salami too\u2026",
            "published_at": "2023-06-29T15:28:09Z",
            "slug": "Nothing-more-heart-warming-than-a-shoutout-from-our-peers-And-we-definitely-appreciate-the-wishes-for-salami-too",
            "currencies": [
                {
                    "code": "SUPER",
                    "title": "PeerMe SUPER",
                    "slug": "superciety",
                    "url": "https:\/\/cryptopanic.com\/news\/superciety\/"
                }
            ],
            "id": 18687570,
            "url": "https:\/\/cryptopanic.com\/news\/18687570\/Nothing-more-heart-warming-than-a-shoutout-from-our-peers-And-we-definitely-appreciate-the-wishes-for-salami-too",
            "created_at": "2023-06-29T15:28:09Z",
            "votes": {
                "negative": 0,
                "positive": 0,
                "important": 0,
                "liked": 0,
                "disliked": 0,
                "lol": 0,
                "toxic": 0,
                "saved": 0,
                "comments": 0
            }
        },
        {
            "kind": "news",
            "domain": "@PeerMeHQ",
            "source": {
                "title": "PeerMe SUPER Twitter",
                "region": "en",
                "domain": "twitter.com",
                "path": "@peermehq"
            },
            "title": "NEW: #DAOs can now mix voting power defined by smart contracts with a governance token\n\n\u2013 incredibly useful for p\u2026",
            "published_at": "2023-06-28T17:24:43Z",
            "slug": "NEW-DAOs-can-now-mix-voting-power-defined-by-smart-contracts-with-a-governance-token-incredibly-useful-for-p",
            "currencies": [
                {
                    "code": "SUPER",
                    "title": "PeerMe SUPER",
                    "slug": "superciety",
                    "url": "https:\/\/cryptopanic.com\/news\/superciety\/"
                }
            ],
            "id": 18679647,
            "url": "https:\/\/cryptopanic.com\/news\/18679647\/NEW-DAOs-can-now-mix-voting-power-defined-by-smart-contracts-with-a-governance-token-incredibly-useful-for-p",
            "created_at": "2023-06-28T17:24:43Z",
            "votes": {
                "negative": 0,
                "positive": 0,
                "important": 0,
                "liked": 0,
                "disliked": 0,
                "lol": 0,
                "toxic": 0,
                "saved": 0,
                "comments": 0
            }
        },
        {
            "kind": "news",
            "domain": "@PeerMeHQ",
            "source": {
                "title": "PeerMe SUPER Twitter",
                "region": "en",
                "domain": "twitter.com",
                "path": "@peermehq"
            },
            "title": "A new update of PeerMe just went live\ufe0f:\n\n Added feature to cancel #Quests that have not started yet\n Added pagin\u2026",
            "published_at": "2023-06-27T18:19:55Z",
            "slug": "A-new-update-of-PeerMe-just-went-live-Added-feature-to-cancel-Quests-that-have-not-started-yet-Added-pagin",
            "currencies": [
                {
                    "code": "SUPER",
                    "title": "PeerMe SUPER",
                    "slug": "superciety",
                    "url": "https:\/\/cryptopanic.com\/news\/superciety\/"
                }
            ],
            "id": 18671426,
            "url": "https:\/\/cryptopanic.com\/news\/18671426\/A-new-update-of-PeerMe-just-went-live-Added-feature-to-cancel-Quests-that-have-not-started-yet-Added-pagin",
            "created_at": "2023-06-27T18:19:55Z",
            "votes": {
                "negative": 0,
                "positive": 0,
                "important": 0,
                "liked": 0,
                "disliked": 0,
                "lol": 0,
                "toxic": 0,
                "saved": 0,
                "comments": 0
            }
        },
        {
            "kind": "news",
            "domain": "@PeerMeHQ",
            "source": {
                "title": "PeerMe SUPER Twitter",
                "region": "en",
                "domain": "twitter.com",
                "path": "@peermehq"
            },
            "title": "RT @Dominnaann: Another completed Quest, Peers loves web3 Jobs. What's next? Some dev Jobs are available, too, with some juicy payments. Go\u2026",
            "published_at": "2023-06-27T07:54:27Z",
            "slug": "RT-Dominnaann-Another-completed-Quest-Peers-loves-web3-Jobs-Whats-next-Some-dev-Jobs-are-available-too-with-some-juicy-payments-Go",
            "currencies": [
                {
                    "code": "SUPER",
                    "title": "PeerMe SUPER",
                    "slug": "superciety",
                    "url": "https:\/\/cryptopanic.com\/news\/superciety\/"
                }
            ],
            "id": 18663154,
            "url": "https:\/\/cryptopanic.com\/news\/18663154\/RT-Dominnaann-Another-completed-Quest-Peers-loves-web3-Jobs-Whats-next-Some-dev-Jobs-are-available-too-with-some-juicy-payments-Go",
            "created_at": "2023-06-27T07:54:27Z",
            "votes": {
                "negative": 0,
                "positive": 0,
                "important": 0,
                "liked": 0,
                "disliked": 0,
                "lol": 0,
                "toxic": 0,
                "saved": 0,
                "comments": 0
            }
        },
        {
            "kind": "news",
            "domain": "@PeerMeHQ",
            "source": {
                "title": "PeerMe SUPER Twitter",
                "region": "en",
                "domain": "twitter.com",
                "path": "@peermehq"
            },
            "title": "1\/ Another Quest has been successfully completed \u2013 a shiny new Gaming Banner for @plataNetwork\n\nIt clearly demon\u2026",
            "published_at": "2023-06-26T18:29:34Z",
            "slug": "1-Another-Quest-has-been-successfully-completed-a-shiny-new-Gaming-Banner-for-plataNetwork-It-clearly-demon",
            "currencies": [
                {
                    "code": "SUPER",
                    "title": "PeerMe SUPER",
                    "slug": "superciety",
                    "url": "https:\/\/cryptopanic.com\/news\/superciety\/"
                }
            ],
            "id": 18663155,
            "url": "https:\/\/cryptopanic.com\/news\/18663155\/1-Another-Quest-has-been-successfully-completed-a-shiny-new-Gaming-Banner-for-plataNetwork-It-clearly-demon",
            "created_at": "2023-06-26T18:29:34Z",
            "votes": {
                "negative": 0,
                "positive": 0,
                "important": 0,
                "liked": 0,
                "disliked": 0,
                "lol": 0,
                "toxic": 0,
                "saved": 0,
                "comments": 0
            }
        },
        {
            "kind": "news",
            "domain": "@PeerMeHQ",
            "source": {
                "title": "PeerMe SUPER Twitter",
                "region": "en",
                "domain": "twitter.com",
                "path": "@peermehq"
            },
            "title": "Just recently, we were cheering for our 1000th vote on \n\n Yesterday, we've already crosse\u2026",
            "published_at": "2023-06-25T18:01:20Z",
            "slug": "Just-recently-we-were-cheering-for-our-1000th-vote-on-Yesterday-weve-already-crosse",
            "currencies": [
                {
                    "code": "SUPER",
                    "title": "PeerMe SUPER",
                    "slug": "superciety",
                    "url": "https:\/\/cryptopanic.com\/news\/superciety\/"
                }
            ],
            "id": 18655609,
            "url": "https:\/\/cryptopanic.com\/news\/18655609\/Just-recently-we-were-cheering-for-our-1000th-vote-on-Yesterday-weve-already-crosse",
            "created_at": "2023-06-25T18:01:20Z",
            "votes": {
                "negative": 0,
                "positive": 0,
                "important": 0,
                "liked": 0,
                "disliked": 0,
                "lol": 0,
                "toxic": 0,
                "saved": 0,
                "comments": 0
            }
        },
        {
            "kind": "news",
            "domain": "@PeerMeHQ",
            "source": {
                "title": "PeerMe SUPER Twitter",
                "region": "en",
                "domain": "twitter.com",
                "path": "@peermehq"
            },
            "title": "#DAOs: They value every voice, encourage robust discussions, and thrive on different perspectives.\n\nCheck out\u2026",
            "published_at": "2023-06-23T15:08:08Z",
            "slug": "DAOs-They-value-every-voice-encourage-robust-discussions-and-thrive-on-different-perspectives-Check-out",
            "currencies": [
                {
                    "code": "SUPER",
                    "title": "PeerMe SUPER",
                    "slug": "superciety",
                    "url": "https:\/\/cryptopanic.com\/news\/superciety\/"
                }
            ],
            "id": 18646277,
            "url": "https:\/\/cryptopanic.com\/news\/18646277\/DAOs-They-value-every-voice-encourage-robust-discussions-and-thrive-on-different-perspectives-Check-out",
            "created_at": "2023-06-23T15:08:08Z",
            "votes": {
                "negative": 0,
                "positive": 0,
                "important": 0,
                "liked": 0,
                "disliked": 0,
                "lol": 0,
                "toxic": 0,
                "saved": 0,
                "comments": 0
            }
        },
        {
            "kind": "news",
            "domain": "@PeerMeHQ",
            "source": {
                "title": "PeerMe SUPER Twitter",
                "region": "en",
                "domain": "twitter.com",
                "path": "@peermehq"
            },
            "title": "Ever wondered how to earn a sustainable living in the Metaverse? DAO Quests (Bounties) are your answer\n\nDive into\u2026",
            "published_at": "2023-06-22T15:01:36Z",
            "slug": "Ever-wondered-how-to-earn-a-sustainable-living-in-the-Metaverse-DAO-Quests-Bounties-are-your-answer-Dive-into",
            "currencies": [
                {
                    "code": "SUPER",
                    "title": "PeerMe SUPER",
                    "slug": "superciety",
                    "url": "https:\/\/cryptopanic.com\/news\/superciety\/"
                }
            ],
            "id": 18638929,
            "url": "https:\/\/cryptopanic.com\/news\/18638929\/Ever-wondered-how-to-earn-a-sustainable-living-in-the-Metaverse-DAO-Quests-Bounties-are-your-answer-Dive-into",
            "created_at": "2023-06-22T15:01:36Z",
            "votes": {
                "negative": 0,
                "positive": 0,
                "important": 0,
                "liked": 0,
                "disliked": 0,
                "lol": 0,
                "toxic": 0,
                "saved": 0,
                "comments": 0
            }
        },
        {
            "kind": "news",
            "domain": "@PeerMeHQ",
            "source": {
                "title": "PeerMe SUPER Twitter",
                "region": "en",
                "domain": "twitter.com",
                "path": "@peermehq"
            },
            "title": "NEW: Quests are now visible on Explore!\n\n so Quest Hunters have an even easier time keeping track of all the oppo\u2026",
            "published_at": "2023-06-21T17:04:42Z",
            "slug": "NEW-Quests-are-now-visible-on-Explore-so-Quest-Hunters-have-an-even-easier-time-keeping-track-of-all-the-oppo",
            "currencies": [
                {
                    "code": "SUPER",
                    "title": "PeerMe SUPER",
                    "slug": "superciety",
                    "url": "https:\/\/cryptopanic.com\/news\/superciety\/"
                }
            ],
            "id": 18630426,
            "url": "https:\/\/cryptopanic.com\/news\/18630426\/NEW-Quests-are-now-visible-on-Explore-so-Quest-Hunters-have-an-even-easier-time-keeping-track-of-all-the-oppo",
            "created_at": "2023-06-21T17:04:42Z",
            "votes": {
                "negative": 0,
                "positive": 0,
                "important": 0,
                "liked": 0,
                "disliked": 0,
                "lol": 0,
                "toxic": 0,
                "saved": 0,
                "comments": 0
            }
        },
        {
            "kind": "news",
            "domain": "@PeerMeHQ",
            "source": {
                "title": "PeerMe SUPER Twitter",
                "region": "en",
                "domain": "twitter.com",
                "path": "@peermehq"
            },
            "title": "Quests have been the missing component to help #DAOs execute their ideas\n\n the PeerMe Method is now complete and\u2026",
            "published_at": "2023-06-19T18:01:21Z",
            "slug": "Quests-have-been-the-missing-component-to-help-DAOs-execute-their-ideas-the-PeerMe-Method-is-now-complete-and",
            "currencies": [
                {
                    "code": "SUPER",
                    "title": "PeerMe SUPER",
                    "slug": "superciety",
                    "url": "https:\/\/cryptopanic.com\/news\/superciety\/"
                }
            ],
            "id": 18614300,
            "url": "https:\/\/cryptopanic.com\/news\/18614300\/Quests-have-been-the-missing-component-to-help-DAOs-execute-their-ideas-the-PeerMe-Method-is-now-complete-and",
            "created_at": "2023-06-19T18:01:21Z",
            "votes": {
                "negative": 0,
                "positive": 0,
                "important": 0,
                "liked": 0,
                "disliked": 0,
                "lol": 0,
                "toxic": 0,
                "saved": 0,
                "comments": 0
            }
        }
    ]
}
