{
    "count": 200,
    "next": "https:\/\/cryptopanic.com\/api\/v1\/posts\/?auth_token=01c356e89ffc1b8eba2127c81fc8c66ee0eace75&kind=news&currencies=FUN&page=2",
    "previous": null,
    "results": [
        {
            "kind": "news",
            "domain": "@FUNtoken_io",
            "votes": {
                "negative": 0,
                "positive": 1,
                "important": 0,
                "liked": 1,
                "disliked": 0,
                "lol": 0,
                "toxic": 0,
                "saved": 0,
                "comments": 0
            },
            "source": {
                "title": "Fun Token Twitter",
                "region": "en",
                "domain": "twitter.com",
                "path": "@funtoken_io"
            },
            "title": " Calling all #FUNToken traders! \nEmbark on a seamless trading journey by trading $FUN on @MEXC_Global, the leadin\u2026",
            "published_at": "2023-07-12T06:38:00Z",
            "slug": "Calling-all-FUNToken-traders-Embark-on-a-seamless-trading-journey-by-trading-FUN-on-MEXC_Global-the-leadin",
            "currencies": [
                {
                    "code": "FUN",
                    "title": "FUNToken",
                    "slug": "funfair",
                    "url": "https:\/\/cryptopanic.com\/news\/funfair\/"
                }
            ],
            "id": 18764409,
            "url": "https:\/\/cryptopanic.com\/news\/18764409\/Calling-all-FUNToken-traders-Embark-on-a-seamless-trading-journey-by-trading-FUN-on-MEXC_Global-the-leadin",
            "created_at": "2023-07-12T06:38:00Z"
        },
        {
            "kind": "news",
            "domain": "@FUNtoken_io",
            "votes": {
                "negative": 0,
                "positive": 1,
                "important": 0,
                "liked": 1,
                "disliked": 0,
                "lol": 0,
                "toxic": 0,
                "saved": 0,
                "comments": 0
            },
            "source": {
                "title": "Fun Token Twitter",
                "region": "en",
                "domain": "twitter.com",
                "path": "@funtoken_io"
            },
            "title": "\ufe0f Experience seamless transactions with XFUN Wallet 2.0. Effortlessly send, receive, and manage your digital asset\u2026",
            "published_at": "2023-07-11T06:38:00Z",
            "slug": "Experience-seamless-transactions-with-XFUN-Wallet-20-Effortlessly-send-receive-and-manage-your-digital-asset",
            "currencies": [
                {
                    "code": "FUN",
                    "title": "FUNToken",
                    "slug": "funfair",
                    "url": "https:\/\/cryptopanic.com\/news\/funfair\/"
                }
            ],
            "id": 18756278,
            "url": "https:\/\/cryptopanic.com\/news\/18756278\/Experience-seamless-transactions-with-XFUN-Wallet-20-Effortlessly-send-receive-and-manage-your-digital-asset",
            "created_at": "2023-07-11T06:38:00Z"
        },
        {
            "kind": "news",
            "domain": "@FUNtoken_io",
            "votes": {
                "negative": 0,
                "positive": 1,
                "important": 0,
                "liked": 1,
                "disliked": 0,
                "lol": 0,
                "toxic": 0,
                "saved": 0,
                "comments": 0
            },
            "source": {
                "title": "Fun Token Twitter",
                "region": "en",
                "domain": "twitter.com",
                "path": "@funtoken_io"
            },
            "title": " Calling all FUN Token traders!  Trade $FUN on @Binance, the top crypto exchange.\n\nExperience the limitless poten\u2026",
            "published_at": "2023-07-10T06:35:00Z",
            "slug": "Calling-all-FUN-Token-traders-Trade-FUN-on-Binance-the-top-crypto-exchange-Experience-the-limitless-poten",
            "currencies": [
                {
                    "code": "FUN",
                    "title": "FUNToken",
                    "slug": "funfair",
                    "url": "https:\/\/cryptopanic.com\/news\/funfair\/"
                }
            ],
            "id": 18749787,
            "url": "https:\/\/cryptopanic.com\/news\/18749787\/Calling-all-FUN-Token-traders-Trade-FUN-on-Binance-the-top-crypto-exchange-Experience-the-limitless-poten",
            "created_at": "2023-07-10T06:35:00Z"
        },
        {
            "kind": "news",
            "domain": "@FUNtoken_io",
            "votes": {
                "negative": 0,
                "positive": 1,
                "important": 0,
                "liked": 1,
                "disliked": 0,
                "lol": 0,
                "toxic": 0,
                "saved": 0,
                "comments": 0
            },
            "source": {
                "title": "Fun Token Twitter",
                "region": "en",
                "domain": "twitter.com",
                "path": "@funtoken_io"
            },
            "title": " Looking to maximize your FUN-ds? Invest in $FUN Token! With its thriving ecosystem &amp; widespread acceptance,\u2026",
            "published_at": "2023-07-09T06:35:00Z",
            "slug": "Looking-to-maximize-your-FUN-ds-Invest-in-FUN-Token-With-its-thriving-ecosystem-amp-widespread-acceptance",
            "currencies": [
                {
                    "code": "FUN",
                    "title": "FUNToken",
                    "slug": "funfair",
                    "url": "https:\/\/cryptopanic.com\/news\/funfair\/"
                }
            ],
            "id": 18745598,
            "url": "https:\/\/cryptopanic.com\/news\/18745598\/Looking-to-maximize-your-FUN-ds-Invest-in-FUN-Token-With-its-thriving-ecosystem-amp-widespread-acceptance",
            "created_at": "2023-07-09T06:35:00Z"
        },
        {
            "kind": "news",
            "domain": "@FUNtoken_io",
            "votes": {
                "negative": 0,
                "positive": 1,
                "important": 0,
                "liked": 1,
                "disliked": 0,
                "lol": 0,
                "toxic": 0,
                "saved": 0,
                "comments": 0
            },
            "source": {
                "title": "Fun Token Twitter",
                "region": "en",
                "domain": "twitter.com",
                "path": "@funtoken_io"
            },
            "title": " Exciting news, #FUNToken community! We're thrilled to announce that we've completed our 8th quarterly token burn\u2026",
            "published_at": "2023-07-08T16:51:25Z",
            "slug": "Exciting-news-FUNToken-community-Were-thrilled-to-announce-that-weve-completed-our-8th-quarterly-token-burn",
            "currencies": [
                {
                    "code": "FUN",
                    "title": "FUNToken",
                    "slug": "funfair",
                    "url": "https:\/\/cryptopanic.com\/news\/funfair\/"
                }
            ],
            "id": 18745599,
            "url": "https:\/\/cryptopanic.com\/news\/18745599\/Exciting-news-FUNToken-community-Were-thrilled-to-announce-that-weve-completed-our-8th-quarterly-token-burn",
            "created_at": "2023-07-08T16:51:25Z"
        },
        {
            "kind": "news",
            "domain": "@FUNtoken_io",
            "votes": {
                "negative": 0,
                "positive": 1,
                "important": 0,
                "liked": 1,
                "disliked": 0,
                "lol": 0,
                "toxic": 0,
                "saved": 0,
                "comments": 0
            },
            "source": {
                "title": "Fun Token Twitter",
                "region": "en",
                "domain": "twitter.com",
                "path": "@funtoken_io"
            },
            "title": "Are you a master gamer? Prove it!  Take on the challenge and compete in Duels across hundreds of indie titles and\u2026",
            "published_at": "2023-07-08T06:33:00Z",
            "slug": "Are-you-a-master-gamer-Prove-it-Take-on-the-challenge-and-compete-in-Duels-across-hundreds-of-indie-titles-and",
            "currencies": [
                {
                    "code": "FUN",
                    "title": "FUNToken",
                    "slug": "funfair",
                    "url": "https:\/\/cryptopanic.com\/news\/funfair\/"
                }
            ],
            "id": 18740249,
            "url": "https:\/\/cryptopanic.com\/news\/18740249\/Are-you-a-master-gamer-Prove-it-Take-on-the-challenge-and-compete-in-Duels-across-hundreds-of-indie-titles-and",
            "created_at": "2023-07-08T06:33:00Z"
        },
        {
            "kind": "news",
            "domain": "@FUNtoken_io",
            "votes": {
                "negative": 0,
                "positive": 1,
                "important": 0,
                "liked": 1,
                "disliked": 0,
                "lol": 0,
                "toxic": 0,
                "saved": 0,
                "comments": 0
            },
            "source": {
                "title": "Fun Token Twitter",
                "region": "en",
                "domain": "twitter.com",
                "path": "@funtoken_io"
            },
            "title": " What an incredible month June has been for the #FUNToken community!  We've forged exciting partnerships, boosted\u2026",
            "published_at": "2023-07-07T10:58:56Z",
            "slug": "What-an-incredible-month-June-has-been-for-the-FUNToken-community-Weve-forged-exciting-partnerships-boosted",
            "currencies": [
                {
                    "code": "FUN",
                    "title": "FUNToken",
                    "slug": "funfair",
                    "url": "https:\/\/cryptopanic.com\/news\/funfair\/"
                }
            ],
            "id": 18740250,
            "url": "https:\/\/cryptopanic.com\/news\/18740250\/What-an-incredible-month-June-has-been-for-the-FUNToken-community-Weve-forged-exciting-partnerships-boosted",
            "created_at": "2023-07-07T10:58:56Z"
        },
        {
            "kind": "news",
            "domain": "@FUNtoken_io",
            "votes": {
                "negative": 0,
                "positive": 1,
                "important": 1,
                "liked": 1,
                "disliked": 0,
                "lol": 0,
                "toxic": 0,
                "saved": 0,
                "comments": 0
            },
            "source": {
                "title": "Fun Token Twitter",
                "region": "en",
                "domain": "twitter.com",
                "path": "@funtoken_io"
            },
            "title": "Get ready for the ultimate gaming experience! Introducing #XFUNArcade, where fun meets earnings\nJoin our online\u2026",
            "published_at": "2023-07-07T06:32:00Z",
            "slug": "Get-ready-for-the-ultimate-gaming-experience-Introducing-XFUNArcade-where-fun-meets-earnings-Join-our-online",
            "currencies": [
                {
                    "code": "FUN",
                    "title": "FUNToken",
                    "slug": "funfair",
                    "url": "https:\/\/cryptopanic.com\/news\/funfair\/"
                }
            ],
            "id": 18732611,
            "url": "https:\/\/cryptopanic.com\/news\/18732611\/Get-ready-for-the-ultimate-gaming-experience-Introducing-XFUNArcade-where-fun-meets-earnings-Join-our-online",
            "created_at": "2023-07-07T06:32:00Z"
        },
        {
            "kind": "news",
            "domain": "@FUNtoken_io",
            "votes": {
                "negative": 0,
                "positive": 1,
                "important": 0,
                "liked": 1,
                "disliked": 0,
                "lol": 0,
                "toxic": 0,
                "saved": 0,
                "comments": 0
            },
            "source": {
                "title": "Fun Token Twitter",
                "region": "en",
                "domain": "twitter.com",
                "path": "@funtoken_io"
            },
            "title": "Earn while you play!  With #XFUNArcade, your skills pay off big time. Win Duels against other gamers and watch yo\u2026",
            "published_at": "2023-07-05T15:13:00Z",
            "slug": "Earn-while-you-play-With-XFUNArcade-your-skills-pay-off-big-time-Win-Duels-against-other-gamers-and-watch-yo",
            "currencies": [
                {
                    "code": "FUN",
                    "title": "FUNToken",
                    "slug": "funfair",
                    "url": "https:\/\/cryptopanic.com\/news\/funfair\/"
                }
            ],
            "id": 18724121,
            "url": "https:\/\/cryptopanic.com\/news\/18724121\/Earn-while-you-play-With-XFUNArcade-your-skills-pay-off-big-time-Win-Duels-against-other-gamers-and-watch-yo",
            "created_at": "2023-07-05T15:13:00Z"
        },
        {
            "kind": "news",
            "domain": "@FUNtoken_io",
            "votes": {
                "negative": 0,
                "positive": 1,
                "important": 0,
                "liked": 1,
                "disliked": 0,
                "lol": 0,
                "toxic": 0,
                "saved": 0,
                "comments": 0
            },
            "source": {
                "title": "Fun Token Twitter",
                "region": "en",
                "domain": "twitter.com",
                "path": "@funtoken_io"
            },
            "title": " Join forces, FUN Token traders!  Trade FUN on @XTexchange and seize thrilling market opportunities.\n\nDon't miss\u2026",
            "published_at": "2023-07-05T09:13:00Z",
            "slug": "Join-forces-FUN-Token-traders-Trade-FUN-on-XTexchange-and-seize-thrilling-market-opportunities-Dont-miss",
            "currencies": [
                {
                    "code": "FUN",
                    "title": "FUNToken",
                    "slug": "funfair",
                    "url": "https:\/\/cryptopanic.com\/news\/funfair\/"
                }
            ],
            "id": 18724122,
            "url": "https:\/\/cryptopanic.com\/news\/18724122\/Join-forces-FUN-Token-traders-Trade-FUN-on-XTexchange-and-seize-thrilling-market-opportunities-Dont-miss",
            "created_at": "2023-07-05T09:13:00Z"
        },
        {
            "kind": "news",
            "domain": "@FUNtoken_io",
            "votes": {
                "negative": 0,
                "positive": 1,
                "important": 1,
                "liked": 1,
                "disliked": 0,
                "lol": 0,
                "toxic": 0,
                "saved": 0,
                "comments": 0
            },
            "source": {
                "title": "Fun Token Twitter",
                "region": "en",
                "domain": "twitter.com",
                "path": "@funtoken_io"
            },
            "title": " Top 2 and climbing! \n\nFUNToken is making serious waves on @cryptocom, reaching the second spot in the trending\u2026",
            "published_at": "2023-07-04T12:22:00Z",
            "slug": "Top-2-and-climbing-FUNToken-is-making-serious-waves-on-cryptocom-reaching-the-second-spot-in-the-trending",
            "currencies": [
                {
                    "code": "FUN",
                    "title": "FUNToken",
                    "slug": "funfair",
                    "url": "https:\/\/cryptopanic.com\/news\/funfair\/"
                }
            ],
            "id": 18716350,
            "url": "https:\/\/cryptopanic.com\/news\/18716350\/Top-2-and-climbing-FUNToken-is-making-serious-waves-on-cryptocom-reaching-the-second-spot-in-the-trending",
            "created_at": "2023-07-04T12:22:00Z"
        },
        {
            "kind": "news",
            "domain": "@FUNtoken_io",
            "votes": {
                "negative": 0,
                "positive": 1,
                "important": 0,
                "liked": 1,
                "disliked": 0,
                "lol": 0,
                "toxic": 0,
                "saved": 0,
                "comments": 0
            },
            "source": {
                "title": "Fun Token Twitter",
                "region": "en",
                "domain": "twitter.com",
                "path": "@funtoken_io"
            },
            "title": " What a ride, FUNToken family! \n\nWe've soared 40% in the past 24 hours and made it to the trending section on\u2026",
            "published_at": "2023-07-04T11:19:49Z",
            "slug": "What-a-ride-FUNToken-family-Weve-soared-40-in-the-past-24-hours-and-made-it-to-the-trending-section-on",
            "currencies": [
                {
                    "code": "FUN",
                    "title": "FUNToken",
                    "slug": "funfair",
                    "url": "https:\/\/cryptopanic.com\/news\/funfair\/"
                }
            ],
            "id": 18716351,
            "url": "https:\/\/cryptopanic.com\/news\/18716351\/What-a-ride-FUNToken-family-Weve-soared-40-in-the-past-24-hours-and-made-it-to-the-trending-section-on",
            "created_at": "2023-07-04T11:19:49Z"
        },
        {
            "kind": "news",
            "domain": "@FUNtoken_io",
            "votes": {
                "negative": 0,
                "positive": 1,
                "important": 0,
                "liked": 1,
                "disliked": 0,
                "lol": 0,
                "toxic": 0,
                "saved": 0,
                "comments": 0
            },
            "source": {
                "title": "Fun Token Twitter",
                "region": "en",
                "domain": "twitter.com",
                "path": "@funtoken_io"
            },
            "title": "Get ready for a FUNtastic revelation! As we chart our course for 2023 and beyond, we're supercharging FUN Token's\u2026",
            "published_at": "2023-07-04T09:32:06Z",
            "slug": "Get-ready-for-a-FUNtastic-revelation-As-we-chart-our-course-for-2023-and-beyond-were-supercharging-FUN-Tokens",
            "currencies": [
                {
                    "code": "FUN",
                    "title": "FUNToken",
                    "slug": "funfair",
                    "url": "https:\/\/cryptopanic.com\/news\/funfair\/"
                }
            ],
            "id": 18716352,
            "url": "https:\/\/cryptopanic.com\/news\/18716352\/Get-ready-for-a-FUNtastic-revelation-As-we-chart-our-course-for-2023-and-beyond-were-supercharging-FUN-Tokens",
            "created_at": "2023-07-04T09:32:06Z"
        },
        {
            "kind": "news",
            "domain": "@FUNtoken_io",
            "votes": {
                "negative": 0,
                "positive": 1,
                "important": 0,
                "liked": 1,
                "disliked": 0,
                "lol": 0,
                "toxic": 0,
                "saved": 0,
                "comments": 0
            },
            "source": {
                "title": "Fun Token Twitter",
                "region": "en",
                "domain": "twitter.com",
                "path": "@funtoken_io"
            },
            "title": "RT @CryptoInsightsX: Daily Market Overview\ufe0f\n\n#BTC price trades around $31K\n\nTop Gainers:\n$TROY @TROY_DAO\n$ESCE @escrocotoken\n$GCR @GCRcoi\u2026",
            "published_at": "2023-07-04T09:28:28Z",
            "slug": "RT-CryptoInsightsX-Daily-Market-Overview-BTC-price-trades-around-31K-Top-Gainers-TROY-TROY_DAO-ESCE-escrocotoken-GCR-GCRcoi",
            "currencies": [
                {
                    "code": "FUN",
                    "title": "FUNToken",
                    "slug": "funfair",
                    "url": "https:\/\/cryptopanic.com\/news\/funfair\/"
                }
            ],
            "id": 18716353,
            "url": "https:\/\/cryptopanic.com\/news\/18716353\/RT-CryptoInsightsX-Daily-Market-Overview-BTC-price-trades-around-31K-Top-Gainers-TROY-TROY_DAO-ESCE-escrocotoken-GCR-GCRcoi",
            "created_at": "2023-07-04T09:28:28Z"
        },
        {
            "kind": "news",
            "domain": "@FUNtoken_io",
            "votes": {
                "negative": 0,
                "positive": 1,
                "important": 0,
                "liked": 1,
                "disliked": 0,
                "lol": 0,
                "toxic": 0,
                "saved": 0,
                "comments": 0
            },
            "source": {
                "title": "Fun Token Twitter",
                "region": "en",
                "domain": "twitter.com",
                "path": "@funtoken_io"
            },
            "title": " Exciting news for #FUNToken traders!  Get in on the action and trade $FUN on @Binance, the world's premier crypt\u2026",
            "published_at": "2023-06-30T08:17:00Z",
            "slug": "Exciting-news-for-FUNToken-traders-Get-in-on-the-action-and-trade-FUN-on-Binance-the-worlds-premier-crypt",
            "currencies": [
                {
                    "code": "FUN",
                    "title": "FUNToken",
                    "slug": "funfair",
                    "url": "https:\/\/cryptopanic.com\/news\/funfair\/"
                }
            ],
            "id": 18693537,
            "url": "https:\/\/cryptopanic.com\/news\/18693537\/Exciting-news-for-FUNToken-traders-Get-in-on-the-action-and-trade-FUN-on-Binance-the-worlds-premier-crypt",
            "created_at": "2023-06-30T08:17:00Z"
        },
        {
            "kind": "news",
            "domain": "@FUNtoken_io",
            "votes": {
                "negative": 0,
                "positive": 1,
                "important": 0,
                "liked": 1,
                "disliked": 0,
                "lol": 0,
                "toxic": 0,
                "saved": 0,
                "comments": 0
            },
            "source": {
                "title": "Fun Token Twitter",
                "region": "en",
                "domain": "twitter.com",
                "path": "@funtoken_io"
            },
            "title": " Level up your #FUNToken experience with #XFUNWallet! Seamlessly store, send, and receive #crypto with ease.\n\nDisc\u2026",
            "published_at": "2023-06-29T08:16:00Z",
            "slug": "Level-up-your-FUNToken-experience-with-XFUNWallet-Seamlessly-store-send-and-receive-crypto-with-ease-Disc",
            "currencies": [
                {
                    "code": "FUN",
                    "title": "FUNToken",
                    "slug": "funfair",
                    "url": "https:\/\/cryptopanic.com\/news\/funfair\/"
                }
            ],
            "id": 18685669,
            "url": "https:\/\/cryptopanic.com\/news\/18685669\/Level-up-your-FUNToken-experience-with-XFUNWallet-Seamlessly-store-send-and-receive-crypto-with-ease-Disc",
            "created_at": "2023-06-29T08:16:00Z"
        },
        {
            "kind": "news",
            "domain": "@FUNtoken_io",
            "votes": {
                "negative": 0,
                "positive": 1,
                "important": 0,
                "liked": 1,
                "disliked": 0,
                "lol": 0,
                "toxic": 0,
                "saved": 0,
                "comments": 0
            },
            "source": {
                "title": "Fun Token Twitter",
                "region": "en",
                "domain": "twitter.com",
                "path": "@funtoken_io"
            },
            "title": " Maximize your FUN-ds with #FUNToken! With a growing ecosystem and widespread acceptance, $FUN Token offers immens\u2026",
            "published_at": "2023-06-28T08:15:00Z",
            "slug": "Maximize-your-FUN-ds-with-FUNToken-With-a-growing-ecosystem-and-widespread-acceptance-FUN-Token-offers-immens",
            "currencies": [
                {
                    "code": "FUN",
                    "title": "FUNToken",
                    "slug": "funfair",
                    "url": "https:\/\/cryptopanic.com\/news\/funfair\/"
                }
            ],
            "id": 18677641,
            "url": "https:\/\/cryptopanic.com\/news\/18677641\/Maximize-your-FUN-ds-with-FUNToken-With-a-growing-ecosystem-and-widespread-acceptance-FUN-Token-offers-immens",
            "created_at": "2023-06-28T08:15:00Z"
        },
        {
            "kind": "news",
            "domain": "@FUNtoken_io",
            "votes": {
                "negative": 0,
                "positive": 1,
                "important": 0,
                "liked": 1,
                "disliked": 0,
                "lol": 0,
                "toxic": 0,
                "saved": 0,
                "comments": 0
            },
            "source": {
                "title": "Fun Token Twitter",
                "region": "en",
                "domain": "twitter.com",
                "path": "@funtoken_io"
            },
            "title": " Attention #FUNToken traders! \n\nTrade $FUN on @MEXC_Global and enjoy a seamless trading experience. Together, let\u2026",
            "published_at": "2023-06-27T08:13:00Z",
            "slug": "Attention-FUNToken-traders-Trade-FUN-on-MEXC_Global-and-enjoy-a-seamless-trading-experience-Together-let",
            "currencies": [
                {
                    "code": "FUN",
                    "title": "FUNToken",
                    "slug": "funfair",
                    "url": "https:\/\/cryptopanic.com\/news\/funfair\/"
                }
            ],
            "id": 18669405,
            "url": "https:\/\/cryptopanic.com\/news\/18669405\/Attention-FUNToken-traders-Trade-FUN-on-MEXC_Global-and-enjoy-a-seamless-trading-experience-Together-let",
            "created_at": "2023-06-27T08:13:00Z"
        },
        {
            "kind": "news",
            "domain": "@FUNtoken_io",
            "votes": {
                "negative": 0,
                "positive": 1,
                "important": 1,
                "liked": 1,
                "disliked": 0,
                "lol": 0,
                "toxic": 0,
                "saved": 0,
                "comments": 0
            },
            "source": {
                "title": "Fun Token Twitter",
                "region": "en",
                "domain": "twitter.com",
                "path": "@funtoken_io"
            },
            "title": " FUN Token is going global! With its presence on major exchanges and growing community, FUN Token captures crypto\u2026",
            "published_at": "2023-06-26T08:12:00Z",
            "slug": "FUN-Token-is-going-global-With-its-presence-on-major-exchanges-and-growing-community-FUN-Token-captures-crypto",
            "currencies": [
                {
                    "code": "FUN",
                    "title": "FUNToken",
                    "slug": "funfair",
                    "url": "https:\/\/cryptopanic.com\/news\/funfair\/"
                }
            ],
            "id": 18661159,
            "url": "https:\/\/cryptopanic.com\/news\/18661159\/FUN-Token-is-going-global-With-its-presence-on-major-exchanges-and-growing-community-FUN-Token-captures-crypto",
            "created_at": "2023-06-26T08:12:00Z"
        },
        {
            "kind": "news",
            "domain": "@FUNtoken_io",
            "votes": {
                "negative": 0,
                "positive": 1,
                "important": 0,
                "liked": 1,
                "disliked": 0,
                "lol": 0,
                "toxic": 0,
                "saved": 0,
                "comments": 0
            },
            "source": {
                "title": "Fun Token Twitter",
                "region": "en",
                "domain": "twitter.com",
                "path": "@funtoken_io"
            },
            "title": " Looking for a secure and user-friendly mobile wallet? Discover #XFUNWallet, the future of crypto wallets.\n\nDownlo\u2026",
            "published_at": "2023-06-25T08:10:00Z",
            "slug": "Looking-for-a-secure-and-user-friendly-mobile-wallet-Discover-XFUNWallet-the-future-of-crypto-wallets-Downlo",
            "currencies": [
                {
                    "code": "FUN",
                    "title": "FUNToken",
                    "slug": "funfair",
                    "url": "https:\/\/cryptopanic.com\/news\/funfair\/"
                }
            ],
            "id": 18654375,
            "url": "https:\/\/cryptopanic.com\/news\/18654375\/Looking-for-a-secure-and-user-friendly-mobile-wallet-Discover-XFUNWallet-the-future-of-crypto-wallets-Downlo",
            "created_at": "2023-06-25T08:10:00Z"
        }
    ]
}
