{
    "count": 200,
    "next": "https:\/\/cryptopanic.com\/api\/v1\/posts\/?auth_token=01c356e89ffc1b8eba2127c81fc8c66ee0eace75&kind=news&currencies=BOND&page=2",
    "previous": null,
    "results": [
        {
            "kind": "news",
            "domain": "@Barn_Bridge",
            "source": {
                "title": "BarnBridge Twitter",
                "region": "en",
                "domain": "twitter.com",
                "path": "@barn_bridge"
            },
            "title": "RT @Barn_Bridge: We're excited to get underway with @spearbitDAO on the audit of the FIAT II credit marketplace protocol!",
            "published_at": "2023-05-24T15:07:59Z",
            "slug": "RT-Barn_Bridge-Were-excited-to-get-underway-with-spearbitDAO-on-the-audit-of-the-FIAT-II-credit-marketplace-protocol",
            "currencies": [
                {
                    "code": "BOND",
                    "title": "BarnBridge",
                    "slug": "barnbridge",
                    "url": "https:\/\/cryptopanic.com\/news\/barnbridge\/"
                }
            ],
            "id": 18422177,
            "url": "https:\/\/cryptopanic.com\/news\/18422177\/RT-Barn_Bridge-Were-excited-to-get-underway-with-spearbitDAO-on-the-audit-of-the-FIAT-II-credit-marketplace-protocol",
            "created_at": "2023-05-24T15:07:59Z",
            "votes": {
                "negative": 0,
                "positive": 0,
                "important": 0,
                "liked": 0,
                "disliked": 0,
                "lol": 0,
                "toxic": 0,
                "saved": 0,
                "comments": 0
            }
        },
        {
            "kind": "news",
            "domain": "@Barn_Bridge",
            "source": {
                "title": "BarnBridge Twitter",
                "region": "en",
                "domain": "twitter.com",
                "path": "@barn_bridge"
            },
            "title": "We're excited to get underway with @spearbitDAO on the audit of the FIAT II credit marketplace protocol!",
            "published_at": "2023-05-22T15:53:45Z",
            "slug": "Were-excited-to-get-underway-with-spearbitDAO-on-the-audit-of-the-FIAT-II-credit-marketplace-protocol",
            "currencies": [
                {
                    "code": "BOND",
                    "title": "BarnBridge",
                    "slug": "barnbridge",
                    "url": "https:\/\/cryptopanic.com\/news\/barnbridge\/"
                }
            ],
            "id": 18403100,
            "url": "https:\/\/cryptopanic.com\/news\/18403100\/Were-excited-to-get-underway-with-spearbitDAO-on-the-audit-of-the-FIAT-II-credit-marketplace-protocol",
            "created_at": "2023-05-22T15:53:45Z",
            "votes": {
                "negative": 0,
                "positive": 0,
                "important": 0,
                "liked": 0,
                "disliked": 0,
                "lol": 0,
                "toxic": 0,
                "saved": 0,
                "comments": 0
            }
        },
        {
            "kind": "news",
            "domain": "@Barn_Bridge",
            "source": {
                "title": "BarnBridge Twitter",
                "region": "en",
                "domain": "twitter.com",
                "path": "@barn_bridge"
            },
            "title": "As we continue our journey forward with FIAT II and Smart Yield v, it's time to sunset BarnBridge v1 \n\nAs of now,\u2026",
            "published_at": "2023-05-19T13:46:22Z",
            "slug": "As-we-continue-our-journey-forward-with-FIAT-II-and-Smart-Yield-v-its-time-to-sunset-BarnBridge-v1-As-of-now",
            "currencies": [
                {
                    "code": "BOND",
                    "title": "BarnBridge",
                    "slug": "barnbridge",
                    "url": "https:\/\/cryptopanic.com\/news\/barnbridge\/"
                }
            ],
            "id": 18384331,
            "url": "https:\/\/cryptopanic.com\/news\/18384331\/As-we-continue-our-journey-forward-with-FIAT-II-and-Smart-Yield-v-its-time-to-sunset-BarnBridge-v1-As-of-now",
            "created_at": "2023-05-19T13:46:22Z",
            "votes": {
                "negative": 0,
                "positive": 0,
                "important": 0,
                "liked": 0,
                "disliked": 0,
                "lol": 0,
                "toxic": 0,
                "saved": 0,
                "comments": 0
            }
        },
        {
            "kind": "news",
            "domain": "@Barn_Bridge",
            "source": {
                "title": "BarnBridge Twitter",
                "region": "en",
                "domain": "twitter.com",
                "path": "@barn_bridge"
            },
            "title": "RT @UMAprotocol: 1\/ @Barn_Bridge has become the latest DAO to integrate oSnap.\n\nA \ud83e\uddf5 on why this is big news for the ecosystem.",
            "published_at": "2023-05-17T14:30:33Z",
            "slug": "RT-UMAprotocol-1-Barn_Bridge-has-become-the-latest-DAO-to-integrate-oSnap-A-on-why-this-is-big-news-for-the-ecosystem",
            "currencies": [
                {
                    "code": "BOND",
                    "title": "BarnBridge",
                    "slug": "barnbridge",
                    "url": "https:\/\/cryptopanic.com\/news\/barnbridge\/"
                }
            ],
            "id": 18365917,
            "url": "https:\/\/cryptopanic.com\/news\/18365917\/RT-UMAprotocol-1-Barn_Bridge-has-become-the-latest-DAO-to-integrate-oSnap-A-on-why-this-is-big-news-for-the-ecosystem",
            "created_at": "2023-05-17T14:30:33Z",
            "votes": {
                "negative": 0,
                "positive": 0,
                "important": 0,
                "liked": 0,
                "disliked": 0,
                "lol": 0,
                "toxic": 0,
                "saved": 0,
                "comments": 0
            }
        },
        {
            "kind": "news",
            "domain": "@Barn_Bridge",
            "source": {
                "title": "BarnBridge Twitter",
                "region": "en",
                "domain": "twitter.com",
                "path": "@barn_bridge"
            },
            "title": "Join us later today to discuss all things oSnap \ufe0f",
            "published_at": "2023-05-17T12:28:15Z",
            "slug": "Join-us-later-today-to-discuss-all-things-oSnap",
            "currencies": [
                {
                    "code": "BOND",
                    "title": "BarnBridge",
                    "slug": "barnbridge",
                    "url": "https:\/\/cryptopanic.com\/news\/barnbridge\/"
                }
            ],
            "id": 18365918,
            "url": "https:\/\/cryptopanic.com\/news\/18365918\/Join-us-later-today-to-discuss-all-things-oSnap",
            "created_at": "2023-05-17T12:28:15Z",
            "votes": {
                "negative": 0,
                "positive": 0,
                "important": 0,
                "liked": 0,
                "disliked": 0,
                "lol": 0,
                "toxic": 0,
                "saved": 0,
                "comments": 0
            }
        },
        {
            "kind": "news",
            "domain": "@Barn_Bridge",
            "source": {
                "title": "BarnBridge Twitter",
                "region": "en",
                "domain": "twitter.com",
                "path": "@barn_bridge"
            },
            "title": "RT @delv_tech: 9\/ @Barn_Bridge is combining a veToken vault built for Council with their \u201cDefault\u201d gov framework to bring the concept of \u201ct\u2026",
            "published_at": "2023-05-16T16:58:01Z",
            "slug": "RT-delv_tech-9-Barn_Bridge-is-combining-a-veToken-vault-built-for-Council-with-their-Default-gov-framework-to-bring-the-concept-of-t",
            "currencies": [
                {
                    "code": "BOND",
                    "title": "BarnBridge",
                    "slug": "barnbridge",
                    "url": "https:\/\/cryptopanic.com\/news\/barnbridge\/"
                }
            ],
            "id": 18356888,
            "url": "https:\/\/cryptopanic.com\/news\/18356888\/RT-delv_tech-9-Barn_Bridge-is-combining-a-veToken-vault-built-for-Council-with-their-Default-gov-framework-to-bring-the-concept-of-t",
            "created_at": "2023-05-16T16:58:01Z",
            "votes": {
                "negative": 0,
                "positive": 0,
                "important": 0,
                "liked": 0,
                "disliked": 0,
                "lol": 0,
                "toxic": 0,
                "saved": 0,
                "comments": 0
            }
        },
        {
            "kind": "news",
            "domain": "@Barn_Bridge",
            "source": {
                "title": "BarnBridge Twitter",
                "region": "en",
                "domain": "twitter.com",
                "path": "@barn_bridge"
            },
            "title": "RT @TokenArchitect: 1\/ BarnBridge is using oSnap to transfer $138,000 to pay a budget request.\n\nGasless voting with on-chain execution (UMA\u2026",
            "published_at": "2023-05-16T14:19:23Z",
            "slug": "RT-TokenArchitect-1-BarnBridge-is-using-oSnap-to-transfer-138000-to-pay-a-budget-request-Gasless-voting-with-on-chain-execution-UMA",
            "currencies": [
                {
                    "code": "BOND",
                    "title": "BarnBridge",
                    "slug": "barnbridge",
                    "url": "https:\/\/cryptopanic.com\/news\/barnbridge\/"
                }
            ],
            "id": 18356889,
            "url": "https:\/\/cryptopanic.com\/news\/18356889\/RT-TokenArchitect-1-BarnBridge-is-using-oSnap-to-transfer-138000-to-pay-a-budget-request-Gasless-voting-with-on-chain-execution-UMA",
            "created_at": "2023-05-16T14:19:23Z",
            "votes": {
                "negative": 0,
                "positive": 0,
                "important": 0,
                "liked": 0,
                "disliked": 0,
                "lol": 0,
                "toxic": 0,
                "saved": 0,
                "comments": 0
            }
        },
        {
            "kind": "news",
            "domain": "@Barn_Bridge",
            "source": {
                "title": "BarnBridge Twitter",
                "region": "en",
                "domain": "twitter.com",
                "path": "@barn_bridge"
            },
            "title": "Earlier this year, @UMAprotocol launched its optimistic governance solution, oSnap, in partnership with\u2026",
            "published_at": "2023-05-15T19:23:19Z",
            "slug": "Earlier-this-year-UMAprotocol-launched-its-optimistic-governance-solution-oSnap-in-partnership-with",
            "currencies": [
                {
                    "code": "BOND",
                    "title": "BarnBridge",
                    "slug": "barnbridge",
                    "url": "https:\/\/cryptopanic.com\/news\/barnbridge\/"
                }
            ],
            "id": 18347850,
            "url": "https:\/\/cryptopanic.com\/news\/18347850\/Earlier-this-year-UMAprotocol-launched-its-optimistic-governance-solution-oSnap-in-partnership-with",
            "created_at": "2023-05-15T19:23:19Z",
            "votes": {
                "negative": 0,
                "positive": 0,
                "important": 0,
                "liked": 0,
                "disliked": 0,
                "lol": 0,
                "toxic": 0,
                "saved": 0,
                "comments": 0
            }
        },
        {
            "kind": "news",
            "domain": "@Barn_Bridge",
            "source": {
                "title": "BarnBridge Twitter",
                "region": "en",
                "domain": "twitter.com",
                "path": "@barn_bridge"
            },
            "title": "\u2b50 USDC Velodrome Epoch 2 \u2b50\n\nDeposits are open for the sUSDC\/USDC Smart Yield Velodrome pool on Optimism.\n\n Asset:\u2026",
            "published_at": "2023-05-12T15:06:06Z",
            "slug": "USDC-Velodrome-Epoch-2-Deposits-are-open-for-the-sUSDCUSDC-Smart-Yield-Velodrome-pool-on-Optimism-Asset",
            "currencies": [
                {
                    "code": "BOND",
                    "title": "BarnBridge",
                    "slug": "barnbridge",
                    "url": "https:\/\/cryptopanic.com\/news\/barnbridge\/"
                }
            ],
            "id": 18329370,
            "url": "https:\/\/cryptopanic.com\/news\/18329370\/USDC-Velodrome-Epoch-2-Deposits-are-open-for-the-sUSDCUSDC-Smart-Yield-Velodrome-pool-on-Optimism-Asset",
            "created_at": "2023-05-12T15:06:06Z",
            "votes": {
                "negative": 0,
                "positive": 0,
                "important": 0,
                "liked": 0,
                "disliked": 0,
                "lol": 0,
                "toxic": 0,
                "saved": 0,
                "comments": 0
            }
        },
        {
            "kind": "news",
            "domain": "@Barn_Bridge",
            "source": {
                "title": "BarnBridge Twitter",
                "region": "en",
                "domain": "twitter.com",
                "path": "@barn_bridge"
            },
            "title": "Going live with @fiege_max in 10 \ufe0f",
            "published_at": "2023-05-03T17:49:36Z",
            "slug": "Going-live-with-fiege_max-in-10",
            "currencies": [
                {
                    "code": "BOND",
                    "title": "BarnBridge",
                    "slug": "barnbridge",
                    "url": "https:\/\/cryptopanic.com\/news\/barnbridge\/"
                }
            ],
            "id": 18256747,
            "url": "https:\/\/cryptopanic.com\/news\/18256747\/Going-live-with-fiege_max-in-10",
            "created_at": "2023-05-03T17:49:36Z",
            "votes": {
                "negative": 0,
                "positive": 0,
                "important": 0,
                "liked": 0,
                "disliked": 0,
                "lol": 0,
                "toxic": 0,
                "saved": 0,
                "comments": 0
            }
        },
        {
            "kind": "news",
            "domain": "@Barn_Bridge",
            "source": {
                "title": "BarnBridge Twitter",
                "region": "en",
                "domain": "twitter.com",
                "path": "@barn_bridge"
            },
            "title": "RT @StablecoinLabs: This will be held tomorrow May 3rd at 11 am. I made a typo in the tweet but the spaces link itself has the right date.",
            "published_at": "2023-05-02T15:23:28Z",
            "slug": "RT-StablecoinLabs-This-will-be-held-tomorrow-May-3rd-at-11-am-I-made-a-typo-in-the-tweet-but-the-spaces-link-itself-has-the-right-date",
            "currencies": [
                {
                    "code": "BOND",
                    "title": "BarnBridge",
                    "slug": "barnbridge",
                    "url": "https:\/\/cryptopanic.com\/news\/barnbridge\/"
                }
            ],
            "id": 18247652,
            "url": "https:\/\/cryptopanic.com\/news\/18247652\/RT-StablecoinLabs-This-will-be-held-tomorrow-May-3rd-at-11-am-I-made-a-typo-in-the-tweet-but-the-spaces-link-itself-has-the-right-date",
            "created_at": "2023-05-02T15:23:28Z",
            "votes": {
                "negative": 0,
                "positive": 0,
                "important": 0,
                "liked": 0,
                "disliked": 0,
                "lol": 0,
                "toxic": 0,
                "saved": 0,
                "comments": 0
            }
        },
        {
            "kind": "news",
            "domain": "@Barn_Bridge",
            "source": {
                "title": "BarnBridge Twitter",
                "region": "en",
                "domain": "twitter.com",
                "path": "@barn_bridge"
            },
            "title": "RT @dennis_qian: 35. Barnbridge FIAT II",
            "published_at": "2023-05-01T13:09:07Z",
            "slug": "RT-dennis_qian-35-Barnbridge-FIAT-II",
            "currencies": [
                {
                    "code": "BOND",
                    "title": "BarnBridge",
                    "slug": "barnbridge",
                    "url": "https:\/\/cryptopanic.com\/news\/barnbridge\/"
                }
            ],
            "id": 18239771,
            "url": "https:\/\/cryptopanic.com\/news\/18239771\/RT-dennis_qian-35-Barnbridge-FIAT-II",
            "created_at": "2023-05-01T13:09:07Z",
            "votes": {
                "negative": 0,
                "positive": 0,
                "important": 0,
                "liked": 0,
                "disliked": 0,
                "lol": 0,
                "toxic": 0,
                "saved": 0,
                "comments": 0
            }
        },
        {
            "kind": "news",
            "domain": "@Barn_Bridge",
            "source": {
                "title": "BarnBridge Twitter",
                "region": "en",
                "domain": "twitter.com",
                "path": "@barn_bridge"
            },
            "title": "RT @EthCC: EthCC[6] is made possible by our sponsors.\n\nThank you @Barn_Bridge for supporting us this year as a WAGMI sponsor!\n\n\ud83e\udd0d\ufe0f\n\nhttps:\u2026",
            "published_at": "2023-04-30T12:42:07Z",
            "slug": "RT-EthCC-EthCC6-is-made-possible-by-our-sponsors-Thank-you-Barn_Bridge-for-supporting-us-this-year-as-a-WAGMI-sponsor-https",
            "currencies": [
                {
                    "code": "BOND",
                    "title": "BarnBridge",
                    "slug": "barnbridge",
                    "url": "https:\/\/cryptopanic.com\/news\/barnbridge\/"
                }
            ],
            "id": 18233844,
            "url": "https:\/\/cryptopanic.com\/news\/18233844\/RT-EthCC-EthCC6-is-made-possible-by-our-sponsors-Thank-you-Barn_Bridge-for-supporting-us-this-year-as-a-WAGMI-sponsor-https",
            "created_at": "2023-04-30T12:42:07Z",
            "votes": {
                "negative": 0,
                "positive": 0,
                "important": 0,
                "liked": 0,
                "disliked": 0,
                "lol": 0,
                "toxic": 0,
                "saved": 0,
                "comments": 0
            }
        },
        {
            "kind": "news",
            "domain": "@Barn_Bridge",
            "source": {
                "title": "BarnBridge Twitter",
                "region": "en",
                "domain": "twitter.com",
                "path": "@barn_bridge"
            },
            "title": "RT @Barn_Bridge: And of course, we'll keep sharing development updates on the blue bird as we go.",
            "published_at": "2023-04-28T12:10:08Z",
            "slug": "RT-Barn_Bridge-And-of-course-well-keep-sharing-development-updates-on-the-blue-bird-as-we-go",
            "currencies": [
                {
                    "code": "BOND",
                    "title": "BarnBridge",
                    "slug": "barnbridge",
                    "url": "https:\/\/cryptopanic.com\/news\/barnbridge\/"
                }
            ],
            "id": 18222142,
            "url": "https:\/\/cryptopanic.com\/news\/18222142\/RT-Barn_Bridge-And-of-course-well-keep-sharing-development-updates-on-the-blue-bird-as-we-go",
            "created_at": "2023-04-28T12:10:08Z",
            "votes": {
                "negative": 0,
                "positive": 0,
                "important": 0,
                "liked": 0,
                "disliked": 0,
                "lol": 0,
                "toxic": 0,
                "saved": 0,
                "comments": 0
            }
        },
        {
            "kind": "news",
            "domain": "@Barn_Bridge",
            "source": {
                "title": "BarnBridge Twitter",
                "region": "en",
                "domain": "twitter.com",
                "path": "@barn_bridge"
            },
            "title": "Tune in next week as our contributor @fiege_max chats DeFi and FIAT II with @AsfiShaheen.",
            "published_at": "2023-04-27T16:41:52Z",
            "slug": "Tune-in-next-week-as-our-contributor-fiege_max-chats-DeFi-and-FIAT-II-with-AsfiShaheen",
            "currencies": [
                {
                    "code": "BOND",
                    "title": "BarnBridge",
                    "slug": "barnbridge",
                    "url": "https:\/\/cryptopanic.com\/news\/barnbridge\/"
                }
            ],
            "id": 18213308,
            "url": "https:\/\/cryptopanic.com\/news\/18213308\/Tune-in-next-week-as-our-contributor-fiege_max-chats-DeFi-and-FIAT-II-with-AsfiShaheen",
            "created_at": "2023-04-27T16:41:52Z",
            "votes": {
                "negative": 0,
                "positive": 0,
                "important": 0,
                "liked": 0,
                "disliked": 0,
                "lol": 0,
                "toxic": 0,
                "saved": 0,
                "comments": 0
            }
        },
        {
            "kind": "news",
            "domain": "@Barn_Bridge",
            "source": {
                "title": "BarnBridge Twitter",
                "region": "en",
                "domain": "twitter.com",
                "path": "@barn_bridge"
            },
            "title": "RT @Barn_Bridge: BarnBridge came into 2023 focused on reinventing our platform around a novel credit marketplace protocol: FIAT II.\n\nIf per\u2026",
            "published_at": "2023-04-27T11:42:10Z",
            "slug": "RT-Barn_Bridge-BarnBridge-came-into-2023-focused-on-reinventing-our-platform-around-a-novel-credit-marketplace-protocol-FIAT-II-If-per",
            "currencies": [
                {
                    "code": "BOND",
                    "title": "BarnBridge",
                    "slug": "barnbridge",
                    "url": "https:\/\/cryptopanic.com\/news\/barnbridge\/"
                }
            ],
            "id": 18213309,
            "url": "https:\/\/cryptopanic.com\/news\/18213309\/RT-Barn_Bridge-BarnBridge-came-into-2023-focused-on-reinventing-our-platform-around-a-novel-credit-marketplace-protocol-FIAT-II-If-per",
            "created_at": "2023-04-27T11:42:10Z",
            "votes": {
                "negative": 0,
                "positive": 0,
                "important": 0,
                "liked": 0,
                "disliked": 0,
                "lol": 0,
                "toxic": 0,
                "saved": 0,
                "comments": 0
            }
        },
        {
            "kind": "news",
            "domain": "@Barn_Bridge",
            "source": {
                "title": "BarnBridge Twitter",
                "region": "en",
                "domain": "twitter.com",
                "path": "@barn_bridge"
            },
            "title": "BarnBridge came into 2023 focused on reinventing our platform around a novel credit marketplace protocol: FIAT II.\u2026",
            "published_at": "2023-04-26T20:14:18Z",
            "slug": "BarnBridge-came-into-2023-focused-on-reinventing-our-platform-around-a-novel-credit-marketplace-protocol-FIAT-II",
            "currencies": [
                {
                    "code": "BOND",
                    "title": "BarnBridge",
                    "slug": "barnbridge",
                    "url": "https:\/\/cryptopanic.com\/news\/barnbridge\/"
                }
            ],
            "id": 18203498,
            "url": "https:\/\/cryptopanic.com\/news\/18203498\/BarnBridge-came-into-2023-focused-on-reinventing-our-platform-around-a-novel-credit-marketplace-protocol-FIAT-II",
            "created_at": "2023-04-26T20:14:18Z",
            "votes": {
                "negative": 0,
                "positive": 0,
                "important": 0,
                "liked": 0,
                "disliked": 0,
                "lol": 0,
                "toxic": 0,
                "saved": 0,
                "comments": 0
            }
        },
        {
            "kind": "news",
            "domain": "@Barn_Bridge",
            "source": {
                "title": "BarnBridge Twitter",
                "region": "en",
                "domain": "twitter.com",
                "path": "@barn_bridge"
            },
            "title": "Congrats to @EnsoFinance on shipping v2 \n\nShortcuts will level up DeFi UX, including that of the upcoming FIAT II\u2026",
            "published_at": "2023-04-13T21:35:04Z",
            "slug": "Congrats-to-EnsoFinance-on-shipping-v2-Shortcuts-will-level-up-DeFi-UX-including-that-of-the-upcoming-FIAT-II",
            "currencies": [
                {
                    "code": "BOND",
                    "title": "BarnBridge",
                    "slug": "barnbridge",
                    "url": "https:\/\/cryptopanic.com\/news\/barnbridge\/"
                }
            ],
            "id": 18105876,
            "url": "https:\/\/cryptopanic.com\/news\/18105876\/Congrats-to-EnsoFinance-on-shipping-v2-Shortcuts-will-level-up-DeFi-UX-including-that-of-the-upcoming-FIAT-II",
            "created_at": "2023-04-13T21:35:04Z",
            "votes": {
                "negative": 0,
                "positive": 0,
                "important": 0,
                "liked": 0,
                "disliked": 0,
                "lol": 0,
                "toxic": 0,
                "saved": 0,
                "comments": 0
            }
        },
        {
            "kind": "news",
            "domain": "@Barn_Bridge",
            "source": {
                "title": "BarnBridge Twitter",
                "region": "en",
                "domain": "twitter.com",
                "path": "@barn_bridge"
            },
            "title": "RT @LordTylerWard: The new @VelodromeFi pool will likely be the first profitable pool for the @Barn_Bridge DAO since the inception of SMART\u2026",
            "published_at": "2023-04-11T12:55:28Z",
            "slug": "RT-LordTylerWard-The-new-VelodromeFi-pool-will-likely-be-the-first-profitable-pool-for-the-Barn_Bridge-DAO-since-the-inception-of-SMART",
            "currencies": [
                {
                    "code": "BOND",
                    "title": "BarnBridge",
                    "slug": "barnbridge",
                    "url": "https:\/\/cryptopanic.com\/news\/barnbridge\/"
                }
            ],
            "id": 18087888,
            "url": "https:\/\/cryptopanic.com\/news\/18087888\/RT-LordTylerWard-The-new-VelodromeFi-pool-will-likely-be-the-first-profitable-pool-for-the-Barn_Bridge-DAO-since-the-inception-of-SMART",
            "created_at": "2023-04-11T12:55:28Z",
            "votes": {
                "negative": 0,
                "positive": 0,
                "important": 0,
                "liked": 0,
                "disliked": 0,
                "lol": 0,
                "toxic": 0,
                "saved": 0,
                "comments": 0
            }
        },
        {
            "kind": "news",
            "domain": "@Barn_Bridge",
            "source": {
                "title": "BarnBridge Twitter",
                "region": "en",
                "domain": "twitter.com",
                "path": "@barn_bridge"
            },
            "title": "\u23f0 Last call for yield hunters! \u23f0\n\nOur Smart Yield pools for DAI &amp; USDC are closing deposits today at 11:59pm EST\n\nD\u2026",
            "published_at": "2023-04-11T00:00:07Z",
            "slug": "Last-call-for-yield-hunters-Our-Smart-Yield-pools-for-DAI-amp-USDC-are-closing-deposits-today-at-1159pm-EST-D",
            "currencies": [
                {
                    "code": "BOND",
                    "title": "BarnBridge",
                    "slug": "barnbridge",
                    "url": "https:\/\/cryptopanic.com\/news\/barnbridge\/"
                },
                {
                    "code": "DAI",
                    "title": "Dai",
                    "slug": "dai",
                    "url": "https:\/\/cryptopanic.com\/news\/dai\/"
                }
            ],
            "id": 18079614,
            "url": "https:\/\/cryptopanic.com\/news\/18079614\/Last-call-for-yield-hunters-Our-Smart-Yield-pools-for-DAI-amp-USDC-are-closing-deposits-today-at-1159pm-EST-D",
            "created_at": "2023-04-11T00:00:07Z",
            "votes": {
                "negative": 0,
                "positive": 0,
                "important": 0,
                "liked": 0,
                "disliked": 0,
                "lol": 0,
                "toxic": 0,
                "saved": 0,
                "comments": 0
            }
        }
    ]
}
