{
    "count": 200,
    "next": "https:\/\/cryptopanic.com\/api\/v1\/posts\/?auth_token=01c356e89ffc1b8eba2127c81fc8c66ee0eace75&kind=news&currencies=ATM&page=2",
    "previous": null,
    "results": [
        {
            "kind": "news",
            "domain": "@AthosMeta",
            "source": {
                "title": "Athos Meta Twitter",
                "region": "en",
                "domain": "twitter.com",
                "path": "@athosmeta"
            },
            "title": "LOWER STAKING INTEREST for the more SUSTAINABLE ATHOS META SYSTEM \n\n 6 months Package: 6%\n 12 months Package: 9%\u2026",
            "published_at": "2023-07-12T05:17:38Z",
            "slug": "LOWER-STAKING-INTEREST-for-the-more-SUSTAINABLE-ATHOS-META-SYSTEM-6-months-Package-6-12-months-Package-9",
            "currencies": [
                {
                    "code": "ATM",
                    "title": "Athos Meta",
                    "slug": null,
                    "url": "https:\/\/cryptopanic.com\/news\/None\/"
                }
            ],
            "id": 18762654,
            "url": "https:\/\/cryptopanic.com\/news\/18762654\/LOWER-STAKING-INTEREST-for-the-more-SUSTAINABLE-ATHOS-META-SYSTEM-6-months-Package-6-12-months-Package-9",
            "created_at": "2023-07-12T05:17:38Z",
            "votes": {
                "negative": 0,
                "positive": 0,
                "important": 0,
                "liked": 0,
                "disliked": 0,
                "lol": 0,
                "toxic": 0,
                "saved": 0,
                "comments": 0
            }
        },
        {
            "kind": "news",
            "domain": "@AthosMeta",
            "source": {
                "title": "Athos Meta Twitter",
                "region": "en",
                "domain": "twitter.com",
                "path": "@athosmeta"
            },
            "title": "24 months and 36 months Staking Packages will be closed permanently at 14h00 UTC on June 25th.\n\nGrab the rest to ma\u2026",
            "published_at": "2023-06-21T07:27:04Z",
            "slug": "24-months-and-36-months-Staking-Packages-will-be-closed-permanently-at-14h00-UTC-on-June-25th-Grab-the-rest-to-ma",
            "currencies": [
                {
                    "code": "ATM",
                    "title": "Athos Meta",
                    "slug": null,
                    "url": "https:\/\/cryptopanic.com\/news\/None\/"
                }
            ],
            "id": 18626432,
            "url": "https:\/\/cryptopanic.com\/news\/18626432\/24-months-and-36-months-Staking-Packages-will-be-closed-permanently-at-14h00-UTC-on-June-25th-Grab-the-rest-to-ma",
            "created_at": "2023-06-21T07:27:04Z",
            "votes": {
                "negative": 0,
                "positive": 0,
                "important": 0,
                "liked": 0,
                "disliked": 0,
                "lol": 0,
                "toxic": 0,
                "saved": 0,
                "comments": 0
            }
        },
        {
            "kind": "news",
            "domain": "@Atleti",
            "source": {
                "title": "Atletico Madrid Fan Token Twitter",
                "region": "en",
                "domain": "twitter.com",
                "path": "@atleti"
            },
            "title": "COUPANG PLAY SERIES 2023 \ud83c\uddf0\ud83c\uddf7\ud83e\udef0\n\n\ufe0f 27 de julio\n\ud83c\udd9a @kleague\n\ufe0f Seoul World Cup Stadium\n\u231a 20h (hora local)\n\n-\n\n\ufe0f 30 de\u2026",
            "published_at": "2023-06-13T10:29:51Z",
            "slug": "COUPANG-PLAY-SERIES-2023-27-de-julio-kleague-Seoul-World-Cup-Stadium-20h-hora-local-30-de",
            "currencies": [
                {
                    "code": "ATM",
                    "title": "Atletico Madrid Fan Token",
                    "slug": "atletico-madrid",
                    "url": "https:\/\/cryptopanic.com\/news\/atletico-madrid\/"
                }
            ],
            "id": 18568978,
            "url": "https:\/\/cryptopanic.com\/news\/18568978\/COUPANG-PLAY-SERIES-2023-27-de-julio-kleague-Seoul-World-Cup-Stadium-20h-hora-local-30-de",
            "created_at": "2023-06-13T10:29:51Z",
            "votes": {
                "negative": 0,
                "positive": 0,
                "important": 0,
                "liked": 0,
                "disliked": 0,
                "lol": 0,
                "toxic": 0,
                "saved": 0,
                "comments": 0
            }
        },
        {
            "kind": "news",
            "domain": "@AthosMeta",
            "source": {
                "title": "Athos Meta Twitter",
                "region": "en",
                "domain": "twitter.com",
                "path": "@athosmeta"
            },
            "title": "\ud83e\udd16BOT TRADE\/ STAKING NEWS\n\nThe Little Modification, The Larger User\u2019sakes\n\n USDT\/ BNB: Draw out 1% daily ( The wit\u2026",
            "published_at": "2023-06-12T11:29:26Z",
            "slug": "BOT-TRADE-STAKING-NEWS-The-Little-Modification-The-Larger-Usersakes-USDT-BNB-Draw-out-1-daily-The-wit",
            "currencies": [
                {
                    "code": "ATM",
                    "title": "Athos Meta",
                    "slug": null,
                    "url": "https:\/\/cryptopanic.com\/news\/None\/"
                }
            ],
            "id": 18560739,
            "url": "https:\/\/cryptopanic.com\/news\/18560739\/BOT-TRADE-STAKING-NEWS-The-Little-Modification-The-Larger-Usersakes-USDT-BNB-Draw-out-1-daily-The-wit",
            "created_at": "2023-06-12T11:29:26Z",
            "votes": {
                "negative": 0,
                "positive": 0,
                "important": 0,
                "liked": 0,
                "disliked": 0,
                "lol": 0,
                "toxic": 0,
                "saved": 0,
                "comments": 0
            }
        },
        {
            "kind": "news",
            "domain": "@AthosMeta",
            "source": {
                "title": "Athos Meta Twitter",
                "region": "en",
                "domain": "twitter.com",
                "path": "@athosmeta"
            },
            "title": " TOP - NOTCH \n\nPlatinum Bot\nProfit: 18% - 22%\/ month\nPeriods: 720 days\nMin invest: $5,000\n\nUltimate Bot\nProfit:\u2026",
            "published_at": "2023-06-06T17:26:22Z",
            "slug": "TOP-NOTCH-Platinum-Bot-Profit-18-22-month-Periods-720-days-Min-invest-5000-Ultimate-Bot-Profit",
            "currencies": [
                {
                    "code": "ATM",
                    "title": "Athos Meta",
                    "slug": null,
                    "url": "https:\/\/cryptopanic.com\/news\/None\/"
                }
            ],
            "id": 18518058,
            "url": "https:\/\/cryptopanic.com\/news\/18518058\/TOP-NOTCH-Platinum-Bot-Profit-18-22-month-Periods-720-days-Min-invest-5000-Ultimate-Bot-Profit",
            "created_at": "2023-06-06T17:26:22Z",
            "votes": {
                "negative": 0,
                "positive": 0,
                "important": 0,
                "liked": 0,
                "disliked": 0,
                "lol": 0,
                "toxic": 0,
                "saved": 0,
                "comments": 0
            }
        },
        {
            "kind": "news",
            "domain": "@AthosMeta",
            "source": {
                "title": "Athos Meta Twitter",
                "region": "en",
                "domain": "twitter.com",
                "path": "@athosmeta"
            },
            "title": "RECAP OF ATHOS META'S OFFICE OPENING EVENT IN VIETNAM| 04.06.2023\n\nAthos Meta officially opened its office in Vietn\u2026",
            "published_at": "2023-06-05T13:44:13Z",
            "slug": "RECAP-OF-ATHOS-METAS-OFFICE-OPENING-EVENT-IN-VIETNAM-04062023-Athos-Meta-officially-opened-its-office-in-Vietn",
            "currencies": [
                {
                    "code": "ATM",
                    "title": "Athos Meta",
                    "slug": null,
                    "url": "https:\/\/cryptopanic.com\/news\/None\/"
                }
            ],
            "id": 18509066,
            "url": "https:\/\/cryptopanic.com\/news\/18509066\/RECAP-OF-ATHOS-METAS-OFFICE-OPENING-EVENT-IN-VIETNAM-04062023-Athos-Meta-officially-opened-its-office-in-Vietn",
            "created_at": "2023-06-05T13:44:13Z",
            "votes": {
                "negative": 0,
                "positive": 0,
                "important": 0,
                "liked": 0,
                "disliked": 0,
                "lol": 0,
                "toxic": 0,
                "saved": 0,
                "comments": 0
            }
        },
        {
            "kind": "news",
            "domain": "@AthosMeta",
            "source": {
                "title": "Athos Meta Twitter",
                "region": "en",
                "domain": "twitter.com",
                "path": "@athosmeta"
            },
            "title": "RT @ATM88_bsc: ATM88 LIVE ON CRYPTOLAUNCH\n\nATM88 will be live on CryptoLaunch for a private sale.\n\n\u23f0 Start Time: 2023.06.03 14:00 (UTC)\n\u23f0\u2026",
            "published_at": "2023-06-02T17:02:03Z",
            "slug": "RT-ATM88_bsc-ATM88-LIVE-ON-CRYPTOLAUNCH-ATM88-will-be-live-on-CryptoLaunch-for-a-private-sale-Start-Time-20230603-1400-UTC",
            "currencies": [
                {
                    "code": "ATM",
                    "title": "Athos Meta",
                    "slug": null,
                    "url": "https:\/\/cryptopanic.com\/news\/None\/"
                }
            ],
            "id": 18491058,
            "url": "https:\/\/cryptopanic.com\/news\/18491058\/RT-ATM88_bsc-ATM88-LIVE-ON-CRYPTOLAUNCH-ATM88-will-be-live-on-CryptoLaunch-for-a-private-sale-Start-Time-20230603-1400-UTC",
            "created_at": "2023-06-02T17:02:03Z",
            "votes": {
                "negative": 0,
                "positive": 0,
                "important": 0,
                "liked": 0,
                "disliked": 0,
                "lol": 0,
                "toxic": 0,
                "saved": 0,
                "comments": 0
            }
        },
        {
            "kind": "news",
            "domain": "@AthosMeta",
            "source": {
                "title": "Athos Meta Twitter",
                "region": "en",
                "domain": "twitter.com",
                "path": "@athosmeta"
            },
            "title": " May 2023 Monthly Transaction Report is out!\n\nCheck out this amazing monthly transaction report for the past fifth\u2026",
            "published_at": "2023-06-02T14:52:52Z",
            "slug": "May-2023-Monthly-Transaction-Report-is-out-Check-out-this-amazing-monthly-transaction-report-for-the-past-fifth",
            "currencies": [
                {
                    "code": "ATM",
                    "title": "Athos Meta",
                    "slug": null,
                    "url": "https:\/\/cryptopanic.com\/news\/None\/"
                }
            ],
            "id": 18491059,
            "url": "https:\/\/cryptopanic.com\/news\/18491059\/May-2023-Monthly-Transaction-Report-is-out-Check-out-this-amazing-monthly-transaction-report-for-the-past-fifth",
            "created_at": "2023-06-02T14:52:52Z",
            "votes": {
                "negative": 0,
                "positive": 0,
                "important": 0,
                "liked": 0,
                "disliked": 0,
                "lol": 0,
                "toxic": 0,
                "saved": 0,
                "comments": 0
            }
        },
        {
            "kind": "news",
            "domain": "@AthosMeta",
            "source": {
                "title": "Athos Meta Twitter",
                "region": "en",
                "domain": "twitter.com",
                "path": "@athosmeta"
            },
            "title": "THE NEW MILESTONE\n\nAthos Meta\u2019s Launchpad is a token sales platform originating from experts in the cryptocurrenc\u2026",
            "published_at": "2023-06-02T03:18:51Z",
            "slug": "THE-NEW-MILESTONE-Athos-Metas-Launchpad-is-a-token-sales-platform-originating-from-experts-in-the-cryptocurrenc",
            "currencies": [
                {
                    "code": "ATM",
                    "title": "Athos Meta",
                    "slug": null,
                    "url": "https:\/\/cryptopanic.com\/news\/None\/"
                }
            ],
            "id": 18482650,
            "url": "https:\/\/cryptopanic.com\/news\/18482650\/THE-NEW-MILESTONE-Athos-Metas-Launchpad-is-a-token-sales-platform-originating-from-experts-in-the-cryptocurrenc",
            "created_at": "2023-06-02T03:18:51Z",
            "votes": {
                "negative": 0,
                "positive": 0,
                "important": 0,
                "liked": 0,
                "disliked": 0,
                "lol": 0,
                "toxic": 0,
                "saved": 0,
                "comments": 0
            }
        },
        {
            "kind": "news",
            "domain": "@AthosMeta",
            "source": {
                "title": "Athos Meta Twitter",
                "region": "en",
                "domain": "twitter.com",
                "path": "@athosmeta"
            },
            "title": "With the following powerful and convenient features:\n\nNo Code required \nSimple manipulation\nConcrete guidelines\u2026",
            "published_at": "2023-06-01T04:54:52Z",
            "slug": "With-the-following-powerful-and-convenient-features-No-Code-required-Simple-manipulation-Concrete-guidelines",
            "currencies": [
                {
                    "code": "ATM",
                    "title": "Athos Meta",
                    "slug": null,
                    "url": "https:\/\/cryptopanic.com\/news\/None\/"
                }
            ],
            "id": 18473771,
            "url": "https:\/\/cryptopanic.com\/news\/18473771\/With-the-following-powerful-and-convenient-features-No-Code-required-Simple-manipulation-Concrete-guidelines",
            "created_at": "2023-06-01T04:54:52Z",
            "votes": {
                "negative": 0,
                "positive": 0,
                "important": 0,
                "liked": 0,
                "disliked": 0,
                "lol": 0,
                "toxic": 0,
                "saved": 0,
                "comments": 0
            }
        },
        {
            "kind": "news",
            "domain": "@AthosMeta",
            "source": {
                "title": "Athos Meta Twitter",
                "region": "en",
                "domain": "twitter.com",
                "path": "@athosmeta"
            },
            "title": " Let's explore Launchpad flatform, the 10th product in the \"system 10\" of Athos Meta, a unique and advanced platfo\u2026",
            "published_at": "2023-06-01T04:54:08Z",
            "slug": "Lets-explore-Launchpad-flatform-the-10th-product-in-the-system-10-of-Athos-Meta-a-unique-and-advanced-platfo",
            "currencies": [
                {
                    "code": "ATM",
                    "title": "Athos Meta",
                    "slug": null,
                    "url": "https:\/\/cryptopanic.com\/news\/None\/"
                }
            ],
            "id": 18473773,
            "url": "https:\/\/cryptopanic.com\/news\/18473773\/Lets-explore-Launchpad-flatform-the-10th-product-in-the-system-10-of-Athos-Meta-a-unique-and-advanced-platfo",
            "created_at": "2023-06-01T04:54:08Z",
            "votes": {
                "negative": 0,
                "positive": 0,
                "important": 0,
                "liked": 0,
                "disliked": 0,
                "lol": 0,
                "toxic": 0,
                "saved": 0,
                "comments": 0
            }
        },
        {
            "kind": "news",
            "domain": "@AthosMeta",
            "source": {
                "title": "Athos Meta Twitter",
                "region": "en",
                "domain": "twitter.com",
                "path": "@athosmeta"
            },
            "title": "\ufe0fThe Laurel of winner - THE LEGEND\ufe0f\n\nWhen you conquer this highest level, you will receive all privileges and re\u2026",
            "published_at": "2023-05-31T14:51:43Z",
            "slug": "The-Laurel-of-winner-THE-LEGEND-When-you-conquer-this-highest-level-you-will-receive-all-privileges-and-re",
            "currencies": [
                {
                    "code": "ATM",
                    "title": "Athos Meta",
                    "slug": null,
                    "url": "https:\/\/cryptopanic.com\/news\/None\/"
                }
            ],
            "id": 18473774,
            "url": "https:\/\/cryptopanic.com\/news\/18473774\/The-Laurel-of-winner-THE-LEGEND-When-you-conquer-this-highest-level-you-will-receive-all-privileges-and-re",
            "created_at": "2023-05-31T14:51:43Z",
            "votes": {
                "negative": 0,
                "positive": 0,
                "important": 0,
                "liked": 0,
                "disliked": 0,
                "lol": 0,
                "toxic": 0,
                "saved": 0,
                "comments": 0
            }
        },
        {
            "kind": "news",
            "domain": "@AthosMeta",
            "source": {
                "title": "Athos Meta Twitter",
                "region": "en",
                "domain": "twitter.com",
                "path": "@athosmeta"
            },
            "title": "Grab some golden nuggets name ATM88 at 14:00 this afternoon, specifically:  \n\n PinkSale Link:\u2026",
            "published_at": "2023-05-25T11:26:29Z",
            "slug": "Grab-some-golden-nuggets-name-ATM88-at-1400-this-afternoon-specifically-PinkSale-Link",
            "currencies": [
                {
                    "code": "ATM",
                    "title": "Athos Meta",
                    "slug": null,
                    "url": "https:\/\/cryptopanic.com\/news\/None\/"
                }
            ],
            "id": 18431086,
            "url": "https:\/\/cryptopanic.com\/news\/18431086\/Grab-some-golden-nuggets-name-ATM88-at-1400-this-afternoon-specifically-PinkSale-Link",
            "created_at": "2023-05-25T11:26:29Z",
            "votes": {
                "negative": 0,
                "positive": 0,
                "important": 0,
                "liked": 0,
                "disliked": 0,
                "lol": 0,
                "toxic": 0,
                "saved": 0,
                "comments": 0
            }
        },
        {
            "kind": "news",
            "domain": "@AthosMeta",
            "source": {
                "title": "Athos Meta Twitter",
                "region": "en",
                "domain": "twitter.com",
                "path": "@athosmeta"
            },
            "title": "The ATM88 FairLaunch is ready to skyrocket \n\nThe only son of the ATM ecosystem that succeeds the powerful community\u2026",
            "published_at": "2023-05-25T11:25:22Z",
            "slug": "The-ATM88-FairLaunch-is-ready-to-skyrocket-The-only-son-of-the-ATM-ecosystem-that-succeeds-the-powerful-community",
            "currencies": [
                {
                    "code": "ATM",
                    "title": "Athos Meta",
                    "slug": null,
                    "url": "https:\/\/cryptopanic.com\/news\/None\/"
                }
            ],
            "id": 18431088,
            "url": "https:\/\/cryptopanic.com\/news\/18431088\/The-ATM88-FairLaunch-is-ready-to-skyrocket-The-only-son-of-the-ATM-ecosystem-that-succeeds-the-powerful-community",
            "created_at": "2023-05-25T11:25:22Z",
            "votes": {
                "negative": 0,
                "positive": 0,
                "important": 0,
                "liked": 0,
                "disliked": 0,
                "lol": 0,
                "toxic": 0,
                "saved": 0,
                "comments": 0
            }
        },
        {
            "kind": "news",
            "domain": "@Atleti",
            "source": {
                "title": "Atletico Madrid Fan Token Twitter",
                "region": "en",
                "domain": "twitter.com",
                "path": "@atleti"
            },
            "title": "\u00a1\u00a1\u00a1ANTINEEEEEE!!!",
            "published_at": "2023-05-24T20:48:37Z",
            "slug": "ANTINEEEEEE",
            "currencies": [
                {
                    "code": "ATM",
                    "title": "Atletico Madrid Fan Token",
                    "slug": "atletico-madrid",
                    "url": "https:\/\/cryptopanic.com\/news\/atletico-madrid\/"
                }
            ],
            "id": 18422006,
            "url": "https:\/\/cryptopanic.com\/news\/18422006\/ANTINEEEEEE",
            "created_at": "2023-05-24T20:48:37Z",
            "votes": {
                "negative": 0,
                "positive": 0,
                "important": 0,
                "liked": 0,
                "disliked": 0,
                "lol": 0,
                "toxic": 0,
                "saved": 0,
                "comments": 0
            }
        },
        {
            "kind": "news",
            "domain": "@AthosMeta",
            "source": {
                "title": "Athos Meta Twitter",
                "region": "en",
                "domain": "twitter.com",
                "path": "@athosmeta"
            },
            "title": "\ufe0f PROFIT EXPLOSION\n\nThe greatest advantage that ATM88 offers its clients is high profitability and low risk.\n\nLet\u2026",
            "published_at": "2023-05-24T08:10:37Z",
            "slug": "PROFIT-EXPLOSION-The-greatest-advantage-that-ATM88-offers-its-clients-is-high-profitability-and-low-risk-Let",
            "currencies": [
                {
                    "code": "ATM",
                    "title": "Athos Meta",
                    "slug": null,
                    "url": "https:\/\/cryptopanic.com\/news\/None\/"
                }
            ],
            "id": 18422003,
            "url": "https:\/\/cryptopanic.com\/news\/18422003\/PROFIT-EXPLOSION-The-greatest-advantage-that-ATM88-offers-its-clients-is-high-profitability-and-low-risk-Let",
            "created_at": "2023-05-24T08:10:37Z",
            "votes": {
                "negative": 0,
                "positive": 0,
                "important": 0,
                "liked": 0,
                "disliked": 0,
                "lol": 0,
                "toxic": 0,
                "saved": 0,
                "comments": 0
            }
        },
        {
            "kind": "news",
            "domain": "@AthosMeta",
            "source": {
                "title": "Athos Meta Twitter",
                "region": "en",
                "domain": "twitter.com",
                "path": "@athosmeta"
            },
            "title": "The introduction of ATM88 will constitute a quantum leap for ATM\n\nThe outcome is anticipated to substantially boos\u2026",
            "published_at": "2023-05-22T11:30:00Z",
            "slug": "The-introduction-of-ATM88-will-constitute-a-quantum-leap-for-ATM-The-outcome-is-anticipated-to-substantially-boos",
            "currencies": [
                {
                    "code": "ATM",
                    "title": "Athos Meta",
                    "slug": null,
                    "url": "https:\/\/cryptopanic.com\/news\/None\/"
                }
            ],
            "id": 18402931,
            "url": "https:\/\/cryptopanic.com\/news\/18402931\/The-introduction-of-ATM88-will-constitute-a-quantum-leap-for-ATM-The-outcome-is-anticipated-to-substantially-boos",
            "created_at": "2023-05-22T11:30:00Z",
            "votes": {
                "negative": 0,
                "positive": 0,
                "important": 0,
                "liked": 0,
                "disliked": 0,
                "lol": 0,
                "toxic": 0,
                "saved": 0,
                "comments": 0
            }
        },
        {
            "kind": "news",
            "domain": "@AthosMeta",
            "source": {
                "title": "Athos Meta Twitter",
                "region": "en",
                "domain": "twitter.com",
                "path": "@athosmeta"
            },
            "title": "$ATM is unstoppable\n\n It may take some time to arrive your presale tokens in your wallet , due to high number of\u2026",
            "published_at": "2023-05-22T02:48:20Z",
            "slug": "ATM-is-unstoppable-It-may-take-some-time-to-arrive-your-presale-tokens-in-your-wallet-due-to-high-number-of",
            "currencies": [
                {
                    "code": "ATM",
                    "title": "Athos Meta",
                    "slug": null,
                    "url": "https:\/\/cryptopanic.com\/news\/None\/"
                }
            ],
            "id": 18396277,
            "url": "https:\/\/cryptopanic.com\/news\/18396277\/ATM-is-unstoppable-It-may-take-some-time-to-arrive-your-presale-tokens-in-your-wallet-due-to-high-number-of",
            "created_at": "2023-05-22T02:48:20Z",
            "votes": {
                "negative": 0,
                "positive": 0,
                "important": 0,
                "liked": 0,
                "disliked": 0,
                "lol": 0,
                "toxic": 0,
                "saved": 0,
                "comments": 0
            }
        },
        {
            "kind": "news",
            "domain": "@Atleti",
            "source": {
                "title": "Atletico Madrid Fan Token Twitter",
                "region": "en",
                "domain": "twitter.com",
                "path": "@atleti"
            },
            "title": " \ud835\ude4f\ud835\ude40\ud835\ude3c\ud835\ude48 ",
            "published_at": "2023-05-21T18:05:00Z",
            "slug": "TEAM",
            "currencies": [
                {
                    "code": "ATM",
                    "title": "Atletico Madrid Fan Token",
                    "slug": "atletico-madrid",
                    "url": "https:\/\/cryptopanic.com\/news\/atletico-madrid\/"
                }
            ],
            "id": 18396279,
            "url": "https:\/\/cryptopanic.com\/news\/18396279\/TEAM",
            "created_at": "2023-05-21T18:05:00Z",
            "votes": {
                "negative": 0,
                "positive": 0,
                "important": 0,
                "liked": 0,
                "disliked": 0,
                "lol": 0,
                "toxic": 0,
                "saved": 0,
                "comments": 0
            }
        },
        {
            "kind": "news",
            "domain": "@Atleti",
            "source": {
                "title": "Atletico Madrid Fan Token Twitter",
                "region": "en",
                "domain": "twitter.com",
                "path": "@atleti"
            },
            "title": "Y A N N I C K  C A R R A S C O",
            "published_at": "2023-05-18T14:00:02Z",
            "slug": "Y-A-N-N-I-C-K-C-A-R-R-A-S-C-O",
            "currencies": [
                {
                    "code": "ATM",
                    "title": "Atletico Madrid Fan Token",
                    "slug": "atletico-madrid",
                    "url": "https:\/\/cryptopanic.com\/news\/atletico-madrid\/"
                }
            ],
            "id": 18375480,
            "url": "https:\/\/cryptopanic.com\/news\/18375480\/Y-A-N-N-I-C-K-C-A-R-R-A-S-C-O",
            "created_at": "2023-05-18T14:00:02Z",
            "votes": {
                "negative": 0,
                "positive": 0,
                "important": 0,
                "liked": 0,
                "disliked": 0,
                "lol": 0,
                "toxic": 0,
                "saved": 0,
                "comments": 0
            }
        }
    ]
}
