{
    "count": 200,
    "next": "https:\/\/cryptopanic.com\/api\/v1\/posts\/?auth_token=01c356e89ffc1b8eba2127c81fc8c66ee0eace75&kind=news&currencies=IRIS&page=2",
    "previous": null,
    "results": [
        {
            "kind": "news",
            "domain": "@irisnetwork",
            "source": {
                "title": "IRISnet Twitter",
                "region": "en",
                "domain": "twitter.com",
                "path": "@irisnetwork"
            },
            "title": "RT @Bianjie_Global: @Ethereum &amp; @irisnetwork are just 2 networks to begin with\n\n#AVATA Global is capable of providing highly customizable\u2026",
            "published_at": "2023-07-12T07:24:17Z",
            "slug": "RT-Bianjie_Global-Ethereum-amp-irisnetwork-are-just-2-networks-to-begin-with-AVATA-Global-is-capable-of-providing-highly-customizable",
            "currencies": [
                {
                    "code": "IRIS",
                    "title": "IRISnet",
                    "slug": "iris-network",
                    "url": "https:\/\/cryptopanic.com\/news\/iris-network\/"
                }
            ],
            "id": 18764929,
            "url": "https:\/\/cryptopanic.com\/news\/18764929\/RT-Bianjie_Global-Ethereum-amp-irisnetwork-are-just-2-networks-to-begin-with-AVATA-Global-is-capable-of-providing-highly-customizable",
            "created_at": "2023-07-12T07:24:17Z",
            "votes": {
                "negative": 0,
                "positive": 0,
                "important": 0,
                "liked": 0,
                "disliked": 0,
                "lol": 0,
                "toxic": 0,
                "saved": 0,
                "comments": 0
            }
        },
        {
            "kind": "news",
            "domain": "@irisnetwork",
            "source": {
                "title": "IRISnet Twitter",
                "region": "en",
                "domain": "twitter.com",
                "path": "@irisnetwork"
            },
            "title": "RT @brianxin: Let's talk about utility NFTs today.",
            "published_at": "2023-07-12T07:12:59Z",
            "slug": "RT-brianxin-Lets-talk-about-utility-NFTs-today",
            "currencies": [
                {
                    "code": "IRIS",
                    "title": "IRISnet",
                    "slug": "iris-network",
                    "url": "https:\/\/cryptopanic.com\/news\/iris-network\/"
                }
            ],
            "id": 18764930,
            "url": "https:\/\/cryptopanic.com\/news\/18764930\/RT-brianxin-Lets-talk-about-utility-NFTs-today",
            "created_at": "2023-07-12T07:12:59Z",
            "votes": {
                "negative": 0,
                "positive": 0,
                "important": 0,
                "liked": 0,
                "disliked": 0,
                "lol": 0,
                "toxic": 0,
                "saved": 0,
                "comments": 0
            }
        },
        {
            "kind": "news",
            "domain": "@irisnetwork",
            "source": {
                "title": "IRISnet Twitter",
                "region": "en",
                "domain": "twitter.com",
                "path": "@irisnetwork"
            },
            "title": " Seamless #NFT interoperability between #IRISHUB &amp; @ethereum is now possible with #AVATA Global's One-Click Cross-\u2026",
            "published_at": "2023-07-11T10:30:33Z",
            "slug": "Seamless-NFT-interoperability-between-IRISHUB-amp-ethereum-is-now-possible-with-AVATA-Globals-One-Click-Cross-",
            "currencies": [
                {
                    "code": "IRIS",
                    "title": "IRISnet",
                    "slug": "iris-network",
                    "url": "https:\/\/cryptopanic.com\/news\/iris-network\/"
                }
            ],
            "id": 18764931,
            "url": "https:\/\/cryptopanic.com\/news\/18764931\/Seamless-NFT-interoperability-between-IRISHUB-amp-ethereum-is-now-possible-with-AVATA-Globals-One-Click-Cross-",
            "created_at": "2023-07-11T10:30:33Z",
            "votes": {
                "negative": 0,
                "positive": 0,
                "important": 0,
                "liked": 0,
                "disliked": 0,
                "lol": 0,
                "toxic": 0,
                "saved": 0,
                "comments": 0
            }
        },
        {
            "kind": "news",
            "domain": "@irisnetwork",
            "source": {
                "title": "IRISnet Twitter",
                "region": "en",
                "domain": "twitter.com",
                "path": "@irisnetwork"
            },
            "title": "Congrats to all talented winners of the @cosmos #GameofNFTs Hackathon! \ud83e\udd29 \n\nWhile we celebra\u2026",
            "published_at": "2023-07-10T13:40:00Z",
            "slug": "Congrats-to-all-talented-winners-of-the-cosmos-GameofNFTs-Hackathon-While-we-celebra",
            "currencies": [
                {
                    "code": "IRIS",
                    "title": "IRISnet",
                    "slug": "iris-network",
                    "url": "https:\/\/cryptopanic.com\/news\/iris-network\/"
                }
            ],
            "id": 18756770,
            "url": "https:\/\/cryptopanic.com\/news\/18756770\/Congrats-to-all-talented-winners-of-the-cosmos-GameofNFTs-Hackathon-While-we-celebra",
            "created_at": "2023-07-10T13:40:00Z",
            "votes": {
                "negative": 0,
                "positive": 0,
                "important": 0,
                "liked": 0,
                "disliked": 0,
                "lol": 0,
                "toxic": 0,
                "saved": 0,
                "comments": 0
            }
        },
        {
            "kind": "news",
            "domain": "@irisnetwork",
            "source": {
                "title": "IRISnet Twitter",
                "region": "en",
                "domain": "twitter.com",
                "path": "@irisnetwork"
            },
            "title": "RT @irisnetwork: 1\/ Welcome @EartLandHK to the #IRISHUB ecosystem!\n\nLeveraging #AVATA Global, EartLand embarks on a transformative Web3 j\u2026",
            "published_at": "2023-07-08T02:17:18Z",
            "slug": "RT-irisnetwork-1-Welcome-EartLandHK-to-the-IRISHUB-ecosystem-Leveraging-AVATA-Global-EartLand-embarks-on-a-transformative-Web3-j",
            "currencies": [
                {
                    "code": "IRIS",
                    "title": "IRISnet",
                    "slug": "iris-network",
                    "url": "https:\/\/cryptopanic.com\/news\/iris-network\/"
                }
            ],
            "id": 18740647,
            "url": "https:\/\/cryptopanic.com\/news\/18740647\/RT-irisnetwork-1-Welcome-EartLandHK-to-the-IRISHUB-ecosystem-Leveraging-AVATA-Global-EartLand-embarks-on-a-transformative-Web3-j",
            "created_at": "2023-07-08T02:17:18Z",
            "votes": {
                "negative": 0,
                "positive": 0,
                "important": 0,
                "liked": 0,
                "disliked": 0,
                "lol": 0,
                "toxic": 0,
                "saved": 0,
                "comments": 0
            }
        },
        {
            "kind": "news",
            "domain": "@irisnetwork",
            "source": {
                "title": "IRISnet Twitter",
                "region": "en",
                "domain": "twitter.com",
                "path": "@irisnetwork"
            },
            "title": "RT @theblockopedia_:  Great News! A powerful alliance is forged as @Irisnetwork partners with Asia's leading NFT platform, @Nftchinahk.\n\nV\u2026",
            "published_at": "2023-07-08T02:16:30Z",
            "slug": "RT-theblockopedia_-Great-News-A-powerful-alliance-is-forged-as-Irisnetwork-partners-with-Asias-leading-NFT-platform-Nftchinahk-V",
            "currencies": [
                {
                    "code": "IRIS",
                    "title": "IRISnet",
                    "slug": "iris-network",
                    "url": "https:\/\/cryptopanic.com\/news\/iris-network\/"
                }
            ],
            "id": 18740648,
            "url": "https:\/\/cryptopanic.com\/news\/18740648\/RT-theblockopedia_-Great-News-A-powerful-alliance-is-forged-as-Irisnetwork-partners-with-Asias-leading-NFT-platform-Nftchinahk-V",
            "created_at": "2023-07-08T02:16:30Z",
            "votes": {
                "negative": 0,
                "positive": 0,
                "important": 0,
                "liked": 0,
                "disliked": 0,
                "lol": 0,
                "toxic": 0,
                "saved": 0,
                "comments": 0
            }
        },
        {
            "kind": "news",
            "domain": "@irisnetwork",
            "source": {
                "title": "IRISnet Twitter",
                "region": "en",
                "domain": "twitter.com",
                "path": "@irisnetwork"
            },
            "title": "RT @Bianjie_Global: #WAIC is here!\n\nJoin us at the World AI Conference where #Bianjie will share a keynote on \"The New Paradigm of #Web3 w\u2026",
            "published_at": "2023-07-07T10:38:27Z",
            "slug": "RT-Bianjie_Global-WAIC-is-here-Join-us-at-the-World-AI-Conference-where-Bianjie-will-share-a-keynote-on-The-New-Paradigm-of-Web3-w",
            "currencies": [
                {
                    "code": "IRIS",
                    "title": "IRISnet",
                    "slug": "iris-network",
                    "url": "https:\/\/cryptopanic.com\/news\/iris-network\/"
                }
            ],
            "id": 18740649,
            "url": "https:\/\/cryptopanic.com\/news\/18740649\/RT-Bianjie_Global-WAIC-is-here-Join-us-at-the-World-AI-Conference-where-Bianjie-will-share-a-keynote-on-The-New-Paradigm-of-Web3-w",
            "created_at": "2023-07-07T10:38:27Z",
            "votes": {
                "negative": 0,
                "positive": 0,
                "important": 0,
                "liked": 0,
                "disliked": 0,
                "lol": 0,
                "toxic": 0,
                "saved": 0,
                "comments": 0
            }
        },
        {
            "kind": "news",
            "domain": "@irisnetwork",
            "source": {
                "title": "IRISnet Twitter",
                "region": "en",
                "domain": "twitter.com",
                "path": "@irisnetwork"
            },
            "title": "1\/ Welcome @EartLandHK to the #IRISHUB ecosystem!\n\nLeveraging #AVATA Global, EartLand embarks on a transformative\u2026",
            "published_at": "2023-07-07T09:56:02Z",
            "slug": "1-Welcome-EartLandHK-to-the-IRISHUB-ecosystem-Leveraging-AVATA-Global-EartLand-embarks-on-a-transformative",
            "currencies": [
                {
                    "code": "IRIS",
                    "title": "IRISnet",
                    "slug": "iris-network",
                    "url": "https:\/\/cryptopanic.com\/news\/iris-network\/"
                }
            ],
            "id": 18740650,
            "url": "https:\/\/cryptopanic.com\/news\/18740650\/1-Welcome-EartLandHK-to-the-IRISHUB-ecosystem-Leveraging-AVATA-Global-EartLand-embarks-on-a-transformative",
            "created_at": "2023-07-07T09:56:02Z",
            "votes": {
                "negative": 0,
                "positive": 0,
                "important": 0,
                "liked": 0,
                "disliked": 0,
                "lol": 0,
                "toxic": 0,
                "saved": 0,
                "comments": 0
            }
        },
        {
            "kind": "news",
            "domain": "@irisnetwork",
            "source": {
                "title": "IRISnet Twitter",
                "region": "en",
                "domain": "twitter.com",
                "path": "@irisnetwork"
            },
            "title": "RT @nftchinahk: We\u2019re delighted to partner with IRIS Network@irisnetwork.",
            "published_at": "2023-07-07T01:53:42Z",
            "slug": "RT-nftchinahk-Were-delighted-to-partner-with-IRIS-Networkirisnetwork",
            "currencies": [
                {
                    "code": "IRIS",
                    "title": "IRISnet",
                    "slug": "iris-network",
                    "url": "https:\/\/cryptopanic.com\/news\/iris-network\/"
                }
            ],
            "id": 18733047,
            "url": "https:\/\/cryptopanic.com\/news\/18733047\/RT-nftchinahk-Were-delighted-to-partner-with-IRIS-Networkirisnetwork",
            "created_at": "2023-07-07T01:53:42Z",
            "votes": {
                "negative": 0,
                "positive": 0,
                "important": 0,
                "liked": 0,
                "disliked": 0,
                "lol": 0,
                "toxic": 0,
                "saved": 0,
                "comments": 0
            }
        },
        {
            "kind": "news",
            "domain": "@irisnetwork",
            "source": {
                "title": "IRISnet Twitter",
                "region": "en",
                "domain": "twitter.com",
                "path": "@irisnetwork"
            },
            "title": "1\/ We\u2018re delighted to partner with @NFTChinaHK to unlock new possibilities of #NFT \n\nAs the pioneering NFT marketp\u2026",
            "published_at": "2023-07-06T10:22:22Z",
            "slug": "1-Were-delighted-to-partner-with-NFTChinaHK-to-unlock-new-possibilities-of-NFT-As-the-pioneering-NFT-marketp",
            "currencies": [
                {
                    "code": "IRIS",
                    "title": "IRISnet",
                    "slug": "iris-network",
                    "url": "https:\/\/cryptopanic.com\/news\/iris-network\/"
                }
            ],
            "id": 18733048,
            "url": "https:\/\/cryptopanic.com\/news\/18733048\/1-Were-delighted-to-partner-with-NFTChinaHK-to-unlock-new-possibilities-of-NFT-As-the-pioneering-NFT-marketp",
            "created_at": "2023-07-06T10:22:22Z",
            "votes": {
                "negative": 0,
                "positive": 0,
                "important": 0,
                "liked": 0,
                "disliked": 0,
                "lol": 0,
                "toxic": 0,
                "saved": 0,
                "comments": 0
            }
        },
        {
            "kind": "news",
            "domain": "@irisnetwork",
            "source": {
                "title": "IRISnet Twitter",
                "region": "en",
                "domain": "twitter.com",
                "path": "@irisnetwork"
            },
            "title": "RT @SAONetwork: Beta is finally live at 04:00:54 AM UTC, June 29th 2023!! Check details here\n#SAONetwork #decentralizedstorage #Betanetw\u2026",
            "published_at": "2023-07-06T01:47:57Z",
            "slug": "RT-SAONetwork-Beta-is-finally-live-at-040054-AM-UTC-June-29th-2023-Check-details-here-SAONetwork-decentralizedstorage-Betanetw",
            "currencies": [
                {
                    "code": "IRIS",
                    "title": "IRISnet",
                    "slug": "iris-network",
                    "url": "https:\/\/cryptopanic.com\/news\/iris-network\/"
                }
            ],
            "id": 18724596,
            "url": "https:\/\/cryptopanic.com\/news\/18724596\/RT-SAONetwork-Beta-is-finally-live-at-040054-AM-UTC-June-29th-2023-Check-details-here-SAONetwork-decentralizedstorage-Betanetw",
            "created_at": "2023-07-06T01:47:57Z",
            "votes": {
                "negative": 0,
                "positive": 0,
                "important": 0,
                "liked": 0,
                "disliked": 0,
                "lol": 0,
                "toxic": 0,
                "saved": 0,
                "comments": 0
            }
        },
        {
            "kind": "news",
            "domain": "@irisnetwork",
            "source": {
                "title": "IRISnet Twitter",
                "region": "en",
                "domain": "twitter.com",
                "path": "@irisnetwork"
            },
            "title": "#IRISnet Monthly Update\n#GameofNFTs has been concluded\u2014 #IRISHUB track winners announced!\nAVATA Global API servi\u2026",
            "published_at": "2023-07-05T10:20:25Z",
            "slug": "IRISnet-Monthly-Update-GameofNFTs-has-been-concluded-IRISHUB-track-winners-announced-AVATA-Global-API-servi",
            "currencies": [
                {
                    "code": "IRIS",
                    "title": "IRISnet",
                    "slug": "iris-network",
                    "url": "https:\/\/cryptopanic.com\/news\/iris-network\/"
                }
            ],
            "id": 18724597,
            "url": "https:\/\/cryptopanic.com\/news\/18724597\/IRISnet-Monthly-Update-GameofNFTs-has-been-concluded-IRISHUB-track-winners-announced-AVATA-Global-API-servi",
            "created_at": "2023-07-05T10:20:25Z",
            "votes": {
                "negative": 0,
                "positive": 0,
                "important": 0,
                "liked": 0,
                "disliked": 0,
                "lol": 0,
                "toxic": 0,
                "saved": 0,
                "comments": 0
            }
        },
        {
            "kind": "news",
            "domain": "@irisnetwork",
            "source": {
                "title": "IRISnet Twitter",
                "region": "en",
                "domain": "twitter.com",
                "path": "@irisnetwork"
            },
            "title": "RT @cosmos: 1\/ #InterchainNFT storm is sweeping across the #Cosmos \n\nIn the last weeks, we shared the winners of the Game of NFTs Hackatho\u2026",
            "published_at": "2023-07-05T08:24:14Z",
            "slug": "RT-cosmos-1-InterchainNFT-storm-is-sweeping-across-the-Cosmos-In-the-last-weeks-we-shared-the-winners-of-the-Game-of-NFTs-Hackatho",
            "currencies": [
                {
                    "code": "IRIS",
                    "title": "IRISnet",
                    "slug": "iris-network",
                    "url": "https:\/\/cryptopanic.com\/news\/iris-network\/"
                }
            ],
            "id": 18724598,
            "url": "https:\/\/cryptopanic.com\/news\/18724598\/RT-cosmos-1-InterchainNFT-storm-is-sweeping-across-the-Cosmos-In-the-last-weeks-we-shared-the-winners-of-the-Game-of-NFTs-Hackatho",
            "created_at": "2023-07-05T08:24:14Z",
            "votes": {
                "negative": 0,
                "positive": 0,
                "important": 0,
                "liked": 0,
                "disliked": 0,
                "lol": 0,
                "toxic": 0,
                "saved": 0,
                "comments": 0
            }
        },
        {
            "kind": "news",
            "domain": "@irisnetwork",
            "source": {
                "title": "IRISnet Twitter",
                "region": "en",
                "domain": "twitter.com",
                "path": "@irisnetwork"
            },
            "title": "RT @w3coins_io: @irisnetwork announces the start of voting on Prop #44\n\nThe on-chain proposal #44 by @chainIDE\nRead the delivery report o\u2026",
            "published_at": "2023-07-05T01:38:01Z",
            "slug": "RT-w3coins_io-irisnetwork-announces-the-start-of-voting-on-Prop-44-The-on-chain-proposal-44-by-chainIDE-Read-the-delivery-report-o",
            "currencies": [
                {
                    "code": "IRIS",
                    "title": "IRISnet",
                    "slug": "iris-network",
                    "url": "https:\/\/cryptopanic.com\/news\/iris-network\/"
                }
            ],
            "id": 18716782,
            "url": "https:\/\/cryptopanic.com\/news\/18716782\/RT-w3coins_io-irisnetwork-announces-the-start-of-voting-on-Prop-44-The-on-chain-proposal-44-by-chainIDE-Read-the-delivery-report-o",
            "created_at": "2023-07-05T01:38:01Z",
            "votes": {
                "negative": 0,
                "positive": 0,
                "important": 0,
                "liked": 0,
                "disliked": 0,
                "lol": 0,
                "toxic": 0,
                "saved": 0,
                "comments": 0
            }
        },
        {
            "kind": "news",
            "domain": "@irisnetwork",
            "source": {
                "title": "IRISnet Twitter",
                "region": "en",
                "domain": "twitter.com",
                "path": "@irisnetwork"
            },
            "title": "#GovAlert: #IRISHUB Proposal #44 is up for voting\n\nThe on-chain proposal #44 by @chainIDE is now live! Read the d\u2026",
            "published_at": "2023-07-04T10:11:21Z",
            "slug": "GovAlert-IRISHUB-Proposal-44-is-up-for-voting-The-on-chain-proposal-44-by-chainIDE-is-now-live-Read-the-d",
            "currencies": [
                {
                    "code": "IRIS",
                    "title": "IRISnet",
                    "slug": "iris-network",
                    "url": "https:\/\/cryptopanic.com\/news\/iris-network\/"
                }
            ],
            "id": 18716783,
            "url": "https:\/\/cryptopanic.com\/news\/18716783\/GovAlert-IRISHUB-Proposal-44-is-up-for-voting-The-on-chain-proposal-44-by-chainIDE-is-now-live-Read-the-d",
            "created_at": "2023-07-04T10:11:21Z",
            "votes": {
                "negative": 0,
                "positive": 0,
                "important": 0,
                "liked": 0,
                "disliked": 0,
                "lol": 0,
                "toxic": 0,
                "saved": 0,
                "comments": 0
            }
        },
        {
            "kind": "news",
            "domain": "@irisnetwork",
            "source": {
                "title": "IRISnet Twitter",
                "region": "en",
                "domain": "twitter.com",
                "path": "@irisnetwork"
            },
            "title": "RT @ChainIDE: We are pleased to announce that we have successfully completed Milestone1 of ChainIDE for @irisnetwork \ud83e\ude77\n\nCheck out our lates\u2026",
            "published_at": "2023-07-04T05:55:49Z",
            "slug": "RT-ChainIDE-We-are-pleased-to-announce-that-we-have-successfully-completed-Milestone1-of-ChainIDE-for-irisnetwork-Check-out-our-lates",
            "currencies": [
                {
                    "code": "IRIS",
                    "title": "IRISnet",
                    "slug": "iris-network",
                    "url": "https:\/\/cryptopanic.com\/news\/iris-network\/"
                }
            ],
            "id": 18709588,
            "url": "https:\/\/cryptopanic.com\/news\/18709588\/RT-ChainIDE-We-are-pleased-to-announce-that-we-have-successfully-completed-Milestone1-of-ChainIDE-for-irisnetwork-Check-out-our-lates",
            "created_at": "2023-07-04T05:55:49Z",
            "votes": {
                "negative": 0,
                "positive": 0,
                "important": 0,
                "liked": 0,
                "disliked": 0,
                "lol": 0,
                "toxic": 0,
                "saved": 0,
                "comments": 0
            }
        },
        {
            "kind": "news",
            "domain": "@irisnetwork",
            "source": {
                "title": "IRISnet Twitter",
                "region": "en",
                "domain": "twitter.com",
                "path": "@irisnetwork"
            },
            "title": "RT @irisnetwork: @ChainIDE has shared their 1st milestone of integrating the web-based multichain tooling platform on #IRISHUB",
            "published_at": "2023-07-03T10:41:04Z",
            "slug": "RT-irisnetwork-ChainIDE-has-shared-their-1st-milestone-of-integrating-the-web-based-multichain-tooling-platform-on-IRISHUB",
            "currencies": [
                {
                    "code": "IRIS",
                    "title": "IRISnet",
                    "slug": "iris-network",
                    "url": "https:\/\/cryptopanic.com\/news\/iris-network\/"
                }
            ],
            "id": 18709589,
            "url": "https:\/\/cryptopanic.com\/news\/18709589\/RT-irisnetwork-ChainIDE-has-shared-their-1st-milestone-of-integrating-the-web-based-multichain-tooling-platform-on-IRISHUB",
            "created_at": "2023-07-03T10:41:04Z",
            "votes": {
                "negative": 0,
                "positive": 0,
                "important": 0,
                "liked": 0,
                "disliked": 0,
                "lol": 0,
                "toxic": 0,
                "saved": 0,
                "comments": 0
            }
        },
        {
            "kind": "news",
            "domain": "@irisnetwork",
            "source": {
                "title": "IRISnet Twitter",
                "region": "en",
                "domain": "twitter.com",
                "path": "@irisnetwork"
            },
            "title": "RT @okxweb3: Join the cosmic revolution!\n\n#OKX Discover integrated with multiple DApps in the Cosmos ecosystem, expanding our support for C\u2026",
            "published_at": "2023-07-03T01:54:52Z",
            "slug": "RT-okxweb3-Join-the-cosmic-revolution-OKX-Discover-integrated-with-multiple-DApps-in-the-Cosmos-ecosystem-expanding-our-support-for-C",
            "currencies": [
                {
                    "code": "IRIS",
                    "title": "IRISnet",
                    "slug": "iris-network",
                    "url": "https:\/\/cryptopanic.com\/news\/iris-network\/"
                }
            ],
            "id": 18703133,
            "url": "https:\/\/cryptopanic.com\/news\/18703133\/RT-okxweb3-Join-the-cosmic-revolution-OKX-Discover-integrated-with-multiple-DApps-in-the-Cosmos-ecosystem-expanding-our-support-for-C",
            "created_at": "2023-07-03T01:54:52Z",
            "votes": {
                "negative": 0,
                "positive": 0,
                "important": 0,
                "liked": 0,
                "disliked": 0,
                "lol": 0,
                "toxic": 0,
                "saved": 0,
                "comments": 0
            }
        },
        {
            "kind": "news",
            "domain": "@irisnetwork",
            "source": {
                "title": "IRISnet Twitter",
                "region": "en",
                "domain": "twitter.com",
                "path": "@irisnetwork"
            },
            "title": "RT @ununifi: The @ununifi dev team placed 2nd in the Cosmos Game of NFTs Hackathon \n(@irisnetwork track) \n\nOur submission for an \u201cNFT Vaul\u2026",
            "published_at": "2023-06-29T16:21:12Z",
            "slug": "RT-ununifi-The-ununifi-dev-team-placed-2nd-in-the-Cosmos-Game-of-NFTs-Hackathon-irisnetwork-track-Our-submission-for-an-NFT-Vaul",
            "currencies": [
                {
                    "code": "IRIS",
                    "title": "IRISnet",
                    "slug": "iris-network",
                    "url": "https:\/\/cryptopanic.com\/news\/iris-network\/"
                }
            ],
            "id": 18686152,
            "url": "https:\/\/cryptopanic.com\/news\/18686152\/RT-ununifi-The-ununifi-dev-team-placed-2nd-in-the-Cosmos-Game-of-NFTs-Hackathon-irisnetwork-track-Our-submission-for-an-NFT-Vaul",
            "created_at": "2023-06-29T16:21:12Z",
            "votes": {
                "negative": 0,
                "positive": 0,
                "important": 0,
                "liked": 0,
                "disliked": 0,
                "lol": 0,
                "toxic": 0,
                "saved": 0,
                "comments": 0
            }
        },
        {
            "kind": "news",
            "domain": "@irisnetwork",
            "source": {
                "title": "IRISnet Twitter",
                "region": "en",
                "domain": "twitter.com",
                "path": "@irisnetwork"
            },
            "title": "Awesome #InterchainNFT projects on #IRISHUB track\ud83e\udd73Time to celebrate!!",
            "published_at": "2023-06-28T14:49:39Z",
            "slug": "Awesome-InterchainNFT-projects-on-IRISHUB-trackTime-to-celebrate",
            "currencies": [
                {
                    "code": "IRIS",
                    "title": "IRISnet",
                    "slug": "iris-network",
                    "url": "https:\/\/cryptopanic.com\/news\/iris-network\/"
                }
            ],
            "id": 18678131,
            "url": "https:\/\/cryptopanic.com\/news\/18678131\/Awesome-InterchainNFT-projects-on-IRISHUB-trackTime-to-celebrate",
            "created_at": "2023-06-28T14:49:39Z",
            "votes": {
                "negative": 0,
                "positive": 0,
                "important": 0,
                "liked": 0,
                "disliked": 0,
                "lol": 0,
                "toxic": 0,
                "saved": 0,
                "comments": 0
            }
        }
    ]
}
