{
    "count": 200,
    "next": "https:\/\/cryptopanic.com\/api\/v1\/posts\/?auth_token=01c356e89ffc1b8eba2127c81fc8c66ee0eace75&kind=news&currencies=LPT&page=2",
    "previous": null,
    "results": [
        {
            "kind": "news",
            "domain": "@Livepeer",
            "source": {
                "title": "Livepeer Twitter",
                "region": "en",
                "domain": "twitter.com",
                "path": "@livepeer"
            },
            "title": "Excited for our friends @jokerace_xyz to take this step towards making fully onchain governance more seamless and f\u2026",
            "published_at": "2023-07-11T16:33:02Z",
            "slug": "Excited-for-our-friends-jokerace_xyz-to-take-this-step-towards-making-fully-onchain-governance-more-seamless-and-f",
            "currencies": [
                {
                    "code": "LPT",
                    "title": "Livepeer",
                    "slug": "livepeer",
                    "url": "https:\/\/cryptopanic.com\/news\/livepeer\/"
                }
            ],
            "id": 18765424,
            "url": "https:\/\/cryptopanic.com\/news\/18765424\/Excited-for-our-friends-jokerace_xyz-to-take-this-step-towards-making-fully-onchain-governance-more-seamless-and-f",
            "created_at": "2023-07-11T16:33:02Z",
            "votes": {
                "negative": 0,
                "positive": 0,
                "important": 0,
                "liked": 0,
                "disliked": 0,
                "lol": 0,
                "toxic": 0,
                "saved": 0,
                "comments": 0
            }
        },
        {
            "kind": "news",
            "domain": "@Livepeer",
            "source": {
                "title": "Livepeer Twitter",
                "region": "en",
                "domain": "twitter.com",
                "path": "@livepeer"
            },
            "title": "RT @protocollabs: Catch PLN Team @Livepeer at #EthCC ",
            "published_at": "2023-07-10T20:49:05Z",
            "slug": "RT-protocollabs-Catch-PLN-Team-Livepeer-at-EthCC",
            "currencies": [
                {
                    "code": "LPT",
                    "title": "Livepeer",
                    "slug": "livepeer",
                    "url": "https:\/\/cryptopanic.com\/news\/livepeer\/"
                }
            ],
            "id": 18757280,
            "url": "https:\/\/cryptopanic.com\/news\/18757280\/RT-protocollabs-Catch-PLN-Team-Livepeer-at-EthCC",
            "created_at": "2023-07-10T20:49:05Z",
            "votes": {
                "negative": 0,
                "positive": 0,
                "important": 0,
                "liked": 0,
                "disliked": 0,
                "lol": 0,
                "toxic": 0,
                "saved": 0,
                "comments": 0
            }
        },
        {
            "kind": "news",
            "domain": "@Livepeer",
            "source": {
                "title": "Livepeer Twitter",
                "region": "en",
                "domain": "twitter.com",
                "path": "@livepeer"
            },
            "title": "RT @shanvasion: \ud83c\uddeb\ud83c\uddf7 Tuesday July 18 @EthCC\nCulture\u2019s Onchain Era - don\u2019t miss it \n\nREGISTER",
            "published_at": "2023-07-10T15:49:27Z",
            "slug": "RT-shanvasion-Tuesday-July-18-EthCC-Cultures-Onchain-Era-dont-miss-it-REGISTER",
            "currencies": [
                {
                    "code": "LPT",
                    "title": "Livepeer",
                    "slug": "livepeer",
                    "url": "https:\/\/cryptopanic.com\/news\/livepeer\/"
                }
            ],
            "id": 18757281,
            "url": "https:\/\/cryptopanic.com\/news\/18757281\/RT-shanvasion-Tuesday-July-18-EthCC-Cultures-Onchain-Era-dont-miss-it-REGISTER",
            "created_at": "2023-07-10T15:49:27Z",
            "votes": {
                "negative": 0,
                "positive": 0,
                "important": 0,
                "liked": 0,
                "disliked": 0,
                "lol": 0,
                "toxic": 0,
                "saved": 0,
                "comments": 0
            }
        },
        {
            "kind": "news",
            "domain": "@Livepeer",
            "source": {
                "title": "Livepeer Twitter",
                "region": "en",
                "domain": "twitter.com",
                "path": "@livepeer"
            },
            "title": "Livepeer remains committed to transparency and consistent reporting of on chain protocol activity\n\nWhile minutes st\u2026",
            "published_at": "2023-07-10T12:56:48Z",
            "slug": "Livepeer-remains-committed-to-transparency-and-consistent-reporting-of-on-chain-protocol-activity-While-minutes-st",
            "currencies": [
                {
                    "code": "LPT",
                    "title": "Livepeer",
                    "slug": "livepeer",
                    "url": "https:\/\/cryptopanic.com\/news\/livepeer\/"
                }
            ],
            "id": 18757282,
            "url": "https:\/\/cryptopanic.com\/news\/18757282\/Livepeer-remains-committed-to-transparency-and-consistent-reporting-of-on-chain-protocol-activity-While-minutes-st",
            "created_at": "2023-07-10T12:56:48Z",
            "votes": {
                "negative": 0,
                "positive": 0,
                "important": 0,
                "liked": 0,
                "disliked": 0,
                "lol": 0,
                "toxic": 0,
                "saved": 0,
                "comments": 0
            }
        },
        {
            "kind": "news",
            "domain": "@Livepeer",
            "source": {
                "title": "Livepeer Twitter",
                "region": "en",
                "domain": "twitter.com",
                "path": "@livepeer"
            },
            "title": "RT @StaniKulechov: Building a really exciting web3 social experience that is intentionally nothing like Twitter is possible and the decentr\u2026",
            "published_at": "2023-07-08T20:36:05Z",
            "slug": "RT-StaniKulechov-Building-a-really-exciting-web3-social-experience-that-is-intentionally-nothing-like-Twitter-is-possible-and-the-decentr",
            "currencies": [
                {
                    "code": "LPT",
                    "title": "Livepeer",
                    "slug": "livepeer",
                    "url": "https:\/\/cryptopanic.com\/news\/livepeer\/"
                }
            ],
            "id": 18746066,
            "url": "https:\/\/cryptopanic.com\/news\/18746066\/RT-StaniKulechov-Building-a-really-exciting-web3-social-experience-that-is-intentionally-nothing-like-Twitter-is-possible-and-the-decentr",
            "created_at": "2023-07-08T20:36:05Z",
            "votes": {
                "negative": 0,
                "positive": 0,
                "important": 0,
                "liked": 0,
                "disliked": 0,
                "lol": 0,
                "toxic": 0,
                "saved": 0,
                "comments": 0
            }
        },
        {
            "kind": "news",
            "domain": "@Livepeer",
            "source": {
                "title": "Livepeer Twitter",
                "region": "en",
                "domain": "twitter.com",
                "path": "@livepeer"
            },
            "title": "THIS WEEK IN VIDEO \/\/ ETHCC \ud83c\uddeb\ud83c\uddf7\n\nHeading to Paris in two weeks? We'll see you there!\ud83e\udd56\n\nQuick Hits:\n-\u2026",
            "published_at": "2023-07-07T19:07:45Z",
            "slug": "THIS-WEEK-IN-VIDEO-ETHCC-Heading-to-Paris-in-two-weeks-Well-see-you-there-Quick-Hits-",
            "currencies": [
                {
                    "code": "LPT",
                    "title": "Livepeer",
                    "slug": "livepeer",
                    "url": "https:\/\/cryptopanic.com\/news\/livepeer\/"
                }
            ],
            "id": 18741063,
            "url": "https:\/\/cryptopanic.com\/news\/18741063\/THIS-WEEK-IN-VIDEO-ETHCC-Heading-to-Paris-in-two-weeks-Well-see-you-there-Quick-Hits-",
            "created_at": "2023-07-07T19:07:45Z",
            "votes": {
                "negative": 0,
                "positive": 0,
                "important": 0,
                "liked": 0,
                "disliked": 0,
                "lol": 0,
                "toxic": 0,
                "saved": 0,
                "comments": 0
            }
        },
        {
            "kind": "news",
            "domain": "@Livepeer",
            "source": {
                "title": "Livepeer Twitter",
                "region": "en",
                "domain": "twitter.com",
                "path": "@livepeer"
            },
            "title": "We're bringing Broadcast back, baby! \n\nJoin us for @broadcastitbabe at @schellingpoint_ Sessions Paris: Fostering a\u2026",
            "published_at": "2023-07-06T15:49:21Z",
            "slug": "Were-bringing-Broadcast-back-baby-Join-us-for-broadcastitbabe-at-schellingpoint_-Sessions-Paris-Fostering-a",
            "currencies": [
                {
                    "code": "LPT",
                    "title": "Livepeer",
                    "slug": "livepeer",
                    "url": "https:\/\/cryptopanic.com\/news\/livepeer\/"
                }
            ],
            "id": 18733527,
            "url": "https:\/\/cryptopanic.com\/news\/18733527\/Were-bringing-Broadcast-back-baby-Join-us-for-broadcastitbabe-at-schellingpoint_-Sessions-Paris-Fostering-a",
            "created_at": "2023-07-06T15:49:21Z",
            "votes": {
                "negative": 0,
                "positive": 0,
                "important": 0,
                "liked": 0,
                "disliked": 0,
                "lol": 0,
                "toxic": 0,
                "saved": 0,
                "comments": 0
            }
        },
        {
            "kind": "news",
            "domain": "@Livepeer",
            "source": {
                "title": "Livepeer Twitter",
                "region": "en",
                "domain": "twitter.com",
                "path": "@livepeer"
            },
            "title": "RT @SuhailKakar: Upload and transcode video using @livepeer in your app react app with just a few lines of code",
            "published_at": "2023-07-05T21:52:58Z",
            "slug": "RT-SuhailKakar-Upload-and-transcode-video-using-livepeer-in-your-app-react-app-with-just-a-few-lines-of-code",
            "currencies": [
                {
                    "code": "LPT",
                    "title": "Livepeer",
                    "slug": "livepeer",
                    "url": "https:\/\/cryptopanic.com\/news\/livepeer\/"
                }
            ],
            "id": 18725076,
            "url": "https:\/\/cryptopanic.com\/news\/18725076\/RT-SuhailKakar-Upload-and-transcode-video-using-livepeer-in-your-app-react-app-with-just-a-few-lines-of-code",
            "created_at": "2023-07-05T21:52:58Z",
            "votes": {
                "negative": 0,
                "positive": 0,
                "important": 0,
                "liked": 0,
                "disliked": 0,
                "lol": 0,
                "toxic": 0,
                "saved": 0,
                "comments": 0
            }
        },
        {
            "kind": "news",
            "domain": "@Livepeer",
            "source": {
                "title": "Livepeer Twitter",
                "region": "en",
                "domain": "twitter.com",
                "path": "@livepeer"
            },
            "title": "RT @VitorMarthendal:  Calling contributors &amp; enthusiasts! Love @UnlockProtocol, @pushprotocol, @LensProtocol, @Livepeer? Join TurboETH in\u2026",
            "published_at": "2023-06-30T18:40:24Z",
            "slug": "RT-VitorMarthendal-Calling-contributors-amp-enthusiasts-Love-UnlockProtocol-pushprotocol-LensProtocol-Livepeer-Join-TurboETH-in",
            "currencies": [
                {
                    "code": "LPT",
                    "title": "Livepeer",
                    "slug": "livepeer",
                    "url": "https:\/\/cryptopanic.com\/news\/livepeer\/"
                }
            ],
            "id": 18694369,
            "url": "https:\/\/cryptopanic.com\/news\/18694369\/RT-VitorMarthendal-Calling-contributors-amp-enthusiasts-Love-UnlockProtocol-pushprotocol-LensProtocol-Livepeer-Join-TurboETH-in",
            "created_at": "2023-06-30T18:40:24Z",
            "votes": {
                "negative": 0,
                "positive": 0,
                "important": 0,
                "liked": 0,
                "disliked": 0,
                "lol": 0,
                "toxic": 0,
                "saved": 0,
                "comments": 0
            }
        },
        {
            "kind": "news",
            "domain": "@Livepeer",
            "source": {
                "title": "Livepeer Twitter",
                "region": "en",
                "domain": "twitter.com",
                "path": "@livepeer"
            },
            "title": "THIS WEEK IN VIDEO \/\/ \n\nWe're back and talking about the new improvements to upload\/processing for VOD \ufe0f\n\nTry it f\u2026",
            "published_at": "2023-06-30T17:21:20Z",
            "slug": "THIS-WEEK-IN-VIDEO-Were-back-and-talking-about-the-new-improvements-to-uploadprocessing-for-VOD-Try-it-f",
            "currencies": [
                {
                    "code": "LPT",
                    "title": "Livepeer",
                    "slug": "livepeer",
                    "url": "https:\/\/cryptopanic.com\/news\/livepeer\/"
                }
            ],
            "id": 18694370,
            "url": "https:\/\/cryptopanic.com\/news\/18694370\/THIS-WEEK-IN-VIDEO-Were-back-and-talking-about-the-new-improvements-to-uploadprocessing-for-VOD-Try-it-f",
            "created_at": "2023-06-30T17:21:20Z",
            "votes": {
                "negative": 0,
                "positive": 0,
                "important": 0,
                "liked": 0,
                "disliked": 0,
                "lol": 0,
                "toxic": 0,
                "saved": 0,
                "comments": 0
            }
        },
        {
            "kind": "news",
            "domain": "@Livepeer",
            "source": {
                "title": "Livepeer Twitter",
                "region": "en",
                "domain": "twitter.com",
                "path": "@livepeer"
            },
            "title": "RT @glassprotocol: Videos are more than just entertainment.\n\nThey're windows into diverse worlds.\n\nThey're powerful storytelling tools.\n\nTh\u2026",
            "published_at": "2023-06-27T23:15:14Z",
            "slug": "RT-glassprotocol-Videos-are-more-than-just-entertainment-Theyre-windows-into-diverse-worlds-Theyre-powerful-storytelling-tools-Th",
            "currencies": [
                {
                    "code": "LPT",
                    "title": "Livepeer",
                    "slug": "livepeer",
                    "url": "https:\/\/cryptopanic.com\/news\/livepeer\/"
                }
            ],
            "id": 18670435,
            "url": "https:\/\/cryptopanic.com\/news\/18670435\/RT-glassprotocol-Videos-are-more-than-just-entertainment-Theyre-windows-into-diverse-worlds-Theyre-powerful-storytelling-tools-Th",
            "created_at": "2023-06-27T23:15:14Z",
            "votes": {
                "negative": 0,
                "positive": 0,
                "important": 0,
                "liked": 0,
                "disliked": 0,
                "lol": 0,
                "toxic": 0,
                "saved": 0,
                "comments": 0
            }
        },
        {
            "kind": "news",
            "domain": "@Livepeer",
            "source": {
                "title": "Livepeer Twitter",
                "region": "en",
                "domain": "twitter.com",
                "path": "@livepeer"
            },
            "title": "It's another great day to hack with video! Congratulations to our #HackFS finalists, and to all of the amazing proj\u2026",
            "published_at": "2023-06-27T19:01:23Z",
            "slug": "Its-another-great-day-to-hack-with-video-Congratulations-to-our-HackFS-finalists-and-to-all-of-the-amazing-proj",
            "currencies": [
                {
                    "code": "LPT",
                    "title": "Livepeer",
                    "slug": "livepeer",
                    "url": "https:\/\/cryptopanic.com\/news\/livepeer\/"
                }
            ],
            "id": 18670436,
            "url": "https:\/\/cryptopanic.com\/news\/18670436\/Its-another-great-day-to-hack-with-video-Congratulations-to-our-HackFS-finalists-and-to-all-of-the-amazing-proj",
            "created_at": "2023-06-27T19:01:23Z",
            "votes": {
                "negative": 0,
                "positive": 0,
                "important": 0,
                "liked": 0,
                "disliked": 0,
                "lol": 0,
                "toxic": 0,
                "saved": 0,
                "comments": 0
            }
        },
        {
            "kind": "news",
            "domain": "@Livepeer",
            "source": {
                "title": "Livepeer Twitter",
                "region": "en",
                "domain": "twitter.com",
                "path": "@livepeer"
            },
            "title": "RT @lensport_io: just integrated @Livepeer video! \n\n@LensProtocol videos will load faster now \ufe0f",
            "published_at": "2023-06-27T18:27:45Z",
            "slug": "RT-lensport_io-just-integrated-Livepeer-video-LensProtocol-videos-will-load-faster-now",
            "currencies": [
                {
                    "code": "LPT",
                    "title": "Livepeer",
                    "slug": "livepeer",
                    "url": "https:\/\/cryptopanic.com\/news\/livepeer\/"
                }
            ],
            "id": 18670437,
            "url": "https:\/\/cryptopanic.com\/news\/18670437\/RT-lensport_io-just-integrated-Livepeer-video-LensProtocol-videos-will-load-faster-now",
            "created_at": "2023-06-27T18:27:45Z",
            "votes": {
                "negative": 0,
                "positive": 0,
                "important": 0,
                "liked": 0,
                "disliked": 0,
                "lol": 0,
                "toxic": 0,
                "saved": 0,
                "comments": 0
            }
        },
        {
            "kind": "news",
            "domain": "@Livepeer",
            "source": {
                "title": "Livepeer Twitter",
                "region": "en",
                "domain": "twitter.com",
                "path": "@livepeer"
            },
            "title": "RT @Titan_Node: Posted a pre-proposal for a Retroactive Public Goods funding initiative for the #Livepeer ecosystem. \n\nWould love any feedb\u2026",
            "published_at": "2023-06-23T18:05:19Z",
            "slug": "RT-Titan_Node-Posted-a-pre-proposal-for-a-Retroactive-Public-Goods-funding-initiative-for-the-Livepeer-ecosystem-Would-love-any-feedb",
            "currencies": [
                {
                    "code": "LPT",
                    "title": "Livepeer",
                    "slug": "livepeer",
                    "url": "https:\/\/cryptopanic.com\/news\/livepeer\/"
                }
            ],
            "id": 18645407,
            "url": "https:\/\/cryptopanic.com\/news\/18645407\/RT-Titan_Node-Posted-a-pre-proposal-for-a-Retroactive-Public-Goods-funding-initiative-for-the-Livepeer-ecosystem-Would-love-any-feedb",
            "created_at": "2023-06-23T18:05:19Z",
            "votes": {
                "negative": 0,
                "positive": 0,
                "important": 0,
                "liked": 0,
                "disliked": 0,
                "lol": 0,
                "toxic": 0,
                "saved": 0,
                "comments": 0
            }
        },
        {
            "kind": "news",
            "domain": "@Livepeer",
            "source": {
                "title": "Livepeer Twitter",
                "region": "en",
                "domain": "twitter.com",
                "path": "@livepeer"
            },
            "title": "THIS WEEK IN VIDEO \/\/\n\nToday is all about engagement metrics \n\n@EvanMullins breaks down how Livepeer's approach to\u2026",
            "published_at": "2023-06-23T17:50:17Z",
            "slug": "THIS-WEEK-IN-VIDEO-Today-is-all-about-engagement-metrics-EvanMullins-breaks-down-how-Livepeers-approach-to",
            "currencies": [
                {
                    "code": "LPT",
                    "title": "Livepeer",
                    "slug": "livepeer",
                    "url": "https:\/\/cryptopanic.com\/news\/livepeer\/"
                }
            ],
            "id": 18645408,
            "url": "https:\/\/cryptopanic.com\/news\/18645408\/THIS-WEEK-IN-VIDEO-Today-is-all-about-engagement-metrics-EvanMullins-breaks-down-how-Livepeers-approach-to",
            "created_at": "2023-06-23T17:50:17Z",
            "votes": {
                "negative": 0,
                "positive": 0,
                "important": 0,
                "liked": 0,
                "disliked": 0,
                "lol": 0,
                "toxic": 0,
                "saved": 0,
                "comments": 0
            }
        },
        {
            "kind": "news",
            "domain": "@Livepeer",
            "source": {
                "title": "Livepeer Twitter",
                "region": "en",
                "domain": "twitter.com",
                "path": "@livepeer"
            },
            "title": "RT @missvikii: Decentralized Twitch aka @Xeenon_xyz \n\nThere's a team who is building a decentralized live-streaming platform on @Livepeer \u2026",
            "published_at": "2023-06-23T17:21:45Z",
            "slug": "RT-missvikii-Decentralized-Twitch-aka-Xeenon_xyz-Theres-a-team-who-is-building-a-decentralized-live-streaming-platform-on-Livepeer",
            "currencies": [
                {
                    "code": "LPT",
                    "title": "Livepeer",
                    "slug": "livepeer",
                    "url": "https:\/\/cryptopanic.com\/news\/livepeer\/"
                }
            ],
            "id": 18645409,
            "url": "https:\/\/cryptopanic.com\/news\/18645409\/RT-missvikii-Decentralized-Twitch-aka-Xeenon_xyz-Theres-a-team-who-is-building-a-decentralized-live-streaming-platform-on-Livepeer",
            "created_at": "2023-06-23T17:21:45Z",
            "votes": {
                "negative": 0,
                "positive": 0,
                "important": 0,
                "liked": 0,
                "disliked": 0,
                "lol": 0,
                "toxic": 0,
                "saved": 0,
                "comments": 0
            }
        },
        {
            "kind": "news",
            "domain": "@Livepeer",
            "source": {
                "title": "Livepeer Twitter",
                "region": "en",
                "domain": "twitter.com",
                "path": "@livepeer"
            },
            "title": "Excited to join our friends @Superfluid_HQ\ntoday for: \n\n- The state of Web3 social &amp; video streaming with\u2026",
            "published_at": "2023-06-22T14:13:05Z",
            "slug": "Excited-to-join-our-friends-Superfluid_HQ-today-for-The-state-of-Web3-social-amp-video-streaming-with",
            "currencies": [
                {
                    "code": "LPT",
                    "title": "Livepeer",
                    "slug": "livepeer",
                    "url": "https:\/\/cryptopanic.com\/news\/livepeer\/"
                }
            ],
            "id": 18637904,
            "url": "https:\/\/cryptopanic.com\/news\/18637904\/Excited-to-join-our-friends-Superfluid_HQ-today-for-The-state-of-Web3-social-amp-video-streaming-with",
            "created_at": "2023-06-22T14:13:05Z",
            "votes": {
                "negative": 0,
                "positive": 0,
                "important": 0,
                "liked": 0,
                "disliked": 0,
                "lol": 0,
                "toxic": 0,
                "saved": 0,
                "comments": 0
            }
        },
        {
            "kind": "news",
            "domain": "@Livepeer",
            "source": {
                "title": "Livepeer Twitter",
                "region": "en",
                "domain": "twitter.com",
                "path": "@livepeer"
            },
            "title": "Awesome opportunity for builders to experiment and get compensated for creating valuable web3 templates with\u2026",
            "published_at": "2023-06-22T12:52:56Z",
            "slug": "Awesome-opportunity-for-builders-to-experiment-and-get-compensated-for-creating-valuable-web3-templates-with",
            "currencies": [
                {
                    "code": "LPT",
                    "title": "Livepeer",
                    "slug": "livepeer",
                    "url": "https:\/\/cryptopanic.com\/news\/livepeer\/"
                }
            ],
            "id": 18637905,
            "url": "https:\/\/cryptopanic.com\/news\/18637905\/Awesome-opportunity-for-builders-to-experiment-and-get-compensated-for-creating-valuable-web3-templates-with",
            "created_at": "2023-06-22T12:52:56Z",
            "votes": {
                "negative": 0,
                "positive": 0,
                "important": 0,
                "liked": 0,
                "disliked": 0,
                "lol": 0,
                "toxic": 0,
                "saved": 0,
                "comments": 0
            }
        },
        {
            "kind": "news",
            "domain": "@Livepeer",
            "source": {
                "title": "Livepeer Twitter",
                "region": "en",
                "domain": "twitter.com",
                "path": "@livepeer"
            },
            "title": "RT @wslyvh: Whoop whoop! Had a lot of fun hacking @ETHGlobal HackFS again \n\nBig thanks to @Web3Storage @ENS_DAO @Livepeer ",
            "published_at": "2023-06-22T12:50:34Z",
            "slug": "RT-wslyvh-Whoop-whoop-Had-a-lot-of-fun-hacking-ETHGlobal-HackFS-again-Big-thanks-to-Web3Storage-ENS_DAO-Livepeer",
            "currencies": [
                {
                    "code": "LPT",
                    "title": "Livepeer",
                    "slug": "livepeer",
                    "url": "https:\/\/cryptopanic.com\/news\/livepeer\/"
                }
            ],
            "id": 18637906,
            "url": "https:\/\/cryptopanic.com\/news\/18637906\/RT-wslyvh-Whoop-whoop-Had-a-lot-of-fun-hacking-ETHGlobal-HackFS-again-Big-thanks-to-Web3Storage-ENS_DAO-Livepeer",
            "created_at": "2023-06-22T12:50:34Z",
            "votes": {
                "negative": 0,
                "positive": 0,
                "important": 0,
                "liked": 0,
                "disliked": 0,
                "lol": 0,
                "toxic": 0,
                "saved": 0,
                "comments": 0
            }
        },
        {
            "kind": "news",
            "domain": "@Livepeer",
            "source": {
                "title": "Livepeer Twitter",
                "region": "en",
                "domain": "twitter.com",
                "path": "@livepeer"
            },
            "title": "RT @shanvasion: Feels like a web3 gaming kind of hackathon for onchain video with @Livepeer @ETHGlobal @ethwaterloo2 \ufe0f",
            "published_at": "2023-06-22T12:50:13Z",
            "slug": "RT-shanvasion-Feels-like-a-web3-gaming-kind-of-hackathon-for-onchain-video-with-Livepeer-ETHGlobal-ethwaterloo2",
            "currencies": [
                {
                    "code": "LPT",
                    "title": "Livepeer",
                    "slug": "livepeer",
                    "url": "https:\/\/cryptopanic.com\/news\/livepeer\/"
                }
            ],
            "id": 18637907,
            "url": "https:\/\/cryptopanic.com\/news\/18637907\/RT-shanvasion-Feels-like-a-web3-gaming-kind-of-hackathon-for-onchain-video-with-Livepeer-ETHGlobal-ethwaterloo2",
            "created_at": "2023-06-22T12:50:13Z",
            "votes": {
                "negative": 0,
                "positive": 0,
                "important": 0,
                "liked": 0,
                "disliked": 0,
                "lol": 0,
                "toxic": 0,
                "saved": 0,
                "comments": 0
            }
        }
    ]
}
