{
    "count": 200,
    "next": "https:\/\/cryptopanic.com\/api\/v1\/posts\/?auth_token=01c356e89ffc1b8eba2127c81fc8c66ee0eace75&kind=news&currencies=SNM&page=2",
    "previous": null,
    "results": [
        {
            "kind": "news",
            "domain": "@0xSnailMoon",
            "source": {
                "title": "SnailMoon Twitter",
                "region": "en",
                "domain": "twitter.com",
                "path": "@0xsnailmoon"
            },
            "title": "Richard Heart Wins Farmer Of The Year Award",
            "published_at": "2023-07-11T20:02:21Z",
            "slug": "Richard-Heart-Wins-Farmer-Of-The-Year-Award",
            "currencies": [
                {
                    "code": "SNM",
                    "title": "SnailMoon",
                    "slug": "snailmoon",
                    "url": "https:\/\/cryptopanic.com\/news\/snailmoon\/"
                }
            ],
            "id": 18767101,
            "url": "https:\/\/cryptopanic.com\/news\/18767101\/Richard-Heart-Wins-Farmer-Of-The-Year-Award",
            "created_at": "2023-07-11T20:02:21Z",
            "votes": {
                "negative": 0,
                "positive": 0,
                "important": 0,
                "liked": 0,
                "disliked": 0,
                "lol": 0,
                "toxic": 0,
                "saved": 0,
                "comments": 0
            }
        },
        {
            "kind": "news",
            "domain": "@0xSnailMoon",
            "source": {
                "title": "SnailMoon Twitter",
                "region": "en",
                "domain": "twitter.com",
                "path": "@0xsnailmoon"
            },
            "title": "RT @x100flex: When I say Snail, you say Moon.\n\n$SNM ",
            "published_at": "2023-07-11T16:13:54Z",
            "slug": "RT-x100flex-When-I-say-Snail-you-say-Moon-SNM",
            "currencies": [
                {
                    "code": "SNM",
                    "title": "SnailMoon",
                    "slug": "snailmoon",
                    "url": "https:\/\/cryptopanic.com\/news\/snailmoon\/"
                }
            ],
            "id": 18767102,
            "url": "https:\/\/cryptopanic.com\/news\/18767102\/RT-x100flex-When-I-say-Snail-you-say-Moon-SNM",
            "created_at": "2023-07-11T16:13:54Z",
            "votes": {
                "negative": 0,
                "positive": 0,
                "important": 0,
                "liked": 0,
                "disliked": 0,
                "lol": 0,
                "toxic": 0,
                "saved": 0,
                "comments": 0
            }
        },
        {
            "kind": "news",
            "domain": "@0xSnailMoon",
            "source": {
                "title": "SnailMoon Twitter",
                "region": "en",
                "domain": "twitter.com",
                "path": "@0xsnailmoon"
            },
            "title": "RT @0xSnailMoon: Have you added our #SnailMoon Steve and Local Man sticker packs on Telegram yet?",
            "published_at": "2023-07-11T14:11:37Z",
            "slug": "RT-0xSnailMoon-Have-you-added-our-SnailMoon-Steve-and-Local-Man-sticker-packs-on-Telegram-yet",
            "currencies": [
                {
                    "code": "SNM",
                    "title": "SnailMoon",
                    "slug": "snailmoon",
                    "url": "https:\/\/cryptopanic.com\/news\/snailmoon\/"
                }
            ],
            "id": 18767103,
            "url": "https:\/\/cryptopanic.com\/news\/18767103\/RT-0xSnailMoon-Have-you-added-our-SnailMoon-Steve-and-Local-Man-sticker-packs-on-Telegram-yet",
            "created_at": "2023-07-11T14:11:37Z",
            "votes": {
                "negative": 0,
                "positive": 0,
                "important": 0,
                "liked": 0,
                "disliked": 0,
                "lol": 0,
                "toxic": 0,
                "saved": 0,
                "comments": 0
            }
        },
        {
            "kind": "news",
            "domain": "@0xSnailMoon",
            "source": {
                "title": "SnailMoon Twitter",
                "region": "en",
                "domain": "twitter.com",
                "path": "@0xsnailmoon"
            },
            "title": "RT @0xSnailMoon: The Shelly Night by Vincent van SnailMoon",
            "published_at": "2023-07-10T22:27:52Z",
            "slug": "RT-0xSnailMoon-The-Shelly-Night-by-Vincent-van-SnailMoon",
            "currencies": [
                {
                    "code": "SNM",
                    "title": "SnailMoon",
                    "slug": "snailmoon",
                    "url": "https:\/\/cryptopanic.com\/news\/snailmoon\/"
                }
            ],
            "id": 18758889,
            "url": "https:\/\/cryptopanic.com\/news\/18758889\/RT-0xSnailMoon-The-Shelly-Night-by-Vincent-van-SnailMoon",
            "created_at": "2023-07-10T22:27:52Z",
            "votes": {
                "negative": 0,
                "positive": 0,
                "important": 0,
                "liked": 0,
                "disliked": 0,
                "lol": 0,
                "toxic": 0,
                "saved": 0,
                "comments": 0
            }
        },
        {
            "kind": "news",
            "domain": "@0xSnailMoon",
            "source": {
                "title": "SnailMoon Twitter",
                "region": "en",
                "domain": "twitter.com",
                "path": "@0xsnailmoon"
            },
            "title": "Hunter Biden Caught Trading Meme Coins High On Crack In White House Bathroom",
            "published_at": "2023-07-10T21:01:21Z",
            "slug": "Hunter-Biden-Caught-Trading-Meme-Coins-High-On-Crack-In-White-House-Bathroom",
            "currencies": [
                {
                    "code": "SNM",
                    "title": "SnailMoon",
                    "slug": "snailmoon",
                    "url": "https:\/\/cryptopanic.com\/news\/snailmoon\/"
                }
            ],
            "id": 18758890,
            "url": "https:\/\/cryptopanic.com\/news\/18758890\/Hunter-Biden-Caught-Trading-Meme-Coins-High-On-Crack-In-White-House-Bathroom",
            "created_at": "2023-07-10T21:01:21Z",
            "votes": {
                "negative": 0,
                "positive": 0,
                "important": 0,
                "liked": 0,
                "disliked": 0,
                "lol": 0,
                "toxic": 0,
                "saved": 0,
                "comments": 0
            }
        },
        {
            "kind": "news",
            "domain": "@0xSnailMoon",
            "source": {
                "title": "SnailMoon Twitter",
                "region": "en",
                "domain": "twitter.com",
                "path": "@0xsnailmoon"
            },
            "title": "RT @0xSnailMoon: Wise words from @brian_armstrong.",
            "published_at": "2023-07-10T00:12:44Z",
            "slug": "RT-0xSnailMoon-Wise-words-from-brian_armstrong",
            "currencies": [
                {
                    "code": "SNM",
                    "title": "SnailMoon",
                    "slug": "snailmoon",
                    "url": "https:\/\/cryptopanic.com\/news\/snailmoon\/"
                }
            ],
            "id": 18751420,
            "url": "https:\/\/cryptopanic.com\/news\/18751420\/RT-0xSnailMoon-Wise-words-from-brian_armstrong",
            "created_at": "2023-07-10T00:12:44Z",
            "votes": {
                "negative": 0,
                "positive": 0,
                "important": 0,
                "liked": 0,
                "disliked": 0,
                "lol": 0,
                "toxic": 0,
                "saved": 0,
                "comments": 0
            }
        },
        {
            "kind": "news",
            "domain": "@0xSnailMoon",
            "source": {
                "title": "SnailMoon Twitter",
                "region": "en",
                "domain": "twitter.com",
                "path": "@0xsnailmoon"
            },
            "title": "Tesla Adds 2nd Display For Shitcoin Trading",
            "published_at": "2023-07-09T18:58:56Z",
            "slug": "Tesla-Adds-2nd-Display-For-Shitcoin-Trading",
            "currencies": [
                {
                    "code": "SNM",
                    "title": "SnailMoon",
                    "slug": "snailmoon",
                    "url": "https:\/\/cryptopanic.com\/news\/snailmoon\/"
                }
            ],
            "id": 18751421,
            "url": "https:\/\/cryptopanic.com\/news\/18751421\/Tesla-Adds-2nd-Display-For-Shitcoin-Trading",
            "created_at": "2023-07-09T18:58:56Z",
            "votes": {
                "negative": 0,
                "positive": 0,
                "important": 0,
                "liked": 0,
                "disliked": 0,
                "lol": 0,
                "toxic": 0,
                "saved": 0,
                "comments": 0
            }
        },
        {
            "kind": "news",
            "domain": "@0xSnailMoon",
            "source": {
                "title": "SnailMoon Twitter",
                "region": "en",
                "domain": "twitter.com",
                "path": "@0xsnailmoon"
            },
            "title": "Hope everyone is having a relaxing Sunday. #SnailMoon",
            "published_at": "2023-07-09T13:03:13Z",
            "slug": "Hope-everyone-is-having-a-relaxing-Sunday-SnailMoon",
            "currencies": [
                {
                    "code": "SNM",
                    "title": "SnailMoon",
                    "slug": "snailmoon",
                    "url": "https:\/\/cryptopanic.com\/news\/snailmoon\/"
                }
            ],
            "id": 18751422,
            "url": "https:\/\/cryptopanic.com\/news\/18751422\/Hope-everyone-is-having-a-relaxing-Sunday-SnailMoon",
            "created_at": "2023-07-09T13:03:13Z",
            "votes": {
                "negative": 0,
                "positive": 0,
                "important": 0,
                "liked": 0,
                "disliked": 0,
                "lol": 0,
                "toxic": 0,
                "saved": 0,
                "comments": 0
            }
        },
        {
            "kind": "news",
            "domain": "@0xSnailMoon",
            "source": {
                "title": "SnailMoon Twitter",
                "region": "en",
                "domain": "twitter.com",
                "path": "@0xsnailmoon"
            },
            "title": "RT @0xSnailMoon: Nigerian Prince Still Holding 10,000 Eth Because Nobody Will Reply To His Email",
            "published_at": "2023-07-09T00:20:30Z",
            "slug": "RT-0xSnailMoon-Nigerian-Prince-Still-Holding-10000-Eth-Because-Nobody-Will-Reply-To-His-Email",
            "currencies": [
                {
                    "code": "SNM",
                    "title": "SnailMoon",
                    "slug": "snailmoon",
                    "url": "https:\/\/cryptopanic.com\/news\/snailmoon\/"
                }
            ],
            "id": 18746902,
            "url": "https:\/\/cryptopanic.com\/news\/18746902\/RT-0xSnailMoon-Nigerian-Prince-Still-Holding-10000-Eth-Because-Nobody-Will-Reply-To-His-Email",
            "created_at": "2023-07-09T00:20:30Z",
            "votes": {
                "negative": 0,
                "positive": 0,
                "important": 0,
                "liked": 0,
                "disliked": 0,
                "lol": 0,
                "toxic": 0,
                "saved": 0,
                "comments": 0
            }
        },
        {
            "kind": "news",
            "domain": "@0xSnailMoon",
            "source": {
                "title": "SnailMoon Twitter",
                "region": "en",
                "domain": "twitter.com",
                "path": "@0xsnailmoon"
            },
            "title": "Lizard People Association Distances Itself From Zuckerberg After Twitter Lawsuit",
            "published_at": "2023-07-08T16:09:38Z",
            "slug": "Lizard-People-Association-Distances-Itself-From-Zuckerberg-After-Twitter-Lawsuit",
            "currencies": [
                {
                    "code": "SNM",
                    "title": "SnailMoon",
                    "slug": "snailmoon",
                    "url": "https:\/\/cryptopanic.com\/news\/snailmoon\/"
                }
            ],
            "id": 18746903,
            "url": "https:\/\/cryptopanic.com\/news\/18746903\/Lizard-People-Association-Distances-Itself-From-Zuckerberg-After-Twitter-Lawsuit",
            "created_at": "2023-07-08T16:09:38Z",
            "votes": {
                "negative": 0,
                "positive": 0,
                "important": 0,
                "liked": 0,
                "disliked": 0,
                "lol": 0,
                "toxic": 0,
                "saved": 0,
                "comments": 0
            }
        },
        {
            "kind": "news",
            "domain": "@0xSnailMoon",
            "source": {
                "title": "SnailMoon Twitter",
                "region": "en",
                "domain": "twitter.com",
                "path": "@0xsnailmoon"
            },
            "title": "Gm \n\n#Binance liked our reply on the app that shall not be named. They must know we're the proud owners of\u2026",
            "published_at": "2023-07-08T10:07:42Z",
            "slug": "Gm-Binance-liked-our-reply-on-the-app-that-shall-not-be-named-They-must-know-were-the-proud-owners-of",
            "currencies": [
                {
                    "code": "SNM",
                    "title": "SnailMoon",
                    "slug": "snailmoon",
                    "url": "https:\/\/cryptopanic.com\/news\/snailmoon\/"
                }
            ],
            "id": 18746905,
            "url": "https:\/\/cryptopanic.com\/news\/18746905\/Gm-Binance-liked-our-reply-on-the-app-that-shall-not-be-named-They-must-know-were-the-proud-owners-of",
            "created_at": "2023-07-08T10:07:42Z",
            "votes": {
                "negative": 0,
                "positive": 0,
                "important": 0,
                "liked": 0,
                "disliked": 0,
                "lol": 0,
                "toxic": 0,
                "saved": 0,
                "comments": 0
            }
        },
        {
            "kind": "news",
            "domain": "@0xSnailMoon",
            "source": {
                "title": "SnailMoon Twitter",
                "region": "en",
                "domain": "twitter.com",
                "path": "@0xsnailmoon"
            },
            "title": "RT @0xSnailMoon: New FBI Desensitization Training Involves Trading Meme Coins For 2 Weeks",
            "published_at": "2023-07-07T22:26:11Z",
            "slug": "RT-0xSnailMoon-New-FBI-Desensitization-Training-Involves-Trading-Meme-Coins-For-2-Weeks",
            "currencies": [
                {
                    "code": "SNM",
                    "title": "SnailMoon",
                    "slug": "snailmoon",
                    "url": "https:\/\/cryptopanic.com\/news\/snailmoon\/"
                }
            ],
            "id": 18742492,
            "url": "https:\/\/cryptopanic.com\/news\/18742492\/RT-0xSnailMoon-New-FBI-Desensitization-Training-Involves-Trading-Meme-Coins-For-2-Weeks",
            "created_at": "2023-07-07T22:26:11Z",
            "votes": {
                "negative": 0,
                "positive": 0,
                "important": 0,
                "liked": 0,
                "disliked": 0,
                "lol": 0,
                "toxic": 0,
                "saved": 0,
                "comments": 0
            }
        },
        {
            "kind": "news",
            "domain": "@0xSnailMoon",
            "source": {
                "title": "SnailMoon Twitter",
                "region": "en",
                "domain": "twitter.com",
                "path": "@0xsnailmoon"
            },
            "title": "Report: 96% Of Threads Users Can't Stop Saying Tweet",
            "published_at": "2023-07-07T16:17:24Z",
            "slug": "Report-96-Of-Threads-Users-Cant-Stop-Saying-Tweet",
            "currencies": [
                {
                    "code": "SNM",
                    "title": "SnailMoon",
                    "slug": "snailmoon",
                    "url": "https:\/\/cryptopanic.com\/news\/snailmoon\/"
                }
            ],
            "id": 18742493,
            "url": "https:\/\/cryptopanic.com\/news\/18742493\/Report-96-Of-Threads-Users-Cant-Stop-Saying-Tweet",
            "created_at": "2023-07-07T16:17:24Z",
            "votes": {
                "negative": 0,
                "positive": 0,
                "important": 0,
                "liked": 0,
                "disliked": 0,
                "lol": 0,
                "toxic": 0,
                "saved": 0,
                "comments": 0
            }
        },
        {
            "kind": "news",
            "domain": "@0xSnailMoon",
            "source": {
                "title": "SnailMoon Twitter",
                "region": "en",
                "domain": "twitter.com",
                "path": "@0xsnailmoon"
            },
            "title": "GM \n\nHere's an image from the archive to start your day.",
            "published_at": "2023-07-07T09:43:43Z",
            "slug": "GM-Heres-an-image-from-the-archive-to-start-your-day",
            "currencies": [
                {
                    "code": "SNM",
                    "title": "SnailMoon",
                    "slug": "snailmoon",
                    "url": "https:\/\/cryptopanic.com\/news\/snailmoon\/"
                }
            ],
            "id": 18742494,
            "url": "https:\/\/cryptopanic.com\/news\/18742494\/GM-Heres-an-image-from-the-archive-to-start-your-day",
            "created_at": "2023-07-07T09:43:43Z",
            "votes": {
                "negative": 0,
                "positive": 0,
                "important": 0,
                "liked": 0,
                "disliked": 0,
                "lol": 0,
                "toxic": 0,
                "saved": 0,
                "comments": 0
            }
        },
        {
            "kind": "news",
            "domain": "@0xSnailMoon",
            "source": {
                "title": "SnailMoon Twitter",
                "region": "en",
                "domain": "twitter.com",
                "path": "@0xsnailmoon"
            },
            "title": "Local Man Can't Be Bothered Using 2 Apps",
            "published_at": "2023-07-06T19:33:02Z",
            "slug": "Local-Man-Cant-Be-Bothered-Using-2-Apps",
            "currencies": [
                {
                    "code": "SNM",
                    "title": "SnailMoon",
                    "slug": "snailmoon",
                    "url": "https:\/\/cryptopanic.com\/news\/snailmoon\/"
                }
            ],
            "id": 18735282,
            "url": "https:\/\/cryptopanic.com\/news\/18735282\/Local-Man-Cant-Be-Bothered-Using-2-Apps",
            "created_at": "2023-07-06T19:33:02Z",
            "votes": {
                "negative": 0,
                "positive": 0,
                "important": 0,
                "liked": 0,
                "disliked": 0,
                "lol": 0,
                "toxic": 0,
                "saved": 0,
                "comments": 0
            }
        },
        {
            "kind": "news",
            "domain": "@0xSnailMoon",
            "source": {
                "title": "SnailMoon Twitter",
                "region": "en",
                "domain": "twitter.com",
                "path": "@0xsnailmoon"
            },
            "title": "RT @0xSnailMoon: Doctor Discovers Simple Trick To Cure Crippling Crypto Depression",
            "published_at": "2023-07-06T15:57:41Z",
            "slug": "RT-0xSnailMoon-Doctor-Discovers-Simple-Trick-To-Cure-Crippling-Crypto-Depression",
            "currencies": [
                {
                    "code": "SNM",
                    "title": "SnailMoon",
                    "slug": "snailmoon",
                    "url": "https:\/\/cryptopanic.com\/news\/snailmoon\/"
                }
            ],
            "id": 18735283,
            "url": "https:\/\/cryptopanic.com\/news\/18735283\/RT-0xSnailMoon-Doctor-Discovers-Simple-Trick-To-Cure-Crippling-Crypto-Depression",
            "created_at": "2023-07-06T15:57:41Z",
            "votes": {
                "negative": 0,
                "positive": 0,
                "important": 0,
                "liked": 0,
                "disliked": 0,
                "lol": 0,
                "toxic": 0,
                "saved": 0,
                "comments": 0
            }
        },
        {
            "kind": "news",
            "domain": "@0xSnailMoon",
            "source": {
                "title": "SnailMoon Twitter",
                "region": "en",
                "domain": "twitter.com",
                "path": "@0xsnailmoon"
            },
            "title": "Gm everyone, we have made an account on that other app. @0xSnailMoon if you can find us without a link. ",
            "published_at": "2023-07-06T09:41:42Z",
            "slug": "Gm-everyone-we-have-made-an-account-on-that-other-app-0xSnailMoon-if-you-can-find-us-without-a-link",
            "currencies": [
                {
                    "code": "SNM",
                    "title": "SnailMoon",
                    "slug": "snailmoon",
                    "url": "https:\/\/cryptopanic.com\/news\/snailmoon\/"
                }
            ],
            "id": 18735284,
            "url": "https:\/\/cryptopanic.com\/news\/18735284\/Gm-everyone-we-have-made-an-account-on-that-other-app-0xSnailMoon-if-you-can-find-us-without-a-link",
            "created_at": "2023-07-06T09:41:42Z",
            "votes": {
                "negative": 0,
                "positive": 0,
                "important": 0,
                "liked": 0,
                "disliked": 0,
                "lol": 0,
                "toxic": 0,
                "saved": 0,
                "comments": 0
            }
        },
        {
            "kind": "news",
            "domain": "@0xSnailMoon",
            "source": {
                "title": "SnailMoon Twitter",
                "region": "en",
                "domain": "twitter.com",
                "path": "@0xsnailmoon"
            },
            "title": "JUST IN: Crypto Whale Group Wiped Out By Japanese Fishing Vessel",
            "published_at": "2023-07-05T20:34:36Z",
            "slug": "JUST-IN-Crypto-Whale-Group-Wiped-Out-By-Japanese-Fishing-Vessel",
            "currencies": [
                {
                    "code": "SNM",
                    "title": "SnailMoon",
                    "slug": "snailmoon",
                    "url": "https:\/\/cryptopanic.com\/news\/snailmoon\/"
                }
            ],
            "id": 18726745,
            "url": "https:\/\/cryptopanic.com\/news\/18726745\/JUST-IN-Crypto-Whale-Group-Wiped-Out-By-Japanese-Fishing-Vessel",
            "created_at": "2023-07-05T20:34:36Z",
            "votes": {
                "negative": 0,
                "positive": 0,
                "important": 0,
                "liked": 0,
                "disliked": 0,
                "lol": 0,
                "toxic": 0,
                "saved": 0,
                "comments": 0
            }
        },
        {
            "kind": "news",
            "domain": "@0xSnailMoon",
            "source": {
                "title": "SnailMoon Twitter",
                "region": "en",
                "domain": "twitter.com",
                "path": "@0xsnailmoon"
            },
            "title": "Still relevant.",
            "published_at": "2023-07-05T16:10:34Z",
            "slug": "Still-relevant",
            "currencies": [
                {
                    "code": "SNM",
                    "title": "SnailMoon",
                    "slug": "snailmoon",
                    "url": "https:\/\/cryptopanic.com\/news\/snailmoon\/"
                }
            ],
            "id": 18726746,
            "url": "https:\/\/cryptopanic.com\/news\/18726746\/Still-relevant",
            "created_at": "2023-07-05T16:10:34Z",
            "votes": {
                "negative": 0,
                "positive": 0,
                "important": 0,
                "liked": 0,
                "disliked": 0,
                "lol": 0,
                "toxic": 0,
                "saved": 0,
                "comments": 0
            }
        },
        {
            "kind": "news",
            "domain": "@0xSnailMoon",
            "source": {
                "title": "SnailMoon Twitter",
                "region": "en",
                "domain": "twitter.com",
                "path": "@0xsnailmoon"
            },
            "title": "Gm \n\nHere is a picture of Zuckerberg sitting on a man's head.",
            "published_at": "2023-07-05T09:11:32Z",
            "slug": "Gm-Here-is-a-picture-of-Zuckerberg-sitting-on-a-mans-head",
            "currencies": [
                {
                    "code": "SNM",
                    "title": "SnailMoon",
                    "slug": "snailmoon",
                    "url": "https:\/\/cryptopanic.com\/news\/snailmoon\/"
                }
            ],
            "id": 18718728,
            "url": "https:\/\/cryptopanic.com\/news\/18718728\/Gm-Here-is-a-picture-of-Zuckerberg-sitting-on-a-mans-head",
            "created_at": "2023-07-05T09:11:32Z",
            "votes": {
                "negative": 0,
                "positive": 0,
                "important": 0,
                "liked": 0,
                "disliked": 0,
                "lol": 0,
                "toxic": 0,
                "saved": 0,
                "comments": 0
            }
        }
    ]
}
