{
    "count": 200,
    "next": "https:\/\/cryptopanic.com\/api\/v1\/posts\/?auth_token=01c356e89ffc1b8eba2127c81fc8c66ee0eace75&kind=news&currencies=CITY&page=2",
    "previous": null,
    "results": [
        {
            "kind": "news",
            "domain": "@CitySatoshi",
            "source": {
                "title": "SatoshiCity Twitter",
                "region": "en",
                "domain": "twitter.com",
                "path": "@citysatoshi"
            },
            "title": "Types of traders include the\u00a0fundamental trader, noise trader, and market timer. Each type of trader appeals to inv\u2026",
            "published_at": "2022-10-05T12:00:00Z",
            "slug": "Types-of-traders-include-the-fundamental-trader-noise-trader-and-market-timer-Each-type-of-trader-appeals-to-inv",
            "currencies": [
                {
                    "code": "CITY",
                    "title": "SatoshiCity",
                    "slug": null,
                    "url": "https:\/\/cryptopanic.com\/news\/None\/"
                }
            ],
            "id": 16530494,
            "url": "https:\/\/cryptopanic.com\/news\/16530494\/Types-of-traders-include-the-fundamental-trader-noise-trader-and-market-timer-Each-type-of-trader-appeals-to-inv",
            "created_at": "2022-10-05T12:00:00Z",
            "votes": {
                "negative": 0,
                "positive": 0,
                "important": 0,
                "liked": 0,
                "disliked": 0,
                "lol": 0,
                "toxic": 0,
                "saved": 0,
                "comments": 0
            }
        },
        {
            "kind": "news",
            "domain": "@CitySatoshi",
            "source": {
                "title": "SatoshiCity Twitter",
                "region": "en",
                "domain": "twitter.com",
                "path": "@citysatoshi"
            },
            "title": "Market volatility is the frequency and magnitude of price movements, up or down. The bigger and more frequent the p\u2026",
            "published_at": "2022-09-29T14:20:24Z",
            "slug": "Market-volatility-is-the-frequency-and-magnitude-of-price-movements-up-or-down-The-bigger-and-more-frequent-the-p",
            "currencies": [
                {
                    "code": "CITY",
                    "title": "SatoshiCity",
                    "slug": null,
                    "url": "https:\/\/cryptopanic.com\/news\/None\/"
                }
            ],
            "id": 16478322,
            "url": "https:\/\/cryptopanic.com\/news\/16478322\/Market-volatility-is-the-frequency-and-magnitude-of-price-movements-up-or-down-The-bigger-and-more-frequent-the-p",
            "created_at": "2022-09-29T14:20:24Z",
            "votes": {
                "negative": 0,
                "positive": 0,
                "important": 0,
                "liked": 0,
                "disliked": 0,
                "lol": 0,
                "toxic": 0,
                "saved": 0,
                "comments": 0
            }
        },
        {
            "kind": "news",
            "domain": "@CitySatoshi",
            "source": {
                "title": "SatoshiCity Twitter",
                "region": "en",
                "domain": "twitter.com",
                "path": "@citysatoshi"
            },
            "title": "The research found that\u00a0higher volatility corresponds to a higher probability of a declining market, while lower vo\u2026",
            "published_at": "2022-09-28T15:06:21Z",
            "slug": "The-research-found-that-higher-volatility-corresponds-to-a-higher-probability-of-a-declining-market-while-lower-vo",
            "currencies": [
                {
                    "code": "CITY",
                    "title": "SatoshiCity",
                    "slug": null,
                    "url": "https:\/\/cryptopanic.com\/news\/None\/"
                }
            ],
            "id": 16466780,
            "url": "https:\/\/cryptopanic.com\/news\/16466780\/The-research-found-that-higher-volatility-corresponds-to-a-higher-probability-of-a-declining-market-while-lower-vo",
            "created_at": "2022-09-28T15:06:21Z",
            "votes": {
                "negative": 0,
                "positive": 0,
                "important": 0,
                "liked": 0,
                "disliked": 0,
                "lol": 0,
                "toxic": 0,
                "saved": 0,
                "comments": 0
            }
        },
        {
            "kind": "news",
            "domain": "@CitySatoshi",
            "source": {
                "title": "SatoshiCity Twitter",
                "region": "en",
                "domain": "twitter.com",
                "path": "@citysatoshi"
            },
            "title": "The current spell of\u00a0downslide in the cryptocurrency market, which has been stoked by soaring inflation and the con\u2026",
            "published_at": "2022-09-25T16:45:26Z",
            "slug": "The-current-spell-of-downslide-in-the-cryptocurrency-market-which-has-been-stoked-by-soaring-inflation-and-the-con",
            "currencies": [
                {
                    "code": "CITY",
                    "title": "SatoshiCity",
                    "slug": null,
                    "url": "https:\/\/cryptopanic.com\/news\/None\/"
                }
            ],
            "id": 16434616,
            "url": "https:\/\/cryptopanic.com\/news\/16434616\/The-current-spell-of-downslide-in-the-cryptocurrency-market-which-has-been-stoked-by-soaring-inflation-and-the-con",
            "created_at": "2022-09-25T16:45:26Z",
            "votes": {
                "negative": 0,
                "positive": 0,
                "important": 0,
                "liked": 0,
                "disliked": 0,
                "lol": 0,
                "toxic": 0,
                "saved": 0,
                "comments": 0
            }
        },
        {
            "kind": "news",
            "domain": "@CitySatoshi",
            "source": {
                "title": "SatoshiCity Twitter",
                "region": "en",
                "domain": "twitter.com",
                "path": "@citysatoshi"
            },
            "title": "State Bank of India has asked exporters to avoid settling deals with Bangladesh in the dollar and other major curre\u2026",
            "published_at": "2022-09-22T19:19:09Z",
            "slug": "State-Bank-of-India-has-asked-exporters-to-avoid-settling-deals-with-Bangladesh-in-the-dollar-and-other-major-curre",
            "currencies": [
                {
                    "code": "CITY",
                    "title": "SatoshiCity",
                    "slug": null,
                    "url": "https:\/\/cryptopanic.com\/news\/None\/"
                }
            ],
            "id": 16412043,
            "url": "https:\/\/cryptopanic.com\/news\/16412043\/State-Bank-of-India-has-asked-exporters-to-avoid-settling-deals-with-Bangladesh-in-the-dollar-and-other-major-curre",
            "created_at": "2022-09-22T19:19:09Z",
            "votes": {
                "negative": 0,
                "positive": 0,
                "important": 0,
                "liked": 0,
                "disliked": 0,
                "lol": 0,
                "toxic": 0,
                "saved": 0,
                "comments": 0
            }
        },
        {
            "kind": "news",
            "domain": "@CitySatoshi",
            "source": {
                "title": "SatoshiCity Twitter",
                "region": "en",
                "domain": "twitter.com",
                "path": "@citysatoshi"
            },
            "title": "India has initiated talks with Saudi Arabia for rupee-riyal trade even as the oil-rich West Asian nation is committ\u2026",
            "published_at": "2022-09-20T16:40:16Z",
            "slug": "India-has-initiated-talks-with-Saudi-Arabia-for-rupee-riyal-trade-even-as-the-oil-rich-West-Asian-nation-is-committ",
            "currencies": [
                {
                    "code": "CITY",
                    "title": "SatoshiCity",
                    "slug": null,
                    "url": "https:\/\/cryptopanic.com\/news\/None\/"
                }
            ],
            "id": 16390746,
            "url": "https:\/\/cryptopanic.com\/news\/16390746\/India-has-initiated-talks-with-Saudi-Arabia-for-rupee-riyal-trade-even-as-the-oil-rich-West-Asian-nation-is-committ",
            "created_at": "2022-09-20T16:40:16Z",
            "votes": {
                "negative": 0,
                "positive": 0,
                "important": 0,
                "liked": 0,
                "disliked": 0,
                "lol": 0,
                "toxic": 0,
                "saved": 0,
                "comments": 0
            }
        },
        {
            "kind": "news",
            "domain": "@CitySatoshi",
            "source": {
                "title": "SatoshiCity Twitter",
                "region": "en",
                "domain": "twitter.com",
                "path": "@citysatoshi"
            },
            "title": "RiskGrades (RG) is\u00a0a trademarked method for calculating the risk of an asset. RiskGrades is a standardized measure\u2026",
            "published_at": "2022-09-19T18:42:59Z",
            "slug": "RiskGrades-RG-is-a-trademarked-method-for-calculating-the-risk-of-an-asset-RiskGrades-is-a-standardized-measure",
            "currencies": [
                {
                    "code": "CITY",
                    "title": "SatoshiCity",
                    "slug": null,
                    "url": "https:\/\/cryptopanic.com\/news\/None\/"
                }
            ],
            "id": 16379996,
            "url": "https:\/\/cryptopanic.com\/news\/16379996\/RiskGrades-RG-is-a-trademarked-method-for-calculating-the-risk-of-an-asset-RiskGrades-is-a-standardized-measure",
            "created_at": "2022-09-19T18:42:59Z",
            "votes": {
                "negative": 0,
                "positive": 0,
                "important": 0,
                "liked": 0,
                "disliked": 0,
                "lol": 0,
                "toxic": 0,
                "saved": 0,
                "comments": 0
            }
        },
        {
            "kind": "news",
            "domain": "@CitySatoshi",
            "source": {
                "title": "SatoshiCity Twitter",
                "region": "en",
                "domain": "twitter.com",
                "path": "@citysatoshi"
            },
            "title": "Trade refers to\u00a0the voluntary exchange of goods or services between economic actors. Since transactions are consens\u2026",
            "published_at": "2022-09-18T18:01:37Z",
            "slug": "Trade-refers-to-the-voluntary-exchange-of-goods-or-services-between-economic-actors-Since-transactions-are-consens",
            "currencies": [
                {
                    "code": "CITY",
                    "title": "SatoshiCity",
                    "slug": null,
                    "url": "https:\/\/cryptopanic.com\/news\/None\/"
                }
            ],
            "id": 16370544,
            "url": "https:\/\/cryptopanic.com\/news\/16370544\/Trade-refers-to-the-voluntary-exchange-of-goods-or-services-between-economic-actors-Since-transactions-are-consens",
            "created_at": "2022-09-18T18:01:37Z",
            "votes": {
                "negative": 0,
                "positive": 0,
                "important": 0,
                "liked": 0,
                "disliked": 0,
                "lol": 0,
                "toxic": 0,
                "saved": 0,
                "comments": 0
            }
        },
        {
            "kind": "news",
            "domain": "@CitySatoshi",
            "source": {
                "title": "SatoshiCity Twitter",
                "region": "en",
                "domain": "twitter.com",
                "path": "@citysatoshi"
            },
            "title": "The spread refers to\u00a0the difference between two prices, rates, or yields. In one of the most common definitions, th\u2026",
            "published_at": "2022-09-17T15:45:16Z",
            "slug": "The-spread-refers-to-the-difference-between-two-prices-rates-or-yields-In-one-of-the-most-common-definitions-th",
            "currencies": [
                {
                    "code": "CITY",
                    "title": "SatoshiCity",
                    "slug": null,
                    "url": "https:\/\/cryptopanic.com\/news\/None\/"
                }
            ],
            "id": 16363742,
            "url": "https:\/\/cryptopanic.com\/news\/16363742\/The-spread-refers-to-the-difference-between-two-prices-rates-or-yields-In-one-of-the-most-common-definitions-th",
            "created_at": "2022-09-17T15:45:16Z",
            "votes": {
                "negative": 0,
                "positive": 0,
                "important": 0,
                "liked": 0,
                "disliked": 0,
                "lol": 0,
                "toxic": 0,
                "saved": 0,
                "comments": 0
            }
        },
        {
            "kind": "news",
            "domain": "@CitySatoshi",
            "source": {
                "title": "SatoshiCity Twitter",
                "region": "en",
                "domain": "twitter.com",
                "path": "@citysatoshi"
            },
            "title": "Day trader refers to the\u00a0market operator who indulges in day trading. A day trader buys and subsequently sells fina\u2026",
            "published_at": "2022-09-16T20:08:04Z",
            "slug": "Day-trader-refers-to-the-market-operator-who-indulges-in-day-trading-A-day-trader-buys-and-subsequently-sells-fina",
            "currencies": [
                {
                    "code": "CITY",
                    "title": "SatoshiCity",
                    "slug": null,
                    "url": "https:\/\/cryptopanic.com\/news\/None\/"
                }
            ],
            "id": 16357480,
            "url": "https:\/\/cryptopanic.com\/news\/16357480\/Day-trader-refers-to-the-market-operator-who-indulges-in-day-trading-A-day-trader-buys-and-subsequently-sells-fina",
            "created_at": "2022-09-16T20:08:04Z",
            "votes": {
                "negative": 0,
                "positive": 0,
                "important": 0,
                "liked": 0,
                "disliked": 0,
                "lol": 0,
                "toxic": 0,
                "saved": 0,
                "comments": 0
            }
        },
        {
            "kind": "news",
            "domain": "@CitySatoshi",
            "source": {
                "title": "SatoshiCity Twitter",
                "region": "en",
                "domain": "twitter.com",
                "path": "@citysatoshi"
            },
            "title": "While day trading is\u00a0neither illegal\u00a0nor is it unethical, it can be highly risky. Most individual investors do not\u2026",
            "published_at": "2022-09-15T18:16:47Z",
            "slug": "While-day-trading-is-neither-illegal-nor-is-it-unethical-it-can-be-highly-risky-Most-individual-investors-do-not",
            "currencies": [
                {
                    "code": "CITY",
                    "title": "SatoshiCity",
                    "slug": null,
                    "url": "https:\/\/cryptopanic.com\/news\/None\/"
                }
            ],
            "id": 16348145,
            "url": "https:\/\/cryptopanic.com\/news\/16348145\/While-day-trading-is-neither-illegal-nor-is-it-unethical-it-can-be-highly-risky-Most-individual-investors-do-not",
            "created_at": "2022-09-15T18:16:47Z",
            "votes": {
                "negative": 0,
                "positive": 0,
                "important": 0,
                "liked": 0,
                "disliked": 0,
                "lol": 0,
                "toxic": 0,
                "saved": 0,
                "comments": 0
            }
        },
        {
            "kind": "news",
            "domain": "@CitySatoshi",
            "source": {
                "title": "SatoshiCity Twitter",
                "region": "en",
                "domain": "twitter.com",
                "path": "@citysatoshi"
            },
            "title": "Description.\u00a0After rallying up the right side of its base, price begins to correct\u00a0(curl), but finds support when i\u2026",
            "published_at": "2022-09-14T13:38:45Z",
            "slug": "Description-After-rallying-up-the-right-side-of-its-base-price-begins-to-correct-curl-but-finds-support-when-i",
            "currencies": [
                {
                    "code": "CITY",
                    "title": "SatoshiCity",
                    "slug": null,
                    "url": "https:\/\/cryptopanic.com\/news\/None\/"
                }
            ],
            "id": 16336640,
            "url": "https:\/\/cryptopanic.com\/news\/16336640\/Description-After-rallying-up-the-right-side-of-its-base-price-begins-to-correct-curl-but-finds-support-when-i",
            "created_at": "2022-09-14T13:38:45Z",
            "votes": {
                "negative": 0,
                "positive": 0,
                "important": 0,
                "liked": 0,
                "disliked": 0,
                "lol": 0,
                "toxic": 0,
                "saved": 0,
                "comments": 0
            }
        },
        {
            "kind": "news",
            "domain": "@CitySatoshi",
            "source": {
                "title": "SatoshiCity Twitter",
                "region": "en",
                "domain": "twitter.com",
                "path": "@citysatoshi"
            },
            "title": "Trading is\u00a0the buying and selling of financial instruments in order to make a profit. These instruments range from\u2026",
            "published_at": "2022-09-13T17:30:52Z",
            "slug": "Trading-is-the-buying-and-selling-of-financial-instruments-in-order-to-make-a-profit-These-instruments-range-from",
            "currencies": [
                {
                    "code": "CITY",
                    "title": "SatoshiCity",
                    "slug": null,
                    "url": "https:\/\/cryptopanic.com\/news\/None\/"
                }
            ],
            "id": 16325263,
            "url": "https:\/\/cryptopanic.com\/news\/16325263\/Trading-is-the-buying-and-selling-of-financial-instruments-in-order-to-make-a-profit-These-instruments-range-from",
            "created_at": "2022-09-13T17:30:52Z",
            "votes": {
                "negative": 0,
                "positive": 0,
                "important": 0,
                "liked": 0,
                "disliked": 0,
                "lol": 0,
                "toxic": 0,
                "saved": 0,
                "comments": 0
            }
        },
        {
            "kind": "news",
            "domain": "@CitySatoshi",
            "source": {
                "title": "SatoshiCity Twitter",
                "region": "en",
                "domain": "twitter.com",
                "path": "@citysatoshi"
            },
            "title": "When you are trading for the first time, take only 10% risk of the total amount available for the trading. Risk Hai\u2026",
            "published_at": "2022-09-12T16:55:34Z",
            "slug": "When-you-are-trading-for-the-first-time-take-only-10-risk-of-the-total-amount-available-for-the-trading-Risk-Hai",
            "currencies": [
                {
                    "code": "CITY",
                    "title": "SatoshiCity",
                    "slug": null,
                    "url": "https:\/\/cryptopanic.com\/news\/None\/"
                }
            ],
            "id": 16314310,
            "url": "https:\/\/cryptopanic.com\/news\/16314310\/When-you-are-trading-for-the-first-time-take-only-10-risk-of-the-total-amount-available-for-the-trading-Risk-Hai",
            "created_at": "2022-09-12T16:55:34Z",
            "votes": {
                "negative": 0,
                "positive": 0,
                "important": 0,
                "liked": 0,
                "disliked": 0,
                "lol": 0,
                "toxic": 0,
                "saved": 0,
                "comments": 0
            }
        },
        {
            "kind": "news",
            "domain": "@CitySatoshi",
            "source": {
                "title": "SatoshiCity Twitter",
                "region": "en",
                "domain": "twitter.com",
                "path": "@citysatoshi"
            },
            "title": "Nifty50 on Tuesday settled higher for the third straight day. It formed a bullish candle on the daily chart and acc\u2026",
            "published_at": "2022-09-11T10:50:24Z",
            "slug": "Nifty50-on-Tuesday-settled-higher-for-the-third-straight-day-It-formed-a-bullish-candle-on-the-daily-chart-and-acc",
            "currencies": [
                {
                    "code": "CITY",
                    "title": "SatoshiCity",
                    "slug": null,
                    "url": "https:\/\/cryptopanic.com\/news\/None\/"
                }
            ],
            "id": 16304098,
            "url": "https:\/\/cryptopanic.com\/news\/16304098\/Nifty50-on-Tuesday-settled-higher-for-the-third-straight-day-It-formed-a-bullish-candle-on-the-daily-chart-and-acc",
            "created_at": "2022-09-11T10:50:24Z",
            "votes": {
                "negative": 0,
                "positive": 0,
                "important": 0,
                "liked": 0,
                "disliked": 0,
                "lol": 0,
                "toxic": 0,
                "saved": 0,
                "comments": 0
            }
        },
        {
            "kind": "news",
            "domain": "@CitySatoshi",
            "source": {
                "title": "SatoshiCity Twitter",
                "region": "en",
                "domain": "twitter.com",
                "path": "@citysatoshi"
            },
            "title": "Options trading\u00a0is regarded as one of the safest forms of investments given the fact that you are given the freedom\u2026",
            "published_at": "2022-09-09T14:54:56Z",
            "slug": "Options-trading-is-regarded-as-one-of-the-safest-forms-of-investments-given-the-fact-that-you-are-given-the-freedom",
            "currencies": [
                {
                    "code": "CITY",
                    "title": "SatoshiCity",
                    "slug": null,
                    "url": "https:\/\/cryptopanic.com\/news\/None\/"
                }
            ],
            "id": 16291631,
            "url": "https:\/\/cryptopanic.com\/news\/16291631\/Options-trading-is-regarded-as-one-of-the-safest-forms-of-investments-given-the-fact-that-you-are-given-the-freedom",
            "created_at": "2022-09-09T14:54:56Z",
            "votes": {
                "negative": 0,
                "positive": 0,
                "important": 0,
                "liked": 0,
                "disliked": 0,
                "lol": 0,
                "toxic": 0,
                "saved": 0,
                "comments": 0
            }
        },
        {
            "kind": "news",
            "domain": "@CitySatoshi",
            "source": {
                "title": "SatoshiCity Twitter",
                "region": "en",
                "domain": "twitter.com",
                "path": "@citysatoshi"
            },
            "title": "The safest and most profitable form of financial market trades is trading in\u00a0companies stocks. Making trades in sto\u2026",
            "published_at": "2022-09-08T04:24:08Z",
            "slug": "The-safest-and-most-profitable-form-of-financial-market-trades-is-trading-in-companies-stocks-Making-trades-in-sto",
            "currencies": [
                {
                    "code": "CITY",
                    "title": "SatoshiCity",
                    "slug": null,
                    "url": "https:\/\/cryptopanic.com\/news\/None\/"
                }
            ],
            "id": 16271069,
            "url": "https:\/\/cryptopanic.com\/news\/16271069\/The-safest-and-most-profitable-form-of-financial-market-trades-is-trading-in-companies-stocks-Making-trades-in-sto",
            "created_at": "2022-09-08T04:24:08Z",
            "votes": {
                "negative": 0,
                "positive": 0,
                "important": 0,
                "liked": 0,
                "disliked": 0,
                "lol": 0,
                "toxic": 0,
                "saved": 0,
                "comments": 0
            }
        },
        {
            "kind": "news",
            "domain": "@CitySatoshi",
            "source": {
                "title": "SatoshiCity Twitter",
                "region": "en",
                "domain": "twitter.com",
                "path": "@citysatoshi"
            },
            "title": "Stocks.\n\nBonds.\n\nMutual Funds and ETFs.\n\nBank Products\n\n#trading #Investment #investor #invest #investments",
            "published_at": "2022-09-06T13:13:27Z",
            "slug": "Stocks-Bonds-Mutual-Funds-and-ETFs-Bank-Products-trading-Investment-investor-invest-investments",
            "currencies": [
                {
                    "code": "CITY",
                    "title": "SatoshiCity",
                    "slug": null,
                    "url": "https:\/\/cryptopanic.com\/news\/None\/"
                }
            ],
            "id": 16260751,
            "url": "https:\/\/cryptopanic.com\/news\/16260751\/Stocks-Bonds-Mutual-Funds-and-ETFs-Bank-Products-trading-Investment-investor-invest-investments",
            "created_at": "2022-09-06T13:13:27Z",
            "votes": {
                "negative": 0,
                "positive": 0,
                "important": 0,
                "liked": 0,
                "disliked": 0,
                "lol": 0,
                "toxic": 0,
                "saved": 0,
                "comments": 0
            }
        },
        {
            "kind": "news",
            "domain": "@CitySatoshi",
            "source": {
                "title": "SatoshiCity Twitter",
                "region": "en",
                "domain": "twitter.com",
                "path": "@citysatoshi"
            },
            "title": "Do you know all types of trading styles?",
            "published_at": "2022-09-04T14:28:54Z",
            "slug": "Do-you-know-all-types-of-trading-styles",
            "currencies": [
                {
                    "code": "CITY",
                    "title": "SatoshiCity",
                    "slug": null,
                    "url": "https:\/\/cryptopanic.com\/news\/None\/"
                }
            ],
            "id": 16241451,
            "url": "https:\/\/cryptopanic.com\/news\/16241451\/Do-you-know-all-types-of-trading-styles",
            "created_at": "2022-09-04T14:28:54Z",
            "votes": {
                "negative": 0,
                "positive": 0,
                "important": 0,
                "liked": 0,
                "disliked": 0,
                "lol": 0,
                "toxic": 0,
                "saved": 0,
                "comments": 0
            }
        },
        {
            "kind": "news",
            "domain": "@CitySatoshi",
            "source": {
                "title": "SatoshiCity Twitter",
                "region": "en",
                "domain": "twitter.com",
                "path": "@citysatoshi"
            },
            "title": "There are five main types of trading available to technical traders:\u00a0scalping, day trading, momentum trading, swing\u2026",
            "published_at": "2022-09-02T06:07:04Z",
            "slug": "There-are-five-main-types-of-trading-available-to-technical-traders-scalping-day-trading-momentum-trading-swing",
            "currencies": [
                {
                    "code": "CITY",
                    "title": "SatoshiCity",
                    "slug": null,
                    "url": "https:\/\/cryptopanic.com\/news\/None\/"
                }
            ],
            "id": 16219916,
            "url": "https:\/\/cryptopanic.com\/news\/16219916\/There-are-five-main-types-of-trading-available-to-technical-traders-scalping-day-trading-momentum-trading-swing",
            "created_at": "2022-09-02T06:07:04Z",
            "votes": {
                "negative": 0,
                "positive": 0,
                "important": 0,
                "liked": 0,
                "disliked": 0,
                "lol": 0,
                "toxic": 0,
                "saved": 0,
                "comments": 0
            }
        }
    ]
}
