{
    "count": 200,
    "next": "https:\/\/cryptopanic.com\/api\/v1\/posts\/?auth_token=01c356e89ffc1b8eba2127c81fc8c66ee0eace75&kind=news&currencies=KEY&page=2",
    "previous": null,
    "results": [
        {
            "kind": "news",
            "domain": "@keyswap_dex",
            "source": {
                "title": "KeySwap Twitter",
                "region": "en",
                "domain": "twitter.com",
                "path": "@keyswap_dex"
            },
            "title": "RT @Reel_Token: We always believe in transparency and will continue to do so. \n\nThank you #ReelStars for understanding! \n\n#ReelToken #REEL\u2026",
            "published_at": "2023-04-01T04:49:02Z",
            "slug": "RT-Reel_Token-We-always-believe-in-transparency-and-will-continue-to-do-so-Thank-you-ReelStars-for-understanding-ReelToken-REEL",
            "currencies": [
                {
                    "code": "KEY",
                    "title": "KeySwap",
                    "slug": null,
                    "url": "https:\/\/cryptopanic.com\/news\/None\/"
                }
            ],
            "id": 18013664,
            "url": "https:\/\/cryptopanic.com\/news\/18013664\/RT-Reel_Token-We-always-believe-in-transparency-and-will-continue-to-do-so-Thank-you-ReelStars-for-understanding-ReelToken-REEL",
            "created_at": "2023-04-01T04:49:02Z",
            "votes": {
                "negative": 0,
                "positive": 0,
                "important": 0,
                "liked": 0,
                "disliked": 0,
                "lol": 0,
                "toxic": 0,
                "saved": 0,
                "comments": 0
            }
        },
        {
            "kind": "news",
            "domain": "@keyswap_dex",
            "source": {
                "title": "KeySwap Twitter",
                "region": "en",
                "domain": "twitter.com",
                "path": "@keyswap_dex"
            },
            "title": "RT @Reel_Token: $REELT On #Gateio is also official! \n\nTrading starts at \u23f0 8:30am UTC. \n\nVisit the link below \n\n#ReelTokenListing #ReelSta\u2026",
            "published_at": "2023-03-23T05:51:28Z",
            "slug": "RT-Reel_Token-REELT-On-Gateio-is-also-official-Trading-starts-at-830am-UTC-Visit-the-link-below-ReelTokenListing-ReelSta",
            "currencies": [
                {
                    "code": "KEY",
                    "title": "KeySwap",
                    "slug": null,
                    "url": "https:\/\/cryptopanic.com\/news\/None\/"
                }
            ],
            "id": 17943531,
            "url": "https:\/\/cryptopanic.com\/news\/17943531\/RT-Reel_Token-REELT-On-Gateio-is-also-official-Trading-starts-at-830am-UTC-Visit-the-link-below-ReelTokenListing-ReelSta",
            "created_at": "2023-03-23T05:51:28Z",
            "votes": {
                "negative": 0,
                "positive": 0,
                "important": 0,
                "liked": 0,
                "disliked": 0,
                "lol": 0,
                "toxic": 0,
                "saved": 0,
                "comments": 0
            }
        },
        {
            "kind": "news",
            "domain": "@keyswap_dex",
            "source": {
                "title": "KeySwap Twitter",
                "region": "en",
                "domain": "twitter.com",
                "path": "@keyswap_dex"
            },
            "title": "RT @Reel_Token: Keep it coming ReelStars! \ufe0f\u200d\ufe0f\u200d\n\n#ReelTokenListing is trending Top #1!!!",
            "published_at": "2023-03-22T11:56:49Z",
            "slug": "RT-Reel_Token-Keep-it-coming-ReelStars-ReelTokenListing-is-trending-Top-1",
            "currencies": [
                {
                    "code": "KEY",
                    "title": "KeySwap",
                    "slug": null,
                    "url": "https:\/\/cryptopanic.com\/news\/None\/"
                }
            ],
            "id": 17943532,
            "url": "https:\/\/cryptopanic.com\/news\/17943532\/RT-Reel_Token-Keep-it-coming-ReelStars-ReelTokenListing-is-trending-Top-1",
            "created_at": "2023-03-22T11:56:49Z",
            "votes": {
                "negative": 0,
                "positive": 0,
                "important": 0,
                "liked": 0,
                "disliked": 0,
                "lol": 0,
                "toxic": 0,
                "saved": 0,
                "comments": 0
            }
        },
        {
            "kind": "news",
            "domain": "@keyswap_dex",
            "source": {
                "title": "KeySwap Twitter",
                "region": "en",
                "domain": "twitter.com",
                "path": "@keyswap_dex"
            },
            "title": "RT @Reel_Token: $REELT giveaway with @Gateio_Startup is live now! \n\nParticipate now to share a prize pool of $2000 ",
            "published_at": "2023-03-21T07:21:04Z",
            "slug": "RT-Reel_Token-REELT-giveaway-with-Gateio_Startup-is-live-now-Participate-now-to-share-a-prize-pool-of-2000",
            "currencies": [
                {
                    "code": "KEY",
                    "title": "KeySwap",
                    "slug": null,
                    "url": "https:\/\/cryptopanic.com\/news\/None\/"
                }
            ],
            "id": 17925680,
            "url": "https:\/\/cryptopanic.com\/news\/17925680\/RT-Reel_Token-REELT-giveaway-with-Gateio_Startup-is-live-now-Participate-now-to-share-a-prize-pool-of-2000",
            "created_at": "2023-03-21T07:21:04Z",
            "votes": {
                "negative": 0,
                "positive": 0,
                "important": 0,
                "liked": 0,
                "disliked": 0,
                "lol": 0,
                "toxic": 0,
                "saved": 0,
                "comments": 0
            }
        },
        {
            "kind": "news",
            "domain": "@keyswap_dex",
            "source": {
                "title": "KeySwap Twitter",
                "region": "en",
                "domain": "twitter.com",
                "path": "@keyswap_dex"
            },
            "title": "RT @Reel_Token:  HUGE ANNOUNCEMENT \n\n$REELT Airdrop on @Gateio_Startup \n\nSubscription begins on March 23rd, 5:30am UTC. \n\nClaim now \ufe0f h\u2026",
            "published_at": "2023-03-17T05:42:23Z",
            "slug": "RT-Reel_Token-HUGE-ANNOUNCEMENT-REELT-Airdrop-on-Gateio_Startup-Subscription-begins-on-March-23rd-530am-UTC-Claim-now-h",
            "currencies": [
                {
                    "code": "KEY",
                    "title": "KeySwap",
                    "slug": null,
                    "url": "https:\/\/cryptopanic.com\/news\/None\/"
                }
            ],
            "id": 17899694,
            "url": "https:\/\/cryptopanic.com\/news\/17899694\/RT-Reel_Token-HUGE-ANNOUNCEMENT-REELT-Airdrop-on-Gateio_Startup-Subscription-begins-on-March-23rd-530am-UTC-Claim-now-h",
            "created_at": "2023-03-17T05:42:23Z",
            "votes": {
                "negative": 0,
                "positive": 0,
                "important": 0,
                "liked": 0,
                "disliked": 0,
                "lol": 0,
                "toxic": 0,
                "saved": 0,
                "comments": 0
            }
        },
        {
            "kind": "news",
            "domain": "@keyswap_dex",
            "source": {
                "title": "KeySwap Twitter",
                "region": "en",
                "domain": "twitter.com",
                "path": "@keyswap_dex"
            },
            "title": "RT @solaunch_io: #Solaunch is honored to win the first prize in community voting for the @solana #Riptide hackathon @ East Asia!\n\nThanks\u2026",
            "published_at": "2022-05-18T02:26:50Z",
            "slug": "RT-solaunch_io-Solaunch-is-honored-to-win-the-first-prize-in-community-voting-for-the-solana-Riptide-hackathon-East-Asia-Thanks",
            "currencies": [
                {
                    "code": "KEY",
                    "title": "KeySwap",
                    "slug": null,
                    "url": "https:\/\/cryptopanic.com\/news\/None\/"
                }
            ],
            "id": 15241045,
            "url": "https:\/\/cryptopanic.com\/news\/15241045\/RT-solaunch_io-Solaunch-is-honored-to-win-the-first-prize-in-community-voting-for-the-solana-Riptide-hackathon-East-Asia-Thanks",
            "created_at": "2022-05-18T02:26:50Z",
            "votes": {
                "negative": 0,
                "positive": 0,
                "important": 0,
                "liked": 0,
                "disliked": 0,
                "lol": 0,
                "toxic": 0,
                "saved": 0,
                "comments": 0
            }
        },
        {
            "kind": "news",
            "domain": "@keyswap_dex",
            "source": {
                "title": "KeySwap Twitter",
                "region": "en",
                "domain": "twitter.com",
                "path": "@keyswap_dex"
            },
            "title": "RT @AllPresale: \ud83e\udd8e KeySwap - KEY @keyswap_dex is now on CoinGecko. ",
            "published_at": "2022-04-29T17:45:53Z",
            "slug": "RT-AllPresale-KeySwap-KEY-keyswap_dex-is-now-on-CoinGecko",
            "currencies": [
                {
                    "code": "KEY",
                    "title": "KeySwap",
                    "slug": null,
                    "url": "https:\/\/cryptopanic.com\/news\/None\/"
                }
            ],
            "id": 15071896,
            "url": "https:\/\/cryptopanic.com\/news\/15071896\/RT-AllPresale-KeySwap-KEY-keyswap_dex-is-now-on-CoinGecko",
            "created_at": "2022-04-29T17:45:53Z",
            "votes": {
                "negative": 0,
                "positive": 0,
                "important": 0,
                "liked": 0,
                "disliked": 0,
                "lol": 0,
                "toxic": 0,
                "saved": 0,
                "comments": 0
            }
        },
        {
            "kind": "news",
            "domain": "@keyswap_dex",
            "source": {
                "title": "KeySwap Twitter",
                "region": "en",
                "domain": "twitter.com",
                "path": "@keyswap_dex"
            },
            "title": "RT @NomicsUpdates: KeySwap $KEY is live on Nomics with a price of $0.0051962726, and volume of $11,082.93 @keyswap_dex",
            "published_at": "2022-04-29T17:45:31Z",
            "slug": "RT-NomicsUpdates-KeySwap-KEY-is-live-on-Nomics-with-a-price-of-00051962726-and-volume-of-1108293-keyswap_dex",
            "currencies": [
                {
                    "code": "KEY",
                    "title": "KeySwap",
                    "slug": null,
                    "url": "https:\/\/cryptopanic.com\/news\/None\/"
                }
            ],
            "id": 15071901,
            "url": "https:\/\/cryptopanic.com\/news\/15071901\/RT-NomicsUpdates-KeySwap-KEY-is-live-on-Nomics-with-a-price-of-00051962726-and-volume-of-1108293-keyswap_dex",
            "created_at": "2022-04-29T17:45:31Z",
            "votes": {
                "negative": 0,
                "positive": 0,
                "important": 0,
                "liked": 0,
                "disliked": 0,
                "lol": 0,
                "toxic": 0,
                "saved": 0,
                "comments": 0
            }
        },
        {
            "kind": "news",
            "domain": "@keyswap_dex",
            "source": {
                "title": "KeySwap Twitter",
                "region": "en",
                "domain": "twitter.com",
                "path": "@keyswap_dex"
            },
            "title": "very excited to listed on @CoinMarketCap",
            "published_at": "2022-04-22T15:30:36Z",
            "slug": "very-excited-to-listed-on-CoinMarketCap",
            "currencies": [
                {
                    "code": "KEY",
                    "title": "KeySwap",
                    "slug": null,
                    "url": "https:\/\/cryptopanic.com\/news\/None\/"
                }
            ],
            "id": 15071906,
            "url": "https:\/\/cryptopanic.com\/news\/15071906\/very-excited-to-listed-on-CoinMarketCap",
            "created_at": "2022-04-22T15:30:36Z",
            "votes": {
                "negative": 0,
                "positive": 0,
                "important": 0,
                "liked": 0,
                "disliked": 0,
                "lol": 0,
                "toxic": 0,
                "saved": 0,
                "comments": 0
            }
        },
        {
            "kind": "news",
            "domain": "@keyswap_dex",
            "source": {
                "title": "KeySwap Twitter",
                "region": "en",
                "domain": "twitter.com",
                "path": "@keyswap_dex"
            },
            "title": "NFT's on Keyswap @keyswap_dex are coming in few hours. Stay tuned!!",
            "published_at": "2022-04-10T18:00:54Z",
            "slug": "NFTs-on-Keyswap-keyswap_dex-are-coming-in-few-hours-Stay-tuned",
            "currencies": [
                {
                    "code": "KEY",
                    "title": "KeySwap",
                    "slug": null,
                    "url": "https:\/\/cryptopanic.com\/news\/None\/"
                }
            ],
            "id": 15071909,
            "url": "https:\/\/cryptopanic.com\/news\/15071909\/NFTs-on-Keyswap-keyswap_dex-are-coming-in-few-hours-Stay-tuned",
            "created_at": "2022-04-10T18:00:54Z",
            "votes": {
                "negative": 0,
                "positive": 0,
                "important": 0,
                "liked": 0,
                "disliked": 0,
                "lol": 0,
                "toxic": 0,
                "saved": 0,
                "comments": 0
            }
        },
        {
            "kind": "news",
            "domain": "@keyswap_dex",
            "source": {
                "title": "KeySwap Twitter",
                "region": "en",
                "domain": "twitter.com",
                "path": "@keyswap_dex"
            },
            "title": "RT @OliveCashBsc: #BSC\nThe @keyswap_dex pools are live now!\nStake Olive to earn KEY.\n\n\nStake KEY to earn Olive.\nhttp\u2026",
            "published_at": "2022-04-07T07:32:54Z",
            "slug": "RT-OliveCashBsc-BSC-The-keyswap_dex-pools-are-live-now-Stake-Olive-to-earn-KEY-Stake-KEY-to-earn-Olive-http",
            "currencies": [
                {
                    "code": "KEY",
                    "title": "KeySwap",
                    "slug": null,
                    "url": "https:\/\/cryptopanic.com\/news\/None\/"
                }
            ],
            "id": 15071912,
            "url": "https:\/\/cryptopanic.com\/news\/15071912\/RT-OliveCashBsc-BSC-The-keyswap_dex-pools-are-live-now-Stake-Olive-to-earn-KEY-Stake-KEY-to-earn-Olive-http",
            "created_at": "2022-04-07T07:32:54Z",
            "votes": {
                "negative": 0,
                "positive": 0,
                "important": 0,
                "liked": 0,
                "disliked": 0,
                "lol": 0,
                "toxic": 0,
                "saved": 0,
                "comments": 0
            }
        },
        {
            "kind": "news",
            "domain": "@keyswap_dex",
            "source": {
                "title": "KeySwap Twitter",
                "region": "en",
                "domain": "twitter.com",
                "path": "@keyswap_dex"
            },
            "title": "RT @DeliveryDrift: We are proud to announce our strategic partnership with @ONTOWallet DRIFT, and NFT already whitelisted! Stay tuned for A\u2026",
            "published_at": "2022-03-31T14:37:49Z",
            "slug": "RT-DeliveryDrift-We-are-proud-to-announce-our-strategic-partnership-with-ONTOWallet-DRIFT-and-NFT-already-whitelisted-Stay-tuned-for-A",
            "currencies": [
                {
                    "code": "KEY",
                    "title": "KeySwap",
                    "slug": "keyswap",
                    "url": "https:\/\/cryptopanic.com\/news\/keyswap\/"
                }
            ],
            "id": 15071916,
            "url": "https:\/\/cryptopanic.com\/news\/15071916\/RT-DeliveryDrift-We-are-proud-to-announce-our-strategic-partnership-with-ONTOWallet-DRIFT-and-NFT-already-whitelisted-Stay-tuned-for-A",
            "created_at": "2022-03-31T14:37:49Z",
            "votes": {
                "negative": 0,
                "positive": 0,
                "important": 0,
                "liked": 0,
                "disliked": 0,
                "lol": 0,
                "toxic": 0,
                "saved": 0,
                "comments": 0
            }
        },
        {
            "kind": "news",
            "domain": "@keyswap_dex",
            "source": {
                "title": "KeySwap Twitter",
                "region": "en",
                "domain": "twitter.com",
                "path": "@keyswap_dex"
            },
            "title": "RT @pinkecosystem:  Upcoming Drift Delivery AMA!\n\n Event: Drift Delivery voice AMA\n Where: \n When: 30th March 10\u2026",
            "published_at": "2022-03-30T03:06:02Z",
            "slug": "RT-pinkecosystem-Upcoming-Drift-Delivery-AMA-Event-Drift-Delivery-voice-AMA-Where-When-30th-March-10",
            "currencies": [
                {
                    "code": "KEY",
                    "title": "KeySwap",
                    "slug": null,
                    "url": "https:\/\/cryptopanic.com\/news\/None\/"
                }
            ],
            "id": 15071921,
            "url": "https:\/\/cryptopanic.com\/news\/15071921\/RT-pinkecosystem-Upcoming-Drift-Delivery-AMA-Event-Drift-Delivery-voice-AMA-Where-When-30th-March-10",
            "created_at": "2022-03-30T03:06:02Z",
            "votes": {
                "negative": 0,
                "positive": 0,
                "important": 0,
                "liked": 0,
                "disliked": 0,
                "lol": 0,
                "toxic": 0,
                "saved": 0,
                "comments": 0
            }
        },
        {
            "kind": "news",
            "domain": "@keyswap_dex",
            "source": {
                "title": "KeySwap Twitter",
                "region": "en",
                "domain": "twitter.com",
                "path": "@keyswap_dex"
            },
            "title": "RT @CorgidogeEstate: \ud83e\udd73 Congrats @keyswap_dex\n Pool coming soon!\n\n Stake $CORGI to earn $KEY\n Start to earn at",
            "published_at": "2022-03-29T12:28:48Z",
            "slug": "RT-CorgidogeEstate-Congrats-keyswap_dex-Pool-coming-soon-Stake-CORGI-to-earn-KEY-Start-to-earn-at",
            "currencies": [
                {
                    "code": "KEY",
                    "title": "KeySwap",
                    "slug": null,
                    "url": "https:\/\/cryptopanic.com\/news\/None\/"
                }
            ],
            "id": 15071923,
            "url": "https:\/\/cryptopanic.com\/news\/15071923\/RT-CorgidogeEstate-Congrats-keyswap_dex-Pool-coming-soon-Stake-CORGI-to-earn-KEY-Start-to-earn-at",
            "created_at": "2022-03-29T12:28:48Z",
            "votes": {
                "negative": 0,
                "positive": 0,
                "important": 0,
                "liked": 0,
                "disliked": 0,
                "lol": 0,
                "toxic": 0,
                "saved": 0,
                "comments": 0
            }
        },
        {
            "kind": "news",
            "domain": "@mykey_lab",
            "source": {
                "title": "MYKEY Twitter",
                "region": "en",
                "domain": "twitter.com",
                "path": "@mykey_lab"
            },
            "title": "MYKEY will be halting the wallet APP and all related account services for all users due to policy reasons from June\u2026",
            "published_at": "2021-12-19T07:37:35Z",
            "slug": "MYKEY-will-be-halting-the-wallet-APP-and-all-related-account-services-for-all-users-due-to-policy-reasons-from-June",
            "currencies": [
                {
                    "code": "KEY",
                    "title": "MYKEY",
                    "slug": null,
                    "url": "https:\/\/cryptopanic.com\/news\/None\/"
                }
            ],
            "id": 13716587,
            "url": "https:\/\/cryptopanic.com\/news\/13716587\/MYKEY-will-be-halting-the-wallet-APP-and-all-related-account-services-for-all-users-due-to-policy-reasons-from-June",
            "created_at": "2021-12-19T07:37:35Z",
            "votes": {
                "negative": 0,
                "positive": 0,
                "important": 0,
                "liked": 0,
                "disliked": 0,
                "lol": 0,
                "toxic": 0,
                "saved": 0,
                "comments": 0
            }
        },
        {
            "kind": "news",
            "domain": "@MOBOX_Official",
            "votes": {
                "negative": 0,
                "positive": 0,
                "important": 0,
                "liked": 0,
                "disliked": 0,
                "lol": 0,
                "toxic": 0,
                "saved": 3,
                "comments": 0
            },
            "source": {
                "title": "Mobox Twitter",
                "region": "en",
                "domain": "twitter.com",
                "path": "@mobox_official"
            },
            "title": "YO MOBOXers \n\nCome along and join in on our #MEC Raffle \n\nIt's easy as:\n\n Stake #MBOX\n\n Or Use #HASHPOWER\n\n&amp; J\u2026",
            "published_at": "2021-12-15T02:30:10Z",
            "slug": "YO-MOBOXers-Come-along-and-join-in-on-our-MEC-Raffle-Its-easy-as-Stake-MBOX-Or-Use-HASHPOWER-amp-J",
            "currencies": [
                {
                    "code": "MBOX",
                    "title": "Mobox",
                    "slug": "mobox",
                    "url": "https:\/\/cryptopanic.com\/news\/mobox\/"
                },
                {
                    "code": "KEY",
                    "title": "MoMo Key",
                    "slug": "momo-key",
                    "url": "https:\/\/cryptopanic.com\/news\/momo-key\/"
                }
            ],
            "id": 13673738,
            "url": "https:\/\/cryptopanic.com\/news\/13673738\/YO-MOBOXers-Come-along-and-join-in-on-our-MEC-Raffle-Its-easy-as-Stake-MBOX-Or-Use-HASHPOWER-amp-J",
            "created_at": "2021-12-15T02:30:10Z"
        },
        {
            "kind": "news",
            "domain": "@MOBOX_Official",
            "source": {
                "title": "Mobox Twitter",
                "region": "en",
                "domain": "twitter.com",
                "path": "@mobox_official"
            },
            "title": "MOBOXers\n\nWant to earn some more #MBOX in #TokenMaster ?\n\nSimple use your 3\u20e3 Rare #MOMO #NFTs &amp; Send them off to t\u2026",
            "published_at": "2021-12-14T11:30:16Z",
            "slug": "MOBOXers-Want-to-earn-some-more-MBOX-in-TokenMaster-Simple-use-your-3-Rare-MOMO-NFTs-amp-Send-them-off-to-t",
            "currencies": [
                {
                    "code": "MBOX",
                    "title": "Mobox",
                    "slug": "mobox",
                    "url": "https:\/\/cryptopanic.com\/news\/mobox\/"
                },
                {
                    "code": "KEY",
                    "title": "MoMo Key",
                    "slug": "momo-key",
                    "url": "https:\/\/cryptopanic.com\/news\/momo-key\/"
                }
            ],
            "id": 13673739,
            "url": "https:\/\/cryptopanic.com\/news\/13673739\/MOBOXers-Want-to-earn-some-more-MBOX-in-TokenMaster-Simple-use-your-3-Rare-MOMO-NFTs-amp-Send-them-off-to-t",
            "created_at": "2021-12-14T11:30:16Z",
            "votes": {
                "negative": 0,
                "positive": 0,
                "important": 0,
                "liked": 0,
                "disliked": 0,
                "lol": 0,
                "toxic": 0,
                "saved": 0,
                "comments": 0
            }
        },
        {
            "kind": "news",
            "domain": "@SelfKey",
            "source": {
                "title": "Selfkey Twitter",
                "region": "en",
                "domain": "twitter.com",
                "path": "@selfkey"
            },
            "title": "Your KEY to identity in the Metaverse! \n\nThe launch of SelfKey 2.0 commences with a simple design update to the S\u2026",
            "published_at": "2021-12-14T11:19:00Z",
            "slug": "Your-KEY-to-identity-in-the-Metaverse-The-launch-of-SelfKey-20-commences-with-a-simple-design-update-to-the-S",
            "currencies": [
                {
                    "code": "KEY",
                    "title": "SelfKey",
                    "slug": "selfkey",
                    "url": "https:\/\/cryptopanic.com\/news\/selfkey\/"
                }
            ],
            "id": 13675358,
            "url": "https:\/\/cryptopanic.com\/news\/13675358\/Your-KEY-to-identity-in-the-Metaverse-The-launch-of-SelfKey-20-commences-with-a-simple-design-update-to-the-S",
            "created_at": "2021-12-14T11:19:00Z",
            "votes": {
                "negative": 0,
                "positive": 0,
                "important": 0,
                "liked": 0,
                "disliked": 0,
                "lol": 0,
                "toxic": 0,
                "saved": 0,
                "comments": 0
            }
        },
        {
            "kind": "news",
            "domain": "@MOBOX_Official",
            "source": {
                "title": "Mobox Twitter",
                "region": "en",
                "domain": "twitter.com",
                "path": "@mobox_official"
            },
            "title": "MOBOX Community AMA (Ask me Anything)\n\nIs Going Live in 15 minutes !\u23f1\ufe0f\n\nThe live AMA will be held in the #MOBOX\u2026",
            "published_at": "2021-12-14T10:45:11Z",
            "slug": "MOBOX-Community-AMA-Ask-me-Anything-Is-Going-Live-in-15-minutes-The-live-AMA-will-be-held-in-the-MOBOX",
            "currencies": [
                {
                    "code": "MBOX",
                    "title": "Mobox",
                    "slug": "mobox",
                    "url": "https:\/\/cryptopanic.com\/news\/mobox\/"
                },
                {
                    "code": "KEY",
                    "title": "MoMo Key",
                    "slug": "momo-key",
                    "url": "https:\/\/cryptopanic.com\/news\/momo-key\/"
                }
            ],
            "id": 13673740,
            "url": "https:\/\/cryptopanic.com\/news\/13673740\/MOBOX-Community-AMA-Ask-me-Anything-Is-Going-Live-in-15-minutes-The-live-AMA-will-be-held-in-the-MOBOX",
            "created_at": "2021-12-14T10:45:11Z",
            "votes": {
                "negative": 0,
                "positive": 0,
                "important": 0,
                "liked": 0,
                "disliked": 0,
                "lol": 0,
                "toxic": 0,
                "saved": 0,
                "comments": 0
            }
        },
        {
            "kind": "news",
            "domain": "@SelfKey",
            "source": {
                "title": "Selfkey Twitter",
                "region": "en",
                "domain": "twitter.com",
                "path": "@selfkey"
            },
            "title": "SelfKey Website will go in maintenance mode between 6:45 PM - 7:00 PM HKT.\n\nWe will have a huge announcement for y\u2026",
            "published_at": "2021-12-14T07:56:42Z",
            "slug": "SelfKey-Website-will-go-in-maintenance-mode-between-645-PM-700-PM-HKT-We-will-have-a-huge-announcement-for-y",
            "currencies": [
                {
                    "code": "KEY",
                    "title": "SelfKey",
                    "slug": "selfkey",
                    "url": "https:\/\/cryptopanic.com\/news\/selfkey\/"
                }
            ],
            "id": 13663290,
            "url": "https:\/\/cryptopanic.com\/news\/13663290\/SelfKey-Website-will-go-in-maintenance-mode-between-645-PM-700-PM-HKT-We-will-have-a-huge-announcement-for-y",
            "created_at": "2021-12-14T07:56:42Z",
            "votes": {
                "negative": 0,
                "positive": 0,
                "important": 0,
                "liked": 0,
                "disliked": 0,
                "lol": 0,
                "toxic": 0,
                "saved": 0,
                "comments": 0
            }
        }
    ]
}
