{
    "count": 200,
    "next": "https:\/\/cryptopanic.com\/api\/v1\/posts\/?auth_token=01c356e89ffc1b8eba2127c81fc8c66ee0eace75&kind=news&currencies=PNT&page=2",
    "previous": null,
    "results": [
        {
            "kind": "news",
            "domain": "@wecap_io",
            "source": {
                "title": "Phant Twitter",
                "region": "en",
                "domain": "twitter.com",
                "path": "@wecap_io"
            },
            "title": "WL is still open. Don't miss out on the next blue chip NFT.",
            "published_at": "2022-11-05T12:37:43Z",
            "slug": "WL-is-still-open-Dont-miss-out-on-the-next-blue-chip-NFT",
            "currencies": [
                {
                    "code": "PNT",
                    "title": "Phant",
                    "slug": null,
                    "url": "https:\/\/cryptopanic.com\/news\/None\/"
                }
            ],
            "id": 16815021,
            "url": "https:\/\/cryptopanic.com\/news\/16815021\/WL-is-still-open-Dont-miss-out-on-the-next-blue-chip-NFT",
            "created_at": "2022-11-05T12:37:43Z",
            "votes": {
                "negative": 0,
                "positive": 0,
                "important": 0,
                "liked": 0,
                "disliked": 0,
                "lol": 0,
                "toxic": 0,
                "saved": 0,
                "comments": 0
            }
        },
        {
            "kind": "news",
            "domain": "@wecap_io",
            "source": {
                "title": "Phant Twitter",
                "region": "en",
                "domain": "twitter.com",
                "path": "@wecap_io"
            },
            "title": "Sign up now before it's too late!",
            "published_at": "2022-10-28T09:35:51Z",
            "slug": "Sign-up-now-before-its-too-late",
            "currencies": [
                {
                    "code": "PNT",
                    "title": "Phant",
                    "slug": null,
                    "url": "https:\/\/cryptopanic.com\/news\/None\/"
                }
            ],
            "id": 16740694,
            "url": "https:\/\/cryptopanic.com\/news\/16740694\/Sign-up-now-before-its-too-late",
            "created_at": "2022-10-28T09:35:51Z",
            "votes": {
                "negative": 0,
                "positive": 0,
                "important": 0,
                "liked": 0,
                "disliked": 0,
                "lol": 0,
                "toxic": 0,
                "saved": 0,
                "comments": 0
            }
        },
        {
            "kind": "news",
            "domain": "@wecap_io",
            "source": {
                "title": "Phant Twitter",
                "region": "en",
                "domain": "twitter.com",
                "path": "@wecap_io"
            },
            "title": "Hi guys he is the form for Solar Wars WL.\nYou don't want to miss the chance to mint this.",
            "published_at": "2022-10-26T23:58:50Z",
            "slug": "Hi-guys-he-is-the-form-for-Solar-Wars-WL-You-dont-want-to-miss-the-chance-to-mint-this",
            "currencies": [
                {
                    "code": "PNT",
                    "title": "Phant",
                    "slug": null,
                    "url": "https:\/\/cryptopanic.com\/news\/None\/"
                }
            ],
            "id": 16719779,
            "url": "https:\/\/cryptopanic.com\/news\/16719779\/Hi-guys-he-is-the-form-for-Solar-Wars-WL-You-dont-want-to-miss-the-chance-to-mint-this",
            "created_at": "2022-10-26T23:58:50Z",
            "votes": {
                "negative": 0,
                "positive": 0,
                "important": 0,
                "liked": 0,
                "disliked": 0,
                "lol": 0,
                "toxic": 0,
                "saved": 0,
                "comments": 0
            }
        },
        {
            "kind": "news",
            "domain": "@wecap_io",
            "source": {
                "title": "Phant Twitter",
                "region": "en",
                "domain": "twitter.com",
                "path": "@wecap_io"
            },
            "title": "Yes its true ",
            "published_at": "2022-10-18T13:17:52Z",
            "slug": "Yes-its-true",
            "currencies": [
                {
                    "code": "PNT",
                    "title": "Phant",
                    "slug": null,
                    "url": "https:\/\/cryptopanic.com\/news\/None\/"
                }
            ],
            "id": 16645713,
            "url": "https:\/\/cryptopanic.com\/news\/16645713\/Yes-its-true",
            "created_at": "2022-10-18T13:17:52Z",
            "votes": {
                "negative": 0,
                "positive": 0,
                "important": 0,
                "liked": 0,
                "disliked": 0,
                "lol": 0,
                "toxic": 0,
                "saved": 0,
                "comments": 0
            }
        },
        {
            "kind": "news",
            "domain": "@wecap_io",
            "source": {
                "title": "Phant Twitter",
                "region": "en",
                "domain": "twitter.com",
                "path": "@wecap_io"
            },
            "title": "coming soon..@solar_dex",
            "published_at": "2022-10-16T07:08:47Z",
            "slug": "coming-soonsolar_dex",
            "currencies": [
                {
                    "code": "PNT",
                    "title": "Phant",
                    "slug": null,
                    "url": "https:\/\/cryptopanic.com\/news\/None\/"
                }
            ],
            "id": 16619488,
            "url": "https:\/\/cryptopanic.com\/news\/16619488\/coming-soonsolar_dex",
            "created_at": "2022-10-16T07:08:47Z",
            "votes": {
                "negative": 0,
                "positive": 0,
                "important": 0,
                "liked": 0,
                "disliked": 0,
                "lol": 0,
                "toxic": 0,
                "saved": 0,
                "comments": 0
            }
        },
        {
            "kind": "news",
            "domain": "@wecap_io",
            "source": {
                "title": "Phant Twitter",
                "region": "en",
                "domain": "twitter.com",
                "path": "@wecap_io"
            },
            "title": "the best is yet to come...",
            "published_at": "2022-10-14T13:53:42Z",
            "slug": "the-best-is-yet-to-come",
            "currencies": [
                {
                    "code": "PNT",
                    "title": "Phant",
                    "slug": null,
                    "url": "https:\/\/cryptopanic.com\/news\/None\/"
                }
            ],
            "id": 16612843,
            "url": "https:\/\/cryptopanic.com\/news\/16612843\/the-best-is-yet-to-come",
            "created_at": "2022-10-14T13:53:42Z",
            "votes": {
                "negative": 0,
                "positive": 0,
                "important": 0,
                "liked": 0,
                "disliked": 0,
                "lol": 0,
                "toxic": 0,
                "saved": 0,
                "comments": 0
            }
        },
        {
            "kind": "news",
            "domain": "@wecap_io",
            "source": {
                "title": "Phant Twitter",
                "region": "en",
                "domain": "twitter.com",
                "path": "@wecap_io"
            },
            "title": "Got our Metaplex Whitepaper NFT and Token.",
            "published_at": "2022-09-20T00:48:24Z",
            "slug": "Got-our-Metaplex-Whitepaper-NFT-and-Token",
            "currencies": [
                {
                    "code": "PNT",
                    "title": "Phant",
                    "slug": null,
                    "url": "https:\/\/cryptopanic.com\/news\/None\/"
                }
            ],
            "id": 16379430,
            "url": "https:\/\/cryptopanic.com\/news\/16379430\/Got-our-Metaplex-Whitepaper-NFT-and-Token",
            "created_at": "2022-09-20T00:48:24Z",
            "votes": {
                "negative": 0,
                "positive": 0,
                "important": 0,
                "liked": 0,
                "disliked": 0,
                "lol": 0,
                "toxic": 0,
                "saved": 0,
                "comments": 0
            }
        },
        {
            "kind": "news",
            "domain": "@wecap_io",
            "source": {
                "title": "Phant Twitter",
                "region": "en",
                "domain": "twitter.com",
                "path": "@wecap_io"
            },
            "title": "RT @SolanaNews: Which projects are receiving more attention from the @solana ecosystem ?\n\nLet's find out the answer through our below grap\u2026",
            "published_at": "2022-09-14T23:43:16Z",
            "slug": "RT-SolanaNews-Which-projects-are-receiving-more-attention-from-the-solana-ecosystem-Lets-find-out-the-answer-through-our-below-grap",
            "currencies": [
                {
                    "code": "PNT",
                    "title": "Phant",
                    "slug": null,
                    "url": "https:\/\/cryptopanic.com\/news\/None\/"
                }
            ],
            "id": 16335945,
            "url": "https:\/\/cryptopanic.com\/news\/16335945\/RT-SolanaNews-Which-projects-are-receiving-more-attention-from-the-solana-ecosystem-Lets-find-out-the-answer-through-our-below-grap",
            "created_at": "2022-09-14T23:43:16Z",
            "votes": {
                "negative": 0,
                "positive": 0,
                "important": 0,
                "liked": 0,
                "disliked": 0,
                "lol": 0,
                "toxic": 0,
                "saved": 0,
                "comments": 0
            }
        },
        {
            "kind": "news",
            "domain": "@wecap_io",
            "source": {
                "title": "Phant Twitter",
                "region": "en",
                "domain": "twitter.com",
                "path": "@wecap_io"
            },
            "title": "We're excited to have early access to this community and live discussion board function on @CoinMarketCap . Thank y\u2026",
            "published_at": "2022-08-09T09:06:44Z",
            "slug": "Were-excited-to-have-early-access-to-this-community-and-live-discussion-board-function-on-CoinMarketCap-Thank-y",
            "currencies": [
                {
                    "code": "PNT",
                    "title": "Phant",
                    "slug": null,
                    "url": "https:\/\/cryptopanic.com\/news\/None\/"
                }
            ],
            "id": 16010665,
            "url": "https:\/\/cryptopanic.com\/news\/16010665\/Were-excited-to-have-early-access-to-this-community-and-live-discussion-board-function-on-CoinMarketCap-Thank-y",
            "created_at": "2022-08-09T09:06:44Z",
            "votes": {
                "negative": 0,
                "positive": 0,
                "important": 0,
                "liked": 0,
                "disliked": 0,
                "lol": 0,
                "toxic": 0,
                "saved": 0,
                "comments": 0
            }
        },
        {
            "kind": "news",
            "domain": "@wecap_io",
            "source": {
                "title": "Phant Twitter",
                "region": "en",
                "domain": "twitter.com",
                "path": "@wecap_io"
            },
            "title": "game update\n1. bug fixes done\n2. color update\n3. additional weapons --ongoing\n\nbest nft game in my opinion.",
            "published_at": "2022-06-22T00:26:45Z",
            "slug": "game-update-1-bug-fixes-done-2-color-update-3-additional-weapons-ongoing-best-nft-game-in-my-opinion",
            "currencies": [
                {
                    "code": "PNT",
                    "title": "Phant",
                    "slug": null,
                    "url": "https:\/\/cryptopanic.com\/news\/None\/"
                }
            ],
            "id": 15566794,
            "url": "https:\/\/cryptopanic.com\/news\/15566794\/game-update-1-bug-fixes-done-2-color-update-3-additional-weapons-ongoing-best-nft-game-in-my-opinion",
            "created_at": "2022-06-22T00:26:45Z",
            "votes": {
                "negative": 0,
                "positive": 0,
                "important": 0,
                "liked": 0,
                "disliked": 0,
                "lol": 0,
                "toxic": 0,
                "saved": 0,
                "comments": 0
            }
        },
        {
            "kind": "news",
            "domain": "@wecap_io",
            "source": {
                "title": "Phant Twitter",
                "region": "en",
                "domain": "twitter.com",
                "path": "@wecap_io"
            },
            "title": "crash game now up and testing.\nadding more games and play to earn before we open deposits and withdrawals. BSC and\u2026",
            "published_at": "2022-06-16T03:40:08Z",
            "slug": "crash-game-now-up-and-testing-adding-more-games-and-play-to-earn-before-we-open-deposits-and-withdrawals-BSC-and",
            "currencies": [
                {
                    "code": "PNT",
                    "title": "Phant",
                    "slug": null,
                    "url": "https:\/\/cryptopanic.com\/news\/None\/"
                }
            ],
            "id": 15514031,
            "url": "https:\/\/cryptopanic.com\/news\/15514031\/crash-game-now-up-and-testing-adding-more-games-and-play-to-earn-before-we-open-deposits-and-withdrawals-BSC-and",
            "created_at": "2022-06-16T03:40:08Z",
            "votes": {
                "negative": 0,
                "positive": 0,
                "important": 0,
                "liked": 0,
                "disliked": 0,
                "lol": 0,
                "toxic": 0,
                "saved": 0,
                "comments": 0
            }
        },
        {
            "kind": "news",
            "domain": "@wecap_io",
            "source": {
                "title": "Phant Twitter",
                "region": "en",
                "domain": "twitter.com",
                "path": "@wecap_io"
            },
            "title": "Bonuses are now integrated! Below are the bonuses and how to get them.",
            "published_at": "2022-06-10T11:28:15Z",
            "slug": "Bonuses-are-now-integrated-Below-are-the-bonuses-and-how-to-get-them",
            "currencies": [
                {
                    "code": "PNT",
                    "title": "Phant",
                    "slug": "phant",
                    "url": "https:\/\/cryptopanic.com\/news\/phant\/"
                }
            ],
            "id": 15468494,
            "url": "https:\/\/cryptopanic.com\/news\/15468494\/Bonuses-are-now-integrated-Below-are-the-bonuses-and-how-to-get-them",
            "created_at": "2022-06-10T11:28:15Z",
            "votes": {
                "negative": 0,
                "positive": 0,
                "important": 0,
                "liked": 0,
                "disliked": 0,
                "lol": 0,
                "toxic": 0,
                "saved": 0,
                "comments": 0
            }
        },
        {
            "kind": "news",
            "domain": "@wecap_io",
            "source": {
                "title": "Phant Twitter",
                "region": "en",
                "domain": "twitter.com",
                "path": "@wecap_io"
            },
            "title": "crypto prediction game now live.",
            "published_at": "2022-06-10T05:57:12Z",
            "slug": "crypto-prediction-game-now-live",
            "currencies": [
                {
                    "code": "PNT",
                    "title": "Phant",
                    "slug": "phant",
                    "url": "https:\/\/cryptopanic.com\/news\/phant\/"
                }
            ],
            "id": 15458471,
            "url": "https:\/\/cryptopanic.com\/news\/15458471\/crypto-prediction-game-now-live",
            "created_at": "2022-06-10T05:57:12Z",
            "votes": {
                "negative": 0,
                "positive": 0,
                "important": 0,
                "liked": 0,
                "disliked": 0,
                "lol": 0,
                "toxic": 0,
                "saved": 0,
                "comments": 0
            }
        },
        {
            "kind": "news",
            "domain": "@wecap_io",
            "source": {
                "title": "Phant Twitter",
                "region": "en",
                "domain": "twitter.com",
                "path": "@wecap_io"
            },
            "title": "Update on the platform\/portal\n1. Moved to our main website: \n2. Our unity games will come ne\u2026",
            "published_at": "2022-06-10T05:26:56Z",
            "slug": "Update-on-the-platformportal-1-Moved-to-our-main-website-2-Our-unity-games-will-come-ne",
            "currencies": [
                {
                    "code": "PNT",
                    "title": "Phant",
                    "slug": "phant",
                    "url": "https:\/\/cryptopanic.com\/news\/phant\/"
                }
            ],
            "id": 15458472,
            "url": "https:\/\/cryptopanic.com\/news\/15458472\/Update-on-the-platformportal-1-Moved-to-our-main-website-2-Our-unity-games-will-come-ne",
            "created_at": "2022-06-10T05:26:56Z",
            "votes": {
                "negative": 0,
                "positive": 0,
                "important": 0,
                "liked": 0,
                "disliked": 0,
                "lol": 0,
                "toxic": 0,
                "saved": 0,
                "comments": 0
            }
        },
        {
            "kind": "news",
            "domain": "@wecap_io",
            "source": {
                "title": "Phant Twitter",
                "region": "en",
                "domain": "twitter.com",
                "path": "@wecap_io"
            },
            "title": "New and improved portal UI. Easier to navigate and easy to use.\n\nTesting BSC and ERC deposit and withdrawal.",
            "published_at": "2022-05-18T00:59:58Z",
            "slug": "New-and-improved-portal-UI-Easier-to-navigate-and-easy-to-use-Testing-BSC-and-ERC-deposit-and-withdrawal",
            "currencies": [
                {
                    "code": "PNT",
                    "title": "Phant",
                    "slug": "phant",
                    "url": "https:\/\/cryptopanic.com\/news\/phant\/"
                }
            ],
            "id": 15242574,
            "url": "https:\/\/cryptopanic.com\/news\/15242574\/New-and-improved-portal-UI-Easier-to-navigate-and-easy-to-use-Testing-BSC-and-ERC-deposit-and-withdrawal",
            "created_at": "2022-05-18T00:59:58Z",
            "votes": {
                "negative": 0,
                "positive": 0,
                "important": 0,
                "liked": 0,
                "disliked": 0,
                "lol": 0,
                "toxic": 0,
                "saved": 0,
                "comments": 0
            }
        },
        {
            "kind": "news",
            "domain": "@wecap_io",
            "source": {
                "title": "Phant Twitter",
                "region": "en",
                "domain": "twitter.com",
                "path": "@wecap_io"
            },
            "title": "Longer version of our 4th Unity Game.\nThis is called Binding of Phant.\n\nThis will be part of\u2026",
            "published_at": "2022-05-16T09:49:20Z",
            "slug": "Longer-version-of-our-4th-Unity-Game-This-is-called-Binding-of-Phant-This-will-be-part-of",
            "currencies": [
                {
                    "code": "PNT",
                    "title": "Phant",
                    "slug": "phant",
                    "url": "https:\/\/cryptopanic.com\/news\/phant\/"
                }
            ],
            "id": 15231534,
            "url": "https:\/\/cryptopanic.com\/news\/15231534\/Longer-version-of-our-4th-Unity-Game-This-is-called-Binding-of-Phant-This-will-be-part-of",
            "created_at": "2022-05-16T09:49:20Z",
            "votes": {
                "negative": 0,
                "positive": 0,
                "important": 0,
                "liked": 0,
                "disliked": 0,
                "lol": 0,
                "toxic": 0,
                "saved": 0,
                "comments": 0
            }
        },
        {
            "kind": "news",
            "domain": "@wecap_io",
            "source": {
                "title": "Phant Twitter",
                "region": "en",
                "domain": "twitter.com",
                "path": "@wecap_io"
            },
            "title": "Alpha testing. Binding of Phant NFT Game.\nWe now have 4 unity play to earn games.\nand a bunch of casino games for d\u2026",
            "published_at": "2022-05-16T01:49:01Z",
            "slug": "Alpha-testing-Binding-of-Phant-NFT-Game-We-now-have-4-unity-play-to-earn-games-and-a-bunch-of-casino-games-for-d",
            "currencies": [
                {
                    "code": "PNT",
                    "title": "Phant",
                    "slug": "phant",
                    "url": "https:\/\/cryptopanic.com\/news\/phant\/"
                }
            ],
            "id": 15221488,
            "url": "https:\/\/cryptopanic.com\/news\/15221488\/Alpha-testing-Binding-of-Phant-NFT-Game-We-now-have-4-unity-play-to-earn-games-and-a-bunch-of-casino-games-for-d",
            "created_at": "2022-05-16T01:49:01Z",
            "votes": {
                "negative": 0,
                "positive": 0,
                "important": 0,
                "liked": 0,
                "disliked": 0,
                "lol": 0,
                "toxic": 0,
                "saved": 0,
                "comments": 0
            }
        },
        {
            "kind": "news",
            "domain": "@wecap_io",
            "source": {
                "title": "Phant Twitter",
                "region": "en",
                "domain": "twitter.com",
                "path": "@wecap_io"
            },
            "title": "P2P Exchange\nthats the tweet.",
            "published_at": "2022-05-02T02:23:09Z",
            "slug": "P2P-Exchange-thats-the-tweet",
            "currencies": [
                {
                    "code": "PNT",
                    "title": "Phant",
                    "slug": "phant",
                    "url": "https:\/\/cryptopanic.com\/news\/phant\/"
                }
            ],
            "id": 15084699,
            "url": "https:\/\/cryptopanic.com\/news\/15084699\/P2P-Exchange-thats-the-tweet",
            "created_at": "2022-05-02T02:23:09Z",
            "votes": {
                "negative": 0,
                "positive": 0,
                "important": 0,
                "liked": 0,
                "disliked": 0,
                "lol": 0,
                "toxic": 0,
                "saved": 0,
                "comments": 0
            }
        },
        {
            "kind": "news",
            "domain": "@wecap_io",
            "source": {
                "title": "Phant Twitter",
                "region": "en",
                "domain": "twitter.com",
                "path": "@wecap_io"
            },
            "title": "Hi Everyone! Build update\n\ud83d\udfe9Deposit and withdraw is up and running\n\ud83d\udfe9NFT shop is 70% done\n\ud83d\udfe6Games for integration but\u2026",
            "published_at": "2022-04-23T09:36:58Z",
            "slug": "Hi-Everyone-Build-update-Deposit-and-withdraw-is-up-and-running-NFT-shop-is-70-done-Games-for-integration-but",
            "currencies": [
                {
                    "code": "PNT",
                    "title": "Phant",
                    "slug": "phant",
                    "url": "https:\/\/cryptopanic.com\/news\/phant\/"
                }
            ],
            "id": 15002391,
            "url": "https:\/\/cryptopanic.com\/news\/15002391\/Hi-Everyone-Build-update-Deposit-and-withdraw-is-up-and-running-NFT-shop-is-70-done-Games-for-integration-but",
            "created_at": "2022-04-23T09:36:58Z",
            "votes": {
                "negative": 0,
                "positive": 0,
                "important": 0,
                "liked": 0,
                "disliked": 0,
                "lol": 0,
                "toxic": 0,
                "saved": 0,
                "comments": 0
            }
        },
        {
            "kind": "news",
            "domain": "@wecap_io",
            "source": {
                "title": "Phant Twitter",
                "region": "en",
                "domain": "twitter.com",
                "path": "@wecap_io"
            },
            "title": "Update on the hub \n Phant Token will be the only currency\n\ud83d\udfe9spl deposit now working\n\ud83d\udfe5spl withdrawal anytime this\u2026",
            "published_at": "2022-04-05T12:42:12Z",
            "slug": "Update-on-the-hub-Phant-Token-will-be-the-only-currency-spl-deposit-now-working-spl-withdrawal-anytime-this",
            "currencies": [
                {
                    "code": "PNT",
                    "title": "Phant",
                    "slug": "phant",
                    "url": "https:\/\/cryptopanic.com\/news\/phant\/"
                }
            ],
            "id": 14810830,
            "url": "https:\/\/cryptopanic.com\/news\/14810830\/Update-on-the-hub-Phant-Token-will-be-the-only-currency-spl-deposit-now-working-spl-withdrawal-anytime-this",
            "created_at": "2022-04-05T12:42:12Z",
            "votes": {
                "negative": 0,
                "positive": 0,
                "important": 0,
                "liked": 0,
                "disliked": 0,
                "lol": 0,
                "toxic": 0,
                "saved": 0,
                "comments": 0
            }
        }
    ]
}
