{
    "count": 200,
    "next": "https:\/\/cryptopanic.com\/api\/v1\/posts\/?auth_token=01c356e89ffc1b8eba2127c81fc8c66ee0eace75&kind=news&currencies=LIT&page=2",
    "previous": null,
    "results": [
        {
            "kind": "news",
            "domain": "@Timeless_Fi",
            "source": {
                "title": "Timeless Twitter",
                "region": "en",
                "domain": "twitter.com",
                "path": "@timeless_fi"
            },
            "title": "RT @idlefinance: 1\/ Hold some veBAL \/ veLIT tokens? \n\nJoin our quests on Warden @Paladin_vote &amp; seize $IDLE rewards:\n\ufe0f on @Balancer \ufe0f bb\u2026",
            "published_at": "2023-07-11T18:18:10Z",
            "slug": "RT-idlefinance-1-Hold-some-veBAL-veLIT-tokens-Join-our-quests-on-Warden-Paladin_vote-amp-seize-IDLE-rewards-on-Balancer-bb",
            "currencies": [
                {
                    "code": "LIT",
                    "title": "Timeless",
                    "slug": "timeless",
                    "url": "https:\/\/cryptopanic.com\/news\/timeless\/"
                }
            ],
            "id": 18767668,
            "url": "https:\/\/cryptopanic.com\/news\/18767668\/RT-idlefinance-1-Hold-some-veBAL-veLIT-tokens-Join-our-quests-on-Warden-Paladin_vote-amp-seize-IDLE-rewards-on-Balancer-bb",
            "created_at": "2023-07-11T18:18:10Z",
            "votes": {
                "negative": 0,
                "positive": 0,
                "important": 0,
                "liked": 0,
                "disliked": 0,
                "lol": 0,
                "toxic": 0,
                "saved": 0,
                "comments": 0
            }
        },
        {
            "kind": "news",
            "domain": "@LITWTF",
            "source": {
                "title": "LIT Twitter",
                "region": "en",
                "domain": "twitter.com",
                "path": "@litwtf"
            },
            "title": "Gm \ufe0f\u200d\ufe0f\ufe0f\u200d\n\nMany thanks to all who joined us at the LITADEL launch party yesterday. Your presence &amp; support made\u2026",
            "published_at": "2023-07-11T15:59:15Z",
            "slug": "Gm-Many-thanks-to-all-who-joined-us-at-the-LITADEL-launch-party-yesterday-Your-presence-amp-support-made",
            "currencies": [
                {
                    "code": "LIT",
                    "title": "LIT",
                    "slug": "lit",
                    "url": "https:\/\/cryptopanic.com\/news\/lit\/"
                }
            ],
            "id": 18765317,
            "url": "https:\/\/cryptopanic.com\/news\/18765317\/Gm-Many-thanks-to-all-who-joined-us-at-the-LITADEL-launch-party-yesterday-Your-presence-amp-support-made",
            "created_at": "2023-07-11T15:59:15Z",
            "votes": {
                "negative": 0,
                "positive": 0,
                "important": 0,
                "liked": 0,
                "disliked": 0,
                "lol": 0,
                "toxic": 0,
                "saved": 0,
                "comments": 0
            }
        },
        {
            "kind": "news",
            "domain": "@litentry",
            "source": {
                "title": "Litentry Twitter",
                "region": "en",
                "domain": "twitter.com",
                "path": "@litentry"
            },
            "title": "Imagine VC characteristics are like lego pieces of one\u2019s identity. Verifiable, composable and tamper resistant. Put\u2026",
            "published_at": "2023-07-11T12:24:28Z",
            "slug": "Imagine-VC-characteristics-are-like-lego-pieces-of-ones-identity-Verifiable-composable-and-tamper-resistant-Put",
            "currencies": [
                {
                    "code": "LIT",
                    "title": "Litentry",
                    "slug": "litentry",
                    "url": "https:\/\/cryptopanic.com\/news\/litentry\/"
                }
            ],
            "id": 18765421,
            "url": "https:\/\/cryptopanic.com\/news\/18765421\/Imagine-VC-characteristics-are-like-lego-pieces-of-ones-identity-Verifiable-composable-and-tamper-resistant-Put",
            "created_at": "2023-07-11T12:24:28Z",
            "votes": {
                "negative": 0,
                "positive": 0,
                "important": 0,
                "liked": 0,
                "disliked": 0,
                "lol": 0,
                "toxic": 0,
                "saved": 0,
                "comments": 0
            }
        },
        {
            "kind": "news",
            "domain": "@litentry",
            "source": {
                "title": "Litentry Twitter",
                "region": "en",
                "domain": "twitter.com",
                "path": "@litentry"
            },
            "title": "RT @PolkadotInsider: \ufe0f @litentry's infrastructure is written in #Rust &amp; runs on the #Substrate framework, which is designed to support a m\u2026",
            "published_at": "2023-07-11T06:56:52Z",
            "slug": "RT-PolkadotInsider-litentrys-infrastructure-is-written-in-Rust-amp-runs-on-the-Substrate-framework-which-is-designed-to-support-a-m",
            "currencies": [
                {
                    "code": "LIT",
                    "title": "Litentry",
                    "slug": "litentry",
                    "url": "https:\/\/cryptopanic.com\/news\/litentry\/"
                }
            ],
            "id": 18757276,
            "url": "https:\/\/cryptopanic.com\/news\/18757276\/RT-PolkadotInsider-litentrys-infrastructure-is-written-in-Rust-amp-runs-on-the-Substrate-framework-which-is-designed-to-support-a-m",
            "created_at": "2023-07-11T06:56:52Z",
            "votes": {
                "negative": 0,
                "positive": 0,
                "important": 0,
                "liked": 0,
                "disliked": 0,
                "lol": 0,
                "toxic": 0,
                "saved": 0,
                "comments": 0
            }
        },
        {
            "kind": "news",
            "domain": "@LITWTF",
            "source": {
                "title": "LIT Twitter",
                "region": "en",
                "domain": "twitter.com",
                "path": "@litwtf"
            },
            "title": "RT @TheBirdman2021: Looking forward to spending some time with old and new $LIT frens in the LITADEL. @ArtUnchained_io and @LITWTF is one\u2026",
            "published_at": "2023-07-11T00:57:16Z",
            "slug": "RT-TheBirdman2021-Looking-forward-to-spending-some-time-with-old-and-new-LIT-frens-in-the-LITADEL-ArtUnchained_io-and-LITWTF-is-one",
            "currencies": [
                {
                    "code": "LIT",
                    "title": "LIT",
                    "slug": "lit",
                    "url": "https:\/\/cryptopanic.com\/news\/lit\/"
                }
            ],
            "id": 18757146,
            "url": "https:\/\/cryptopanic.com\/news\/18757146\/RT-TheBirdman2021-Looking-forward-to-spending-some-time-with-old-and-new-LIT-frens-in-the-LITADEL-ArtUnchained_io-and-LITWTF-is-one",
            "created_at": "2023-07-11T00:57:16Z",
            "votes": {
                "negative": 0,
                "positive": 0,
                "important": 0,
                "liked": 0,
                "disliked": 0,
                "lol": 0,
                "toxic": 0,
                "saved": 0,
                "comments": 0
            }
        },
        {
            "kind": "news",
            "domain": "@LITWTF",
            "source": {
                "title": "LIT Twitter",
                "region": "en",
                "domain": "twitter.com",
                "path": "@litwtf"
            },
            "title": "RT @CryptoStatuette: Gm again after the incredible LITADEL launch party!\n\nI must share this particular moment that stood out as my favorite\u2026",
            "published_at": "2023-07-10T21:35:42Z",
            "slug": "RT-CryptoStatuette-Gm-again-after-the-incredible-LITADEL-launch-party-I-must-share-this-particular-moment-that-stood-out-as-my-favorite",
            "currencies": [
                {
                    "code": "LIT",
                    "title": "LIT",
                    "slug": "lit",
                    "url": "https:\/\/cryptopanic.com\/news\/lit\/"
                }
            ],
            "id": 18757147,
            "url": "https:\/\/cryptopanic.com\/news\/18757147\/RT-CryptoStatuette-Gm-again-after-the-incredible-LITADEL-launch-party-I-must-share-this-particular-moment-that-stood-out-as-my-favorite",
            "created_at": "2023-07-10T21:35:42Z",
            "votes": {
                "negative": 0,
                "positive": 0,
                "important": 0,
                "liked": 0,
                "disliked": 0,
                "lol": 0,
                "toxic": 0,
                "saved": 0,
                "comments": 0
            }
        },
        {
            "kind": "news",
            "domain": "@LITWTF",
            "source": {
                "title": "LIT Twitter",
                "region": "en",
                "domain": "twitter.com",
                "path": "@litwtf"
            },
            "title": "RT @TheWearyLuddite: it\u2019s time to get $lit with oncyber\u2019n\u2019frens",
            "published_at": "2023-07-10T19:53:18Z",
            "slug": "RT-TheWearyLuddite-its-time-to-get-lit-with-oncybernfrens",
            "currencies": [
                {
                    "code": "LIT",
                    "title": "LIT",
                    "slug": "lit",
                    "url": "https:\/\/cryptopanic.com\/news\/lit\/"
                }
            ],
            "id": 18757148,
            "url": "https:\/\/cryptopanic.com\/news\/18757148\/RT-TheWearyLuddite-its-time-to-get-lit-with-oncybernfrens",
            "created_at": "2023-07-10T19:53:18Z",
            "votes": {
                "negative": 0,
                "positive": 0,
                "important": 0,
                "liked": 0,
                "disliked": 0,
                "lol": 0,
                "toxic": 0,
                "saved": 0,
                "comments": 0
            }
        },
        {
            "kind": "news",
            "domain": "@LITWTF",
            "source": {
                "title": "LIT Twitter",
                "region": "en",
                "domain": "twitter.com",
                "path": "@litwtf"
            },
            "title": "RT @xCryptoBro: The LITADEL looks so amazing! @ArtUnchained_io @LITWTF",
            "published_at": "2023-07-10T19:52:27Z",
            "slug": "RT-xCryptoBro-The-LITADEL-looks-so-amazing-ArtUnchained_io-LITWTF",
            "currencies": [
                {
                    "code": "LIT",
                    "title": "LIT",
                    "slug": "lit",
                    "url": "https:\/\/cryptopanic.com\/news\/lit\/"
                }
            ],
            "id": 18757149,
            "url": "https:\/\/cryptopanic.com\/news\/18757149\/RT-xCryptoBro-The-LITADEL-looks-so-amazing-ArtUnchained_io-LITWTF",
            "created_at": "2023-07-10T19:52:27Z",
            "votes": {
                "negative": 0,
                "positive": 0,
                "important": 0,
                "liked": 0,
                "disliked": 0,
                "lol": 0,
                "toxic": 0,
                "saved": 0,
                "comments": 0
            }
        },
        {
            "kind": "news",
            "domain": "@LITWTF",
            "source": {
                "title": "LIT Twitter",
                "region": "en",
                "domain": "twitter.com",
                "path": "@litwtf"
            },
            "title": "RT @wildalps: @pw_nft @LITWTF @ArtUnchained_io @oncyber really cool one, very unique! there is even a @CozomoMedici statue",
            "published_at": "2023-07-10T19:52:18Z",
            "slug": "RT-wildalps-pw_nft-LITWTF-ArtUnchained_io-oncyber-really-cool-one-very-unique-there-is-even-a-CozomoMedici-statue",
            "currencies": [
                {
                    "code": "LIT",
                    "title": "LIT",
                    "slug": "lit",
                    "url": "https:\/\/cryptopanic.com\/news\/lit\/"
                }
            ],
            "id": 18757150,
            "url": "https:\/\/cryptopanic.com\/news\/18757150\/RT-wildalps-pw_nft-LITWTF-ArtUnchained_io-oncyber-really-cool-one-very-unique-there-is-even-a-CozomoMedici-statue",
            "created_at": "2023-07-10T19:52:18Z",
            "votes": {
                "negative": 0,
                "positive": 0,
                "important": 0,
                "liked": 0,
                "disliked": 0,
                "lol": 0,
                "toxic": 0,
                "saved": 0,
                "comments": 0
            }
        },
        {
            "kind": "news",
            "domain": "@LITWTF",
            "source": {
                "title": "LIT Twitter",
                "region": "en",
                "domain": "twitter.com",
                "path": "@litwtf"
            },
            "title": "RT @wildalps: gn\ud83e\udee1\ud83e\udd0d\n\nLet's join LIT launch party at LITADEL, the house of LIT Community! \n\n The event starts in 10 min., 6pm UTC! \n\nHost\u2026",
            "published_at": "2023-07-10T19:52:16Z",
            "slug": "RT-wildalps-gn-Lets-join-LIT-launch-party-at-LITADEL-the-house-of-LIT-Community-The-event-starts-in-10-min-6pm-UTC-Host",
            "currencies": [
                {
                    "code": "LIT",
                    "title": "LIT",
                    "slug": "lit",
                    "url": "https:\/\/cryptopanic.com\/news\/lit\/"
                }
            ],
            "id": 18757151,
            "url": "https:\/\/cryptopanic.com\/news\/18757151\/RT-wildalps-gn-Lets-join-LIT-launch-party-at-LITADEL-the-house-of-LIT-Community-The-event-starts-in-10-min-6pm-UTC-Host",
            "created_at": "2023-07-10T19:52:16Z",
            "votes": {
                "negative": 0,
                "positive": 0,
                "important": 0,
                "liked": 0,
                "disliked": 0,
                "lol": 0,
                "toxic": 0,
                "saved": 0,
                "comments": 0
            }
        },
        {
            "kind": "news",
            "domain": "@LITWTF",
            "source": {
                "title": "LIT Twitter",
                "region": "en",
                "domain": "twitter.com",
                "path": "@litwtf"
            },
            "title": "RT @CInvnt: Just wow \ud83e\udd2f",
            "published_at": "2023-07-10T19:51:49Z",
            "slug": "RT-CInvnt-Just-wow",
            "currencies": [
                {
                    "code": "LIT",
                    "title": "LIT",
                    "slug": "lit",
                    "url": "https:\/\/cryptopanic.com\/news\/lit\/"
                }
            ],
            "id": 18757152,
            "url": "https:\/\/cryptopanic.com\/news\/18757152\/RT-CInvnt-Just-wow",
            "created_at": "2023-07-10T19:51:49Z",
            "votes": {
                "negative": 0,
                "positive": 0,
                "important": 0,
                "liked": 0,
                "disliked": 0,
                "lol": 0,
                "toxic": 0,
                "saved": 0,
                "comments": 0
            }
        },
        {
            "kind": "news",
            "domain": "@LITWTF",
            "source": {
                "title": "LIT Twitter",
                "region": "en",
                "domain": "twitter.com",
                "path": "@litwtf"
            },
            "title": "RT @kevinonearth999: Special shoutout to the amazing talent you can now discover at the @LITWTF LITADEL Launch event happening NOW!\n\nJump i\u2026",
            "published_at": "2023-07-10T19:51:36Z",
            "slug": "RT-kevinonearth999-Special-shoutout-to-the-amazing-talent-you-can-now-discover-at-the-LITWTF-LITADEL-Launch-event-happening-NOW-Jump-i",
            "currencies": [
                {
                    "code": "LIT",
                    "title": "LIT",
                    "slug": "lit",
                    "url": "https:\/\/cryptopanic.com\/news\/lit\/"
                }
            ],
            "id": 18757153,
            "url": "https:\/\/cryptopanic.com\/news\/18757153\/RT-kevinonearth999-Special-shoutout-to-the-amazing-talent-you-can-now-discover-at-the-LITWTF-LITADEL-Launch-event-happening-NOW-Jump-i",
            "created_at": "2023-07-10T19:51:36Z",
            "votes": {
                "negative": 0,
                "positive": 0,
                "important": 0,
                "liked": 0,
                "disliked": 0,
                "lol": 0,
                "toxic": 0,
                "saved": 0,
                "comments": 0
            }
        },
        {
            "kind": "news",
            "domain": "@LITWTF",
            "source": {
                "title": "LIT Twitter",
                "region": "en",
                "domain": "twitter.com",
                "path": "@litwtf"
            },
            "title": "RT @AnaIsabel_Photo: Partying with my @LITWTF fam for their LITADEL event! \n\nThis is one of the most beautiful galleries I have seen! So i\u2026",
            "published_at": "2023-07-10T19:51:19Z",
            "slug": "RT-AnaIsabel_Photo-Partying-with-my-LITWTF-fam-for-their-LITADEL-event-This-is-one-of-the-most-beautiful-galleries-I-have-seen-So-i",
            "currencies": [
                {
                    "code": "LIT",
                    "title": "LIT",
                    "slug": "lit",
                    "url": "https:\/\/cryptopanic.com\/news\/lit\/"
                }
            ],
            "id": 18757154,
            "url": "https:\/\/cryptopanic.com\/news\/18757154\/RT-AnaIsabel_Photo-Partying-with-my-LITWTF-fam-for-their-LITADEL-event-This-is-one-of-the-most-beautiful-galleries-I-have-seen-So-i",
            "created_at": "2023-07-10T19:51:19Z",
            "votes": {
                "negative": 0,
                "positive": 0,
                "important": 0,
                "liked": 0,
                "disliked": 0,
                "lol": 0,
                "toxic": 0,
                "saved": 0,
                "comments": 0
            }
        },
        {
            "kind": "news",
            "domain": "@LITWTF",
            "source": {
                "title": "LIT Twitter",
                "region": "en",
                "domain": "twitter.com",
                "path": "@litwtf"
            },
            "title": "RT @LITizenJeff: Preparing to camp the spawn point \ud83e\udd23",
            "published_at": "2023-07-10T17:38:30Z",
            "slug": "RT-LITizenJeff-Preparing-to-camp-the-spawn-point",
            "currencies": [
                {
                    "code": "LIT",
                    "title": "LIT",
                    "slug": "lit",
                    "url": "https:\/\/cryptopanic.com\/news\/lit\/"
                }
            ],
            "id": 18757155,
            "url": "https:\/\/cryptopanic.com\/news\/18757155\/RT-LITizenJeff-Preparing-to-camp-the-spawn-point",
            "created_at": "2023-07-10T17:38:30Z",
            "votes": {
                "negative": 0,
                "positive": 0,
                "important": 0,
                "liked": 0,
                "disliked": 0,
                "lol": 0,
                "toxic": 0,
                "saved": 0,
                "comments": 0
            }
        },
        {
            "kind": "news",
            "domain": "@Timeless_Fi",
            "source": {
                "title": "Timeless Twitter",
                "region": "en",
                "domain": "twitter.com",
                "path": "@timeless_fi"
            },
            "title": "1. \u23f3 Gauge Weight Week (Jul 6-13) is closing soon! Stay ahead with your veLIT voting incentives using\u2026",
            "published_at": "2023-07-10T17:23:16Z",
            "slug": "1-Gauge-Weight-Week-Jul-6-13-is-closing-soon-Stay-ahead-with-your-veLIT-voting-incentives-using",
            "currencies": [
                {
                    "code": "LIT",
                    "title": "Timeless",
                    "slug": "timeless",
                    "url": "https:\/\/cryptopanic.com\/news\/timeless\/"
                }
            ],
            "id": 18759380,
            "url": "https:\/\/cryptopanic.com\/news\/18759380\/1-Gauge-Weight-Week-Jul-6-13-is-closing-soon-Stay-ahead-with-your-veLIT-voting-incentives-using",
            "created_at": "2023-07-10T17:23:16Z",
            "votes": {
                "negative": 0,
                "positive": 0,
                "important": 0,
                "liked": 0,
                "disliked": 0,
                "lol": 0,
                "toxic": 0,
                "saved": 0,
                "comments": 0
            }
        },
        {
            "kind": "news",
            "domain": "@LITWTF",
            "source": {
                "title": "LIT Twitter",
                "region": "en",
                "domain": "twitter.com",
                "path": "@litwtf"
            },
            "title": "RT @unchained_ninja: TODAY! ",
            "published_at": "2023-07-10T16:57:44Z",
            "slug": "RT-unchained_ninja-TODAY",
            "currencies": [
                {
                    "code": "LIT",
                    "title": "LIT",
                    "slug": "lit",
                    "url": "https:\/\/cryptopanic.com\/news\/lit\/"
                }
            ],
            "id": 18757156,
            "url": "https:\/\/cryptopanic.com\/news\/18757156\/RT-unchained_ninja-TODAY",
            "created_at": "2023-07-10T16:57:44Z",
            "votes": {
                "negative": 0,
                "positive": 0,
                "important": 0,
                "liked": 0,
                "disliked": 0,
                "lol": 0,
                "toxic": 0,
                "saved": 0,
                "comments": 0
            }
        },
        {
            "kind": "news",
            "domain": "@LITWTF",
            "source": {
                "title": "LIT Twitter",
                "region": "en",
                "domain": "twitter.com",
                "path": "@litwtf"
            },
            "title": "RT @PWarrenn: Come join and hang later! Such a beautiful gallery ",
            "published_at": "2023-07-10T16:57:41Z",
            "slug": "RT-PWarrenn-Come-join-and-hang-later-Such-a-beautiful-gallery",
            "currencies": [
                {
                    "code": "LIT",
                    "title": "LIT",
                    "slug": "lit",
                    "url": "https:\/\/cryptopanic.com\/news\/lit\/"
                }
            ],
            "id": 18757157,
            "url": "https:\/\/cryptopanic.com\/news\/18757157\/RT-PWarrenn-Come-join-and-hang-later-Such-a-beautiful-gallery",
            "created_at": "2023-07-10T16:57:41Z",
            "votes": {
                "negative": 0,
                "positive": 0,
                "important": 0,
                "liked": 0,
                "disliked": 0,
                "lol": 0,
                "toxic": 0,
                "saved": 0,
                "comments": 0
            }
        },
        {
            "kind": "news",
            "domain": "@LITWTF",
            "source": {
                "title": "LIT Twitter",
                "region": "en",
                "domain": "twitter.com",
                "path": "@litwtf"
            },
            "title": "RT @BenMurphyPhotog: This is seriously one of the coolest galleries I've ever seen.",
            "published_at": "2023-07-10T16:01:18Z",
            "slug": "RT-BenMurphyPhotog-This-is-seriously-one-of-the-coolest-galleries-Ive-ever-seen",
            "currencies": [
                {
                    "code": "LIT",
                    "title": "LIT",
                    "slug": "lit",
                    "url": "https:\/\/cryptopanic.com\/news\/lit\/"
                }
            ],
            "id": 18757158,
            "url": "https:\/\/cryptopanic.com\/news\/18757158\/RT-BenMurphyPhotog-This-is-seriously-one-of-the-coolest-galleries-Ive-ever-seen",
            "created_at": "2023-07-10T16:01:18Z",
            "votes": {
                "negative": 0,
                "positive": 0,
                "important": 0,
                "liked": 0,
                "disliked": 0,
                "lol": 0,
                "toxic": 0,
                "saved": 0,
                "comments": 0
            }
        },
        {
            "kind": "news",
            "domain": "@LITWTF",
            "source": {
                "title": "LIT Twitter",
                "region": "en",
                "domain": "twitter.com",
                "path": "@litwtf"
            },
            "title": "RT @AnaIsabel_Photo: Come and see beautiful art!",
            "published_at": "2023-07-10T14:52:53Z",
            "slug": "RT-AnaIsabel_Photo-Come-and-see-beautiful-art",
            "currencies": [
                {
                    "code": "LIT",
                    "title": "LIT",
                    "slug": "lit",
                    "url": "https:\/\/cryptopanic.com\/news\/lit\/"
                }
            ],
            "id": 18757159,
            "url": "https:\/\/cryptopanic.com\/news\/18757159\/RT-AnaIsabel_Photo-Come-and-see-beautiful-art",
            "created_at": "2023-07-10T14:52:53Z",
            "votes": {
                "negative": 0,
                "positive": 0,
                "important": 0,
                "liked": 0,
                "disliked": 0,
                "lol": 0,
                "toxic": 0,
                "saved": 0,
                "comments": 0
            }
        },
        {
            "kind": "news",
            "domain": "@litentry",
            "source": {
                "title": "Litentry Twitter",
                "region": "en",
                "domain": "twitter.com",
                "path": "@litentry"
            },
            "title": "Who caught the June quiz in action last week? \n\nWant to attend the July quiz? Well, let\u2019s check out one of the Jun\u2026",
            "published_at": "2023-07-10T09:30:49Z",
            "slug": "Who-caught-the-June-quiz-in-action-last-week-Want-to-attend-the-July-quiz-Well-lets-check-out-one-of-the-Jun",
            "currencies": [
                {
                    "code": "LIT",
                    "title": "Litentry",
                    "slug": "litentry",
                    "url": "https:\/\/cryptopanic.com\/news\/litentry\/"
                }
            ],
            "id": 18757277,
            "url": "https:\/\/cryptopanic.com\/news\/18757277\/Who-caught-the-June-quiz-in-action-last-week-Want-to-attend-the-July-quiz-Well-lets-check-out-one-of-the-Jun",
            "created_at": "2023-07-10T09:30:49Z",
            "votes": {
                "negative": 0,
                "positive": 0,
                "important": 0,
                "liked": 0,
                "disliked": 0,
                "lol": 0,
                "toxic": 0,
                "saved": 0,
                "comments": 0
            }
        }
    ]
}
