{
    "count": 200,
    "next": "https:\/\/cryptopanic.com\/api\/v1\/posts\/?auth_token=01c356e89ffc1b8eba2127c81fc8c66ee0eace75&kind=news&currencies=VOXEL&page=2",
    "previous": null,
    "results": [
        {
            "kind": "news",
            "domain": "@VoxiesNFT",
            "source": {
                "title": "Voxies Twitter",
                "region": "en",
                "domain": "twitter.com",
                "path": "@voxiesnft"
            },
            "title": "When the Voxie grind is STRONG \ufe0f\n    \u2312\u256d\u256e\u2312\u256d\u256e\n\u256d \u25e0 \u00a0 \u00a0 \u00a0 \u00a0 \u00a0 \u00a0 \u00a0 \u00a0 \u00a0 \u00a0 \u00a0\u256e\n( \u00a0 \u00a0\u2503\u2584\u2584\u2584 \u00a0 \u00a0)\n( \u00a0 \u00a0\u2523\u2501\u2501\u2501\u2501\u2513 \u00a0)\n \u2323( \u00a0 \u00a0\u2026",
            "published_at": "2023-07-12T02:59:15Z",
            "slug": "When-the-Voxie-grind-is-STRONG",
            "currencies": [
                {
                    "code": "VOXEL",
                    "title": "Voxies",
                    "slug": "voxies",
                    "url": "https:\/\/cryptopanic.com\/news\/voxies\/"
                }
            ],
            "id": 18768045,
            "url": "https:\/\/cryptopanic.com\/news\/18768045\/When-the-Voxie-grind-is-STRONG",
            "created_at": "2023-07-12T02:59:15Z",
            "votes": {
                "negative": 0,
                "positive": 0,
                "important": 0,
                "liked": 0,
                "disliked": 0,
                "lol": 0,
                "toxic": 0,
                "saved": 0,
                "comments": 0
            }
        },
        {
            "kind": "news",
            "domain": "@VoxiesNFT",
            "source": {
                "title": "Voxies Twitter",
                "region": "en",
                "domain": "twitter.com",
                "path": "@voxiesnft"
            },
            "title": "Can\u2019t get enough of the Voxie Tactics Trailer? There\u2019s more where that came from! \ufe0f\n\nFollow us to stay in the loop\u2026",
            "published_at": "2023-07-11T02:53:29Z",
            "slug": "Cant-get-enough-of-the-Voxie-Tactics-Trailer-Theres-more-where-that-came-from-Follow-us-to-stay-in-the-loop",
            "currencies": [
                {
                    "code": "VOXEL",
                    "title": "Voxies",
                    "slug": "voxies",
                    "url": "https:\/\/cryptopanic.com\/news\/voxies\/"
                }
            ],
            "id": 18759762,
            "url": "https:\/\/cryptopanic.com\/news\/18759762\/Cant-get-enough-of-the-Voxie-Tactics-Trailer-Theres-more-where-that-came-from-Follow-us-to-stay-in-the-loop",
            "created_at": "2023-07-11T02:53:29Z",
            "votes": {
                "negative": 0,
                "positive": 0,
                "important": 0,
                "liked": 0,
                "disliked": 0,
                "lol": 0,
                "toxic": 0,
                "saved": 0,
                "comments": 0
            }
        },
        {
            "kind": "news",
            "domain": "@VoxiesNFT",
            "source": {
                "title": "Voxies Twitter",
                "region": "en",
                "domain": "twitter.com",
                "path": "@voxiesnft"
            },
            "title": "Think you have what it takes to be a creator for Voxies?\n\nReply below with what you got! ",
            "published_at": "2023-07-09T00:05:45Z",
            "slug": "Think-you-have-what-it-takes-to-be-a-creator-for-Voxies-Reply-below-with-what-you-got",
            "currencies": [
                {
                    "code": "VOXEL",
                    "title": "Voxies",
                    "slug": "voxies",
                    "url": "https:\/\/cryptopanic.com\/news\/voxies\/"
                }
            ],
            "id": 18747333,
            "url": "https:\/\/cryptopanic.com\/news\/18747333\/Think-you-have-what-it-takes-to-be-a-creator-for-Voxies-Reply-below-with-what-you-got",
            "created_at": "2023-07-09T00:05:45Z",
            "votes": {
                "negative": 0,
                "positive": 0,
                "important": 0,
                "liked": 0,
                "disliked": 0,
                "lol": 0,
                "toxic": 0,
                "saved": 0,
                "comments": 0
            }
        },
        {
            "kind": "news",
            "domain": "@VoxiesNFT",
            "source": {
                "title": "Voxies Twitter",
                "region": "en",
                "domain": "twitter.com",
                "path": "@voxiesnft"
            },
            "title": "RT @VoxiesNFT:  Voxie Tactics Dev Diaries 7th of July 2023 \n\nHello, everyone! It\u2019s that time of the week and we\u2019ve got a lot to go over,\u2026",
            "published_at": "2023-07-08T17:09:57Z",
            "slug": "RT-VoxiesNFT-Voxie-Tactics-Dev-Diaries-7th-of-July-2023-Hello-everyone-Its-that-time-of-the-week-and-weve-got-a-lot-to-go-over",
            "currencies": [
                {
                    "code": "VOXEL",
                    "title": "Voxies",
                    "slug": "voxies",
                    "url": "https:\/\/cryptopanic.com\/news\/voxies\/"
                }
            ],
            "id": 18747334,
            "url": "https:\/\/cryptopanic.com\/news\/18747334\/RT-VoxiesNFT-Voxie-Tactics-Dev-Diaries-7th-of-July-2023-Hello-everyone-Its-that-time-of-the-week-and-weve-got-a-lot-to-go-over",
            "created_at": "2023-07-08T17:09:57Z",
            "votes": {
                "negative": 0,
                "positive": 0,
                "important": 0,
                "liked": 0,
                "disliked": 0,
                "lol": 0,
                "toxic": 0,
                "saved": 0,
                "comments": 0
            }
        },
        {
            "kind": "news",
            "domain": "@VoxiesNFT",
            "source": {
                "title": "Voxies Twitter",
                "region": "en",
                "domain": "twitter.com",
                "path": "@voxiesnft"
            },
            "title": "RT @Zueljin: I LOVE the new \"Will It Rent?\" feature for the @VoxiesNFT community tool by @that_undeep_guy! I can quickly check and compare\u2026",
            "published_at": "2023-07-08T16:21:54Z",
            "slug": "RT-Zueljin-I-LOVE-the-new-Will-It-Rent-feature-for-the-VoxiesNFT-community-tool-by-that_undeep_guy-I-can-quickly-check-and-compare",
            "currencies": [
                {
                    "code": "VOXEL",
                    "title": "Voxies",
                    "slug": "voxies",
                    "url": "https:\/\/cryptopanic.com\/news\/voxies\/"
                }
            ],
            "id": 18747335,
            "url": "https:\/\/cryptopanic.com\/news\/18747335\/RT-Zueljin-I-LOVE-the-new-Will-It-Rent-feature-for-the-VoxiesNFT-community-tool-by-that_undeep_guy-I-can-quickly-check-and-compare",
            "created_at": "2023-07-08T16:21:54Z",
            "votes": {
                "negative": 0,
                "positive": 0,
                "important": 0,
                "liked": 0,
                "disliked": 0,
                "lol": 0,
                "toxic": 0,
                "saved": 0,
                "comments": 0
            }
        },
        {
            "kind": "news",
            "domain": "@VoxiesNFT",
            "source": {
                "title": "Voxies Twitter",
                "region": "en",
                "domain": "twitter.com",
                "path": "@voxiesnft"
            },
            "title": " Voxie Tactics Dev Diaries 7th of July 2023 \n\nHello, everyone! It\u2019s that time of the week and we\u2019ve got a lot to\u2026",
            "published_at": "2023-07-07T23:43:07Z",
            "slug": "Voxie-Tactics-Dev-Diaries-7th-of-July-2023-Hello-everyone-Its-that-time-of-the-week-and-weve-got-a-lot-to",
            "currencies": [
                {
                    "code": "VOXEL",
                    "title": "Voxies",
                    "slug": "voxies",
                    "url": "https:\/\/cryptopanic.com\/news\/voxies\/"
                }
            ],
            "id": 18743187,
            "url": "https:\/\/cryptopanic.com\/news\/18743187\/Voxie-Tactics-Dev-Diaries-7th-of-July-2023-Hello-everyone-Its-that-time-of-the-week-and-weve-got-a-lot-to",
            "created_at": "2023-07-07T23:43:07Z",
            "votes": {
                "negative": 0,
                "positive": 0,
                "important": 0,
                "liked": 0,
                "disliked": 0,
                "lol": 0,
                "toxic": 0,
                "saved": 0,
                "comments": 0
            }
        },
        {
            "kind": "news",
            "domain": "@VoxiesNFT",
            "source": {
                "title": "Voxies Twitter",
                "region": "en",
                "domain": "twitter.com",
                "path": "@voxiesnft"
            },
            "title": "Whichever pet you land on is your spirit animal \n\nWhich did you get?",
            "published_at": "2023-07-06T20:31:21Z",
            "slug": "Whichever-pet-you-land-on-is-your-spirit-animal-Which-did-you-get",
            "currencies": [
                {
                    "code": "VOXEL",
                    "title": "Voxies",
                    "slug": "voxies",
                    "url": "https:\/\/cryptopanic.com\/news\/voxies\/"
                }
            ],
            "id": 18736189,
            "url": "https:\/\/cryptopanic.com\/news\/18736189\/Whichever-pet-you-land-on-is-your-spirit-animal-Which-did-you-get",
            "created_at": "2023-07-06T20:31:21Z",
            "votes": {
                "negative": 0,
                "positive": 0,
                "important": 0,
                "liked": 0,
                "disliked": 0,
                "lol": 0,
                "toxic": 0,
                "saved": 0,
                "comments": 0
            }
        },
        {
            "kind": "news",
            "domain": "@VoxiesNFT",
            "source": {
                "title": "Voxies Twitter",
                "region": "en",
                "domain": "twitter.com",
                "path": "@voxiesnft"
            },
            "title": "We're going to start Twitter Spaces, what topics would you like us to cover? \ud83e\udd14",
            "published_at": "2023-07-05T16:40:13Z",
            "slug": "Were-going-to-start-Twitter-Spaces-what-topics-would-you-like-us-to-cover",
            "currencies": [
                {
                    "code": "VOXEL",
                    "title": "Voxies",
                    "slug": "voxies",
                    "url": "https:\/\/cryptopanic.com\/news\/voxies\/"
                }
            ],
            "id": 18727596,
            "url": "https:\/\/cryptopanic.com\/news\/18727596\/Were-going-to-start-Twitter-Spaces-what-topics-would-you-like-us-to-cover",
            "created_at": "2023-07-05T16:40:13Z",
            "votes": {
                "negative": 0,
                "positive": 0,
                "important": 0,
                "liked": 0,
                "disliked": 0,
                "lol": 0,
                "toxic": 0,
                "saved": 0,
                "comments": 0
            }
        },
        {
            "kind": "news",
            "domain": "@VoxiesNFT",
            "source": {
                "title": "Voxies Twitter",
                "region": "en",
                "domain": "twitter.com",
                "path": "@voxiesnft"
            },
            "title": "Unlock your items TRUE potential and get the upgrade YOU deserve today!\n\n Infusion starts here -\u2026",
            "published_at": "2023-07-03T01:28:02Z",
            "slug": "Unlock-your-items-TRUE-potential-and-get-the-upgrade-YOU-deserve-today-Infusion-starts-here-",
            "currencies": [
                {
                    "code": "VOXEL",
                    "title": "Voxies",
                    "slug": "voxies",
                    "url": "https:\/\/cryptopanic.com\/news\/voxies\/"
                }
            ],
            "id": 18704982,
            "url": "https:\/\/cryptopanic.com\/news\/18704982\/Unlock-your-items-TRUE-potential-and-get-the-upgrade-YOU-deserve-today-Infusion-starts-here-",
            "created_at": "2023-07-03T01:28:02Z",
            "votes": {
                "negative": 0,
                "positive": 0,
                "important": 0,
                "liked": 0,
                "disliked": 0,
                "lol": 0,
                "toxic": 0,
                "saved": 0,
                "comments": 0
            }
        },
        {
            "kind": "news",
            "domain": "@VoxiesNFT",
            "source": {
                "title": "Voxies Twitter",
                "region": "en",
                "domain": "twitter.com",
                "path": "@voxiesnft"
            },
            "title": "RT @that_undeep_guy: Great web3 teams don't shut you down when building tools that delve deep into the data and ecosystem. \n\nThey'll send y\u2026",
            "published_at": "2023-07-02T23:28:27Z",
            "slug": "RT-that_undeep_guy-Great-web3-teams-dont-shut-you-down-when-building-tools-that-delve-deep-into-the-data-and-ecosystem-Theyll-send-y",
            "currencies": [
                {
                    "code": "VOXEL",
                    "title": "Voxies",
                    "slug": "voxies",
                    "url": "https:\/\/cryptopanic.com\/news\/voxies\/"
                }
            ],
            "id": 18704983,
            "url": "https:\/\/cryptopanic.com\/news\/18704983\/RT-that_undeep_guy-Great-web3-teams-dont-shut-you-down-when-building-tools-that-delve-deep-into-the-data-and-ecosystem-Theyll-send-y",
            "created_at": "2023-07-02T23:28:27Z",
            "votes": {
                "negative": 0,
                "positive": 0,
                "important": 0,
                "liked": 0,
                "disliked": 0,
                "lol": 0,
                "toxic": 0,
                "saved": 0,
                "comments": 0
            }
        },
        {
            "kind": "news",
            "domain": "@VoxiesNFT",
            "source": {
                "title": "Voxies Twitter",
                "region": "en",
                "domain": "twitter.com",
                "path": "@voxiesnft"
            },
            "title": "RT if you agree ",
            "published_at": "2023-07-02T01:21:18Z",
            "slug": "RT-if-you-agree",
            "currencies": [
                {
                    "code": "VOXEL",
                    "title": "Voxies",
                    "slug": "voxies",
                    "url": "https:\/\/cryptopanic.com\/news\/voxies\/"
                }
            ],
            "id": 18700503,
            "url": "https:\/\/cryptopanic.com\/news\/18700503\/RT-if-you-agree",
            "created_at": "2023-07-02T01:21:18Z",
            "votes": {
                "negative": 0,
                "positive": 0,
                "important": 0,
                "liked": 0,
                "disliked": 0,
                "lol": 0,
                "toxic": 0,
                "saved": 0,
                "comments": 0
            }
        },
        {
            "kind": "news",
            "domain": "@VoxiesNFT",
            "source": {
                "title": "Voxies Twitter",
                "region": "en",
                "domain": "twitter.com",
                "path": "@voxiesnft"
            },
            "title": " Voxie Tactics Dev Diaries 30th of June 2023 \n\nHello, everyone! It\u2019s that time of the week and we\u2019ve got a lot to\u2026",
            "published_at": "2023-07-01T03:02:05Z",
            "slug": "Voxie-Tactics-Dev-Diaries-30th-of-June-2023-Hello-everyone-Its-that-time-of-the-week-and-weve-got-a-lot-to",
            "currencies": [
                {
                    "code": "VOXEL",
                    "title": "Voxies",
                    "slug": "voxies",
                    "url": "https:\/\/cryptopanic.com\/news\/voxies\/"
                }
            ],
            "id": 18696408,
            "url": "https:\/\/cryptopanic.com\/news\/18696408\/Voxie-Tactics-Dev-Diaries-30th-of-June-2023-Hello-everyone-Its-that-time-of-the-week-and-weve-got-a-lot-to",
            "created_at": "2023-07-01T03:02:05Z",
            "votes": {
                "negative": 0,
                "positive": 0,
                "important": 0,
                "liked": 0,
                "disliked": 0,
                "lol": 0,
                "toxic": 0,
                "saved": 0,
                "comments": 0
            }
        },
        {
            "kind": "news",
            "domain": "@VoxiesNFT",
            "source": {
                "title": "Voxies Twitter",
                "region": "en",
                "domain": "twitter.com",
                "path": "@voxiesnft"
            },
            "title": "Begin your adventure into Voxie Tactics with a click of a button!\n\nDownload Today -",
            "published_at": "2023-06-30T01:15:18Z",
            "slug": "Begin-your-adventure-into-Voxie-Tactics-with-a-click-of-a-button-Download-Today-",
            "currencies": [
                {
                    "code": "VOXEL",
                    "title": "Voxies",
                    "slug": "voxies",
                    "url": "https:\/\/cryptopanic.com\/news\/voxies\/"
                }
            ],
            "id": 18689142,
            "url": "https:\/\/cryptopanic.com\/news\/18689142\/Begin-your-adventure-into-Voxie-Tactics-with-a-click-of-a-button-Download-Today-",
            "created_at": "2023-06-30T01:15:18Z",
            "votes": {
                "negative": 0,
                "positive": 0,
                "important": 0,
                "liked": 0,
                "disliked": 0,
                "lol": 0,
                "toxic": 0,
                "saved": 0,
                "comments": 0
            }
        },
        {
            "kind": "news",
            "domain": "@VoxiesNFT",
            "source": {
                "title": "Voxies Twitter",
                "region": "en",
                "domain": "twitter.com",
                "path": "@voxiesnft"
            },
            "title": "What creator would you LOVE to see making Voxies content? \n\nTag them below ",
            "published_at": "2023-06-29T00:16:31Z",
            "slug": "What-creator-would-you-LOVE-to-see-making-Voxies-content-Tag-them-below",
            "currencies": [
                {
                    "code": "VOXEL",
                    "title": "Voxies",
                    "slug": "voxies",
                    "url": "https:\/\/cryptopanic.com\/news\/voxies\/"
                }
            ],
            "id": 18681252,
            "url": "https:\/\/cryptopanic.com\/news\/18681252\/What-creator-would-you-LOVE-to-see-making-Voxies-content-Tag-them-below",
            "created_at": "2023-06-29T00:16:31Z",
            "votes": {
                "negative": 0,
                "positive": 0,
                "important": 0,
                "liked": 0,
                "disliked": 0,
                "lol": 0,
                "toxic": 0,
                "saved": 0,
                "comments": 0
            }
        },
        {
            "kind": "news",
            "domain": "@VoxiesNFT",
            "source": {
                "title": "Voxies Twitter",
                "region": "en",
                "domain": "twitter.com",
                "path": "@voxiesnft"
            },
            "title": "RT @shockermandan: I spend 80% of my NFT time these days in @VoxiesNFT discord. Why? \n\n1. It's fun\n2. The people are friendly and helpful.\u2026",
            "published_at": "2023-06-28T17:26:26Z",
            "slug": "RT-shockermandan-I-spend-80-of-my-NFT-time-these-days-in-VoxiesNFT-discord-Why-1-Its-fun-2-The-people-are-friendly-and-helpful",
            "currencies": [
                {
                    "code": "VOXEL",
                    "title": "Voxies",
                    "slug": "voxies",
                    "url": "https:\/\/cryptopanic.com\/news\/voxies\/"
                }
            ],
            "id": 18681253,
            "url": "https:\/\/cryptopanic.com\/news\/18681253\/RT-shockermandan-I-spend-80-of-my-NFT-time-these-days-in-VoxiesNFT-discord-Why-1-Its-fun-2-The-people-are-friendly-and-helpful",
            "created_at": "2023-06-28T17:26:26Z",
            "votes": {
                "negative": 0,
                "positive": 0,
                "important": 0,
                "liked": 0,
                "disliked": 0,
                "lol": 0,
                "toxic": 0,
                "saved": 0,
                "comments": 0
            }
        },
        {
            "kind": "news",
            "domain": "@VoxiesNFT",
            "source": {
                "title": "Voxies Twitter",
                "region": "en",
                "domain": "twitter.com",
                "path": "@voxiesnft"
            },
            "title": "The Arcanist calls you, enter his domain, and be rewarded ",
            "published_at": "2023-06-27T20:34:02Z",
            "slug": "The-Arcanist-calls-you-enter-his-domain-and-be-rewarded",
            "currencies": [
                {
                    "code": "VOXEL",
                    "title": "Voxies",
                    "slug": "voxies",
                    "url": "https:\/\/cryptopanic.com\/news\/voxies\/"
                }
            ],
            "id": 18673096,
            "url": "https:\/\/cryptopanic.com\/news\/18673096\/The-Arcanist-calls-you-enter-his-domain-and-be-rewarded",
            "created_at": "2023-06-27T20:34:02Z",
            "votes": {
                "negative": 0,
                "positive": 0,
                "important": 0,
                "liked": 0,
                "disliked": 0,
                "lol": 0,
                "toxic": 0,
                "saved": 0,
                "comments": 0
            }
        },
        {
            "kind": "news",
            "domain": "@VoxiesNFT",
            "source": {
                "title": "Voxies Twitter",
                "region": "en",
                "domain": "twitter.com",
                "path": "@voxiesnft"
            },
            "title": " Im beggin, begging youuuu to follow our TikTok ",
            "published_at": "2023-06-26T21:52:41Z",
            "slug": "Im-beggin-begging-youuuu-to-follow-our-TikTok",
            "currencies": [
                {
                    "code": "VOXEL",
                    "title": "Voxies",
                    "slug": "voxies",
                    "url": "https:\/\/cryptopanic.com\/news\/voxies\/"
                }
            ],
            "id": 18664802,
            "url": "https:\/\/cryptopanic.com\/news\/18664802\/Im-beggin-begging-youuuu-to-follow-our-TikTok",
            "created_at": "2023-06-26T21:52:41Z",
            "votes": {
                "negative": 0,
                "positive": 0,
                "important": 0,
                "liked": 0,
                "disliked": 0,
                "lol": 0,
                "toxic": 0,
                "saved": 0,
                "comments": 0
            }
        },
        {
            "kind": "news",
            "domain": "@VoxiesNFT",
            "source": {
                "title": "Voxies Twitter",
                "region": "en",
                "domain": "twitter.com",
                "path": "@voxiesnft"
            },
            "title": "Your first step to glory in Voxie Tactics starts HERE!\n\nDownload and begin your journey today \ufe0f\n\n\ufe0f\u2026",
            "published_at": "2023-06-25T21:11:57Z",
            "slug": "Your-first-step-to-glory-in-Voxie-Tactics-starts-HERE-Download-and-begin-your-journey-today",
            "currencies": [
                {
                    "code": "VOXEL",
                    "title": "Voxies",
                    "slug": "voxies",
                    "url": "https:\/\/cryptopanic.com\/news\/voxies\/"
                }
            ],
            "id": 18656666,
            "url": "https:\/\/cryptopanic.com\/news\/18656666\/Your-first-step-to-glory-in-Voxie-Tactics-starts-HERE-Download-and-begin-your-journey-today",
            "created_at": "2023-06-25T21:11:57Z",
            "votes": {
                "negative": 0,
                "positive": 0,
                "important": 0,
                "liked": 0,
                "disliked": 0,
                "lol": 0,
                "toxic": 0,
                "saved": 0,
                "comments": 0
            }
        },
        {
            "kind": "news",
            "domain": "@VoxiesNFT",
            "source": {
                "title": "Voxies Twitter",
                "region": "en",
                "domain": "twitter.com",
                "path": "@voxiesnft"
            },
            "title": "RT @Njr_Voxel: today is a very happy day in my life, another achievement achieved in one of my biggest dreams since I've known voxie tactic\u2026",
            "published_at": "2023-06-25T21:07:14Z",
            "slug": "RT-Njr_Voxel-today-is-a-very-happy-day-in-my-life-another-achievement-achieved-in-one-of-my-biggest-dreams-since-Ive-known-voxie-tactic",
            "currencies": [
                {
                    "code": "VOXEL",
                    "title": "Voxies",
                    "slug": "voxies",
                    "url": "https:\/\/cryptopanic.com\/news\/voxies\/"
                }
            ],
            "id": 18656667,
            "url": "https:\/\/cryptopanic.com\/news\/18656667\/RT-Njr_Voxel-today-is-a-very-happy-day-in-my-life-another-achievement-achieved-in-one-of-my-biggest-dreams-since-Ive-known-voxie-tactic",
            "created_at": "2023-06-25T21:07:14Z",
            "votes": {
                "negative": 0,
                "positive": 0,
                "important": 0,
                "liked": 0,
                "disliked": 0,
                "lol": 0,
                "toxic": 0,
                "saved": 0,
                "comments": 0
            }
        },
        {
            "kind": "news",
            "domain": "@VoxiesNFT",
            "source": {
                "title": "Voxies Twitter",
                "region": "en",
                "domain": "twitter.com",
                "path": "@voxiesnft"
            },
            "title": "If you could add one new feature to the Voxies Marketplace, what would it be?",
            "published_at": "2023-06-23T01:59:36Z",
            "slug": "If-you-could-add-one-new-feature-to-the-Voxies-Marketplace-what-would-it-be",
            "currencies": [
                {
                    "code": "VOXEL",
                    "title": "Voxies",
                    "slug": "voxies",
                    "url": "https:\/\/cryptopanic.com\/news\/voxies\/"
                }
            ],
            "id": 18640543,
            "url": "https:\/\/cryptopanic.com\/news\/18640543\/If-you-could-add-one-new-feature-to-the-Voxies-Marketplace-what-would-it-be",
            "created_at": "2023-06-23T01:59:36Z",
            "votes": {
                "negative": 0,
                "positive": 0,
                "important": 0,
                "liked": 0,
                "disliked": 0,
                "lol": 0,
                "toxic": 0,
                "saved": 0,
                "comments": 0
            }
        }
    ]
}
