{
    "count": 200,
    "next": "https:\/\/cryptopanic.com\/api\/v1\/posts\/?auth_token=01c356e89ffc1b8eba2127c81fc8c66ee0eace75&kind=news&currencies=CHR&page=2",
    "previous": null,
    "results": [
        {
            "kind": "news",
            "domain": "@ChronosFi_",
            "source": {
                "title": "Chronos Finance Twitter",
                "region": "en",
                "domain": "twitter.com",
                "path": "@chronosfi_"
            },
            "title": "Our friends at @LiquidDriver have announced plans to migrate to the @arbitrum network, marking a huge step forward\u2026",
            "published_at": "2023-07-10T14:32:15Z",
            "slug": "Our-friends-at-LiquidDriver-have-announced-plans-to-migrate-to-the-arbitrum-network-marking-a-huge-step-forward",
            "currencies": [
                {
                    "code": "CHR",
                    "title": "Chronos Finance",
                    "slug": "chronos-finance",
                    "url": "https:\/\/cryptopanic.com\/news\/chronos-finance\/"
                }
            ],
            "id": 18755164,
            "url": "https:\/\/cryptopanic.com\/news\/18755164\/Our-friends-at-LiquidDriver-have-announced-plans-to-migrate-to-the-arbitrum-network-marking-a-huge-step-forward",
            "created_at": "2023-07-10T14:32:15Z",
            "votes": {
                "negative": 0,
                "positive": 0,
                "important": 0,
                "liked": 0,
                "disliked": 0,
                "lol": 0,
                "toxic": 0,
                "saved": 0,
                "comments": 0
            }
        },
        {
            "kind": "news",
            "domain": "@ChronosFi_",
            "source": {
                "title": "Chronos Finance Twitter",
                "region": "en",
                "domain": "twitter.com",
                "path": "@chronosfi_"
            },
            "title": "Join us today for an in-depth discussion about Chronos V2, launching July 17th!\n\nWe'll be answering questions about\u2026",
            "published_at": "2023-07-10T10:10:01Z",
            "slug": "Join-us-today-for-an-in-depth-discussion-about-Chronos-V2-launching-July-17th-Well-be-answering-questions-about",
            "currencies": [
                {
                    "code": "CHR",
                    "title": "Chronos Finance",
                    "slug": "chronos-finance",
                    "url": "https:\/\/cryptopanic.com\/news\/chronos-finance\/"
                }
            ],
            "id": 18755165,
            "url": "https:\/\/cryptopanic.com\/news\/18755165\/Join-us-today-for-an-in-depth-discussion-about-Chronos-V2-launching-July-17th-Well-be-answering-questions-about",
            "created_at": "2023-07-10T10:10:01Z",
            "votes": {
                "negative": 0,
                "positive": 0,
                "important": 0,
                "liked": 0,
                "disliked": 0,
                "lol": 0,
                "toxic": 0,
                "saved": 0,
                "comments": 0
            }
        },
        {
            "kind": "news",
            "domain": "@ChronosFi_",
            "source": {
                "title": "Chronos Finance Twitter",
                "region": "en",
                "domain": "twitter.com",
                "path": "@chronosfi_"
            },
            "title": "RT @arbitrum: Monday 1:30pm ET | @ChronosFi_",
            "published_at": "2023-07-09T18:38:36Z",
            "slug": "RT-arbitrum-Monday-130pm-ET-ChronosFi_",
            "currencies": [
                {
                    "code": "CHR",
                    "title": "Chronos Finance",
                    "slug": "chronos-finance",
                    "url": "https:\/\/cryptopanic.com\/news\/chronos-finance\/"
                }
            ],
            "id": 18749157,
            "url": "https:\/\/cryptopanic.com\/news\/18749157\/RT-arbitrum-Monday-130pm-ET-ChronosFi_",
            "created_at": "2023-07-09T18:38:36Z",
            "votes": {
                "negative": 0,
                "positive": 0,
                "important": 0,
                "liked": 0,
                "disliked": 0,
                "lol": 0,
                "toxic": 0,
                "saved": 0,
                "comments": 0
            }
        },
        {
            "kind": "news",
            "domain": "@ChronosFi_",
            "source": {
                "title": "Chronos Finance Twitter",
                "region": "en",
                "domain": "twitter.com",
                "path": "@chronosfi_"
            },
            "title": "RT @InternChronosFi: Great metric and agree on the analysis!\n\nAnnual fees \/ veTOKEN market cap ratio: \n\n$veCHR = 0.77 (25.6x) \n$veTHE = 0.2\u2026",
            "published_at": "2023-07-09T18:37:54Z",
            "slug": "RT-InternChronosFi-Great-metric-and-agree-on-the-analysis-Annual-fees-veTOKEN-market-cap-ratio-veCHR-077-256x-veTHE-02",
            "currencies": [
                {
                    "code": "CHR",
                    "title": "Chronos Finance",
                    "slug": "chronos-finance",
                    "url": "https:\/\/cryptopanic.com\/news\/chronos-finance\/"
                }
            ],
            "id": 18749158,
            "url": "https:\/\/cryptopanic.com\/news\/18749158\/RT-InternChronosFi-Great-metric-and-agree-on-the-analysis-Annual-fees-veTOKEN-market-cap-ratio-veCHR-077-256x-veTHE-02",
            "created_at": "2023-07-09T18:37:54Z",
            "votes": {
                "negative": 0,
                "positive": 0,
                "important": 0,
                "liked": 0,
                "disliked": 0,
                "lol": 0,
                "toxic": 0,
                "saved": 0,
                "comments": 0
            }
        },
        {
            "kind": "news",
            "domain": "@ChronosFi_",
            "source": {
                "title": "Chronos Finance Twitter",
                "region": "en",
                "domain": "twitter.com",
                "path": "@chronosfi_"
            },
            "title": "RT @InternChronosFi: Did you know you can earn airdrops just by holding $veCHR?\n\nAfter digging, I found that @Retro_finance will drop veRET\u2026",
            "published_at": "2023-07-08T23:36:21Z",
            "slug": "RT-InternChronosFi-Did-you-know-you-can-earn-airdrops-just-by-holding-veCHR-After-digging-I-found-that-Retro_finance-will-drop-veRET",
            "currencies": [
                {
                    "code": "CHR",
                    "title": "Chronos Finance",
                    "slug": "chronos-finance",
                    "url": "https:\/\/cryptopanic.com\/news\/chronos-finance\/"
                }
            ],
            "id": 18744999,
            "url": "https:\/\/cryptopanic.com\/news\/18744999\/RT-InternChronosFi-Did-you-know-you-can-earn-airdrops-just-by-holding-veCHR-After-digging-I-found-that-Retro_finance-will-drop-veRET",
            "created_at": "2023-07-08T23:36:21Z",
            "votes": {
                "negative": 0,
                "positive": 0,
                "important": 0,
                "liked": 0,
                "disliked": 0,
                "lol": 0,
                "toxic": 0,
                "saved": 0,
                "comments": 0
            }
        },
        {
            "kind": "news",
            "domain": "@ChronosFi_",
            "source": {
                "title": "Chronos Finance Twitter",
                "region": "en",
                "domain": "twitter.com",
                "path": "@chronosfi_"
            },
            "title": "$ETH liquid staking directly on @arbitrum courtesy of our friends at @pStakeFinance\n\nComing soon!",
            "published_at": "2023-07-07T21:10:51Z",
            "slug": "ETH-liquid-staking-directly-on-arbitrum-courtesy-of-our-friends-at-pStakeFinance-Coming-soon",
            "currencies": [
                {
                    "code": "CHR",
                    "title": "Chronos Finance",
                    "slug": "chronos-finance",
                    "url": "https:\/\/cryptopanic.com\/news\/chronos-finance\/"
                }
            ],
            "id": 18739304,
            "url": "https:\/\/cryptopanic.com\/news\/18739304\/ETH-liquid-staking-directly-on-arbitrum-courtesy-of-our-friends-at-pStakeFinance-Coming-soon",
            "created_at": "2023-07-07T21:10:51Z",
            "votes": {
                "negative": 0,
                "positive": 0,
                "important": 0,
                "liked": 0,
                "disliked": 0,
                "lol": 0,
                "toxic": 0,
                "saved": 0,
                "comments": 0
            }
        },
        {
            "kind": "news",
            "domain": "@ChronosFi_",
            "source": {
                "title": "Chronos Finance Twitter",
                "region": "en",
                "domain": "twitter.com",
                "path": "@chronosfi_"
            },
            "title": "APRs for $veCHR voters are some of the best on @arbitrum, and they're expected to climb even higher when we introdu\u2026",
            "published_at": "2023-07-07T18:46:06Z",
            "slug": "APRs-for-veCHR-voters-are-some-of-the-best-on-arbitrum-and-theyre-expected-to-climb-even-higher-when-we-introdu",
            "currencies": [
                {
                    "code": "CHR",
                    "title": "Chronos Finance",
                    "slug": "chronos-finance",
                    "url": "https:\/\/cryptopanic.com\/news\/chronos-finance\/"
                }
            ],
            "id": 18739305,
            "url": "https:\/\/cryptopanic.com\/news\/18739305\/APRs-for-veCHR-voters-are-some-of-the-best-on-arbitrum-and-theyre-expected-to-climb-even-higher-when-we-introdu",
            "created_at": "2023-07-07T18:46:06Z",
            "votes": {
                "negative": 0,
                "positive": 0,
                "important": 0,
                "liked": 0,
                "disliked": 0,
                "lol": 0,
                "toxic": 0,
                "saved": 0,
                "comments": 0
            }
        },
        {
            "kind": "news",
            "domain": "@ChronosFi_",
            "source": {
                "title": "Chronos Finance Twitter",
                "region": "en",
                "domain": "twitter.com",
                "path": "@chronosfi_"
            },
            "title": "\u23f3 $veCHR voters are winning big with @ChronosFi_!\n\n More than $1.5M in bribes and incentives have been paid out so\u2026",
            "published_at": "2023-07-06T18:22:26Z",
            "slug": "veCHR-voters-are-winning-big-with-ChronosFi_-More-than-15M-in-bribes-and-incentives-have-been-paid-out-so",
            "currencies": [
                {
                    "code": "CHR",
                    "title": "Chronos Finance",
                    "slug": "chronos-finance",
                    "url": "https:\/\/cryptopanic.com\/news\/chronos-finance\/"
                }
            ],
            "id": 18731513,
            "url": "https:\/\/cryptopanic.com\/news\/18731513\/veCHR-voters-are-winning-big-with-ChronosFi_-More-than-15M-in-bribes-and-incentives-have-been-paid-out-so",
            "created_at": "2023-07-06T18:22:26Z",
            "votes": {
                "negative": 0,
                "positive": 0,
                "important": 0,
                "liked": 0,
                "disliked": 0,
                "lol": 0,
                "toxic": 0,
                "saved": 0,
                "comments": 0
            }
        },
        {
            "kind": "news",
            "domain": "@Chromia",
            "source": {
                "title": "Chromia Twitter",
                "region": "en",
                "domain": "twitter.com",
                "path": "@chromia"
            },
            "title": "Amazing overview of #Chromia by @killerstorm!",
            "published_at": "2023-07-06T16:46:57Z",
            "slug": "Amazing-overview-of-Chromia-by-killerstorm",
            "currencies": [
                {
                    "code": "CHR",
                    "title": "Chromia",
                    "slug": "chromaway",
                    "url": "https:\/\/cryptopanic.com\/news\/chromaway\/"
                }
            ],
            "id": 18731511,
            "url": "https:\/\/cryptopanic.com\/news\/18731511\/Amazing-overview-of-Chromia-by-killerstorm",
            "created_at": "2023-07-06T16:46:57Z",
            "votes": {
                "negative": 0,
                "positive": 0,
                "important": 0,
                "liked": 0,
                "disliked": 0,
                "lol": 0,
                "toxic": 0,
                "saved": 0,
                "comments": 0
            }
        },
        {
            "kind": "news",
            "domain": "@ChronosFi_",
            "source": {
                "title": "Chronos Finance Twitter",
                "region": "en",
                "domain": "twitter.com",
                "path": "@chronosfi_"
            },
            "title": "RT @InternChronosFi: Better start concentrating ",
            "published_at": "2023-07-05T22:18:00Z",
            "slug": "RT-InternChronosFi-Better-start-concentrating",
            "currencies": [
                {
                    "code": "CHR",
                    "title": "Chronos Finance",
                    "slug": "chronos-finance",
                    "url": "https:\/\/cryptopanic.com\/news\/chronos-finance\/"
                }
            ],
            "id": 18722934,
            "url": "https:\/\/cryptopanic.com\/news\/18722934\/RT-InternChronosFi-Better-start-concentrating",
            "created_at": "2023-07-05T22:18:00Z",
            "votes": {
                "negative": 0,
                "positive": 0,
                "important": 0,
                "liked": 0,
                "disliked": 0,
                "lol": 0,
                "toxic": 0,
                "saved": 0,
                "comments": 0
            }
        },
        {
            "kind": "news",
            "domain": "@ChronosFi_",
            "source": {
                "title": "Chronos Finance Twitter",
                "region": "en",
                "domain": "twitter.com",
                "path": "@chronosfi_"
            },
            "title": "Bribe Alert! Juicy APRs for veCHR voters from our friends at @fluiditylabs",
            "published_at": "2023-07-05T21:30:17Z",
            "slug": "Bribe-Alert-Juicy-APRs-for-veCHR-voters-from-our-friends-at-fluiditylabs",
            "currencies": [
                {
                    "code": "CHR",
                    "title": "Chronos Finance",
                    "slug": "chronos-finance",
                    "url": "https:\/\/cryptopanic.com\/news\/chronos-finance\/"
                }
            ],
            "id": 18722935,
            "url": "https:\/\/cryptopanic.com\/news\/18722935\/Bribe-Alert-Juicy-APRs-for-veCHR-voters-from-our-friends-at-fluiditylabs",
            "created_at": "2023-07-05T21:30:17Z",
            "votes": {
                "negative": 0,
                "positive": 0,
                "important": 0,
                "liked": 0,
                "disliked": 0,
                "lol": 0,
                "toxic": 0,
                "saved": 0,
                "comments": 0
            }
        },
        {
            "kind": "news",
            "domain": "@ChronosFi_",
            "source": {
                "title": "Chronos Finance Twitter",
                "region": "en",
                "domain": "twitter.com",
                "path": "@chronosfi_"
            },
            "title": "Be on the lookout for more announcements involving @PreonFinance, @SphereDeFi, @dysonmoney, and @ChronosFi \n\n\ud83e\udd1dBig\u2026",
            "published_at": "2023-07-05T21:26:32Z",
            "slug": "Be-on-the-lookout-for-more-announcements-involving-PreonFinance-SphereDeFi-dysonmoney-and-ChronosFi-Big",
            "currencies": [
                {
                    "code": "CHR",
                    "title": "Chronos Finance",
                    "slug": "chronos-finance",
                    "url": "https:\/\/cryptopanic.com\/news\/chronos-finance\/"
                }
            ],
            "id": 18722936,
            "url": "https:\/\/cryptopanic.com\/news\/18722936\/Be-on-the-lookout-for-more-announcements-involving-PreonFinance-SphereDeFi-dysonmoney-and-ChronosFi-Big",
            "created_at": "2023-07-05T21:26:32Z",
            "votes": {
                "negative": 0,
                "positive": 0,
                "important": 0,
                "liked": 0,
                "disliked": 0,
                "lol": 0,
                "toxic": 0,
                "saved": 0,
                "comments": 0
            }
        },
        {
            "kind": "news",
            "domain": "@ChronosFi_",
            "source": {
                "title": "Chronos Finance Twitter",
                "region": "en",
                "domain": "twitter.com",
                "path": "@chronosfi_"
            },
            "title": "RT @ArkenFinance: Shoutout to our friends on @ChronosFi_ \n\nThis week, there are $2,000 rewards for you to grab from our pool \n\nVote and cla\u2026",
            "published_at": "2023-07-05T09:57:47Z",
            "slug": "RT-ArkenFinance-Shoutout-to-our-friends-on-ChronosFi_-This-week-there-are-2000-rewards-for-you-to-grab-from-our-pool-Vote-and-cla",
            "currencies": [
                {
                    "code": "CHR",
                    "title": "Chronos Finance",
                    "slug": "chronos-finance",
                    "url": "https:\/\/cryptopanic.com\/news\/chronos-finance\/"
                }
            ],
            "id": 18722937,
            "url": "https:\/\/cryptopanic.com\/news\/18722937\/RT-ArkenFinance-Shoutout-to-our-friends-on-ChronosFi_-This-week-there-are-2000-rewards-for-you-to-grab-from-our-pool-Vote-and-cla",
            "created_at": "2023-07-05T09:57:47Z",
            "votes": {
                "negative": 0,
                "positive": 0,
                "important": 0,
                "liked": 0,
                "disliked": 0,
                "lol": 0,
                "toxic": 0,
                "saved": 0,
                "comments": 0
            }
        },
        {
            "kind": "news",
            "domain": "@ChronosFi_",
            "source": {
                "title": "Chronos Finance Twitter",
                "region": "en",
                "domain": "twitter.com",
                "path": "@chronosfi_"
            },
            "title": "\u23f3Join us in the Chronos Discord server on July 4th at 8PM UTC for a special Independence Day AMA with our friends t\u2026",
            "published_at": "2023-07-04T14:45:37Z",
            "slug": "Join-us-in-the-Chronos-Discord-server-on-July-4th-at-8PM-UTC-for-a-special-Independence-Day-AMA-with-our-friends-t",
            "currencies": [
                {
                    "code": "CHR",
                    "title": "Chronos Finance",
                    "slug": "chronos-finance",
                    "url": "https:\/\/cryptopanic.com\/news\/chronos-finance\/"
                }
            ],
            "id": 18715356,
            "url": "https:\/\/cryptopanic.com\/news\/18715356\/Join-us-in-the-Chronos-Discord-server-on-July-4th-at-8PM-UTC-for-a-special-Independence-Day-AMA-with-our-friends-t",
            "created_at": "2023-07-04T14:45:37Z",
            "votes": {
                "negative": 0,
                "positive": 0,
                "important": 0,
                "liked": 0,
                "disliked": 0,
                "lol": 0,
                "toxic": 0,
                "saved": 0,
                "comments": 0
            }
        },
        {
            "kind": "news",
            "domain": "@Chromia",
            "source": {
                "title": "Chromia Twitter",
                "region": "en",
                "domain": "twitter.com",
                "path": "@chromia"
            },
            "title": "Our tokenization protocol is a better solution for crowdfunding #realestate!\n\nReduce affiliated risks with\u2026",
            "published_at": "2023-07-04T13:33:55Z",
            "slug": "Our-tokenization-protocol-is-a-better-solution-for-crowdfunding-realestate-Reduce-affiliated-risks-with",
            "currencies": [
                {
                    "code": "CHR",
                    "title": "Chromia",
                    "slug": "chromaway",
                    "url": "https:\/\/cryptopanic.com\/news\/chromaway\/"
                }
            ],
            "id": 18715353,
            "url": "https:\/\/cryptopanic.com\/news\/18715353\/Our-tokenization-protocol-is-a-better-solution-for-crowdfunding-realestate-Reduce-affiliated-risks-with",
            "created_at": "2023-07-04T13:33:55Z",
            "votes": {
                "negative": 0,
                "positive": 0,
                "important": 0,
                "liked": 0,
                "disliked": 0,
                "lol": 0,
                "toxic": 0,
                "saved": 0,
                "comments": 0
            }
        },
        {
            "kind": "news",
            "domain": "@ChronosFi_",
            "source": {
                "title": "Chronos Finance Twitter",
                "region": "en",
                "domain": "twitter.com",
                "path": "@chronosfi_"
            },
            "title": "RT @DeusEcosystem: GM to our @ChronosFi_ frens \n\n130 $DEUS rewards for the taking on the DEUS\/ETH pool this week \n\nHead over to",
            "published_at": "2023-07-03T10:28:29Z",
            "slug": "RT-DeusEcosystem-GM-to-our-ChronosFi_-frens-130-DEUS-rewards-for-the-taking-on-the-DEUSETH-pool-this-week-Head-over-to",
            "currencies": [
                {
                    "code": "CHR",
                    "title": "Chronos Finance",
                    "slug": "chronos-finance",
                    "url": "https:\/\/cryptopanic.com\/news\/chronos-finance\/"
                }
            ],
            "id": 18708036,
            "url": "https:\/\/cryptopanic.com\/news\/18708036\/RT-DeusEcosystem-GM-to-our-ChronosFi_-frens-130-DEUS-rewards-for-the-taking-on-the-DEUSETH-pool-this-week-Head-over-to",
            "created_at": "2023-07-03T10:28:29Z",
            "votes": {
                "negative": 0,
                "positive": 0,
                "important": 0,
                "liked": 0,
                "disliked": 0,
                "lol": 0,
                "toxic": 0,
                "saved": 0,
                "comments": 0
            }
        },
        {
            "kind": "news",
            "domain": "@ChronosFi_",
            "source": {
                "title": "Chronos Finance Twitter",
                "region": "en",
                "domain": "twitter.com",
                "path": "@chronosfi_"
            },
            "title": "RT @AlertsChronos:  Top 5 APR Stable \n\n1. CHR\/spCHR: 322.88%\n2. frxETH\/sfrxETH: 64.28%\n3. USDF\/USDC: 42.17%\n4. USD+\/USDC: 39.27%\n5. LUSD\/\u2026",
            "published_at": "2023-07-02T13:45:53Z",
            "slug": "RT-AlertsChronos-Top-5-APR-Stable-1-CHRspCHR-32288-2-frxETHsfrxETH-6428-3-USDFUSDC-4217-4-USDUSDC-3927-5-LUSD",
            "currencies": [
                {
                    "code": "CHR",
                    "title": "Chronos Finance",
                    "slug": "chronos-finance",
                    "url": "https:\/\/cryptopanic.com\/news\/chronos-finance\/"
                }
            ],
            "id": 18702163,
            "url": "https:\/\/cryptopanic.com\/news\/18702163\/RT-AlertsChronos-Top-5-APR-Stable-1-CHRspCHR-32288-2-frxETHsfrxETH-6428-3-USDFUSDC-4217-4-USDUSDC-3927-5-LUSD",
            "created_at": "2023-07-02T13:45:53Z",
            "votes": {
                "negative": 0,
                "positive": 0,
                "important": 0,
                "liked": 0,
                "disliked": 0,
                "lol": 0,
                "toxic": 0,
                "saved": 0,
                "comments": 0
            }
        },
        {
            "kind": "news",
            "domain": "@ChronosFi_",
            "source": {
                "title": "Chronos Finance Twitter",
                "region": "en",
                "domain": "twitter.com",
                "path": "@chronosfi_"
            },
            "title": "RT @drakeondigital: Enter @ChronosFi_ V2 \n\nV2 introduces:\n \u2022 limit\/TWAP orders\n\u2022 LP zap in\/out\n\u2022 Concentrated LP's\n\u2022 cross-chain swaps and\u2026",
            "published_at": "2023-07-02T02:47:22Z",
            "slug": "RT-drakeondigital-Enter-ChronosFi_-V2-V2-introduces-limitTWAP-orders-LP-zap-inout-Concentrated-LPs-cross-chain-swaps-and",
            "currencies": [
                {
                    "code": "CHR",
                    "title": "Chronos Finance",
                    "slug": "chronos-finance",
                    "url": "https:\/\/cryptopanic.com\/news\/chronos-finance\/"
                }
            ],
            "id": 18698115,
            "url": "https:\/\/cryptopanic.com\/news\/18698115\/RT-drakeondigital-Enter-ChronosFi_-V2-V2-introduces-limitTWAP-orders-LP-zap-inout-Concentrated-LPs-cross-chain-swaps-and",
            "created_at": "2023-07-02T02:47:22Z",
            "votes": {
                "negative": 0,
                "positive": 0,
                "important": 0,
                "liked": 0,
                "disliked": 0,
                "lol": 0,
                "toxic": 0,
                "saved": 0,
                "comments": 0
            }
        },
        {
            "kind": "news",
            "domain": "@ChronosFi_",
            "source": {
                "title": "Chronos Finance Twitter",
                "region": "en",
                "domain": "twitter.com",
                "path": "@chronosfi_"
            },
            "title": "Chronos's fNFT marketplace is now LIVE!!\n\n\nWith the release of this dedicated fNFT marketpla\u2026",
            "published_at": "2023-07-01T16:16:18Z",
            "slug": "Chronoss-fNFT-marketplace-is-now-LIVE-With-the-release-of-this-dedicated-fNFT-marketpla",
            "currencies": [
                {
                    "code": "CHR",
                    "title": "Chronos Finance",
                    "slug": "chronos-finance",
                    "url": "https:\/\/cryptopanic.com\/news\/chronos-finance\/"
                }
            ],
            "id": 18698116,
            "url": "https:\/\/cryptopanic.com\/news\/18698116\/Chronoss-fNFT-marketplace-is-now-LIVE-With-the-release-of-this-dedicated-fNFT-marketpla",
            "created_at": "2023-07-01T16:16:18Z",
            "votes": {
                "negative": 0,
                "positive": 0,
                "important": 0,
                "liked": 0,
                "disliked": 0,
                "lol": 0,
                "toxic": 0,
                "saved": 0,
                "comments": 0
            }
        },
        {
            "kind": "news",
            "domain": "@ChronosFi_",
            "source": {
                "title": "Chronos Finance Twitter",
                "region": "en",
                "domain": "twitter.com",
                "path": "@chronosfi_"
            },
            "title": "Our intern breaks down the bull-case for $CHR; with the full release of Chronos V2 just a few weeks away, and sever\u2026",
            "published_at": "2023-06-30T17:25:54Z",
            "slug": "Our-intern-breaks-down-the-bull-case-for-CHR-with-the-full-release-of-Chronos-V2-just-a-few-weeks-away-and-sever",
            "currencies": [
                {
                    "code": "CHR",
                    "title": "Chronos Finance",
                    "slug": "chronos-finance",
                    "url": "https:\/\/cryptopanic.com\/news\/chronos-finance\/"
                }
            ],
            "id": 18692533,
            "url": "https:\/\/cryptopanic.com\/news\/18692533\/Our-intern-breaks-down-the-bull-case-for-CHR-with-the-full-release-of-Chronos-V2-just-a-few-weeks-away-and-sever",
            "created_at": "2023-06-30T17:25:54Z",
            "votes": {
                "negative": 0,
                "positive": 0,
                "important": 0,
                "liked": 0,
                "disliked": 0,
                "lol": 0,
                "toxic": 0,
                "saved": 0,
                "comments": 0
            }
        }
    ]
}
