{
    "count": 200,
    "next": "https:\/\/cryptopanic.com\/api\/v1\/posts\/?auth_token=01c356e89ffc1b8eba2127c81fc8c66ee0eace75&kind=news&currencies=MC&page=2",
    "previous": null,
    "results": [
        {
            "kind": "news",
            "domain": "@MeritCircle_IO",
            "source": {
                "title": "Merit Circle Twitter",
                "region": "en",
                "domain": "twitter.com",
                "path": "@meritcircle_io"
            },
            "title": "We try out a new game every now and then!\n\nThis time, we tried @EleRaiders \n\nCheck out what the @MeritGamers though\u2026",
            "published_at": "2023-07-12T06:45:00Z",
            "slug": "We-try-out-a-new-game-every-now-and-then-This-time-we-tried-EleRaiders-Check-out-what-the-MeritGamers-though",
            "currencies": [
                {
                    "code": "MC",
                    "title": "Merit Circle",
                    "slug": "merit-circle",
                    "url": "https:\/\/cryptopanic.com\/news\/merit-circle\/"
                }
            ],
            "id": 18765643,
            "url": "https:\/\/cryptopanic.com\/news\/18765643\/We-try-out-a-new-game-every-now-and-then-This-time-we-tried-EleRaiders-Check-out-what-the-MeritGamers-though",
            "created_at": "2023-07-12T06:45:00Z",
            "votes": {
                "negative": 0,
                "positive": 0,
                "important": 0,
                "liked": 0,
                "disliked": 0,
                "lol": 0,
                "toxic": 0,
                "saved": 0,
                "comments": 0
            }
        },
        {
            "kind": "news",
            "domain": "@MeritCircle_IO",
            "source": {
                "title": "Merit Circle Twitter",
                "region": "en",
                "domain": "twitter.com",
                "path": "@meritcircle_io"
            },
            "title": "You read that right!\n\nAnother game that is @BuildOnBeam\n\nFull thread and more deatils about @Blackwater_Town coming\u2026",
            "published_at": "2023-07-11T16:15:27Z",
            "slug": "You-read-that-right-Another-game-that-is-BuildOnBeam-Full-thread-and-more-deatils-about-Blackwater_Town-coming",
            "currencies": [
                {
                    "code": "MC",
                    "title": "Merit Circle",
                    "slug": "merit-circle",
                    "url": "https:\/\/cryptopanic.com\/news\/merit-circle\/"
                }
            ],
            "id": 18765644,
            "url": "https:\/\/cryptopanic.com\/news\/18765644\/You-read-that-right-Another-game-that-is-BuildOnBeam-Full-thread-and-more-deatils-about-Blackwater_Town-coming",
            "created_at": "2023-07-11T16:15:27Z",
            "votes": {
                "negative": 0,
                "positive": 0,
                "important": 0,
                "liked": 0,
                "disliked": 0,
                "lol": 0,
                "toxic": 0,
                "saved": 0,
                "comments": 0
            }
        },
        {
            "kind": "news",
            "domain": "@MeritCircle_IO",
            "source": {
                "title": "Merit Circle Twitter",
                "region": "en",
                "domain": "twitter.com",
                "path": "@meritcircle_io"
            },
            "title": "Proud to be working with @walkerworld_ to onboard them on @BuildOnBeam \ufe0f \u200d\ufe0f \u200d\ufe0f ",
            "published_at": "2023-07-11T12:06:00Z",
            "slug": "Proud-to-be-working-with-walkerworld_-to-onboard-them-on-BuildOnBeam",
            "currencies": [
                {
                    "code": "MC",
                    "title": "Merit Circle",
                    "slug": "merit-circle",
                    "url": "https:\/\/cryptopanic.com\/news\/merit-circle\/"
                }
            ],
            "id": 18765645,
            "url": "https:\/\/cryptopanic.com\/news\/18765645\/Proud-to-be-working-with-walkerworld_-to-onboard-them-on-BuildOnBeam",
            "created_at": "2023-07-11T12:06:00Z",
            "votes": {
                "negative": 0,
                "positive": 0,
                "important": 0,
                "liked": 0,
                "disliked": 0,
                "lol": 0,
                "toxic": 0,
                "saved": 0,
                "comments": 0
            }
        },
        {
            "kind": "news",
            "domain": "@MeritCircle_IO",
            "source": {
                "title": "Merit Circle Twitter",
                "region": "en",
                "domain": "twitter.com",
                "path": "@meritcircle_io"
            },
            "title": "MIP-26 has been put up for voting!\n\n\u25b6\ufe0f Cancel the remaining V2 staking.\n\u25b6\ufe0f Unlock V2 stakers.\n\u25b6\ufe0f Accrued rewards wi\u2026",
            "published_at": "2023-07-10T13:00:22Z",
            "slug": "MIP-26-has-been-put-up-for-voting-Cancel-the-remaining-V2-staking-Unlock-V2-stakers-Accrued-rewards-wi",
            "currencies": [
                {
                    "code": "MC",
                    "title": "Merit Circle",
                    "slug": "merit-circle",
                    "url": "https:\/\/cryptopanic.com\/news\/merit-circle\/"
                }
            ],
            "id": 18757505,
            "url": "https:\/\/cryptopanic.com\/news\/18757505\/MIP-26-has-been-put-up-for-voting-Cancel-the-remaining-V2-staking-Unlock-V2-stakers-Accrued-rewards-wi",
            "created_at": "2023-07-10T13:00:22Z",
            "votes": {
                "negative": 0,
                "positive": 0,
                "important": 0,
                "liked": 0,
                "disliked": 0,
                "lol": 0,
                "toxic": 0,
                "saved": 0,
                "comments": 0
            }
        },
        {
            "kind": "news",
            "domain": "@MeritCircle_IO",
            "source": {
                "title": "Merit Circle Twitter",
                "region": "en",
                "domain": "twitter.com",
                "path": "@meritcircle_io"
            },
            "title": "SPOT THE DIFFERENCE \ufe0f \n\nGotta love a good old game of arcade!\n\nComment if you find the difference! ",
            "published_at": "2023-07-10T08:25:05Z",
            "slug": "SPOT-THE-DIFFERENCE-Gotta-love-a-good-old-game-of-arcade-Comment-if-you-find-the-difference",
            "currencies": [
                {
                    "code": "MC",
                    "title": "Merit Circle",
                    "slug": "merit-circle",
                    "url": "https:\/\/cryptopanic.com\/news\/merit-circle\/"
                }
            ],
            "id": 18757506,
            "url": "https:\/\/cryptopanic.com\/news\/18757506\/SPOT-THE-DIFFERENCE-Gotta-love-a-good-old-game-of-arcade-Comment-if-you-find-the-difference",
            "created_at": "2023-07-10T08:25:05Z",
            "votes": {
                "negative": 0,
                "positive": 0,
                "important": 0,
                "liked": 0,
                "disliked": 0,
                "lol": 0,
                "toxic": 0,
                "saved": 0,
                "comments": 0
            }
        },
        {
            "kind": "news",
            "domain": "@MeritCircle_IO",
            "source": {
                "title": "Merit Circle Twitter",
                "region": "en",
                "domain": "twitter.com",
                "path": "@meritcircle_io"
            },
            "title": "Proud of this collaboration with @fableborne!\n\nWe're playing their Alpha as we speak, want to get involved? \n\nJump\u2026",
            "published_at": "2023-07-09T17:25:00Z",
            "slug": "Proud-of-this-collaboration-with-fableborne-Were-playing-their-Alpha-as-we-speak-want-to-get-involved-Jump",
            "currencies": [
                {
                    "code": "MC",
                    "title": "Merit Circle",
                    "slug": "merit-circle",
                    "url": "https:\/\/cryptopanic.com\/news\/merit-circle\/"
                }
            ],
            "id": 18750473,
            "url": "https:\/\/cryptopanic.com\/news\/18750473\/Proud-of-this-collaboration-with-fableborne-Were-playing-their-Alpha-as-we-speak-want-to-get-involved-Jump",
            "created_at": "2023-07-09T17:25:00Z",
            "votes": {
                "negative": 0,
                "positive": 0,
                "important": 0,
                "liked": 0,
                "disliked": 0,
                "lol": 0,
                "toxic": 0,
                "saved": 0,
                "comments": 0
            }
        },
        {
            "kind": "news",
            "domain": "@MeritCircle_IO",
            "source": {
                "title": "Merit Circle Twitter",
                "region": "en",
                "domain": "twitter.com",
                "path": "@meritcircle_io"
            },
            "title": "Proud of all the games in our network \n\nProud of all the gamers in our network\n\nProud of all the contributors in the @MeritCircle_IO DAO \ud83d\udfe0",
            "published_at": "2023-07-09T11:52:00Z",
            "slug": "Proud-of-all-the-games-in-our-network-Proud-of-all-the-gamers-in-our-network-Proud-of-all-the-contributors-in-the-MeritCircle_IO-DAO",
            "currencies": [
                {
                    "code": "MC",
                    "title": "Merit Circle",
                    "slug": "merit-circle",
                    "url": "https:\/\/cryptopanic.com\/news\/merit-circle\/"
                }
            ],
            "id": 18750474,
            "url": "https:\/\/cryptopanic.com\/news\/18750474\/Proud-of-all-the-games-in-our-network-Proud-of-all-the-gamers-in-our-network-Proud-of-all-the-contributors-in-the-MeritCircle_IO-DAO",
            "created_at": "2023-07-09T11:52:00Z",
            "votes": {
                "negative": 0,
                "positive": 0,
                "important": 0,
                "liked": 0,
                "disliked": 0,
                "lol": 0,
                "toxic": 0,
                "saved": 0,
                "comments": 0
            }
        },
        {
            "kind": "news",
            "domain": "@MeritCircle_IO",
            "source": {
                "title": "Merit Circle Twitter",
                "region": "en",
                "domain": "twitter.com",
                "path": "@meritcircle_io"
            },
            "title": "In the upcoming treasury update, we will shed some more light on updating our community around the games we've inve\u2026",
            "published_at": "2023-07-08T14:52:26Z",
            "slug": "In-the-upcoming-treasury-update-we-will-shed-some-more-light-on-updating-our-community-around-the-games-weve-inve",
            "currencies": [
                {
                    "code": "MC",
                    "title": "Merit Circle",
                    "slug": "merit-circle",
                    "url": "https:\/\/cryptopanic.com\/news\/merit-circle\/"
                }
            ],
            "id": 18746205,
            "url": "https:\/\/cryptopanic.com\/news\/18746205\/In-the-upcoming-treasury-update-we-will-shed-some-more-light-on-updating-our-community-around-the-games-weve-inve",
            "created_at": "2023-07-08T14:52:26Z",
            "votes": {
                "negative": 0,
                "positive": 0,
                "important": 0,
                "liked": 0,
                "disliked": 0,
                "lol": 0,
                "toxic": 0,
                "saved": 0,
                "comments": 0
            }
        },
        {
            "kind": "news",
            "domain": "@MeritCircle_IO",
            "source": {
                "title": "Merit Circle Twitter",
                "region": "en",
                "domain": "twitter.com",
                "path": "@meritcircle_io"
            },
            "title": "With our very own @0xProfessorLP holding #1 in the ongoing Fableborne Creator Cup, the @MeritGamers crew cooked tog\u2026",
            "published_at": "2023-07-08T12:09:24Z",
            "slug": "With-our-very-own-0xProfessorLP-holding-1-in-the-ongoing-Fableborne-Creator-Cup-the-MeritGamers-crew-cooked-tog",
            "currencies": [
                {
                    "code": "MC",
                    "title": "Merit Circle",
                    "slug": "merit-circle",
                    "url": "https:\/\/cryptopanic.com\/news\/merit-circle\/"
                }
            ],
            "id": 18746206,
            "url": "https:\/\/cryptopanic.com\/news\/18746206\/With-our-very-own-0xProfessorLP-holding-1-in-the-ongoing-Fableborne-Creator-Cup-the-MeritGamers-crew-cooked-tog",
            "created_at": "2023-07-08T12:09:24Z",
            "votes": {
                "negative": 0,
                "positive": 0,
                "important": 0,
                "liked": 0,
                "disliked": 0,
                "lol": 0,
                "toxic": 0,
                "saved": 0,
                "comments": 0
            }
        },
        {
            "kind": "news",
            "domain": "@MeritCircle_IO",
            "source": {
                "title": "Merit Circle Twitter",
                "region": "en",
                "domain": "twitter.com",
                "path": "@meritcircle_io"
            },
            "title": "Somewhere in this room, we've hidden a @MeritCircle_IO logo.\n\nCan you spot it?",
            "published_at": "2023-07-08T06:36:05Z",
            "slug": "Somewhere-in-this-room-weve-hidden-a-MeritCircle_IO-logo-Can-you-spot-it",
            "currencies": [
                {
                    "code": "MC",
                    "title": "Merit Circle",
                    "slug": "merit-circle",
                    "url": "https:\/\/cryptopanic.com\/news\/merit-circle\/"
                }
            ],
            "id": 18741265,
            "url": "https:\/\/cryptopanic.com\/news\/18741265\/Somewhere-in-this-room-weve-hidden-a-MeritCircle_IO-logo-Can-you-spot-it",
            "created_at": "2023-07-08T06:36:05Z",
            "votes": {
                "negative": 0,
                "positive": 0,
                "important": 0,
                "liked": 0,
                "disliked": 0,
                "lol": 0,
                "toxic": 0,
                "saved": 0,
                "comments": 0
            }
        },
        {
            "kind": "news",
            "domain": "@MeritCircle_IO",
            "source": {
                "title": "Merit Circle Twitter",
                "region": "en",
                "domain": "twitter.com",
                "path": "@meritcircle_io"
            },
            "title": "Your reminder that @MeritGamers is the place to be to educate yourself on the latest games, and how to improve you\u2026",
            "published_at": "2023-07-07T16:17:12Z",
            "slug": "Your-reminder-that-MeritGamers-is-the-place-to-be-to-educate-yourself-on-the-latest-games-and-how-to-improve-you",
            "currencies": [
                {
                    "code": "MC",
                    "title": "Merit Circle",
                    "slug": "merit-circle",
                    "url": "https:\/\/cryptopanic.com\/news\/merit-circle\/"
                }
            ],
            "id": 18741266,
            "url": "https:\/\/cryptopanic.com\/news\/18741266\/Your-reminder-that-MeritGamers-is-the-place-to-be-to-educate-yourself-on-the-latest-games-and-how-to-improve-you",
            "created_at": "2023-07-07T16:17:12Z",
            "votes": {
                "negative": 0,
                "positive": 0,
                "important": 0,
                "liked": 0,
                "disliked": 0,
                "lol": 0,
                "toxic": 0,
                "saved": 0,
                "comments": 0
            }
        },
        {
            "kind": "news",
            "domain": "@MeritCircle_IO",
            "source": {
                "title": "Merit Circle Twitter",
                "region": "en",
                "domain": "twitter.com",
                "path": "@meritcircle_io"
            },
            "title": "Your timely reminder to join the @MeritCircle_IO DAO on Discord!",
            "published_at": "2023-07-07T07:53:00Z",
            "slug": "Your-timely-reminder-to-join-the-MeritCircle_IO-DAO-on-Discord",
            "currencies": [
                {
                    "code": "MC",
                    "title": "Merit Circle",
                    "slug": "merit-circle",
                    "url": "https:\/\/cryptopanic.com\/news\/merit-circle\/"
                }
            ],
            "id": 18733748,
            "url": "https:\/\/cryptopanic.com\/news\/18733748\/Your-timely-reminder-to-join-the-MeritCircle_IO-DAO-on-Discord",
            "created_at": "2023-07-07T07:53:00Z",
            "votes": {
                "negative": 0,
                "positive": 0,
                "important": 0,
                "liked": 0,
                "disliked": 0,
                "lol": 0,
                "toxic": 0,
                "saved": 0,
                "comments": 0
            }
        },
        {
            "kind": "news",
            "domain": "@MeritCircle_IO",
            "source": {
                "title": "Merit Circle Twitter",
                "region": "en",
                "domain": "twitter.com",
                "path": "@meritcircle_io"
            },
            "title": "Getting ready to quote retweet this in a while when we reach a million transactions on Beam \ud83c\udd99",
            "published_at": "2023-07-06T16:14:09Z",
            "slug": "Getting-ready-to-quote-retweet-this-in-a-while-when-we-reach-a-million-transactions-on-Beam",
            "currencies": [
                {
                    "code": "MC",
                    "title": "Merit Circle",
                    "slug": "merit-circle",
                    "url": "https:\/\/cryptopanic.com\/news\/merit-circle\/"
                }
            ],
            "id": 18733749,
            "url": "https:\/\/cryptopanic.com\/news\/18733749\/Getting-ready-to-quote-retweet-this-in-a-while-when-we-reach-a-million-transactions-on-Beam",
            "created_at": "2023-07-06T16:14:09Z",
            "votes": {
                "negative": 0,
                "positive": 0,
                "important": 0,
                "liked": 0,
                "disliked": 0,
                "lol": 0,
                "toxic": 0,
                "saved": 0,
                "comments": 0
            }
        },
        {
            "kind": "news",
            "domain": "@MeritCircle_IO",
            "source": {
                "title": "Merit Circle Twitter",
                "region": "en",
                "domain": "twitter.com",
                "path": "@meritcircle_io"
            },
            "title": "Why @_SteveBH joined @MeritCircle_IO?\n\nRead the full article below! \u23ec",
            "published_at": "2023-07-06T09:10:21Z",
            "slug": "Why-_SteveBH-joined-MeritCircle_IO-Read-the-full-article-below",
            "currencies": [
                {
                    "code": "MC",
                    "title": "Merit Circle",
                    "slug": "merit-circle",
                    "url": "https:\/\/cryptopanic.com\/news\/merit-circle\/"
                }
            ],
            "id": 18733750,
            "url": "https:\/\/cryptopanic.com\/news\/18733750\/Why-_SteveBH-joined-MeritCircle_IO-Read-the-full-article-below",
            "created_at": "2023-07-06T09:10:21Z",
            "votes": {
                "negative": 0,
                "positive": 0,
                "important": 0,
                "liked": 0,
                "disliked": 0,
                "lol": 0,
                "toxic": 0,
                "saved": 0,
                "comments": 0
            }
        },
        {
            "kind": "news",
            "domain": "@MeritCircle_IO",
            "source": {
                "title": "Merit Circle Twitter",
                "region": "en",
                "domain": "twitter.com",
                "path": "@meritcircle_io"
            },
            "title": "The past weekend the @MeritGamers went in and had fun playing karts! \ufe0f \n\n@OhBabyGames smashed it with its first pu\u2026",
            "published_at": "2023-07-05T16:25:01Z",
            "slug": "The-past-weekend-the-MeritGamers-went-in-and-had-fun-playing-karts-OhBabyGames-smashed-it-with-its-first-pu",
            "currencies": [
                {
                    "code": "MC",
                    "title": "Merit Circle",
                    "slug": "merit-circle",
                    "url": "https:\/\/cryptopanic.com\/news\/merit-circle\/"
                }
            ],
            "id": 18725301,
            "url": "https:\/\/cryptopanic.com\/news\/18725301\/The-past-weekend-the-MeritGamers-went-in-and-had-fun-playing-karts-OhBabyGames-smashed-it-with-its-first-pu",
            "created_at": "2023-07-05T16:25:01Z",
            "votes": {
                "negative": 0,
                "positive": 0,
                "important": 0,
                "liked": 0,
                "disliked": 0,
                "lol": 0,
                "toxic": 0,
                "saved": 0,
                "comments": 0
            }
        },
        {
            "kind": "news",
            "domain": "@MeritCircle_IO",
            "source": {
                "title": "Merit Circle Twitter",
                "region": "en",
                "domain": "twitter.com",
                "path": "@meritcircle_io"
            },
            "title": "Join @Marco_Merit and @particleink as they talk AR and much more!\n\nIt's starting in 1 hour, so get ready! \u23f0",
            "published_at": "2023-07-05T13:00:20Z",
            "slug": "Join-Marco_Merit-and-particleink-as-they-talk-AR-and-much-more-Its-starting-in-1-hour-so-get-ready",
            "currencies": [
                {
                    "code": "MC",
                    "title": "Merit Circle",
                    "slug": "merit-circle",
                    "url": "https:\/\/cryptopanic.com\/news\/merit-circle\/"
                }
            ],
            "id": 18725302,
            "url": "https:\/\/cryptopanic.com\/news\/18725302\/Join-Marco_Merit-and-particleink-as-they-talk-AR-and-much-more-Its-starting-in-1-hour-so-get-ready",
            "created_at": "2023-07-05T13:00:20Z",
            "votes": {
                "negative": 0,
                "positive": 0,
                "important": 0,
                "liked": 0,
                "disliked": 0,
                "lol": 0,
                "toxic": 0,
                "saved": 0,
                "comments": 0
            }
        },
        {
            "kind": "news",
            "domain": "@MeritCircle_IO",
            "source": {
                "title": "Merit Circle Twitter",
                "region": "en",
                "domain": "twitter.com",
                "path": "@meritcircle_io"
            },
            "title": "Plug in, we're going on a ride. ",
            "published_at": "2023-07-05T06:38:05Z",
            "slug": "Plug-in-were-going-on-a-ride",
            "currencies": [
                {
                    "code": "MC",
                    "title": "Merit Circle",
                    "slug": "merit-circle",
                    "url": "https:\/\/cryptopanic.com\/news\/merit-circle\/"
                }
            ],
            "id": 18717440,
            "url": "https:\/\/cryptopanic.com\/news\/18717440\/Plug-in-were-going-on-a-ride",
            "created_at": "2023-07-05T06:38:05Z",
            "votes": {
                "negative": 0,
                "positive": 0,
                "important": 0,
                "liked": 0,
                "disliked": 0,
                "lol": 0,
                "toxic": 0,
                "saved": 0,
                "comments": 0
            }
        },
        {
            "kind": "news",
            "domain": "@MeritCircle_IO",
            "source": {
                "title": "Merit Circle Twitter",
                "region": "en",
                "domain": "twitter.com",
                "path": "@meritcircle_io"
            },
            "title": "Given the importance of this topic, we once again stimulate all Merit Circle community members to share their opini\u2026",
            "published_at": "2023-07-04T16:34:00Z",
            "slug": "Given-the-importance-of-this-topic-we-once-again-stimulate-all-Merit-Circle-community-members-to-share-their-opini",
            "currencies": [
                {
                    "code": "MC",
                    "title": "Merit Circle",
                    "slug": "merit-circle",
                    "url": "https:\/\/cryptopanic.com\/news\/merit-circle\/"
                }
            ],
            "id": 18717441,
            "url": "https:\/\/cryptopanic.com\/news\/18717441\/Given-the-importance-of-this-topic-we-once-again-stimulate-all-Merit-Circle-community-members-to-share-their-opini",
            "created_at": "2023-07-04T16:34:00Z",
            "votes": {
                "negative": 0,
                "positive": 0,
                "important": 0,
                "liked": 0,
                "disliked": 0,
                "lol": 0,
                "toxic": 0,
                "saved": 0,
                "comments": 0
            }
        },
        {
            "kind": "news",
            "domain": "@MetaMechaverse",
            "source": {
                "title": "Mechaverse Twitter",
                "region": "en",
                "domain": "twitter.com",
                "path": "@metamechaverse"
            },
            "title": "RT @zkInsight:  Strategic Partnership Announcement \n\n@zkInsights X @MetaMechaverse \n\n#Mechaverse is here to revolutionize the gaming ind\u2026",
            "published_at": "2023-07-04T12:30:17Z",
            "slug": "RT-zkInsight-Strategic-Partnership-Announcement-zkInsights-X-MetaMechaverse-Mechaverse-is-here-to-revolutionize-the-gaming-ind",
            "currencies": [
                {
                    "code": "MC",
                    "title": "Mechaverse",
                    "slug": "mechaverse",
                    "url": "https:\/\/cryptopanic.com\/news\/mechaverse\/"
                }
            ],
            "id": 18717409,
            "url": "https:\/\/cryptopanic.com\/news\/18717409\/RT-zkInsight-Strategic-Partnership-Announcement-zkInsights-X-MetaMechaverse-Mechaverse-is-here-to-revolutionize-the-gaming-ind",
            "created_at": "2023-07-04T12:30:17Z",
            "votes": {
                "negative": 0,
                "positive": 0,
                "important": 0,
                "liked": 0,
                "disliked": 0,
                "lol": 0,
                "toxic": 0,
                "saved": 0,
                "comments": 0
            }
        },
        {
            "kind": "news",
            "domain": "@MeritCircle_IO",
            "source": {
                "title": "Merit Circle Twitter",
                "region": "en",
                "domain": "twitter.com",
                "path": "@meritcircle_io"
            },
            "title": "We have @_SteveBH on a mission to make @BuildOnBeam a powerhouse for gaming  \n\nRead the full article below! \u2026",
            "published_at": "2023-07-04T11:45:16Z",
            "slug": "We-have-_SteveBH-on-a-mission-to-make-BuildOnBeam-a-powerhouse-for-gaming-Read-the-full-article-below",
            "currencies": [
                {
                    "code": "MC",
                    "title": "Merit Circle",
                    "slug": "merit-circle",
                    "url": "https:\/\/cryptopanic.com\/news\/merit-circle\/"
                }
            ],
            "id": 18717442,
            "url": "https:\/\/cryptopanic.com\/news\/18717442\/We-have-_SteveBH-on-a-mission-to-make-BuildOnBeam-a-powerhouse-for-gaming-Read-the-full-article-below",
            "created_at": "2023-07-04T11:45:16Z",
            "votes": {
                "negative": 0,
                "positive": 0,
                "important": 0,
                "liked": 0,
                "disliked": 0,
                "lol": 0,
                "toxic": 0,
                "saved": 0,
                "comments": 0
            }
        }
    ]
}
