{
    "count": 200,
    "next": "https:\/\/cryptopanic.com\/api\/v1\/posts\/?auth_token=01c356e89ffc1b8eba2127c81fc8c66ee0eace75&kind=news&currencies=QTUM&page=2",
    "previous": null,
    "results": [
        {
            "kind": "news",
            "domain": "@qtum",
            "source": {
                "title": "Qtum Twitter",
                "region": "en",
                "domain": "twitter.com",
                "path": "@qtum"
            },
            "title": "Into the World of #Qtum and $QTUM: 5 Key Insights!  Follow the thread.",
            "published_at": "2023-07-11T22:27:31Z",
            "slug": "Into-the-World-of-Qtum-and-QTUM-5-Key-Insights-Follow-the-thread",
            "currencies": [
                {
                    "code": "QTUM",
                    "title": "Qtum",
                    "slug": "qtum",
                    "url": "https:\/\/cryptopanic.com\/news\/qtum\/"
                }
            ],
            "id": 18766641,
            "url": "https:\/\/cryptopanic.com\/news\/18766641\/Into-the-World-of-Qtum-and-QTUM-5-Key-Insights-Follow-the-thread",
            "created_at": "2023-07-11T22:27:31Z",
            "votes": {
                "negative": 0,
                "positive": 0,
                "important": 0,
                "liked": 0,
                "disliked": 0,
                "lol": 0,
                "toxic": 0,
                "saved": 0,
                "comments": 0
            }
        },
        {
            "kind": "news",
            "domain": "@qtum",
            "source": {
                "title": "Qtum Twitter",
                "region": "en",
                "domain": "twitter.com",
                "path": "@qtum"
            },
            "title": "Good news \u203c\ufe0f\u203c\ufe0f\n\n@mpalenciac, Qtum's Co-founder and Moonland's founder, will join us tomorrow in the conversation ab\u2026",
            "published_at": "2023-07-11T22:11:18Z",
            "slug": "Good-news-mpalenciac-Qtums-Co-founder-and-Moonlands-founder-will-join-us-tomorrow-in-the-conversation-ab",
            "currencies": [
                {
                    "code": "QTUM",
                    "title": "Qtum",
                    "slug": "qtum",
                    "url": "https:\/\/cryptopanic.com\/news\/qtum\/"
                }
            ],
            "id": 18766642,
            "url": "https:\/\/cryptopanic.com\/news\/18766642\/Good-news-mpalenciac-Qtums-Co-founder-and-Moonlands-founder-will-join-us-tomorrow-in-the-conversation-ab",
            "created_at": "2023-07-11T22:11:18Z",
            "votes": {
                "negative": 0,
                "positive": 0,
                "important": 0,
                "liked": 0,
                "disliked": 0,
                "lol": 0,
                "toxic": 0,
                "saved": 0,
                "comments": 0
            }
        },
        {
            "kind": "news",
            "domain": "@qtum",
            "source": {
                "title": "Qtum Twitter",
                "region": "en",
                "domain": "twitter.com",
                "path": "@qtum"
            },
            "title": "With #Qtum\u2019s offline staking feature, you can delegate your non-staking wallet address to a super staker while reta\u2026",
            "published_at": "2023-07-11T19:00:33Z",
            "slug": "With-Qtums-offline-staking-feature-you-can-delegate-your-non-staking-wallet-address-to-a-super-staker-while-reta",
            "currencies": [
                {
                    "code": "QTUM",
                    "title": "Qtum",
                    "slug": "qtum",
                    "url": "https:\/\/cryptopanic.com\/news\/qtum\/"
                }
            ],
            "id": 18766643,
            "url": "https:\/\/cryptopanic.com\/news\/18766643\/With-Qtums-offline-staking-feature-you-can-delegate-your-non-staking-wallet-address-to-a-super-staker-while-reta",
            "created_at": "2023-07-11T19:00:33Z",
            "votes": {
                "negative": 0,
                "positive": 0,
                "important": 0,
                "liked": 0,
                "disliked": 0,
                "lol": 0,
                "toxic": 0,
                "saved": 0,
                "comments": 0
            }
        },
        {
            "kind": "news",
            "domain": "@qtum",
            "source": {
                "title": "Qtum Twitter",
                "region": "en",
                "domain": "twitter.com",
                "path": "@qtum"
            },
            "title": "If you wish to run an online #Qtum staking node, download and install the #QtumCoreWallet for Windows, Mac, Linux,\u2026",
            "published_at": "2023-07-11T18:00:52Z",
            "slug": "If-you-wish-to-run-an-online-Qtum-staking-node-download-and-install-the-QtumCoreWallet-for-Windows-Mac-Linux",
            "currencies": [
                {
                    "code": "QTUM",
                    "title": "Qtum",
                    "slug": "qtum",
                    "url": "https:\/\/cryptopanic.com\/news\/qtum\/"
                }
            ],
            "id": 18766644,
            "url": "https:\/\/cryptopanic.com\/news\/18766644\/If-you-wish-to-run-an-online-Qtum-staking-node-download-and-install-the-QtumCoreWallet-for-Windows-Mac-Linux",
            "created_at": "2023-07-11T18:00:52Z",
            "votes": {
                "negative": 0,
                "positive": 0,
                "important": 0,
                "liked": 0,
                "disliked": 0,
                "lol": 0,
                "toxic": 0,
                "saved": 0,
                "comments": 0
            }
        },
        {
            "kind": "news",
            "domain": "@qtum",
            "source": {
                "title": "Qtum Twitter",
                "region": "en",
                "domain": "twitter.com",
                "path": "@qtum"
            },
            "title": "Appreciation Tweet to our Stakers and Super Stakers.\ufe0f\u00a0They play a crucial role in maintaining a stable and secure #Qtum network. ",
            "published_at": "2023-07-11T17:35:49Z",
            "slug": "Appreciation-Tweet-to-our-Stakers-and-Super-Stakers-They-play-a-crucial-role-in-maintaining-a-stable-and-secure-Qtum-network",
            "currencies": [
                {
                    "code": "QTUM",
                    "title": "Qtum",
                    "slug": "qtum",
                    "url": "https:\/\/cryptopanic.com\/news\/qtum\/"
                }
            ],
            "id": 18766645,
            "url": "https:\/\/cryptopanic.com\/news\/18766645\/Appreciation-Tweet-to-our-Stakers-and-Super-Stakers-They-play-a-crucial-role-in-maintaining-a-stable-and-secure-Qtum-network",
            "created_at": "2023-07-11T17:35:49Z",
            "votes": {
                "negative": 0,
                "positive": 0,
                "important": 0,
                "liked": 0,
                "disliked": 0,
                "lol": 0,
                "toxic": 0,
                "saved": 0,
                "comments": 0
            }
        },
        {
            "kind": "news",
            "domain": "@qtum",
            "source": {
                "title": "Qtum Twitter",
                "region": "en",
                "domain": "twitter.com",
                "path": "@qtum"
            },
            "title": "Time to earn some QTUM! Participate in our Twitter Space tomorrow for a chance to win.  All you have to do is foll\u2026",
            "published_at": "2023-07-11T17:14:18Z",
            "slug": "Time-to-earn-some-QTUM-Participate-in-our-Twitter-Space-tomorrow-for-a-chance-to-win-All-you-have-to-do-is-foll",
            "currencies": [
                {
                    "code": "QTUM",
                    "title": "Qtum",
                    "slug": "qtum",
                    "url": "https:\/\/cryptopanic.com\/news\/qtum\/"
                }
            ],
            "id": 18766646,
            "url": "https:\/\/cryptopanic.com\/news\/18766646\/Time-to-earn-some-QTUM-Participate-in-our-Twitter-Space-tomorrow-for-a-chance-to-win-All-you-have-to-do-is-foll",
            "created_at": "2023-07-11T17:14:18Z",
            "votes": {
                "negative": 0,
                "positive": 0,
                "important": 0,
                "liked": 0,
                "disliked": 0,
                "lol": 0,
                "toxic": 0,
                "saved": 0,
                "comments": 0
            }
        },
        {
            "kind": "news",
            "domain": "@qtum",
            "source": {
                "title": "Qtum Twitter",
                "region": "en",
                "domain": "twitter.com",
                "path": "@qtum"
            },
            "title": "We're hosting a special Twitter Space dedicated to the future of #blockchaingaming with @CitizenConflict\u2026",
            "published_at": "2023-07-10T20:12:36Z",
            "slug": "Were-hosting-a-special-Twitter-Space-dedicated-to-the-future-of-blockchaingaming-with-CitizenConflict",
            "currencies": [
                {
                    "code": "QTUM",
                    "title": "Qtum",
                    "slug": "qtum",
                    "url": "https:\/\/cryptopanic.com\/news\/qtum\/"
                }
            ],
            "id": 18758497,
            "url": "https:\/\/cryptopanic.com\/news\/18758497\/Were-hosting-a-special-Twitter-Space-dedicated-to-the-future-of-blockchaingaming-with-CitizenConflict",
            "created_at": "2023-07-10T20:12:36Z",
            "votes": {
                "negative": 0,
                "positive": 0,
                "important": 0,
                "liked": 0,
                "disliked": 0,
                "lol": 0,
                "toxic": 0,
                "saved": 0,
                "comments": 0
            }
        },
        {
            "kind": "news",
            "domain": "@qtum",
            "source": {
                "title": "Qtum Twitter",
                "region": "en",
                "domain": "twitter.com",
                "path": "@qtum"
            },
            "title": "Every transaction, smart contract, and every #dApp contributes to the growth and security of this dynamic platform.\u2026",
            "published_at": "2023-07-10T18:46:56Z",
            "slug": "Every-transaction-smart-contract-and-every-dApp-contributes-to-the-growth-and-security-of-this-dynamic-platform",
            "currencies": [
                {
                    "code": "QTUM",
                    "title": "Qtum",
                    "slug": "qtum",
                    "url": "https:\/\/cryptopanic.com\/news\/qtum\/"
                }
            ],
            "id": 18758498,
            "url": "https:\/\/cryptopanic.com\/news\/18758498\/Every-transaction-smart-contract-and-every-dApp-contributes-to-the-growth-and-security-of-this-dynamic-platform",
            "created_at": "2023-07-10T18:46:56Z",
            "votes": {
                "negative": 0,
                "positive": 0,
                "important": 0,
                "liked": 0,
                "disliked": 0,
                "lol": 0,
                "toxic": 0,
                "saved": 0,
                "comments": 0
            }
        },
        {
            "kind": "news",
            "domain": "@qtum",
            "source": {
                "title": "Qtum Twitter",
                "region": "en",
                "domain": "twitter.com",
                "path": "@qtum"
            },
            "title": "#Janus, the bridge to #Qtum! With its #web3 proxy adapter, developers can effortlessly port their solidity-based applications to Qtum. ",
            "published_at": "2023-07-09T17:30:12Z",
            "slug": "Janus-the-bridge-to-Qtum-With-its-web3-proxy-adapter-developers-can-effortlessly-port-their-solidity-based-applications-to-Qtum",
            "currencies": [
                {
                    "code": "QTUM",
                    "title": "Qtum",
                    "slug": "qtum",
                    "url": "https:\/\/cryptopanic.com\/news\/qtum\/"
                }
            ],
            "id": 18751134,
            "url": "https:\/\/cryptopanic.com\/news\/18751134\/Janus-the-bridge-to-Qtum-With-its-web3-proxy-adapter-developers-can-effortlessly-port-their-solidity-based-applications-to-Qtum",
            "created_at": "2023-07-09T17:30:12Z",
            "votes": {
                "negative": 0,
                "positive": 0,
                "important": 0,
                "liked": 0,
                "disliked": 0,
                "lol": 0,
                "toxic": 0,
                "saved": 0,
                "comments": 0
            }
        },
        {
            "kind": "news",
            "domain": "@qtum",
            "source": {
                "title": "Qtum Twitter",
                "region": "en",
                "domain": "twitter.com",
                "path": "@qtum"
            },
            "title": "Qtum\u2019s innovative fusion of #Bitcoin and #Ethereum, PoS 3.0, the Account Abstraction Layer, and Layer 2 solutions c\u2026",
            "published_at": "2023-07-08T17:30:12Z",
            "slug": "Qtums-innovative-fusion-of-Bitcoin-and-Ethereum-PoS-30-the-Account-Abstraction-Layer-and-Layer-2-solutions-c",
            "currencies": [
                {
                    "code": "QTUM",
                    "title": "Qtum",
                    "slug": "qtum",
                    "url": "https:\/\/cryptopanic.com\/news\/qtum\/"
                }
            ],
            "id": 18746688,
            "url": "https:\/\/cryptopanic.com\/news\/18746688\/Qtums-innovative-fusion-of-Bitcoin-and-Ethereum-PoS-30-the-Account-Abstraction-Layer-and-Layer-2-solutions-c",
            "created_at": "2023-07-08T17:30:12Z",
            "votes": {
                "negative": 0,
                "positive": 0,
                "important": 0,
                "liked": 0,
                "disliked": 0,
                "lol": 0,
                "toxic": 0,
                "saved": 0,
                "comments": 0
            }
        },
        {
            "kind": "news",
            "domain": "@qtum",
            "source": {
                "title": "Qtum Twitter",
                "region": "en",
                "domain": "twitter.com",
                "path": "@qtum"
            },
            "title": "In case you missed anything, here's a thread summarizing some of the important happenings in June 2023. Keep readin\u2026",
            "published_at": "2023-07-07T20:33:14Z",
            "slug": "In-case-you-missed-anything-heres-a-thread-summarizing-some-of-the-important-happenings-in-June-2023-Keep-readin",
            "currencies": [
                {
                    "code": "QTUM",
                    "title": "Qtum",
                    "slug": "qtum",
                    "url": "https:\/\/cryptopanic.com\/news\/qtum\/"
                }
            ],
            "id": 18742117,
            "url": "https:\/\/cryptopanic.com\/news\/18742117\/In-case-you-missed-anything-heres-a-thread-summarizing-some-of-the-important-happenings-in-June-2023-Keep-readin",
            "created_at": "2023-07-07T20:33:14Z",
            "votes": {
                "negative": 0,
                "positive": 0,
                "important": 0,
                "liked": 0,
                "disliked": 0,
                "lol": 0,
                "toxic": 0,
                "saved": 0,
                "comments": 0
            }
        },
        {
            "kind": "news",
            "domain": "@qtum",
            "source": {
                "title": "Qtum Twitter",
                "region": "en",
                "domain": "twitter.com",
                "path": "@qtum"
            },
            "title": "Happy Friday! The future belongs to those who embrace the power of #blockchain. \n\nThumbs up  if you're part of the\u2026",
            "published_at": "2023-07-07T16:22:25Z",
            "slug": "Happy-Friday-The-future-belongs-to-those-who-embrace-the-power-of-blockchain-Thumbs-up-if-youre-part-of-the",
            "currencies": [
                {
                    "code": "QTUM",
                    "title": "Qtum",
                    "slug": "qtum",
                    "url": "https:\/\/cryptopanic.com\/news\/qtum\/"
                }
            ],
            "id": 18742118,
            "url": "https:\/\/cryptopanic.com\/news\/18742118\/Happy-Friday-The-future-belongs-to-those-who-embrace-the-power-of-blockchain-Thumbs-up-if-youre-part-of-the",
            "created_at": "2023-07-07T16:22:25Z",
            "votes": {
                "negative": 0,
                "positive": 0,
                "important": 0,
                "liked": 0,
                "disliked": 0,
                "lol": 0,
                "toxic": 0,
                "saved": 0,
                "comments": 0
            }
        },
        {
            "kind": "news",
            "domain": "@qtum",
            "source": {
                "title": "Qtum Twitter",
                "region": "en",
                "domain": "twitter.com",
                "path": "@qtum"
            },
            "title": "The Qtum community is a great place to connect with other Qtum developers, ask questions, share ideas, and get help\u2026",
            "published_at": "2023-07-07T00:00:04Z",
            "slug": "The-Qtum-community-is-a-great-place-to-connect-with-other-Qtum-developers-ask-questions-share-ideas-and-get-help",
            "currencies": [
                {
                    "code": "QTUM",
                    "title": "Qtum",
                    "slug": "qtum",
                    "url": "https:\/\/cryptopanic.com\/news\/qtum\/"
                }
            ],
            "id": 18734826,
            "url": "https:\/\/cryptopanic.com\/news\/18734826\/The-Qtum-community-is-a-great-place-to-connect-with-other-Qtum-developers-ask-questions-share-ideas-and-get-help",
            "created_at": "2023-07-07T00:00:04Z",
            "votes": {
                "negative": 0,
                "positive": 0,
                "important": 0,
                "liked": 0,
                "disliked": 0,
                "lol": 0,
                "toxic": 0,
                "saved": 0,
                "comments": 0
            }
        },
        {
            "kind": "news",
            "domain": "@qtum",
            "source": {
                "title": "Qtum Twitter",
                "region": "en",
                "domain": "twitter.com",
                "path": "@qtum"
            },
            "title": "In case you missed the video, we got you. \ud83e\uddbe Here's a thread with all links to the resources you'll need to start de\u2026",
            "published_at": "2023-07-06T20:31:09Z",
            "slug": "In-case-you-missed-the-video-we-got-you-Heres-a-thread-with-all-links-to-the-resources-youll-need-to-start-de",
            "currencies": [
                {
                    "code": "QTUM",
                    "title": "Qtum",
                    "slug": "qtum",
                    "url": "https:\/\/cryptopanic.com\/news\/qtum\/"
                }
            ],
            "id": 18734827,
            "url": "https:\/\/cryptopanic.com\/news\/18734827\/In-case-you-missed-the-video-we-got-you-Heres-a-thread-with-all-links-to-the-resources-youll-need-to-start-de",
            "created_at": "2023-07-06T20:31:09Z",
            "votes": {
                "negative": 0,
                "positive": 0,
                "important": 0,
                "liked": 0,
                "disliked": 0,
                "lol": 0,
                "toxic": 0,
                "saved": 0,
                "comments": 0
            }
        },
        {
            "kind": "news",
            "domain": "@qtum",
            "source": {
                "title": "Qtum Twitter",
                "region": "en",
                "domain": "twitter.com",
                "path": "@qtum"
            },
            "title": "RT @Oases_NFT: There are only 10 days remaining for the Oases x Qtum campaign!  This is an opportunity that you won't want to miss!  http\u2026",
            "published_at": "2023-07-06T19:57:25Z",
            "slug": "RT-Oases_NFT-There-are-only-10-days-remaining-for-the-Oases-x-Qtum-campaign-This-is-an-opportunity-that-you-wont-want-to-miss-http",
            "currencies": [
                {
                    "code": "QTUM",
                    "title": "Qtum",
                    "slug": "qtum",
                    "url": "https:\/\/cryptopanic.com\/news\/qtum\/"
                }
            ],
            "id": 18734828,
            "url": "https:\/\/cryptopanic.com\/news\/18734828\/RT-Oases_NFT-There-are-only-10-days-remaining-for-the-Oases-x-Qtum-campaign-This-is-an-opportunity-that-you-wont-want-to-miss-http",
            "created_at": "2023-07-06T19:57:25Z",
            "votes": {
                "negative": 0,
                "positive": 0,
                "important": 0,
                "liked": 0,
                "disliked": 0,
                "lol": 0,
                "toxic": 0,
                "saved": 0,
                "comments": 0
            }
        },
        {
            "kind": "news",
            "domain": "@qtum",
            "source": {
                "title": "Qtum Twitter",
                "region": "en",
                "domain": "twitter.com",
                "path": "@qtum"
            },
            "title": "If you had to choose one, which principle would it be? \ufe0f\n\n#Qtum #blockchain",
            "published_at": "2023-07-06T19:43:41Z",
            "slug": "If-you-had-to-choose-one-which-principle-would-it-be-Qtum-blockchain",
            "currencies": [
                {
                    "code": "QTUM",
                    "title": "Qtum",
                    "slug": "qtum",
                    "url": "https:\/\/cryptopanic.com\/news\/qtum\/"
                }
            ],
            "id": 18734829,
            "url": "https:\/\/cryptopanic.com\/news\/18734829\/If-you-had-to-choose-one-which-principle-would-it-be-Qtum-blockchain",
            "created_at": "2023-07-06T19:43:41Z",
            "votes": {
                "negative": 0,
                "positive": 0,
                "important": 0,
                "liked": 0,
                "disliked": 0,
                "lol": 0,
                "toxic": 0,
                "saved": 0,
                "comments": 0
            }
        },
        {
            "kind": "news",
            "domain": "@qtum",
            "source": {
                "title": "Qtum Twitter",
                "region": "en",
                "domain": "twitter.com",
                "path": "@qtum"
            },
            "title": "Have you ever wondered what makes the #QtumWebWallet so unique? \n\nReview the basics and discover why it's considere\u2026",
            "published_at": "2023-07-05T21:25:14Z",
            "slug": "Have-you-ever-wondered-what-makes-the-QtumWebWallet-so-unique-Review-the-basics-and-discover-why-its-considere",
            "currencies": [
                {
                    "code": "QTUM",
                    "title": "Qtum",
                    "slug": "qtum",
                    "url": "https:\/\/cryptopanic.com\/news\/qtum\/"
                }
            ],
            "id": 18726293,
            "url": "https:\/\/cryptopanic.com\/news\/18726293\/Have-you-ever-wondered-what-makes-the-QtumWebWallet-so-unique-Review-the-basics-and-discover-why-its-considere",
            "created_at": "2023-07-05T21:25:14Z",
            "votes": {
                "negative": 0,
                "positive": 0,
                "important": 0,
                "liked": 0,
                "disliked": 0,
                "lol": 0,
                "toxic": 0,
                "saved": 0,
                "comments": 0
            }
        },
        {
            "kind": "news",
            "domain": "@qtum",
            "source": {
                "title": "Qtum Twitter",
                "region": "en",
                "domain": "twitter.com",
                "path": "@qtum"
            },
            "title": "Qtum offers a compelling blend of flexibility, efficiency, and innovation, making it a smart choice for #developers\u2026",
            "published_at": "2023-07-05T18:52:51Z",
            "slug": "Qtum-offers-a-compelling-blend-of-flexibility-efficiency-and-innovation-making-it-a-smart-choice-for-developers",
            "currencies": [
                {
                    "code": "QTUM",
                    "title": "Qtum",
                    "slug": "qtum",
                    "url": "https:\/\/cryptopanic.com\/news\/qtum\/"
                }
            ],
            "id": 18726294,
            "url": "https:\/\/cryptopanic.com\/news\/18726294\/Qtum-offers-a-compelling-blend-of-flexibility-efficiency-and-innovation-making-it-a-smart-choice-for-developers",
            "created_at": "2023-07-05T18:52:51Z",
            "votes": {
                "negative": 0,
                "positive": 0,
                "important": 0,
                "liked": 0,
                "disliked": 0,
                "lol": 0,
                "toxic": 0,
                "saved": 0,
                "comments": 0
            }
        },
        {
            "kind": "news",
            "domain": "@qtum",
            "source": {
                "title": "Qtum Twitter",
                "region": "en",
                "domain": "twitter.com",
                "path": "@qtum"
            },
            "title": "What breaking free from centralized limitations feels like: \n\n#blockchain #qtum #technology",
            "published_at": "2023-07-05T17:21:38Z",
            "slug": "What-breaking-free-from-centralized-limitations-feels-like-blockchain-qtum-technology",
            "currencies": [
                {
                    "code": "QTUM",
                    "title": "Qtum",
                    "slug": "qtum",
                    "url": "https:\/\/cryptopanic.com\/news\/qtum\/"
                }
            ],
            "id": 18726295,
            "url": "https:\/\/cryptopanic.com\/news\/18726295\/What-breaking-free-from-centralized-limitations-feels-like-blockchain-qtum-technology",
            "created_at": "2023-07-05T17:21:38Z",
            "votes": {
                "negative": 0,
                "positive": 0,
                "important": 0,
                "liked": 0,
                "disliked": 0,
                "lol": 0,
                "toxic": 0,
                "saved": 0,
                "comments": 0
            }
        },
        {
            "kind": "news",
            "domain": "@qtum",
            "source": {
                "title": "Qtum Twitter",
                "region": "en",
                "domain": "twitter.com",
                "path": "@qtum"
            },
            "title": "Happy Independence Day, United States! Happy 4th! \n\n#July4 #IndependenceDay",
            "published_at": "2023-07-04T14:01:06Z",
            "slug": "Happy-Independence-Day-United-States-Happy-4th-July4-IndependenceDay",
            "currencies": [
                {
                    "code": "QTUM",
                    "title": "Qtum",
                    "slug": "qtum",
                    "url": "https:\/\/cryptopanic.com\/news\/qtum\/"
                }
            ],
            "id": 18718376,
            "url": "https:\/\/cryptopanic.com\/news\/18718376\/Happy-Independence-Day-United-States-Happy-4th-July4-IndependenceDay",
            "created_at": "2023-07-04T14:01:06Z",
            "votes": {
                "negative": 0,
                "positive": 0,
                "important": 0,
                "liked": 0,
                "disliked": 0,
                "lol": 0,
                "toxic": 0,
                "saved": 0,
                "comments": 0
            }
        }
    ]
}
