{
    "count": 200,
    "next": "https:\/\/cryptopanic.com\/api\/v1\/posts\/?auth_token=01c356e89ffc1b8eba2127c81fc8c66ee0eace75&kind=news&currencies=SC&page=2",
    "previous": null,
    "results": [
        {
            "kind": "news",
            "domain": "@Sia__Foundation",
            "source": {
                "title": "Siacoin Twitter",
                "region": "en",
                "domain": "twitter.com",
                "path": "@sia__foundation"
            },
            "title": "We've just published the State of Sia blog post for June!",
            "published_at": "2023-07-06T15:00:00Z",
            "slug": "Weve-just-published-the-State-of-Sia-blog-post-for-June",
            "currencies": [
                {
                    "code": "SC",
                    "title": "Siacoin",
                    "slug": "siacoin",
                    "url": "https:\/\/cryptopanic.com\/news\/siacoin\/"
                }
            ],
            "id": 18735238,
            "url": "https:\/\/cryptopanic.com\/news\/18735238\/Weve-just-published-the-State-of-Sia-blog-post-for-June",
            "created_at": "2023-07-06T15:00:00Z",
            "votes": {
                "negative": 0,
                "positive": 0,
                "important": 0,
                "liked": 0,
                "disliked": 0,
                "lol": 0,
                "toxic": 0,
                "saved": 0,
                "comments": 0
            }
        },
        {
            "kind": "news",
            "domain": "@Sia__Foundation",
            "source": {
                "title": "Siacoin Twitter",
                "region": "en",
                "domain": "twitter.com",
                "path": "@sia__foundation"
            },
            "title": " #hostd beta is live! Experience enhanced stability, speed, resource management, and a user-friendly interface. We\u2026",
            "published_at": "2023-07-05T14:15:51Z",
            "slug": "hostd-beta-is-live-Experience-enhanced-stability-speed-resource-management-and-a-user-friendly-interface-We",
            "currencies": [
                {
                    "code": "SC",
                    "title": "Siacoin",
                    "slug": "siacoin",
                    "url": "https:\/\/cryptopanic.com\/news\/siacoin\/"
                }
            ],
            "id": 18726710,
            "url": "https:\/\/cryptopanic.com\/news\/18726710\/hostd-beta-is-live-Experience-enhanced-stability-speed-resource-management-and-a-user-friendly-interface-We",
            "created_at": "2023-07-05T14:15:51Z",
            "votes": {
                "negative": 0,
                "positive": 0,
                "important": 0,
                "liked": 0,
                "disliked": 0,
                "lol": 0,
                "toxic": 0,
                "saved": 0,
                "comments": 0
            }
        },
        {
            "kind": "news",
            "domain": "@Sia__Foundation",
            "source": {
                "title": "Siacoin Twitter",
                "region": "en",
                "domain": "twitter.com",
                "path": "@sia__foundation"
            },
            "title": "The Foundation's Q2 2023 report is now available:\n\nExplore our renterd and hostd beta releas\u2026",
            "published_at": "2023-07-03T17:27:45Z",
            "slug": "The-Foundations-Q2-2023-report-is-now-available-Explore-our-renterd-and-hostd-beta-releas",
            "currencies": [
                {
                    "code": "SC",
                    "title": "Siacoin",
                    "slug": "siacoin",
                    "url": "https:\/\/cryptopanic.com\/news\/siacoin\/"
                }
            ],
            "id": 18711639,
            "url": "https:\/\/cryptopanic.com\/news\/18711639\/The-Foundations-Q2-2023-report-is-now-available-Explore-our-renterd-and-hostd-beta-releas",
            "created_at": "2023-07-03T17:27:45Z",
            "votes": {
                "negative": 0,
                "positive": 0,
                "important": 0,
                "liked": 0,
                "disliked": 0,
                "lol": 0,
                "toxic": 0,
                "saved": 0,
                "comments": 0
            }
        },
        {
            "kind": "news",
            "domain": "@Sia__Foundation",
            "source": {
                "title": "Siacoin Twitter",
                "region": "en",
                "domain": "twitter.com",
                "path": "@sia__foundation"
            },
            "title": "Join us in the Sia Discord server for our inaugural Community Town Hall on July 7th at 11AM ET, where we'll provide\u2026",
            "published_at": "2023-06-26T22:47:27Z",
            "slug": "Join-us-in-the-Sia-Discord-server-for-our-inaugural-Community-Town-Hall-on-July-7th-at-11AM-ET-where-well-provide",
            "currencies": [
                {
                    "code": "SC",
                    "title": "Siacoin",
                    "slug": "siacoin",
                    "url": "https:\/\/cryptopanic.com\/news\/siacoin\/"
                }
            ],
            "id": 18663876,
            "url": "https:\/\/cryptopanic.com\/news\/18663876\/Join-us-in-the-Sia-Discord-server-for-our-inaugural-Community-Town-Hall-on-July-7th-at-11AM-ET-where-well-provide",
            "created_at": "2023-06-26T22:47:27Z",
            "votes": {
                "negative": 0,
                "positive": 0,
                "important": 0,
                "liked": 0,
                "disliked": 0,
                "lol": 0,
                "toxic": 0,
                "saved": 0,
                "comments": 0
            }
        },
        {
            "kind": "news",
            "domain": "@Sia__Foundation",
            "source": {
                "title": "Siacoin Twitter",
                "region": "en",
                "domain": "twitter.com",
                "path": "@sia__foundation"
            },
            "title": "We've just published the State of Sia report for June! Quickly catch up on Sia's progress here",
            "published_at": "2023-06-15T23:12:52Z",
            "slug": "Weve-just-published-the-State-of-Sia-report-for-June-Quickly-catch-up-on-Sias-progress-here",
            "currencies": [
                {
                    "code": "SC",
                    "title": "Siacoin",
                    "slug": "siacoin",
                    "url": "https:\/\/cryptopanic.com\/news\/siacoin\/"
                }
            ],
            "id": 18589909,
            "url": "https:\/\/cryptopanic.com\/news\/18589909\/Weve-just-published-the-State-of-Sia-report-for-June-Quickly-catch-up-on-Sias-progress-here",
            "created_at": "2023-06-15T23:12:52Z",
            "votes": {
                "negative": 0,
                "positive": 0,
                "important": 0,
                "liked": 0,
                "disliked": 0,
                "lol": 0,
                "toxic": 0,
                "saved": 0,
                "comments": 0
            }
        },
        {
            "kind": "news",
            "domain": "@Sia__Foundation",
            "source": {
                "title": "Siacoin Twitter",
                "region": "en",
                "domain": "twitter.com",
                "path": "@sia__foundation"
            },
            "title": "We're hiring for a Developer Relations expert! If you want to enrich the Sia ecosystem and help bridge the gap betw\u2026",
            "published_at": "2023-05-24T18:21:19Z",
            "slug": "Were-hiring-for-a-Developer-Relations-expert-If-you-want-to-enrich-the-Sia-ecosystem-and-help-bridge-the-gap-betw",
            "currencies": [
                {
                    "code": "SC",
                    "title": "Siacoin",
                    "slug": "siacoin",
                    "url": "https:\/\/cryptopanic.com\/news\/siacoin\/"
                }
            ],
            "id": 18462883,
            "url": "https:\/\/cryptopanic.com\/news\/18462883\/Were-hiring-for-a-Developer-Relations-expert-If-you-want-to-enrich-the-Sia-ecosystem-and-help-bridge-the-gap-betw",
            "created_at": "2023-05-24T18:21:19Z",
            "votes": {
                "negative": 0,
                "positive": 0,
                "important": 0,
                "liked": 0,
                "disliked": 0,
                "lol": 0,
                "toxic": 0,
                "saved": 0,
                "comments": 0
            }
        },
        {
            "kind": "news",
            "domain": "@Sia__Foundation",
            "source": {
                "title": "Siacoin Twitter",
                "region": "en",
                "domain": "twitter.com",
                "path": "@sia__foundation"
            },
            "title": "The #renterd HTTP API enables developers to integrate and build upon the Sia network's capabilities with ease, offe\u2026",
            "published_at": "2023-04-10T13:53:30Z",
            "slug": "The-renterd-HTTP-API-enables-developers-to-integrate-and-build-upon-the-Sia-networks-capabilities-with-ease-offe",
            "currencies": [
                {
                    "code": "SC",
                    "title": "Siacoin",
                    "slug": "siacoin",
                    "url": "https:\/\/cryptopanic.com\/news\/siacoin\/"
                }
            ],
            "id": 18462884,
            "url": "https:\/\/cryptopanic.com\/news\/18462884\/The-renterd-HTTP-API-enables-developers-to-integrate-and-build-upon-the-Sia-networks-capabilities-with-ease-offe",
            "created_at": "2023-04-10T13:53:30Z",
            "votes": {
                "negative": 0,
                "positive": 0,
                "important": 0,
                "liked": 0,
                "disliked": 0,
                "lol": 0,
                "toxic": 0,
                "saved": 0,
                "comments": 0
            }
        },
        {
            "kind": "news",
            "domain": "@Sia__Foundation",
            "source": {
                "title": "Siacoin Twitter",
                "region": "en",
                "domain": "twitter.com",
                "path": "@sia__foundation"
            },
            "title": "Today is #WorldHeathDay! When renting on Sia, it's important to monitor the health of your files and let your Sia r\u2026",
            "published_at": "2023-04-07T17:18:24Z",
            "slug": "Today-is-WorldHeathDay-When-renting-on-Sia-its-important-to-monitor-the-health-of-your-files-and-let-your-Sia-r",
            "currencies": [
                {
                    "code": "SC",
                    "title": "Siacoin",
                    "slug": "siacoin",
                    "url": "https:\/\/cryptopanic.com\/news\/siacoin\/"
                }
            ],
            "id": 18462885,
            "url": "https:\/\/cryptopanic.com\/news\/18462885\/Today-is-WorldHeathDay-When-renting-on-Sia-its-important-to-monitor-the-health-of-your-files-and-let-your-Sia-r",
            "created_at": "2023-04-07T17:18:24Z",
            "votes": {
                "negative": 0,
                "positive": 0,
                "important": 0,
                "liked": 0,
                "disliked": 0,
                "lol": 0,
                "toxic": 0,
                "saved": 0,
                "comments": 0
            }
        },
        {
            "kind": "news",
            "domain": "@Sia__Foundation",
            "source": {
                "title": "Siacoin Twitter",
                "region": "en",
                "domain": "twitter.com",
                "path": "@sia__foundation"
            },
            "title": "RT @LarsFle1: @Sia__Foundation SIA is cool... Last year was a good hosting year. Let me share some real life stats, here rolling 12 moths.\u2026",
            "published_at": "2023-04-05T21:17:27Z",
            "slug": "RT-LarsFle1-Sia__Foundation-SIA-is-cool-Last-year-was-a-good-hosting-year-Let-me-share-some-real-life-stats-here-rolling-12-moths",
            "currencies": [
                {
                    "code": "SC",
                    "title": "Siacoin",
                    "slug": "siacoin",
                    "url": "https:\/\/cryptopanic.com\/news\/siacoin\/"
                }
            ],
            "id": 18462887,
            "url": "https:\/\/cryptopanic.com\/news\/18462887\/RT-LarsFle1-Sia__Foundation-SIA-is-cool-Last-year-was-a-good-hosting-year-Let-me-share-some-real-life-stats-here-rolling-12-moths",
            "created_at": "2023-04-05T21:17:27Z",
            "votes": {
                "negative": 0,
                "positive": 0,
                "important": 0,
                "liked": 0,
                "disliked": 0,
                "lol": 0,
                "toxic": 0,
                "saved": 0,
                "comments": 0
            }
        },
        {
            "kind": "news",
            "domain": "@Sia__Foundation",
            "source": {
                "title": "Siacoin Twitter",
                "region": "en",
                "domain": "twitter.com",
                "path": "@sia__foundation"
            },
            "title": "We just published the State of Sia for April. Enjoy!",
            "published_at": "2023-04-05T21:07:40Z",
            "slug": "We-just-published-the-State-of-Sia-for-April-Enjoy",
            "currencies": [
                {
                    "code": "SC",
                    "title": "Siacoin",
                    "slug": "siacoin",
                    "url": "https:\/\/cryptopanic.com\/news\/siacoin\/"
                }
            ],
            "id": 18462889,
            "url": "https:\/\/cryptopanic.com\/news\/18462889\/We-just-published-the-State-of-Sia-for-April-Enjoy",
            "created_at": "2023-04-05T21:07:40Z",
            "votes": {
                "negative": 0,
                "positive": 0,
                "important": 0,
                "liked": 0,
                "disliked": 0,
                "lol": 0,
                "toxic": 0,
                "saved": 0,
                "comments": 0
            }
        },
        {
            "kind": "news",
            "domain": "@Sia__Foundation",
            "source": {
                "title": "Siacoin Twitter",
                "region": "en",
                "domain": "twitter.com",
                "path": "@sia__foundation"
            },
            "title": "Our 2023 Q1 Transparency Report has been published! Read about the progress we've made, including our new public\u2026",
            "published_at": "2023-04-01T21:39:01Z",
            "slug": "Our-2023-Q1-Transparency-Report-has-been-published-Read-about-the-progress-weve-made-including-our-new-public",
            "currencies": [
                {
                    "code": "SC",
                    "title": "Siacoin",
                    "slug": "siacoin",
                    "url": "https:\/\/cryptopanic.com\/news\/siacoin\/"
                }
            ],
            "id": 18462891,
            "url": "https:\/\/cryptopanic.com\/news\/18462891\/Our-2023-Q1-Transparency-Report-has-been-published-Read-about-the-progress-weve-made-including-our-new-public",
            "created_at": "2023-04-01T21:39:01Z",
            "votes": {
                "negative": 0,
                "positive": 0,
                "important": 0,
                "liked": 0,
                "disliked": 0,
                "lol": 0,
                "toxic": 0,
                "saved": 0,
                "comments": 0
            }
        },
        {
            "kind": "news",
            "domain": "@Sia__Foundation",
            "source": {
                "title": "Siacoin Twitter",
                "region": "en",
                "domain": "twitter.com",
                "path": "@sia__foundation"
            },
            "title": "On #WorldBackupDay, let's prioritize data protection. Explore #renterd, the next-gen solution from the Sia Foundati\u2026",
            "published_at": "2023-03-31T16:13:10Z",
            "slug": "On-WorldBackupDay-lets-prioritize-data-protection-Explore-renterd-the-next-gen-solution-from-the-Sia-Foundati",
            "currencies": [
                {
                    "code": "SC",
                    "title": "Siacoin",
                    "slug": "siacoin",
                    "url": "https:\/\/cryptopanic.com\/news\/siacoin\/"
                }
            ],
            "id": 18462893,
            "url": "https:\/\/cryptopanic.com\/news\/18462893\/On-WorldBackupDay-lets-prioritize-data-protection-Explore-renterd-the-next-gen-solution-from-the-Sia-Foundati",
            "created_at": "2023-03-31T16:13:10Z",
            "votes": {
                "negative": 0,
                "positive": 0,
                "important": 0,
                "liked": 0,
                "disliked": 0,
                "lol": 0,
                "toxic": 0,
                "saved": 0,
                "comments": 0
            }
        },
        {
            "kind": "news",
            "domain": "@Sia__Foundation",
            "source": {
                "title": "Siacoin Twitter",
                "region": "en",
                "domain": "twitter.com",
                "path": "@sia__foundation"
            },
            "title": "We're excited to announce that our grantee @AlphadayHQ completed their news board! We've been working with Alphaday\u2026",
            "published_at": "2023-03-21T14:43:36Z",
            "slug": "Were-excited-to-announce-that-our-grantee-AlphadayHQ-completed-their-news-board-Weve-been-working-with-Alphaday",
            "currencies": [
                {
                    "code": "SC",
                    "title": "Siacoin",
                    "slug": "siacoin",
                    "url": "https:\/\/cryptopanic.com\/news\/siacoin\/"
                }
            ],
            "id": 18462895,
            "url": "https:\/\/cryptopanic.com\/news\/18462895\/Were-excited-to-announce-that-our-grantee-AlphadayHQ-completed-their-news-board-Weve-been-working-with-Alphaday",
            "created_at": "2023-03-21T14:43:36Z",
            "votes": {
                "negative": 0,
                "positive": 0,
                "important": 0,
                "liked": 0,
                "disliked": 0,
                "lol": 0,
                "toxic": 0,
                "saved": 0,
                "comments": 0
            }
        },
        {
            "kind": "news",
            "domain": "@Sia__Foundation",
            "source": {
                "title": "Siacoin Twitter",
                "region": "en",
                "domain": "twitter.com",
                "path": "@sia__foundation"
            },
            "title": "Our Grants Program update for March is out. Enjoy!",
            "published_at": "2023-03-16T17:35:58Z",
            "slug": "Our-Grants-Program-update-for-March-is-out-Enjoy",
            "currencies": [
                {
                    "code": "SC",
                    "title": "Siacoin",
                    "slug": "siacoin",
                    "url": "https:\/\/cryptopanic.com\/news\/siacoin\/"
                }
            ],
            "id": 18462896,
            "url": "https:\/\/cryptopanic.com\/news\/18462896\/Our-Grants-Program-update-for-March-is-out-Enjoy",
            "created_at": "2023-03-16T17:35:58Z",
            "votes": {
                "negative": 0,
                "positive": 0,
                "important": 0,
                "liked": 0,
                "disliked": 0,
                "lol": 0,
                "toxic": 0,
                "saved": 0,
                "comments": 0
            }
        },
        {
            "kind": "news",
            "domain": "@Sia__Foundation",
            "source": {
                "title": "Siacoin Twitter",
                "region": "en",
                "domain": "twitter.com",
                "path": "@sia__foundation"
            },
            "title": "Sia provides an open market to directly connect storage providers with consumers. Providers set their prices and ea\u2026",
            "published_at": "2023-03-15T16:00:02Z",
            "slug": "Sia-provides-an-open-market-to-directly-connect-storage-providers-with-consumers-Providers-set-their-prices-and-ea",
            "currencies": [
                {
                    "code": "SC",
                    "title": "Siacoin",
                    "slug": "siacoin",
                    "url": "https:\/\/cryptopanic.com\/news\/siacoin\/"
                }
            ],
            "id": 18462898,
            "url": "https:\/\/cryptopanic.com\/news\/18462898\/Sia-provides-an-open-market-to-directly-connect-storage-providers-with-consumers-Providers-set-their-prices-and-ea",
            "created_at": "2023-03-15T16:00:02Z",
            "votes": {
                "negative": 0,
                "positive": 0,
                "important": 0,
                "liked": 0,
                "disliked": 0,
                "lol": 0,
                "toxic": 0,
                "saved": 0,
                "comments": 0
            }
        },
        {
            "kind": "news",
            "domain": "@Sia__Foundation",
            "source": {
                "title": "Siacoin Twitter",
                "region": "en",
                "domain": "twitter.com",
                "path": "@sia__foundation"
            },
            "title": "We published our State of Sia blog post for March!\nKeep up with our development progress, grants, and other excitin\u2026",
            "published_at": "2023-03-13T13:53:35Z",
            "slug": "We-published-our-State-of-Sia-blog-post-for-March-Keep-up-with-our-development-progress-grants-and-other-excitin",
            "currencies": [
                {
                    "code": "SC",
                    "title": "Siacoin",
                    "slug": "siacoin",
                    "url": "https:\/\/cryptopanic.com\/news\/siacoin\/"
                }
            ],
            "id": 18462900,
            "url": "https:\/\/cryptopanic.com\/news\/18462900\/We-published-our-State-of-Sia-blog-post-for-March-Keep-up-with-our-development-progress-grants-and-other-excitin",
            "created_at": "2023-03-13T13:53:35Z",
            "votes": {
                "negative": 0,
                "positive": 0,
                "important": 0,
                "liked": 0,
                "disliked": 0,
                "lol": 0,
                "toxic": 0,
                "saved": 0,
                "comments": 0
            }
        },
        {
            "kind": "news",
            "domain": "@Sia__Foundation",
            "source": {
                "title": "Siacoin Twitter",
                "region": "en",
                "domain": "twitter.com",
                "path": "@sia__foundation"
            },
            "title": "Looking to become a Sia host? You can earn Siacoins by renting out unused space on your hard drive; It's easy and c\u2026",
            "published_at": "2023-03-10T15:00:00Z",
            "slug": "Looking-to-become-a-Sia-host-You-can-earn-Siacoins-by-renting-out-unused-space-on-your-hard-drive-Its-easy-and-c",
            "currencies": [
                {
                    "code": "SC",
                    "title": "Siacoin",
                    "slug": "siacoin",
                    "url": "https:\/\/cryptopanic.com\/news\/siacoin\/"
                }
            ],
            "id": 18462902,
            "url": "https:\/\/cryptopanic.com\/news\/18462902\/Looking-to-become-a-Sia-host-You-can-earn-Siacoins-by-renting-out-unused-space-on-your-hard-drive-Its-easy-and-c",
            "created_at": "2023-03-10T15:00:00Z",
            "votes": {
                "negative": 0,
                "positive": 0,
                "important": 0,
                "liked": 0,
                "disliked": 0,
                "lol": 0,
                "toxic": 0,
                "saved": 0,
                "comments": 0
            }
        },
        {
            "kind": "news",
            "domain": "@Sia__Foundation",
            "source": {
                "title": "Siacoin Twitter",
                "region": "en",
                "domain": "twitter.com",
                "path": "@sia__foundation"
            },
            "title": "It's time for the latest Grants Program update. Enjoy!",
            "published_at": "2023-02-24T19:05:09Z",
            "slug": "Its-time-for-the-latest-Grants-Program-update-Enjoy",
            "currencies": [
                {
                    "code": "SC",
                    "title": "Siacoin",
                    "slug": "siacoin",
                    "url": "https:\/\/cryptopanic.com\/news\/siacoin\/"
                }
            ],
            "id": 18462904,
            "url": "https:\/\/cryptopanic.com\/news\/18462904\/Its-time-for-the-latest-Grants-Program-update-Enjoy",
            "created_at": "2023-02-24T19:05:09Z",
            "votes": {
                "negative": 0,
                "positive": 0,
                "important": 0,
                "liked": 0,
                "disliked": 0,
                "lol": 0,
                "toxic": 0,
                "saved": 0,
                "comments": 0
            }
        },
        {
            "kind": "news",
            "domain": "@Sia__Foundation",
            "source": {
                "title": "Siacoin Twitter",
                "region": "en",
                "domain": "twitter.com",
                "path": "@sia__foundation"
            },
            "title": "February's State of Sia blog post is live!\nKeep up with our development progress, grants, and other exciting projec\u2026",
            "published_at": "2023-02-07T15:00:03Z",
            "slug": "Februarys-State-of-Sia-blog-post-is-live-Keep-up-with-our-development-progress-grants-and-other-exciting-projec",
            "currencies": [
                {
                    "code": "SC",
                    "title": "Siacoin",
                    "slug": "siacoin",
                    "url": "https:\/\/cryptopanic.com\/news\/siacoin\/"
                }
            ],
            "id": 18462906,
            "url": "https:\/\/cryptopanic.com\/news\/18462906\/Februarys-State-of-Sia-blog-post-is-live-Keep-up-with-our-development-progress-grants-and-other-exciting-projec",
            "created_at": "2023-02-07T15:00:03Z",
            "votes": {
                "negative": 0,
                "positive": 0,
                "important": 0,
                "liked": 0,
                "disliked": 0,
                "lol": 0,
                "toxic": 0,
                "saved": 0,
                "comments": 0
            }
        },
        {
            "kind": "news",
            "domain": "@Sia__Foundation",
            "source": {
                "title": "Siacoin Twitter",
                "region": "en",
                "domain": "twitter.com",
                "path": "@sia__foundation"
            },
            "title": "Steve has published another excellent write-up on the progress of the grants projects we supported last month!",
            "published_at": "2023-02-01T22:39:01Z",
            "slug": "Steve-has-published-another-excellent-write-up-on-the-progress-of-the-grants-projects-we-supported-last-month",
            "currencies": [
                {
                    "code": "SC",
                    "title": "Siacoin",
                    "slug": "siacoin",
                    "url": "https:\/\/cryptopanic.com\/news\/siacoin\/"
                }
            ],
            "id": 18462909,
            "url": "https:\/\/cryptopanic.com\/news\/18462909\/Steve-has-published-another-excellent-write-up-on-the-progress-of-the-grants-projects-we-supported-last-month",
            "created_at": "2023-02-01T22:39:01Z",
            "votes": {
                "negative": 0,
                "positive": 0,
                "important": 0,
                "liked": 0,
                "disliked": 0,
                "lol": 0,
                "toxic": 0,
                "saved": 0,
                "comments": 0
            }
        }
    ]
}
