{
    "count": 200,
    "next": "https:\/\/cryptopanic.com\/api\/v1\/posts\/?auth_token=01c356e89ffc1b8eba2127c81fc8c66ee0eace75&kind=news&currencies=SUN&page=2",
    "previous": null,
    "results": [
        {
            "kind": "news",
            "domain": "@defi_sunio",
            "source": {
                "title": "Sun Token Twitter",
                "region": "en",
                "domain": "twitter.com",
                "path": "@defi_sunio"
            },
            "title": "Get to know about #SunSwap V3 by learning #SunSwap101\n\nChapter. 2\nWhat are the highlights of SunSwap V3?\n\nUnderst\u2026",
            "published_at": "2023-07-12T08:16:24Z",
            "slug": "Get-to-know-about-SunSwap-V3-by-learning-SunSwap101-Chapter-2-What-are-the-highlights-of-SunSwap-V3-Underst",
            "currencies": [
                {
                    "code": "SUN",
                    "title": "Sun Token",
                    "slug": "sun-token",
                    "url": "https:\/\/cryptopanic.com\/news\/sun-token\/"
                }
            ],
            "id": 18767382,
            "url": "https:\/\/cryptopanic.com\/news\/18767382\/Get-to-know-about-SunSwap-V3-by-learning-SunSwap101-Chapter-2-What-are-the-highlights-of-SunSwap-V3-Underst",
            "created_at": "2023-07-12T08:16:24Z",
            "votes": {
                "negative": 0,
                "positive": 0,
                "important": 0,
                "liked": 0,
                "disliked": 0,
                "lol": 0,
                "toxic": 0,
                "saved": 0,
                "comments": 0
            }
        },
        {
            "kind": "news",
            "domain": "@defi_sunio",
            "source": {
                "title": "Sun Token Twitter",
                "region": "en",
                "domain": "twitter.com",
                "path": "@defi_sunio"
            },
            "title": "SUN Ecosystem Data Broadcast\n\n24hrs Trading Volume on SUN has increased by 19.84%\ud83c\udd99\n\nEnjoy the safe&amp;convenient tra\u2026",
            "published_at": "2023-07-11T09:50:48Z",
            "slug": "SUN-Ecosystem-Data-Broadcast-24hrs-Trading-Volume-on-SUN-has-increased-by-1984-Enjoy-the-safeampconvenient-tra",
            "currencies": [
                {
                    "code": "SUN",
                    "title": "Sun Token",
                    "slug": "sun-token",
                    "url": "https:\/\/cryptopanic.com\/news\/sun-token\/"
                }
            ],
            "id": 18767383,
            "url": "https:\/\/cryptopanic.com\/news\/18767383\/SUN-Ecosystem-Data-Broadcast-24hrs-Trading-Volume-on-SUN-has-increased-by-1984-Enjoy-the-safeampconvenient-tra",
            "created_at": "2023-07-11T09:50:48Z",
            "votes": {
                "negative": 0,
                "positive": 0,
                "important": 0,
                "liked": 0,
                "disliked": 0,
                "lol": 0,
                "toxic": 0,
                "saved": 0,
                "comments": 0
            }
        },
        {
            "kind": "news",
            "domain": "@defi_sunio",
            "source": {
                "title": "Sun Token Twitter",
                "region": "en",
                "domain": "twitter.com",
                "path": "@defi_sunio"
            },
            "title": "RT @CML_Crypto: TOP10 Most Voted #Exchanges Ranking Projects - Week 27 \n\n\ud83e\udd47 $JM @JustMoneyIO\n\ud83e\udd48 $ICR @IntercroneWorld\n\ud83e\udd49 $MARCO @meleganza\u2026",
            "published_at": "2023-07-11T02:30:18Z",
            "slug": "RT-CML_Crypto-TOP10-Most-Voted-Exchanges-Ranking-Projects-Week-27-JM-JustMoneyIO-ICR-IntercroneWorld-MARCO-meleganza",
            "currencies": [
                {
                    "code": "SUN",
                    "title": "Sun Token",
                    "slug": "sun-token",
                    "url": "https:\/\/cryptopanic.com\/news\/sun-token\/"
                }
            ],
            "id": 18759126,
            "url": "https:\/\/cryptopanic.com\/news\/18759126\/RT-CML_Crypto-TOP10-Most-Voted-Exchanges-Ranking-Projects-Week-27-JM-JustMoneyIO-ICR-IntercroneWorld-MARCO-meleganza",
            "created_at": "2023-07-11T02:30:18Z",
            "votes": {
                "negative": 0,
                "positive": 0,
                "important": 0,
                "liked": 0,
                "disliked": 0,
                "lol": 0,
                "toxic": 0,
                "saved": 0,
                "comments": 0
            }
        },
        {
            "kind": "news",
            "domain": "@defi_sunio",
            "source": {
                "title": "Sun Token Twitter",
                "region": "en",
                "domain": "twitter.com",
                "path": "@defi_sunio"
            },
            "title": "#SUN Buyback&amp;Burn Report\n\nTotal burned &gt;&gt;179,046,688.77 $SUN (worth $983,193) as of Jul 10th\n\n\ufe0fTo be burned &gt;&gt;4,\u2026",
            "published_at": "2023-07-10T10:07:08Z",
            "slug": "SUN-BuybackampBurn-Report-Total-burned-gtgt17904668877-SUN-worth-983193-as-of-Jul-10th-To-be-burned-gtgt4",
            "currencies": [
                {
                    "code": "SUN",
                    "title": "Sun Token",
                    "slug": "sun-token",
                    "url": "https:\/\/cryptopanic.com\/news\/sun-token\/"
                }
            ],
            "id": 18759127,
            "url": "https:\/\/cryptopanic.com\/news\/18759127\/SUN-BuybackampBurn-Report-Total-burned-gtgt17904668877-SUN-worth-983193-as-of-Jul-10th-To-be-burned-gtgt4",
            "created_at": "2023-07-10T10:07:08Z",
            "votes": {
                "negative": 0,
                "positive": 0,
                "important": 0,
                "liked": 0,
                "disliked": 0,
                "lol": 0,
                "toxic": 0,
                "saved": 0,
                "comments": 0
            }
        },
        {
            "kind": "news",
            "domain": "@defi_sunio",
            "source": {
                "title": "Sun Token Twitter",
                "region": "en",
                "domain": "twitter.com",
                "path": "@defi_sunio"
            },
            "title": "Let\u2019s take a look at this week\u2019s SUN LP APY Rank\n\n\u25fd\ufe0f#SUN-USDT LP APY up to 25%\n\u25fd\ufe0f#WIN-USDT LP APY up to 20%\n\u25fd\ufe0f#BTT\u2026",
            "published_at": "2023-07-10T02:47:21Z",
            "slug": "Lets-take-a-look-at-this-weeks-SUN-LP-APY-Rank-SUN-USDT-LP-APY-up-to-25-WIN-USDT-LP-APY-up-to-20-BTT",
            "currencies": [
                {
                    "code": "SUN",
                    "title": "Sun Token",
                    "slug": "sun-token",
                    "url": "https:\/\/cryptopanic.com\/news\/sun-token\/"
                }
            ],
            "id": 18751563,
            "url": "https:\/\/cryptopanic.com\/news\/18751563\/Lets-take-a-look-at-this-weeks-SUN-LP-APY-Rank-SUN-USDT-LP-APY-up-to-25-WIN-USDT-LP-APY-up-to-20-BTT",
            "created_at": "2023-07-10T02:47:21Z",
            "votes": {
                "negative": 0,
                "positive": 0,
                "important": 0,
                "liked": 0,
                "disliked": 0,
                "lol": 0,
                "toxic": 0,
                "saved": 0,
                "comments": 0
            }
        },
        {
            "kind": "news",
            "domain": "@defi_sunio",
            "source": {
                "title": "Sun Token Twitter",
                "region": "en",
                "domain": "twitter.com",
                "path": "@defi_sunio"
            },
            "title": "SUN Ecosystem Data Broadcast\n\nTrading Volume of #SunSwap V3 has increased 48.45% in the past 24H and now reached\u2026",
            "published_at": "2023-07-07T09:10:21Z",
            "slug": "SUN-Ecosystem-Data-Broadcast-Trading-Volume-of-SunSwap-V3-has-increased-4845-in-the-past-24H-and-now-reached",
            "currencies": [
                {
                    "code": "SUN",
                    "title": "Sun Token",
                    "slug": "sun-token",
                    "url": "https:\/\/cryptopanic.com\/news\/sun-token\/"
                }
            ],
            "id": 18735543,
            "url": "https:\/\/cryptopanic.com\/news\/18735543\/SUN-Ecosystem-Data-Broadcast-Trading-Volume-of-SunSwap-V3-has-increased-4845-in-the-past-24H-and-now-reached",
            "created_at": "2023-07-07T09:10:21Z",
            "votes": {
                "negative": 0,
                "positive": 0,
                "important": 0,
                "liked": 0,
                "disliked": 0,
                "lol": 0,
                "toxic": 0,
                "saved": 0,
                "comments": 0
            }
        },
        {
            "kind": "news",
            "domain": "@defi_sunio",
            "source": {
                "title": "Sun Token Twitter",
                "region": "en",
                "domain": "twitter.com",
                "path": "@defi_sunio"
            },
            "title": "RT @BitKeepOS:  BitKeep has integrated with @defi_sunio! Wondering on how to get started?\n Check this article out",
            "published_at": "2023-07-07T07:36:44Z",
            "slug": "RT-BitKeepOS-BitKeep-has-integrated-with-defi_sunio-Wondering-on-how-to-get-started-Check-this-article-out",
            "currencies": [
                {
                    "code": "SUN",
                    "title": "Sun Token",
                    "slug": "sun-token",
                    "url": "https:\/\/cryptopanic.com\/news\/sun-token\/"
                }
            ],
            "id": 18735544,
            "url": "https:\/\/cryptopanic.com\/news\/18735544\/RT-BitKeepOS-BitKeep-has-integrated-with-defi_sunio-Wondering-on-how-to-get-started-Check-this-article-out",
            "created_at": "2023-07-07T07:36:44Z",
            "votes": {
                "negative": 0,
                "positive": 0,
                "important": 0,
                "liked": 0,
                "disliked": 0,
                "lol": 0,
                "toxic": 0,
                "saved": 0,
                "comments": 0
            }
        },
        {
            "kind": "news",
            "domain": "@defi_sunio",
            "source": {
                "title": "Sun Token Twitter",
                "region": "en",
                "domain": "twitter.com",
                "path": "@defi_sunio"
            },
            "title": "#SUN Buyback&amp;Burn Report\n\nTotal burned &gt;&gt;179,046,688.77 $SUN (worth $1,012,951) as of Jul 6th\n\n\ufe0fTo be burned &gt;&gt;4\u2026",
            "published_at": "2023-07-06T11:13:49Z",
            "slug": "SUN-BuybackampBurn-Report-Total-burned-gtgt17904668877-SUN-worth-1012951-as-of-Jul-6th-To-be-burned-gtgt4",
            "currencies": [
                {
                    "code": "SUN",
                    "title": "Sun Token",
                    "slug": "sun-token",
                    "url": "https:\/\/cryptopanic.com\/news\/sun-token\/"
                }
            ],
            "id": 18735545,
            "url": "https:\/\/cryptopanic.com\/news\/18735545\/SUN-BuybackampBurn-Report-Total-burned-gtgt17904668877-SUN-worth-1012951-as-of-Jul-6th-To-be-burned-gtgt4",
            "created_at": "2023-07-06T11:13:49Z",
            "votes": {
                "negative": 0,
                "positive": 0,
                "important": 0,
                "liked": 0,
                "disliked": 0,
                "lol": 0,
                "toxic": 0,
                "saved": 0,
                "comments": 0
            }
        },
        {
            "kind": "news",
            "domain": "@defi_sunio",
            "source": {
                "title": "Sun Token Twitter",
                "region": "en",
                "domain": "twitter.com",
                "path": "@defi_sunio"
            },
            "title": "\ufe0fWeekly weights of Liquidity Pools on #GovernanceMining updated\n\nTop3 LPs in weights:\n\u25ab\ufe0f2P\u2026",
            "published_at": "2023-07-06T09:49:57Z",
            "slug": "Weekly-weights-of-Liquidity-Pools-on-GovernanceMining-updated-Top3-LPs-in-weights-2P",
            "currencies": [
                {
                    "code": "SUN",
                    "title": "Sun Token",
                    "slug": "sun-token",
                    "url": "https:\/\/cryptopanic.com\/news\/sun-token\/"
                }
            ],
            "id": 18735546,
            "url": "https:\/\/cryptopanic.com\/news\/18735546\/Weekly-weights-of-Liquidity-Pools-on-GovernanceMining-updated-Top3-LPs-in-weights-2P",
            "created_at": "2023-07-06T09:49:57Z",
            "votes": {
                "negative": 0,
                "positive": 0,
                "important": 0,
                "liked": 0,
                "disliked": 0,
                "lol": 0,
                "toxic": 0,
                "saved": 0,
                "comments": 0
            }
        },
        {
            "kind": "news",
            "domain": "@defi_sunio",
            "source": {
                "title": "Sun Token Twitter",
                "region": "en",
                "domain": "twitter.com",
                "path": "@defi_sunio"
            },
            "title": "Get to know about #SunSwap V3 by learning #SunSwap101\u23ec\n\nChapter. 1\nWhat\u2019s new on the new version of SunSwap?\n\nUnde\u2026",
            "published_at": "2023-07-06T07:28:05Z",
            "slug": "Get-to-know-about-SunSwap-V3-by-learning-SunSwap101-Chapter-1-Whats-new-on-the-new-version-of-SunSwap-Unde",
            "currencies": [
                {
                    "code": "SUN",
                    "title": "Sun Token",
                    "slug": "sun-token",
                    "url": "https:\/\/cryptopanic.com\/news\/sun-token\/"
                }
            ],
            "id": 18726978,
            "url": "https:\/\/cryptopanic.com\/news\/18726978\/Get-to-know-about-SunSwap-V3-by-learning-SunSwap101-Chapter-1-Whats-new-on-the-new-version-of-SunSwap-Unde",
            "created_at": "2023-07-06T07:28:05Z",
            "votes": {
                "negative": 0,
                "positive": 0,
                "important": 0,
                "liked": 0,
                "disliked": 0,
                "lol": 0,
                "toxic": 0,
                "saved": 0,
                "comments": 0
            }
        },
        {
            "kind": "news",
            "domain": "@defi_sunio",
            "source": {
                "title": "Sun Token Twitter",
                "region": "en",
                "domain": "twitter.com",
                "path": "@defi_sunio"
            },
            "title": "SUN \ufe0f @BitKeepOS Grand Airdrop Campaign is in full swing \n\n1) Achieve social tasks to earn OAT on #Galxe, win th\u2026",
            "published_at": "2023-07-04T08:11:50Z",
            "slug": "SUN-BitKeepOS-Grand-Airdrop-Campaign-is-in-full-swing-1-Achieve-social-tasks-to-earn-OAT-on-Galxe-win-th",
            "currencies": [
                {
                    "code": "SUN",
                    "title": "Sun Token",
                    "slug": "sun-token",
                    "url": "https:\/\/cryptopanic.com\/news\/sun-token\/"
                }
            ],
            "id": 18711894,
            "url": "https:\/\/cryptopanic.com\/news\/18711894\/SUN-BitKeepOS-Grand-Airdrop-Campaign-is-in-full-swing-1-Achieve-social-tasks-to-earn-OAT-on-Galxe-win-th",
            "created_at": "2023-07-04T08:11:50Z",
            "votes": {
                "negative": 0,
                "positive": 0,
                "important": 0,
                "liked": 0,
                "disliked": 0,
                "lol": 0,
                "toxic": 0,
                "saved": 0,
                "comments": 0
            }
        },
        {
            "kind": "news",
            "domain": "@defi_sunio",
            "source": {
                "title": "Sun Token Twitter",
                "region": "en",
                "domain": "twitter.com",
                "path": "@defi_sunio"
            },
            "title": "\ud83e\udd73\ud83e\udd73We sincerely invite all the SUN fellows to join the SUN &amp; @BitKeepOS Grand Airdrop Campaign!\n\nShare the $1,000\u2026",
            "published_at": "2023-07-03T11:25:24Z",
            "slug": "We-sincerely-invite-all-the-SUN-fellows-to-join-the-SUN-amp-BitKeepOS-Grand-Airdrop-Campaign-Share-the-1000",
            "currencies": [
                {
                    "code": "SUN",
                    "title": "Sun Token",
                    "slug": "sun-token",
                    "url": "https:\/\/cryptopanic.com\/news\/sun-token\/"
                }
            ],
            "id": 18711895,
            "url": "https:\/\/cryptopanic.com\/news\/18711895\/We-sincerely-invite-all-the-SUN-fellows-to-join-the-SUN-amp-BitKeepOS-Grand-Airdrop-Campaign-Share-the-1000",
            "created_at": "2023-07-03T11:25:24Z",
            "votes": {
                "negative": 0,
                "positive": 0,
                "important": 0,
                "liked": 0,
                "disliked": 0,
                "lol": 0,
                "toxic": 0,
                "saved": 0,
                "comments": 0
            }
        },
        {
            "kind": "news",
            "domain": "@defi_sunio",
            "source": {
                "title": "Sun Token Twitter",
                "region": "en",
                "domain": "twitter.com",
                "path": "@defi_sunio"
            },
            "title": "#SUN Buyback&amp;Burn Report\n\nTotal burned &gt;&gt;179,046,688.77 $SUN (worth $1,000,453) as of Jul 3rd\n\n\ufe0fTo be burned &gt;&gt;4\u2026",
            "published_at": "2023-07-03T10:40:02Z",
            "slug": "SUN-BuybackampBurn-Report-Total-burned-gtgt17904668877-SUN-worth-1000453-as-of-Jul-3rd-To-be-burned-gtgt4",
            "currencies": [
                {
                    "code": "SUN",
                    "title": "Sun Token",
                    "slug": "sun-token",
                    "url": "https:\/\/cryptopanic.com\/news\/sun-token\/"
                }
            ],
            "id": 18711896,
            "url": "https:\/\/cryptopanic.com\/news\/18711896\/SUN-BuybackampBurn-Report-Total-burned-gtgt17904668877-SUN-worth-1000453-as-of-Jul-3rd-To-be-burned-gtgt4",
            "created_at": "2023-07-03T10:40:02Z",
            "votes": {
                "negative": 0,
                "positive": 0,
                "important": 0,
                "liked": 0,
                "disliked": 0,
                "lol": 0,
                "toxic": 0,
                "saved": 0,
                "comments": 0
            }
        },
        {
            "kind": "news",
            "domain": "@defi_sunio",
            "source": {
                "title": "Sun Token Twitter",
                "region": "en",
                "domain": "twitter.com",
                "path": "@defi_sunio"
            },
            "title": "Together we welcome a new month! Joy to #July\ud83e\udd17\nCheck the Weekly LP APY Rank of SUN #GovernanceMining:\n\n#SUN-USDT\u2026",
            "published_at": "2023-07-03T09:09:45Z",
            "slug": "Together-we-welcome-a-new-month-Joy-to-July-Check-the-Weekly-LP-APY-Rank-of-SUN-GovernanceMining-SUN-USDT",
            "currencies": [
                {
                    "code": "SUN",
                    "title": "Sun Token",
                    "slug": "sun-token",
                    "url": "https:\/\/cryptopanic.com\/news\/sun-token\/"
                }
            ],
            "id": 18704589,
            "url": "https:\/\/cryptopanic.com\/news\/18704589\/Together-we-welcome-a-new-month-Joy-to-July-Check-the-Weekly-LP-APY-Rank-of-SUN-GovernanceMining-SUN-USDT",
            "created_at": "2023-07-03T09:09:45Z",
            "votes": {
                "negative": 0,
                "positive": 0,
                "important": 0,
                "liked": 0,
                "disliked": 0,
                "lol": 0,
                "toxic": 0,
                "saved": 0,
                "comments": 0
            }
        },
        {
            "kind": "news",
            "domain": "@defi_sunio",
            "source": {
                "title": "Sun Token Twitter",
                "region": "en",
                "domain": "twitter.com",
                "path": "@defi_sunio"
            },
            "title": "#SUN Buyback&amp;Burn Report\n\nTotal burned &gt;&gt;179,046,688.77 $SUN (worth $1,003,711) as of Jun 29th\n\n\ufe0fTo be burned &gt;&gt;\u2026",
            "published_at": "2023-06-29T10:41:22Z",
            "slug": "SUN-BuybackampBurn-Report-Total-burned-gtgt17904668877-SUN-worth-1003711-as-of-Jun-29th-To-be-burned-gtgt",
            "currencies": [
                {
                    "code": "SUN",
                    "title": "Sun Token",
                    "slug": "sun-token",
                    "url": "https:\/\/cryptopanic.com\/news\/sun-token\/"
                }
            ],
            "id": 18688548,
            "url": "https:\/\/cryptopanic.com\/news\/18688548\/SUN-BuybackampBurn-Report-Total-burned-gtgt17904668877-SUN-worth-1003711-as-of-Jun-29th-To-be-burned-gtgt",
            "created_at": "2023-06-29T10:41:22Z",
            "votes": {
                "negative": 0,
                "positive": 0,
                "important": 0,
                "liked": 0,
                "disliked": 0,
                "lol": 0,
                "toxic": 0,
                "saved": 0,
                "comments": 0
            }
        },
        {
            "kind": "news",
            "domain": "@defi_sunio",
            "source": {
                "title": "Sun Token Twitter",
                "region": "en",
                "domain": "twitter.com",
                "path": "@defi_sunio"
            },
            "title": "Weekly weights of Liquidity Pools on #GovernanceMining updated\n\nTop3 LPs in weights:\n\u25ab\ufe0f2Poo\u2026",
            "published_at": "2023-06-29T10:21:26Z",
            "slug": "Weekly-weights-of-Liquidity-Pools-on-GovernanceMining-updated-Top3-LPs-in-weights-2Poo",
            "currencies": [
                {
                    "code": "SUN",
                    "title": "Sun Token",
                    "slug": "sun-token",
                    "url": "https:\/\/cryptopanic.com\/news\/sun-token\/"
                }
            ],
            "id": 18688549,
            "url": "https:\/\/cryptopanic.com\/news\/18688549\/Weekly-weights-of-Liquidity-Pools-on-GovernanceMining-updated-Top3-LPs-in-weights-2Poo",
            "created_at": "2023-06-29T10:21:26Z",
            "votes": {
                "negative": 0,
                "positive": 0,
                "important": 0,
                "liked": 0,
                "disliked": 0,
                "lol": 0,
                "toxic": 0,
                "saved": 0,
                "comments": 0
            }
        },
        {
            "kind": "news",
            "domain": "@defi_sunio",
            "source": {
                "title": "Sun Token Twitter",
                "region": "en",
                "domain": "twitter.com",
                "path": "@defi_sunio"
            },
            "title": "SunSwap V3.0 is now officially launched\n\nThe concentrated liquidity of #SunSwap V3.0 boosts capital efficiency, al\u2026",
            "published_at": "2023-06-28T12:02:39Z",
            "slug": "SunSwap-V30-is-now-officially-launched-The-concentrated-liquidity-of-SunSwap-V30-boosts-capital-efficiency-al",
            "currencies": [
                {
                    "code": "SUN",
                    "title": "Sun Token",
                    "slug": "sun-token",
                    "url": "https:\/\/cryptopanic.com\/news\/sun-token\/"
                }
            ],
            "id": 18680612,
            "url": "https:\/\/cryptopanic.com\/news\/18680612\/SunSwap-V30-is-now-officially-launched-The-concentrated-liquidity-of-SunSwap-V30-boosts-capital-efficiency-al",
            "created_at": "2023-06-28T12:02:39Z",
            "votes": {
                "negative": 0,
                "positive": 0,
                "important": 0,
                "liked": 0,
                "disliked": 0,
                "lol": 0,
                "toxic": 0,
                "saved": 0,
                "comments": 0
            }
        },
        {
            "kind": "news",
            "domain": "@defi_sunio",
            "source": {
                "title": "Sun Token Twitter",
                "region": "en",
                "domain": "twitter.com",
                "path": "@defi_sunio"
            },
            "title": "New Announcement: SUN is now integrated with #BitKeep Wallet @BitKeepOS\n\nUsers can see the BitKeep wallet as an av\u2026",
            "published_at": "2023-06-28T07:59:19Z",
            "slug": "New-Announcement-SUN-is-now-integrated-with-BitKeep-Wallet-BitKeepOS-Users-can-see-the-BitKeep-wallet-as-an-av",
            "currencies": [
                {
                    "code": "SUN",
                    "title": "Sun Token",
                    "slug": "sun-token",
                    "url": "https:\/\/cryptopanic.com\/news\/sun-token\/"
                }
            ],
            "id": 18672413,
            "url": "https:\/\/cryptopanic.com\/news\/18672413\/New-Announcement-SUN-is-now-integrated-with-BitKeep-Wallet-BitKeepOS-Users-can-see-the-BitKeep-wallet-as-an-av",
            "created_at": "2023-06-28T07:59:19Z",
            "votes": {
                "negative": 0,
                "positive": 0,
                "important": 0,
                "liked": 0,
                "disliked": 0,
                "lol": 0,
                "toxic": 0,
                "saved": 0,
                "comments": 0
            }
        },
        {
            "kind": "news",
            "domain": "@defi_sunio",
            "source": {
                "title": "Sun Token Twitter",
                "region": "en",
                "domain": "twitter.com",
                "path": "@defi_sunio"
            },
            "title": "RT @BitKeepOS: Exciting news # and #SunSwap have both integrated with #BitKeep wallet \ud83e\udd1d\n\n@defi_sunio is the first integrated platfor\u2026",
            "published_at": "2023-06-28T07:37:34Z",
            "slug": "RT-BitKeepOS-Exciting-news-and-SunSwap-have-both-integrated-with-BitKeep-wallet-defi_sunio-is-the-first-integrated-platfor",
            "currencies": [
                {
                    "code": "SUN",
                    "title": "Sun Token",
                    "slug": "sun-token",
                    "url": "https:\/\/cryptopanic.com\/news\/sun-token\/"
                }
            ],
            "id": 18672414,
            "url": "https:\/\/cryptopanic.com\/news\/18672414\/RT-BitKeepOS-Exciting-news-and-SunSwap-have-both-integrated-with-BitKeep-wallet-defi_sunio-is-the-first-integrated-platfor",
            "created_at": "2023-06-28T07:37:34Z",
            "votes": {
                "negative": 0,
                "positive": 0,
                "important": 0,
                "liked": 0,
                "disliked": 0,
                "lol": 0,
                "toxic": 0,
                "saved": 0,
                "comments": 0
            }
        },
        {
            "kind": "news",
            "domain": "@defi_sunio",
            "source": {
                "title": "Sun Token Twitter",
                "region": "en",
                "domain": "twitter.com",
                "path": "@defi_sunio"
            },
            "title": "\ufe0fMystery revealed: #SunSwap V3.0 is coming\n\nSunSwap V3.0 is going live on soon, stay tuned\u2026",
            "published_at": "2023-06-27T10:46:30Z",
            "slug": "Mystery-revealed-SunSwap-V30-is-coming-SunSwap-V30-is-going-live-on-soon-stay-tuned",
            "currencies": [
                {
                    "code": "SUN",
                    "title": "Sun Token",
                    "slug": "sun-token",
                    "url": "https:\/\/cryptopanic.com\/news\/sun-token\/"
                }
            ],
            "id": 18672416,
            "url": "https:\/\/cryptopanic.com\/news\/18672416\/Mystery-revealed-SunSwap-V30-is-coming-SunSwap-V30-is-going-live-on-soon-stay-tuned",
            "created_at": "2023-06-27T10:46:30Z",
            "votes": {
                "negative": 0,
                "positive": 0,
                "important": 0,
                "liked": 0,
                "disliked": 0,
                "lol": 0,
                "toxic": 0,
                "saved": 0,
                "comments": 0
            }
        }
    ]
}
