{
    "count": 200,
    "next": "https:\/\/cryptopanic.com\/api\/v1\/posts\/?auth_token=01c356e89ffc1b8eba2127c81fc8c66ee0eace75&kind=news&currencies=BDOT&page=2",
    "previous": null,
    "results": [
        {
            "kind": "news",
            "domain": "@BinanceChain",
            "source": {
                "title": "Binance Wrapped DOT Twitter",
                "region": "en",
                "domain": "twitter.com",
                "path": "@binancechain"
            },
            "title": "Retweet if you hold #BNB",
            "published_at": "2023-06-15T14:45:17Z",
            "slug": "Retweet-if-you-hold-BNB",
            "currencies": [
                {
                    "code": "BDOT",
                    "title": "Binance Wrapped DOT",
                    "slug": "binance-wrapped-dot",
                    "url": "https:\/\/cryptopanic.com\/news\/binance-wrapped-dot\/"
                }
            ],
            "id": 18585553,
            "url": "https:\/\/cryptopanic.com\/news\/18585553\/Retweet-if-you-hold-BNB",
            "created_at": "2023-06-15T14:45:17Z",
            "votes": {
                "negative": 0,
                "positive": 0,
                "important": 0,
                "liked": 0,
                "disliked": 0,
                "lol": 0,
                "toxic": 0,
                "saved": 0,
                "comments": 0
            }
        },
        {
            "kind": "news",
            "domain": "@BinanceChain",
            "source": {
                "title": "Binance Wrapped DOT Twitter",
                "region": "en",
                "domain": "twitter.com",
                "path": "@binancechain"
            },
            "title": "RT @nootcoinbnb: $NOOT. \n\nTHE BEST BSC MEME COIN\n\n\n\n#BNB #BSCGEM #PEPE #NOOT",
            "published_at": "2023-04-25T03:00:14Z",
            "slug": "RT-nootcoinbnb-NOOT-THE-BEST-BSC-MEME-COIN-BNB-BSCGEM-PEPE-NOOT",
            "currencies": [
                {
                    "code": "BDOT",
                    "title": "Binance Wrapped DOT",
                    "slug": "binance-wrapped-dot",
                    "url": "https:\/\/cryptopanic.com\/news\/binance-wrapped-dot\/"
                }
            ],
            "id": 18185751,
            "url": "https:\/\/cryptopanic.com\/news\/18185751\/RT-nootcoinbnb-NOOT-THE-BEST-BSC-MEME-COIN-BNB-BSCGEM-PEPE-NOOT",
            "created_at": "2023-04-25T03:00:14Z",
            "votes": {
                "negative": 0,
                "positive": 0,
                "important": 0,
                "liked": 0,
                "disliked": 0,
                "lol": 0,
                "toxic": 0,
                "saved": 0,
                "comments": 0
            }
        },
        {
            "kind": "news",
            "domain": "@BinanceChain",
            "source": {
                "title": "Binance Wrapped DOT Twitter",
                "region": "en",
                "domain": "twitter.com",
                "path": "@binancechain"
            },
            "title": "Joining now would be the best opportunity! #BSCGem #Binance #BNB",
            "published_at": "2023-04-20T01:08:40Z",
            "slug": "Joining-now-would-be-the-best-opportunity-BSCGem-Binance-BNB",
            "currencies": [
                {
                    "code": "BDOT",
                    "title": "Binance Wrapped DOT",
                    "slug": "binance-wrapped-dot",
                    "url": "https:\/\/cryptopanic.com\/news\/binance-wrapped-dot\/"
                }
            ],
            "id": 18149661,
            "url": "https:\/\/cryptopanic.com\/news\/18149661\/Joining-now-would-be-the-best-opportunity-BSCGem-Binance-BNB",
            "created_at": "2023-04-20T01:08:40Z",
            "votes": {
                "negative": 0,
                "positive": 0,
                "important": 0,
                "liked": 0,
                "disliked": 0,
                "lol": 0,
                "toxic": 0,
                "saved": 0,
                "comments": 0
            }
        },
        {
            "kind": "news",
            "domain": "@BinanceChain",
            "source": {
                "title": "Binance Wrapped DOT Twitter",
                "region": "en",
                "domain": "twitter.com",
                "path": "@binancechain"
            },
            "title": "RT @nootcoinbnb: $NOOT\n\nthe best meme coin on BNB Chain",
            "published_at": "2023-04-20T01:08:04Z",
            "slug": "RT-nootcoinbnb-NOOT-the-best-meme-coin-on-BNB-Chain",
            "currencies": [
                {
                    "code": "BDOT",
                    "title": "Binance Wrapped DOT",
                    "slug": "binance-wrapped-dot",
                    "url": "https:\/\/cryptopanic.com\/news\/binance-wrapped-dot\/"
                }
            ],
            "id": 18149662,
            "url": "https:\/\/cryptopanic.com\/news\/18149662\/RT-nootcoinbnb-NOOT-the-best-meme-coin-on-BNB-Chain",
            "created_at": "2023-04-20T01:08:04Z",
            "votes": {
                "negative": 0,
                "positive": 0,
                "important": 0,
                "liked": 0,
                "disliked": 0,
                "lol": 0,
                "toxic": 0,
                "saved": 0,
                "comments": 0
            }
        },
        {
            "kind": "news",
            "domain": "@BinanceChain",
            "source": {
                "title": "Binance Wrapped DOT Twitter",
                "region": "en",
                "domain": "twitter.com",
                "path": "@binancechain"
            },
            "title": "Do you buy #NFTs",
            "published_at": "2023-04-08T04:51:09Z",
            "slug": "Do-you-buy-NFTs",
            "currencies": [
                {
                    "code": "BDOT",
                    "title": "Binance Wrapped DOT",
                    "slug": "binance-wrapped-dot",
                    "url": "https:\/\/cryptopanic.com\/news\/binance-wrapped-dot\/"
                }
            ],
            "id": 18063154,
            "url": "https:\/\/cryptopanic.com\/news\/18063154\/Do-you-buy-NFTs",
            "created_at": "2023-04-08T04:51:09Z",
            "votes": {
                "negative": 0,
                "positive": 0,
                "important": 0,
                "liked": 0,
                "disliked": 0,
                "lol": 0,
                "toxic": 0,
                "saved": 0,
                "comments": 0
            }
        },
        {
            "kind": "news",
            "domain": "@BinanceChain",
            "source": {
                "title": "Binance Wrapped DOT Twitter",
                "region": "en",
                "domain": "twitter.com",
                "path": "@binancechain"
            },
            "title": "RT @BinanceChain: Retweet if you hold #BNB",
            "published_at": "2022-12-09T00:18:04Z",
            "slug": "RT-BinanceChain-Retweet-if-you-hold-BNB",
            "currencies": [
                {
                    "code": "BDOT",
                    "title": "Binance Wrapped DOT",
                    "slug": "binance-wrapped-dot",
                    "url": "https:\/\/cryptopanic.com\/news\/binance-wrapped-dot\/"
                }
            ],
            "id": 17105898,
            "url": "https:\/\/cryptopanic.com\/news\/17105898\/RT-BinanceChain-Retweet-if-you-hold-BNB",
            "created_at": "2022-12-09T00:18:04Z",
            "votes": {
                "negative": 0,
                "positive": 0,
                "important": 0,
                "liked": 0,
                "disliked": 0,
                "lol": 0,
                "toxic": 0,
                "saved": 0,
                "comments": 0
            }
        },
        {
            "kind": "news",
            "domain": "@BinanceChain",
            "source": {
                "title": "Binance Wrapped DOT Twitter",
                "region": "en",
                "domain": "twitter.com",
                "path": "@binancechain"
            },
            "title": "RT @BinanceChain: Retweet if you hold #BNB",
            "published_at": "2022-11-25T05:27:49Z",
            "slug": "RT-BinanceChain-Retweet-if-you-hold-BNB",
            "currencies": [
                {
                    "code": "BDOT",
                    "title": "Binance Wrapped DOT",
                    "slug": "binance-wrapped-dot",
                    "url": "https:\/\/cryptopanic.com\/news\/binance-wrapped-dot\/"
                }
            ],
            "id": 16988297,
            "url": "https:\/\/cryptopanic.com\/news\/16988297\/RT-BinanceChain-Retweet-if-you-hold-BNB",
            "created_at": "2022-11-25T05:27:49Z",
            "votes": {
                "negative": 0,
                "positive": 0,
                "important": 0,
                "liked": 0,
                "disliked": 0,
                "lol": 0,
                "toxic": 0,
                "saved": 0,
                "comments": 0
            }
        },
        {
            "kind": "news",
            "domain": "@BinanceChain",
            "source": {
                "title": "Binance Wrapped DOT Twitter",
                "region": "en",
                "domain": "twitter.com",
                "path": "@binancechain"
            },
            "title": "Retweet if you hold #BNB",
            "published_at": "2022-11-23T19:38:54Z",
            "slug": "Retweet-if-you-hold-BNB",
            "currencies": [
                {
                    "code": "BDOT",
                    "title": "Binance Wrapped DOT",
                    "slug": "binance-wrapped-dot",
                    "url": "https:\/\/cryptopanic.com\/news\/binance-wrapped-dot\/"
                }
            ],
            "id": 16978649,
            "url": "https:\/\/cryptopanic.com\/news\/16978649\/Retweet-if-you-hold-BNB",
            "created_at": "2022-11-23T19:38:54Z",
            "votes": {
                "negative": 0,
                "positive": 0,
                "important": 0,
                "liked": 0,
                "disliked": 0,
                "lol": 0,
                "toxic": 0,
                "saved": 0,
                "comments": 0
            }
        },
        {
            "kind": "news",
            "domain": "@BinanceChain",
            "source": {
                "title": "Binance Wrapped DOT Twitter",
                "region": "en",
                "domain": "twitter.com",
                "path": "@binancechain"
            },
            "title": "Do you hold #BNB?",
            "published_at": "2022-11-23T01:14:46Z",
            "slug": "Do-you-hold-BNB",
            "currencies": [
                {
                    "code": "BDOT",
                    "title": "Binance Wrapped DOT",
                    "slug": "binance-wrapped-dot",
                    "url": "https:\/\/cryptopanic.com\/news\/binance-wrapped-dot\/"
                }
            ],
            "id": 16968849,
            "url": "https:\/\/cryptopanic.com\/news\/16968849\/Do-you-hold-BNB",
            "created_at": "2022-11-23T01:14:46Z",
            "votes": {
                "negative": 0,
                "positive": 0,
                "important": 0,
                "liked": 0,
                "disliked": 0,
                "lol": 0,
                "toxic": 0,
                "saved": 0,
                "comments": 0
            }
        },
        {
            "kind": "news",
            "domain": "@BinanceChain",
            "source": {
                "title": "Binance Wrapped DOT Twitter",
                "region": "en",
                "domain": "twitter.com",
                "path": "@binancechain"
            },
            "title": "Soon #BNB NFTs will be noticed",
            "published_at": "2022-08-04T14:36:04Z",
            "slug": "Soon-BNB-NFTs-will-be-noticed",
            "currencies": [
                {
                    "code": "BDOT",
                    "title": "Binance Wrapped DOT",
                    "slug": "binance-wrapped-dot",
                    "url": "https:\/\/cryptopanic.com\/news\/binance-wrapped-dot\/"
                }
            ],
            "id": 15963970,
            "url": "https:\/\/cryptopanic.com\/news\/15963970\/Soon-BNB-NFTs-will-be-noticed",
            "created_at": "2022-08-04T14:36:04Z",
            "votes": {
                "negative": 0,
                "positive": 0,
                "important": 0,
                "liked": 0,
                "disliked": 0,
                "lol": 0,
                "toxic": 0,
                "saved": 0,
                "comments": 0
            }
        },
        {
            "kind": "news",
            "domain": "@BinanceChain",
            "source": {
                "title": "Binance Wrapped DOT Twitter",
                "region": "en",
                "domain": "twitter.com",
                "path": "@binancechain"
            },
            "title": "RT @BinanceChain: Buy #Binance NFTs",
            "published_at": "2022-07-25T12:38:42Z",
            "slug": "RT-BinanceChain-Buy-Binance-NFTs",
            "currencies": [
                {
                    "code": "BDOT",
                    "title": "Binance Wrapped DOT",
                    "slug": "binance-wrapped-dot",
                    "url": "https:\/\/cryptopanic.com\/news\/binance-wrapped-dot\/"
                }
            ],
            "id": 15867510,
            "url": "https:\/\/cryptopanic.com\/news\/15867510\/RT-BinanceChain-Buy-Binance-NFTs",
            "created_at": "2022-07-25T12:38:42Z",
            "votes": {
                "negative": 0,
                "positive": 0,
                "important": 0,
                "liked": 0,
                "disliked": 0,
                "lol": 0,
                "toxic": 0,
                "saved": 0,
                "comments": 0
            }
        },
        {
            "kind": "news",
            "domain": "@BinanceChain",
            "source": {
                "title": "Binance Wrapped DOT Twitter",
                "region": "en",
                "domain": "twitter.com",
                "path": "@binancechain"
            },
            "title": "RT @BinanceChain: Skip the high gas fees &amp; use #BNB",
            "published_at": "2022-07-25T12:38:39Z",
            "slug": "RT-BinanceChain-Skip-the-high-gas-fees-amp-use-BNB",
            "currencies": [
                {
                    "code": "BDOT",
                    "title": "Binance Wrapped DOT",
                    "slug": "binance-wrapped-dot",
                    "url": "https:\/\/cryptopanic.com\/news\/binance-wrapped-dot\/"
                }
            ],
            "id": 15867511,
            "url": "https:\/\/cryptopanic.com\/news\/15867511\/RT-BinanceChain-Skip-the-high-gas-fees-amp-use-BNB",
            "created_at": "2022-07-25T12:38:39Z",
            "votes": {
                "negative": 0,
                "positive": 0,
                "important": 0,
                "liked": 0,
                "disliked": 0,
                "lol": 0,
                "toxic": 0,
                "saved": 0,
                "comments": 0
            }
        },
        {
            "kind": "news",
            "domain": "@BinanceChain",
            "source": {
                "title": "Binance Wrapped DOT Twitter",
                "region": "en",
                "domain": "twitter.com",
                "path": "@binancechain"
            },
            "title": "RT @BinanceChain: \u201cIf you can\u2019t hodl you won\u2019t be rich\u201d - @cz_binance",
            "published_at": "2022-07-25T12:38:37Z",
            "slug": "RT-BinanceChain-If-you-cant-hodl-you-wont-be-rich-cz_binance",
            "currencies": [
                {
                    "code": "BDOT",
                    "title": "Binance Wrapped DOT",
                    "slug": "binance-wrapped-dot",
                    "url": "https:\/\/cryptopanic.com\/news\/binance-wrapped-dot\/"
                }
            ],
            "id": 15867512,
            "url": "https:\/\/cryptopanic.com\/news\/15867512\/RT-BinanceChain-If-you-cant-hodl-you-wont-be-rich-cz_binance",
            "created_at": "2022-07-25T12:38:37Z",
            "votes": {
                "negative": 0,
                "positive": 0,
                "important": 0,
                "liked": 0,
                "disliked": 0,
                "lol": 0,
                "toxic": 0,
                "saved": 0,
                "comments": 0
            }
        },
        {
            "kind": "news",
            "domain": "@BinanceChain",
            "source": {
                "title": "Binance Wrapped DOT Twitter",
                "region": "en",
                "domain": "twitter.com",
                "path": "@binancechain"
            },
            "title": "RT @BinanceChain: What\u2019s your favorite #BNBChain token? #BNB #Binance",
            "published_at": "2022-07-25T12:38:35Z",
            "slug": "RT-BinanceChain-Whats-your-favorite-BNBChain-token-BNB-Binance",
            "currencies": [
                {
                    "code": "BDOT",
                    "title": "Binance Wrapped DOT",
                    "slug": "binance-wrapped-dot",
                    "url": "https:\/\/cryptopanic.com\/news\/binance-wrapped-dot\/"
                }
            ],
            "id": 15867513,
            "url": "https:\/\/cryptopanic.com\/news\/15867513\/RT-BinanceChain-Whats-your-favorite-BNBChain-token-BNB-Binance",
            "created_at": "2022-07-25T12:38:35Z",
            "votes": {
                "negative": 0,
                "positive": 0,
                "important": 0,
                "liked": 0,
                "disliked": 0,
                "lol": 0,
                "toxic": 0,
                "saved": 0,
                "comments": 0
            }
        },
        {
            "kind": "news",
            "domain": "@BinanceChain",
            "source": {
                "title": "Binance Wrapped DOT Twitter",
                "region": "en",
                "domain": "twitter.com",
                "path": "@binancechain"
            },
            "title": "RT @BinanceChain: #BNB &amp; #Bitcoin don\u2019t have inflation",
            "published_at": "2022-07-25T12:38:34Z",
            "slug": "RT-BinanceChain-BNB-amp-Bitcoin-dont-have-inflation",
            "currencies": [
                {
                    "code": "BDOT",
                    "title": "Binance Wrapped DOT",
                    "slug": "binance-wrapped-dot",
                    "url": "https:\/\/cryptopanic.com\/news\/binance-wrapped-dot\/"
                }
            ],
            "id": 15867514,
            "url": "https:\/\/cryptopanic.com\/news\/15867514\/RT-BinanceChain-BNB-amp-Bitcoin-dont-have-inflation",
            "created_at": "2022-07-25T12:38:34Z",
            "votes": {
                "negative": 0,
                "positive": 0,
                "important": 0,
                "liked": 0,
                "disliked": 0,
                "lol": 0,
                "toxic": 0,
                "saved": 0,
                "comments": 0
            }
        },
        {
            "kind": "news",
            "domain": "@BinanceChain",
            "source": {
                "title": "Binance Wrapped DOT Twitter",
                "region": "en",
                "domain": "twitter.com",
                "path": "@binancechain"
            },
            "title": "#BNB &amp; #Bitcoin don\u2019t have inflation",
            "published_at": "2022-04-12T22:07:14Z",
            "slug": "BNB-amp-Bitcoin-dont-have-inflation",
            "currencies": [
                {
                    "code": "BDOT",
                    "title": "Binance Wrapped DOT",
                    "slug": "binance-wrapped-dot",
                    "url": "https:\/\/cryptopanic.com\/news\/binance-wrapped-dot\/"
                }
            ],
            "id": 14881694,
            "url": "https:\/\/cryptopanic.com\/news\/14881694\/BNB-amp-Bitcoin-dont-have-inflation",
            "created_at": "2022-04-12T22:07:14Z",
            "votes": {
                "negative": 0,
                "positive": 0,
                "important": 0,
                "liked": 0,
                "disliked": 0,
                "lol": 0,
                "toxic": 0,
                "saved": 0,
                "comments": 0
            }
        },
        {
            "kind": "news",
            "domain": "@BinanceChain",
            "source": {
                "title": "Binance Wrapped DOT Twitter",
                "region": "en",
                "domain": "twitter.com",
                "path": "@binancechain"
            },
            "title": "RT @BinanceChain: \u201cIf you can\u2019t hodl you won\u2019t be rich\u201d - @cz_binance",
            "published_at": "2022-04-12T15:27:55Z",
            "slug": "RT-BinanceChain-If-you-cant-hodl-you-wont-be-rich-cz_binance",
            "currencies": [
                {
                    "code": "BDOT",
                    "title": "Binance Wrapped DOT",
                    "slug": "binance-wrapped-dot",
                    "url": "https:\/\/cryptopanic.com\/news\/binance-wrapped-dot\/"
                }
            ],
            "id": 14881695,
            "url": "https:\/\/cryptopanic.com\/news\/14881695\/RT-BinanceChain-If-you-cant-hodl-you-wont-be-rich-cz_binance",
            "created_at": "2022-04-12T15:27:55Z",
            "votes": {
                "negative": 0,
                "positive": 0,
                "important": 0,
                "liked": 0,
                "disliked": 0,
                "lol": 0,
                "toxic": 0,
                "saved": 0,
                "comments": 0
            }
        },
        {
            "kind": "news",
            "domain": "@BinanceChain",
            "source": {
                "title": "Binance Wrapped DOT Twitter",
                "region": "en",
                "domain": "twitter.com",
                "path": "@binancechain"
            },
            "title": "RT @AirheadzBSC: Shall we float all the way to the stars? ",
            "published_at": "2022-04-06T12:58:22Z",
            "slug": "RT-AirheadzBSC-Shall-we-float-all-the-way-to-the-stars",
            "currencies": [
                {
                    "code": "BDOT",
                    "title": "Binance Wrapped DOT",
                    "slug": "binance-wrapped-dot",
                    "url": "https:\/\/cryptopanic.com\/news\/binance-wrapped-dot\/"
                }
            ],
            "id": 14818623,
            "url": "https:\/\/cryptopanic.com\/news\/14818623\/RT-AirheadzBSC-Shall-we-float-all-the-way-to-the-stars",
            "created_at": "2022-04-06T12:58:22Z",
            "votes": {
                "negative": 0,
                "positive": 0,
                "important": 0,
                "liked": 0,
                "disliked": 0,
                "lol": 0,
                "toxic": 0,
                "saved": 0,
                "comments": 0
            }
        },
        {
            "kind": "news",
            "domain": "@BinanceChain",
            "source": {
                "title": "Binance Wrapped DOT Twitter",
                "region": "en",
                "domain": "twitter.com",
                "path": "@binancechain"
            },
            "title": "RT @BinanceChain: \u201cIf you can\u2019t hodl you won\u2019t be rich\u201d - @cz_binance",
            "published_at": "2022-03-06T16:10:06Z",
            "slug": "RT-BinanceChain-If-you-cant-hodl-you-wont-be-rich-cz_binance",
            "currencies": [
                {
                    "code": "BDOT",
                    "title": "Binance Wrapped DOT",
                    "slug": "binance-wrapped-dot",
                    "url": "https:\/\/cryptopanic.com\/news\/binance-wrapped-dot\/"
                }
            ],
            "id": 14494509,
            "url": "https:\/\/cryptopanic.com\/news\/14494509\/RT-BinanceChain-If-you-cant-hodl-you-wont-be-rich-cz_binance",
            "created_at": "2022-03-06T16:10:06Z",
            "votes": {
                "negative": 0,
                "positive": 0,
                "important": 0,
                "liked": 0,
                "disliked": 0,
                "lol": 0,
                "toxic": 0,
                "saved": 0,
                "comments": 0
            }
        },
        {
            "kind": "news",
            "domain": "@BinanceChain",
            "source": {
                "title": "Binance Wrapped DOT Twitter",
                "region": "en",
                "domain": "twitter.com",
                "path": "@binancechain"
            },
            "title": "What\u2019s your favorite #BNBChain token? #BNB #Binance",
            "published_at": "2022-03-05T01:15:23Z",
            "slug": "Whats-your-favorite-BNBChain-token-BNB-Binance",
            "currencies": [
                {
                    "code": "BDOT",
                    "title": "Binance Wrapped DOT",
                    "slug": "binance-wrapped-dot",
                    "url": "https:\/\/cryptopanic.com\/news\/binance-wrapped-dot\/"
                }
            ],
            "id": 14478914,
            "url": "https:\/\/cryptopanic.com\/news\/14478914\/Whats-your-favorite-BNBChain-token-BNB-Binance",
            "created_at": "2022-03-05T01:15:23Z",
            "votes": {
                "negative": 0,
                "positive": 0,
                "important": 0,
                "liked": 0,
                "disliked": 0,
                "lol": 0,
                "toxic": 0,
                "saved": 0,
                "comments": 0
            }
        }
    ]
}
