{
    "count": 200,
    "next": "https:\/\/cryptopanic.com\/api\/v1\/posts\/?auth_token=01c356e89ffc1b8eba2127c81fc8c66ee0eace75&kind=news&currencies=VIB&page=2",
    "previous": null,
    "results": [
        {
            "kind": "news",
            "domain": "@viberate",
            "source": {
                "title": "Viberate Twitter",
                "region": "en",
                "domain": "twitter.com",
                "path": "@viberate"
            },
            "title": "We\u2019re in this week\u2019s episode of the \u2018Your Morning Coffee Podcast\u2019. Listen to what we\u2019ve been up to!",
            "published_at": "2023-07-07T19:21:02Z",
            "slug": "Were-in-this-weeks-episode-of-the-Your-Morning-Coffee-Podcast-Listen-to-what-weve-been-up-to",
            "currencies": [
                {
                    "code": "VIB",
                    "title": "Viberate",
                    "slug": "viberate",
                    "url": "https:\/\/cryptopanic.com\/news\/viberate\/"
                }
            ],
            "id": 18743138,
            "url": "https:\/\/cryptopanic.com\/news\/18743138\/Were-in-this-weeks-episode-of-the-Your-Morning-Coffee-Podcast-Listen-to-what-weve-been-up-to",
            "created_at": "2023-07-07T19:21:02Z",
            "votes": {
                "negative": 0,
                "positive": 0,
                "important": 0,
                "liked": 0,
                "disliked": 0,
                "lol": 0,
                "toxic": 0,
                "saved": 0,
                "comments": 0
            }
        },
        {
            "kind": "news",
            "domain": "@viberate",
            "source": {
                "title": "Viberate Twitter",
                "region": "en",
                "domain": "twitter.com",
                "path": "@viberate"
            },
            "title": "Here's 'Viberate for Artists', a hub that unites  music distribution,  advancing,  playlist &amp; festival pitching,\u2026",
            "published_at": "2023-06-28T08:54:47Z",
            "slug": "Heres-Viberate-for-Artists-a-hub-that-unites-music-distribution-advancing-playlist-amp-festival-pitching",
            "currencies": [
                {
                    "code": "VIB",
                    "title": "Viberate",
                    "slug": "viberate",
                    "url": "https:\/\/cryptopanic.com\/news\/viberate\/"
                }
            ],
            "id": 18673050,
            "url": "https:\/\/cryptopanic.com\/news\/18673050\/Heres-Viberate-for-Artists-a-hub-that-unites-music-distribution-advancing-playlist-amp-festival-pitching",
            "created_at": "2023-06-28T08:54:47Z",
            "votes": {
                "negative": 0,
                "positive": 0,
                "important": 0,
                "liked": 0,
                "disliked": 0,
                "lol": 0,
                "toxic": 0,
                "saved": 0,
                "comments": 0
            }
        },
        {
            "kind": "news",
            "domain": "@viberate",
            "source": {
                "title": "Viberate Twitter",
                "region": "en",
                "domain": "twitter.com",
                "path": "@viberate"
            },
            "title": "RT @digitalmusicnws: Music analytics platform Viberate has launched a new hub for independent artists, Viberate for Artists. Here's what yo\u2026",
            "published_at": "2023-06-28T07:42:07Z",
            "slug": "RT-digitalmusicnws-Music-analytics-platform-Viberate-has-launched-a-new-hub-for-independent-artists-Viberate-for-Artists-Heres-what-yo",
            "currencies": [
                {
                    "code": "VIB",
                    "title": "Viberate",
                    "slug": "viberate",
                    "url": "https:\/\/cryptopanic.com\/news\/viberate\/"
                }
            ],
            "id": 18673051,
            "url": "https:\/\/cryptopanic.com\/news\/18673051\/RT-digitalmusicnws-Music-analytics-platform-Viberate-has-launched-a-new-hub-for-independent-artists-Viberate-for-Artists-Heres-what-yo",
            "created_at": "2023-06-28T07:42:07Z",
            "votes": {
                "negative": 0,
                "positive": 0,
                "important": 0,
                "liked": 0,
                "disliked": 0,
                "lol": 0,
                "toxic": 0,
                "saved": 0,
                "comments": 0
            }
        },
        {
            "kind": "news",
            "domain": "@viberate",
            "source": {
                "title": "Viberate Twitter",
                "region": "en",
                "domain": "twitter.com",
                "path": "@viberate"
            },
            "title": "\"When I was starting my career, a platform like 'Viberate for Artists' would have saved me a lot of energy,\" says\u2026",
            "published_at": "2023-06-22T10:59:46Z",
            "slug": "When-I-was-starting-my-career-a-platform-like-Viberate-for-Artists-would-have-saved-me-a-lot-of-energy-says",
            "currencies": [
                {
                    "code": "VIB",
                    "title": "Viberate",
                    "slug": "viberate",
                    "url": "https:\/\/cryptopanic.com\/news\/viberate\/"
                }
            ],
            "id": 18640503,
            "url": "https:\/\/cryptopanic.com\/news\/18640503\/When-I-was-starting-my-career-a-platform-like-Viberate-for-Artists-would-have-saved-me-a-lot-of-energy-says",
            "created_at": "2023-06-22T10:59:46Z",
            "votes": {
                "negative": 0,
                "positive": 0,
                "important": 0,
                "liked": 0,
                "disliked": 0,
                "lol": 0,
                "toxic": 0,
                "saved": 0,
                "comments": 0
            }
        },
        {
            "kind": "news",
            "domain": "@viberate",
            "source": {
                "title": "Viberate Twitter",
                "region": "en",
                "domain": "twitter.com",
                "path": "@viberate"
            },
            "title": "Here's what our co-founders say about the changes in the music business ",
            "published_at": "2023-06-16T13:19:18Z",
            "slug": "Heres-what-our-co-founders-say-about-the-changes-in-the-music-business",
            "currencies": [
                {
                    "code": "VIB",
                    "title": "Viberate",
                    "slug": "viberate",
                    "url": "https:\/\/cryptopanic.com\/news\/viberate\/"
                }
            ],
            "id": 18599039,
            "url": "https:\/\/cryptopanic.com\/news\/18599039\/Heres-what-our-co-founders-say-about-the-changes-in-the-music-business",
            "created_at": "2023-06-16T13:19:18Z",
            "votes": {
                "negative": 0,
                "positive": 0,
                "important": 0,
                "liked": 0,
                "disliked": 0,
                "lol": 0,
                "toxic": 0,
                "saved": 0,
                "comments": 0
            }
        },
        {
            "kind": "news",
            "domain": "@viberate",
            "source": {
                "title": "Viberate Twitter",
                "region": "en",
                "domain": "twitter.com",
                "path": "@viberate"
            },
            "title": "For all our Slovenian speakers, here's a great podcast with our co-founder, ambassador, and Techno legend\u2026",
            "published_at": "2023-06-12T14:18:22Z",
            "slug": "For-all-our-Slovenian-speakers-heres-a-great-podcast-with-our-co-founder-ambassador-and-Techno-legend",
            "currencies": [
                {
                    "code": "VIB",
                    "title": "Viberate",
                    "slug": "viberate",
                    "url": "https:\/\/cryptopanic.com\/news\/viberate\/"
                }
            ],
            "id": 18566216,
            "url": "https:\/\/cryptopanic.com\/news\/18566216\/For-all-our-Slovenian-speakers-heres-a-great-podcast-with-our-co-founder-ambassador-and-Techno-legend",
            "created_at": "2023-06-12T14:18:22Z",
            "votes": {
                "negative": 0,
                "positive": 0,
                "important": 0,
                "liked": 0,
                "disliked": 0,
                "lol": 0,
                "toxic": 0,
                "saved": 0,
                "comments": 0
            }
        },
        {
            "kind": "news",
            "domain": "@viberate",
            "source": {
                "title": "Viberate Twitter",
                "region": "en",
                "domain": "twitter.com",
                "path": "@viberate"
            },
            "title": "If you're looking for the best tools for tracking Spotify data, see your options in @digitalmusicnws article:\u2026",
            "published_at": "2023-06-06T06:59:21Z",
            "slug": "If-youre-looking-for-the-best-tools-for-tracking-Spotify-data-see-your-options-in-digitalmusicnws-article",
            "currencies": [
                {
                    "code": "VIB",
                    "title": "Viberate",
                    "slug": "viberate",
                    "url": "https:\/\/cryptopanic.com\/news\/viberate\/"
                }
            ],
            "id": 18514875,
            "url": "https:\/\/cryptopanic.com\/news\/18514875\/If-youre-looking-for-the-best-tools-for-tracking-Spotify-data-see-your-options-in-digitalmusicnws-article",
            "created_at": "2023-06-06T06:59:21Z",
            "votes": {
                "negative": 0,
                "positive": 0,
                "important": 0,
                "liked": 0,
                "disliked": 0,
                "lol": 0,
                "toxic": 0,
                "saved": 0,
                "comments": 0
            }
        },
        {
            "kind": "news",
            "domain": "@viberate",
            "source": {
                "title": "Viberate Twitter",
                "region": "en",
                "domain": "twitter.com",
                "path": "@viberate"
            },
            "title": "RT @digitalmusicnws: Music data analytics platform Viberate is helping facilitate emerging artist discovery with useful tools like its Arti\u2026",
            "published_at": "2023-05-17T10:06:13Z",
            "slug": "RT-digitalmusicnws-Music-data-analytics-platform-Viberate-is-helping-facilitate-emerging-artist-discovery-with-useful-tools-like-its-Arti",
            "currencies": [
                {
                    "code": "VIB",
                    "title": "Viberate",
                    "slug": "viberate",
                    "url": "https:\/\/cryptopanic.com\/news\/viberate\/"
                }
            ],
            "id": 18362698,
            "url": "https:\/\/cryptopanic.com\/news\/18362698\/RT-digitalmusicnws-Music-data-analytics-platform-Viberate-is-helping-facilitate-emerging-artist-discovery-with-useful-tools-like-its-Arti",
            "created_at": "2023-05-17T10:06:13Z",
            "votes": {
                "negative": 0,
                "positive": 0,
                "important": 0,
                "liked": 0,
                "disliked": 0,
                "lol": 0,
                "toxic": 0,
                "saved": 0,
                "comments": 0
            }
        },
        {
            "kind": "news",
            "domain": "@viberate",
            "source": {
                "title": "Viberate Twitter",
                "region": "en",
                "domain": "twitter.com",
                "path": "@viberate"
            },
            "title": "RT @MusicBizAssoc: #MusicBizMember @viberate has released a new chart feature designed to discover emerging talents based on their location\u2026",
            "published_at": "2023-05-17T06:14:28Z",
            "slug": "RT-MusicBizAssoc-MusicBizMember-viberate-has-released-a-new-chart-feature-designed-to-discover-emerging-talents-based-on-their-location",
            "currencies": [
                {
                    "code": "VIB",
                    "title": "Viberate",
                    "slug": "viberate",
                    "url": "https:\/\/cryptopanic.com\/news\/viberate\/"
                }
            ],
            "id": 18362699,
            "url": "https:\/\/cryptopanic.com\/news\/18362699\/RT-MusicBizAssoc-MusicBizMember-viberate-has-released-a-new-chart-feature-designed-to-discover-emerging-talents-based-on-their-location",
            "created_at": "2023-05-17T06:14:28Z",
            "votes": {
                "negative": 0,
                "positive": 0,
                "important": 0,
                "liked": 0,
                "disliked": 0,
                "lol": 0,
                "toxic": 0,
                "saved": 0,
                "comments": 0
            }
        },
        {
            "kind": "news",
            "domain": "@viberate",
            "source": {
                "title": "Viberate Twitter",
                "region": "en",
                "domain": "twitter.com",
                "path": "@viberate"
            },
            "title": "RT @musicbizworld: Viberate claims new emerging artist chart will bring increased speed and precision to discovering new talent - Music Bus\u2026",
            "published_at": "2023-05-04T12:51:41Z",
            "slug": "RT-musicbizworld-Viberate-claims-new-emerging-artist-chart-will-bring-increased-speed-and-precision-to-discovering-new-talent-Music-Bus",
            "currencies": [
                {
                    "code": "VIB",
                    "title": "Viberate",
                    "slug": "viberate",
                    "url": "https:\/\/cryptopanic.com\/news\/viberate\/"
                }
            ],
            "id": 18271402,
            "url": "https:\/\/cryptopanic.com\/news\/18271402\/RT-musicbizworld-Viberate-claims-new-emerging-artist-chart-will-bring-increased-speed-and-precision-to-discovering-new-talent-Music-Bus",
            "created_at": "2023-05-04T12:51:41Z",
            "votes": {
                "negative": 0,
                "positive": 0,
                "important": 0,
                "liked": 0,
                "disliked": 0,
                "lol": 0,
                "toxic": 0,
                "saved": 0,
                "comments": 0
            }
        },
        {
            "kind": "news",
            "domain": "@viberate",
            "source": {
                "title": "Viberate Twitter",
                "region": "en",
                "domain": "twitter.com",
                "path": "@viberate"
            },
            "title": "We just got back from the @IMSibiza. Happy to see Viberate\u2019s data in the IMS Business Report on the state of Electr\u2026",
            "published_at": "2023-05-03T08:26:46Z",
            "slug": "We-just-got-back-from-the-IMSibiza-Happy-to-see-Viberates-data-in-the-IMS-Business-Report-on-the-state-of-Electr",
            "currencies": [
                {
                    "code": "VIB",
                    "title": "Viberate",
                    "slug": "viberate",
                    "url": "https:\/\/cryptopanic.com\/news\/viberate\/"
                }
            ],
            "id": 18253037,
            "url": "https:\/\/cryptopanic.com\/news\/18253037\/We-just-got-back-from-the-IMSibiza-Happy-to-see-Viberates-data-in-the-IMS-Business-Report-on-the-state-of-Electr",
            "created_at": "2023-05-03T08:26:46Z",
            "votes": {
                "negative": 0,
                "positive": 0,
                "important": 0,
                "liked": 0,
                "disliked": 0,
                "lol": 0,
                "toxic": 0,
                "saved": 0,
                "comments": 0
            }
        },
        {
            "kind": "news",
            "domain": "@viberate",
            "source": {
                "title": "Viberate Twitter",
                "region": "en",
                "domain": "twitter.com",
                "path": "@viberate"
            },
            "title": "[USE CASE: ARTIST MANAGERS] Neatly organized and visualized cross-channel analytics can transform the way you manag\u2026",
            "published_at": "2023-04-27T11:34:00Z",
            "slug": "USE-CASE-ARTIST-MANAGERS-Neatly-organized-and-visualized-cross-channel-analytics-can-transform-the-way-you-manag",
            "currencies": [
                {
                    "code": "VIB",
                    "title": "Viberate",
                    "slug": "viberate",
                    "url": "https:\/\/cryptopanic.com\/news\/viberate\/"
                }
            ],
            "id": 18219162,
            "url": "https:\/\/cryptopanic.com\/news\/18219162\/USE-CASE-ARTIST-MANAGERS-Neatly-organized-and-visualized-cross-channel-analytics-can-transform-the-way-you-manag",
            "created_at": "2023-04-27T11:34:00Z",
            "votes": {
                "negative": 0,
                "positive": 0,
                "important": 0,
                "liked": 0,
                "disliked": 0,
                "lol": 0,
                "toxic": 0,
                "saved": 0,
                "comments": 0
            }
        },
        {
            "kind": "news",
            "domain": "@viberate",
            "source": {
                "title": "Viberate Twitter",
                "region": "en",
                "domain": "twitter.com",
                "path": "@viberate"
            },
            "title": "[USE CASE: A&amp;Rs] See how you can pinpoint the artists you're looking for with streaming, social media, and geolocat\u2026",
            "published_at": "2023-04-25T07:30:00Z",
            "slug": "USE-CASE-AampRs-See-how-you-can-pinpoint-the-artists-youre-looking-for-with-streaming-social-media-and-geolocat",
            "currencies": [
                {
                    "code": "VIB",
                    "title": "Viberate",
                    "slug": "viberate",
                    "url": "https:\/\/cryptopanic.com\/news\/viberate\/"
                }
            ],
            "id": 18191129,
            "url": "https:\/\/cryptopanic.com\/news\/18191129\/USE-CASE-AampRs-See-how-you-can-pinpoint-the-artists-youre-looking-for-with-streaming-social-media-and-geolocat",
            "created_at": "2023-04-25T07:30:00Z",
            "votes": {
                "negative": 0,
                "positive": 0,
                "important": 0,
                "liked": 0,
                "disliked": 0,
                "lol": 0,
                "toxic": 0,
                "saved": 0,
                "comments": 0
            }
        },
        {
            "kind": "news",
            "domain": "@viberate",
            "source": {
                "title": "Viberate Twitter",
                "region": "en",
                "domain": "twitter.com",
                "path": "@viberate"
            },
            "title": ".@JayGilbert on the importance of data for \u201cThe Business of Content\u201d podcast: \"You can see the trends on your Face\u2026",
            "published_at": "2023-04-24T07:29:51Z",
            "slug": "JayGilbert-on-the-importance-of-data-for-The-Business-of-Content-podcast-You-can-see-the-trends-on-your-Face",
            "currencies": [
                {
                    "code": "VIB",
                    "title": "Viberate",
                    "slug": "viberate",
                    "url": "https:\/\/cryptopanic.com\/news\/viberate\/"
                }
            ],
            "id": 18182432,
            "url": "https:\/\/cryptopanic.com\/news\/18182432\/JayGilbert-on-the-importance-of-data-for-The-Business-of-Content-podcast-You-can-see-the-trends-on-your-Face",
            "created_at": "2023-04-24T07:29:51Z",
            "votes": {
                "negative": 0,
                "positive": 0,
                "important": 0,
                "liked": 0,
                "disliked": 0,
                "lol": 0,
                "toxic": 0,
                "saved": 0,
                "comments": 0
            }
        },
        {
            "kind": "news",
            "domain": "@viberate",
            "source": {
                "title": "Viberate Twitter",
                "region": "en",
                "domain": "twitter.com",
                "path": "@viberate"
            },
            "title": "Our co-founder Vasja Veber is speaking at @MusicBizAssoc's #MusicBiz2023 conference, happening May 15-18 in Nashvil\u2026",
            "published_at": "2023-04-13T08:20:15Z",
            "slug": "Our-co-founder-Vasja-Veber-is-speaking-at-MusicBizAssocs-MusicBiz2023-conference-happening-May-15-18-in-Nashvil",
            "currencies": [
                {
                    "code": "VIB",
                    "title": "Viberate",
                    "slug": "viberate",
                    "url": "https:\/\/cryptopanic.com\/news\/viberate\/"
                }
            ],
            "id": 18102860,
            "url": "https:\/\/cryptopanic.com\/news\/18102860\/Our-co-founder-Vasja-Veber-is-speaking-at-MusicBizAssocs-MusicBiz2023-conference-happening-May-15-18-in-Nashvil",
            "created_at": "2023-04-13T08:20:15Z",
            "votes": {
                "negative": 0,
                "positive": 0,
                "important": 0,
                "liked": 0,
                "disliked": 0,
                "lol": 0,
                "toxic": 0,
                "saved": 0,
                "comments": 0
            }
        },
        {
            "kind": "news",
            "domain": "@viberate",
            "source": {
                "title": "Viberate Twitter",
                "region": "en",
                "domain": "twitter.com",
                "path": "@viberate"
            },
            "title": " [MONTHLY WRAP-UP]\nShortcuts to \"Recommended Charts\" to make your job easier\nImproved performance &amp; matching style\u2026",
            "published_at": "2023-04-12T09:06:53Z",
            "slug": "MONTHLY-WRAP-UP-Shortcuts-to-Recommended-Charts-to-make-your-job-easier-Improved-performance-amp-matching-style",
            "currencies": [
                {
                    "code": "VIB",
                    "title": "Viberate",
                    "slug": "viberate",
                    "url": "https:\/\/cryptopanic.com\/news\/viberate\/"
                }
            ],
            "id": 18093710,
            "url": "https:\/\/cryptopanic.com\/news\/18093710\/MONTHLY-WRAP-UP-Shortcuts-to-Recommended-Charts-to-make-your-job-easier-Improved-performance-amp-matching-style",
            "created_at": "2023-04-12T09:06:53Z",
            "votes": {
                "negative": 0,
                "positive": 0,
                "important": 0,
                "liked": 0,
                "disliked": 0,
                "lol": 0,
                "toxic": 0,
                "saved": 0,
                "comments": 0
            }
        },
        {
            "kind": "news",
            "domain": "@viberate",
            "source": {
                "title": "Viberate Twitter",
                "region": "en",
                "domain": "twitter.com",
                "path": "@viberate"
            },
            "title": "At the Music Biz 2023 in Nashville, our co-founder Vasja Veber and other speakers will talk about how to turn music\u2026",
            "published_at": "2023-04-06T08:53:31Z",
            "slug": "At-the-Music-Biz-2023-in-Nashville-our-co-founder-Vasja-Veber-and-other-speakers-will-talk-about-how-to-turn-music",
            "currencies": [
                {
                    "code": "VIB",
                    "title": "Viberate",
                    "slug": "viberate",
                    "url": "https:\/\/cryptopanic.com\/news\/viberate\/"
                }
            ],
            "id": 18051882,
            "url": "https:\/\/cryptopanic.com\/news\/18051882\/At-the-Music-Biz-2023-in-Nashville-our-co-founder-Vasja-Veber-and-other-speakers-will-talk-about-how-to-turn-music",
            "created_at": "2023-04-06T08:53:31Z",
            "votes": {
                "negative": 0,
                "positive": 0,
                "important": 0,
                "liked": 0,
                "disliked": 0,
                "lol": 0,
                "toxic": 0,
                "saved": 0,
                "comments": 0
            }
        },
        {
            "kind": "news",
            "domain": "@viberate",
            "source": {
                "title": "Viberate Twitter",
                "region": "en",
                "domain": "twitter.com",
                "path": "@viberate"
            },
            "title": "Two panels down, three days of meeting done. @sxsw wrapped! (Our lines for all things analytics are still open.)",
            "published_at": "2023-03-16T11:32:50Z",
            "slug": "Two-panels-down-three-days-of-meeting-done-sxsw-wrapped-Our-lines-for-all-things-analytics-are-still-open",
            "currencies": [
                {
                    "code": "VIB",
                    "title": "Viberate",
                    "slug": "viberate",
                    "url": "https:\/\/cryptopanic.com\/news\/viberate\/"
                }
            ],
            "id": 17902722,
            "url": "https:\/\/cryptopanic.com\/news\/17902722\/Two-panels-down-three-days-of-meeting-done-sxsw-wrapped-Our-lines-for-all-things-analytics-are-still-open",
            "created_at": "2023-03-16T11:32:50Z",
            "votes": {
                "negative": 0,
                "positive": 0,
                "important": 0,
                "liked": 0,
                "disliked": 0,
                "lol": 0,
                "toxic": 0,
                "saved": 0,
                "comments": 0
            }
        },
        {
            "kind": "news",
            "domain": "@viberate",
            "source": {
                "title": "Viberate Twitter",
                "region": "en",
                "domain": "twitter.com",
                "path": "@viberate"
            },
            "title": "Has the waterfall release strategy saved or killed the album? We explore a data POV with the example of @raye.\u2026",
            "published_at": "2023-03-15T14:32:24Z",
            "slug": "Has-the-waterfall-release-strategy-saved-or-killed-the-album-We-explore-a-data-POV-with-the-example-of-raye",
            "currencies": [
                {
                    "code": "VIB",
                    "title": "Viberate",
                    "slug": "viberate",
                    "url": "https:\/\/cryptopanic.com\/news\/viberate\/"
                }
            ],
            "id": 17893867,
            "url": "https:\/\/cryptopanic.com\/news\/17893867\/Has-the-waterfall-release-strategy-saved-or-killed-the-album-We-explore-a-data-POV-with-the-example-of-raye",
            "created_at": "2023-03-15T14:32:24Z",
            "votes": {
                "negative": 0,
                "positive": 0,
                "important": 0,
                "liked": 0,
                "disliked": 0,
                "lol": 0,
                "toxic": 0,
                "saved": 0,
                "comments": 0
            }
        },
        {
            "kind": "news",
            "domain": "@viberate",
            "source": {
                "title": "Viberate Twitter",
                "region": "en",
                "domain": "twitter.com",
                "path": "@viberate"
            },
            "title": "RT @Vasja_Viberate: It seems that Spotify in Slovenia only exists for DJs and classical musicians. My fav domestic rock bands don't even ma\u2026",
            "published_at": "2023-03-13T09:40:03Z",
            "slug": "RT-Vasja_Viberate-It-seems-that-Spotify-in-Slovenia-only-exists-for-DJs-and-classical-musicians-My-fav-domestic-rock-bands-dont-even-ma",
            "currencies": [
                {
                    "code": "VIB",
                    "title": "Viberate",
                    "slug": "viberate",
                    "url": "https:\/\/cryptopanic.com\/news\/viberate\/"
                }
            ],
            "id": 17864825,
            "url": "https:\/\/cryptopanic.com\/news\/17864825\/RT-Vasja_Viberate-It-seems-that-Spotify-in-Slovenia-only-exists-for-DJs-and-classical-musicians-My-fav-domestic-rock-bands-dont-even-ma",
            "created_at": "2023-03-13T09:40:03Z",
            "votes": {
                "negative": 0,
                "positive": 0,
                "important": 0,
                "liked": 0,
                "disliked": 0,
                "lol": 0,
                "toxic": 0,
                "saved": 0,
                "comments": 0
            }
        }
    ]
}
