{
    "count": 200,
    "next": "https:\/\/cryptopanic.com\/api\/v1\/posts\/?auth_token=01c356e89ffc1b8eba2127c81fc8c66ee0eace75&kind=news&currencies=WLD&page=2",
    "previous": null,
    "results": [
        {
            "kind": "news",
            "domain": "@wlitidao",
            "source": {
                "title": "wLitiDAO Twitter",
                "region": "en",
                "domain": "twitter.com",
                "path": "@wlitidao"
            },
            "title": "RT @NavalismHQ: \"The teacher is the lesson.\"\n\n@naval",
            "published_at": "2022-07-05T17:29:14Z",
            "slug": "RT-NavalismHQ-The-teacher-is-the-lesson-naval",
            "currencies": [
                {
                    "code": "WLD",
                    "title": "wLitiDAO",
                    "slug": "wlitidao",
                    "url": "https:\/\/cryptopanic.com\/news\/wlitidao\/"
                }
            ],
            "id": 15692633,
            "url": "https:\/\/cryptopanic.com\/news\/15692633\/RT-NavalismHQ-The-teacher-is-the-lesson-naval",
            "created_at": "2022-07-05T17:29:14Z",
            "votes": {
                "negative": 0,
                "positive": 0,
                "important": 0,
                "liked": 0,
                "disliked": 0,
                "lol": 0,
                "toxic": 0,
                "saved": 0,
                "comments": 0
            }
        },
        {
            "kind": "news",
            "domain": "@wlitidao",
            "source": {
                "title": "wLitiDAO Twitter",
                "region": "en",
                "domain": "twitter.com",
                "path": "@wlitidao"
            },
            "title": "Imagine being bearish.",
            "published_at": "2022-07-05T12:45:40Z",
            "slug": "Imagine-being-bearish",
            "currencies": [
                {
                    "code": "WLD",
                    "title": "wLitiDAO",
                    "slug": "wlitidao",
                    "url": "https:\/\/cryptopanic.com\/news\/wlitidao\/"
                }
            ],
            "id": 15692634,
            "url": "https:\/\/cryptopanic.com\/news\/15692634\/Imagine-being-bearish",
            "created_at": "2022-07-05T12:45:40Z",
            "votes": {
                "negative": 0,
                "positive": 0,
                "important": 0,
                "liked": 0,
                "disliked": 0,
                "lol": 0,
                "toxic": 0,
                "saved": 0,
                "comments": 0
            }
        },
        {
            "kind": "news",
            "domain": "@wlitidao",
            "source": {
                "title": "wLitiDAO Twitter",
                "region": "en",
                "domain": "twitter.com",
                "path": "@wlitidao"
            },
            "title": "RT @SystemSunday: 9 savvy habits that will accelerate your career",
            "published_at": "2022-07-05T12:37:59Z",
            "slug": "RT-SystemSunday-9-savvy-habits-that-will-accelerate-your-career",
            "currencies": [
                {
                    "code": "WLD",
                    "title": "wLitiDAO",
                    "slug": "wlitidao",
                    "url": "https:\/\/cryptopanic.com\/news\/wlitidao\/"
                }
            ],
            "id": 15692635,
            "url": "https:\/\/cryptopanic.com\/news\/15692635\/RT-SystemSunday-9-savvy-habits-that-will-accelerate-your-career",
            "created_at": "2022-07-05T12:37:59Z",
            "votes": {
                "negative": 0,
                "positive": 0,
                "important": 0,
                "liked": 0,
                "disliked": 0,
                "lol": 0,
                "toxic": 0,
                "saved": 0,
                "comments": 0
            }
        },
        {
            "kind": "news",
            "domain": "@wlitidao",
            "source": {
                "title": "wLitiDAO Twitter",
                "region": "en",
                "domain": "twitter.com",
                "path": "@wlitidao"
            },
            "title": "RT @strongminded101: 9 Life-Changing Lessons from Atomic Habits by James Clear\n\nThread",
            "published_at": "2022-07-01T20:08:31Z",
            "slug": "RT-strongminded101-9-Life-Changing-Lessons-from-Atomic-Habits-by-James-Clear-Thread",
            "currencies": [
                {
                    "code": "WLD",
                    "title": "wLitiDAO",
                    "slug": "wlitidao",
                    "url": "https:\/\/cryptopanic.com\/news\/wlitidao\/"
                }
            ],
            "id": 15662212,
            "url": "https:\/\/cryptopanic.com\/news\/15662212\/RT-strongminded101-9-Life-Changing-Lessons-from-Atomic-Habits-by-James-Clear-Thread",
            "created_at": "2022-07-01T20:08:31Z",
            "votes": {
                "negative": 0,
                "positive": 0,
                "important": 0,
                "liked": 0,
                "disliked": 0,
                "lol": 0,
                "toxic": 0,
                "saved": 0,
                "comments": 0
            }
        },
        {
            "kind": "news",
            "domain": "@wlitidao",
            "source": {
                "title": "wLitiDAO Twitter",
                "region": "en",
                "domain": "twitter.com",
                "path": "@wlitidao"
            },
            "title": "RT @CruiseyBabbby: You know you're doing art right when you're just having fun \ud83e\udd17",
            "published_at": "2022-06-30T17:31:39Z",
            "slug": "RT-CruiseyBabbby-You-know-youre-doing-art-right-when-youre-just-having-fun",
            "currencies": [
                {
                    "code": "WLD",
                    "title": "wLitiDAO",
                    "slug": "wlitidao",
                    "url": "https:\/\/cryptopanic.com\/news\/wlitidao\/"
                }
            ],
            "id": 15653018,
            "url": "https:\/\/cryptopanic.com\/news\/15653018\/RT-CruiseyBabbby-You-know-youre-doing-art-right-when-youre-just-having-fun",
            "created_at": "2022-06-30T17:31:39Z",
            "votes": {
                "negative": 0,
                "positive": 0,
                "important": 0,
                "liked": 0,
                "disliked": 0,
                "lol": 0,
                "toxic": 0,
                "saved": 0,
                "comments": 0
            }
        },
        {
            "kind": "news",
            "domain": "@wlitidao",
            "source": {
                "title": "wLitiDAO Twitter",
                "region": "en",
                "domain": "twitter.com",
                "path": "@wlitidao"
            },
            "title": "Y'all ready?",
            "published_at": "2022-06-30T17:13:32Z",
            "slug": "Yall-ready",
            "currencies": [
                {
                    "code": "WLD",
                    "title": "wLitiDAO",
                    "slug": "wlitidao",
                    "url": "https:\/\/cryptopanic.com\/news\/wlitidao\/"
                }
            ],
            "id": 15653019,
            "url": "https:\/\/cryptopanic.com\/news\/15653019\/Yall-ready",
            "created_at": "2022-06-30T17:13:32Z",
            "votes": {
                "negative": 0,
                "positive": 0,
                "important": 0,
                "liked": 0,
                "disliked": 0,
                "lol": 0,
                "toxic": 0,
                "saved": 0,
                "comments": 0
            }
        },
        {
            "kind": "news",
            "domain": "@wlitidao",
            "source": {
                "title": "wLitiDAO Twitter",
                "region": "en",
                "domain": "twitter.com",
                "path": "@wlitidao"
            },
            "title": "Less than 2 hours ",
            "published_at": "2022-06-30T16:12:24Z",
            "slug": "Less-than-2-hours",
            "currencies": [
                {
                    "code": "WLD",
                    "title": "wLitiDAO",
                    "slug": "wlitidao",
                    "url": "https:\/\/cryptopanic.com\/news\/wlitidao\/"
                }
            ],
            "id": 15653020,
            "url": "https:\/\/cryptopanic.com\/news\/15653020\/Less-than-2-hours",
            "created_at": "2022-06-30T16:12:24Z",
            "votes": {
                "negative": 0,
                "positive": 0,
                "important": 0,
                "liked": 0,
                "disliked": 0,
                "lol": 0,
                "toxic": 0,
                "saved": 0,
                "comments": 0
            }
        },
        {
            "kind": "news",
            "domain": "@wlitidao",
            "source": {
                "title": "wLitiDAO Twitter",
                "region": "en",
                "domain": "twitter.com",
                "path": "@wlitidao"
            },
            "title": "RT @R0KKLEE: Do it for your Self.\nNot your Ego.",
            "published_at": "2022-06-30T15:35:04Z",
            "slug": "RT-R0KKLEE-Do-it-for-your-Self-Not-your-Ego",
            "currencies": [
                {
                    "code": "WLD",
                    "title": "wLitiDAO",
                    "slug": "wlitidao",
                    "url": "https:\/\/cryptopanic.com\/news\/wlitidao\/"
                }
            ],
            "id": 15653021,
            "url": "https:\/\/cryptopanic.com\/news\/15653021\/RT-R0KKLEE-Do-it-for-your-Self-Not-your-Ego",
            "created_at": "2022-06-30T15:35:04Z",
            "votes": {
                "negative": 0,
                "positive": 0,
                "important": 0,
                "liked": 0,
                "disliked": 0,
                "lol": 0,
                "toxic": 0,
                "saved": 0,
                "comments": 0
            }
        },
        {
            "kind": "news",
            "domain": "@wlitidao",
            "source": {
                "title": "wLitiDAO Twitter",
                "region": "en",
                "domain": "twitter.com",
                "path": "@wlitidao"
            },
            "title": "Heads up Wolfpack\n\nAnother exclusive interview-\n #tomorrow Thursday, 1pm CST\n-with the principle plaintiff in t\u2026",
            "published_at": "2022-06-30T02:46:07Z",
            "slug": "Heads-up-Wolfpack-Another-exclusive-interview-tomorrow-Thursday-1pm-CST-with-the-principle-plaintiff-in-t",
            "currencies": [
                {
                    "code": "WLD",
                    "title": "wLitiDAO",
                    "slug": "wlitidao",
                    "url": "https:\/\/cryptopanic.com\/news\/wlitidao\/"
                }
            ],
            "id": 15641866,
            "url": "https:\/\/cryptopanic.com\/news\/15641866\/Heads-up-Wolfpack-Another-exclusive-interview-tomorrow-Thursday-1pm-CST-with-the-principle-plaintiff-in-t",
            "created_at": "2022-06-30T02:46:07Z",
            "votes": {
                "negative": 0,
                "positive": 0,
                "important": 0,
                "liked": 0,
                "disliked": 0,
                "lol": 0,
                "toxic": 0,
                "saved": 0,
                "comments": 0
            }
        },
        {
            "kind": "news",
            "domain": "@wlitidao",
            "source": {
                "title": "wLitiDAO Twitter",
                "region": "en",
                "domain": "twitter.com",
                "path": "@wlitidao"
            },
            "title": "RT @TheGemHunters: Gotta get through it",
            "published_at": "2022-06-28T15:25:31Z",
            "slug": "RT-TheGemHunters-Gotta-get-through-it",
            "currencies": [
                {
                    "code": "WLD",
                    "title": "wLitiDAO",
                    "slug": "wlitidao",
                    "url": "https:\/\/cryptopanic.com\/news\/wlitidao\/"
                }
            ],
            "id": 15631389,
            "url": "https:\/\/cryptopanic.com\/news\/15631389\/RT-TheGemHunters-Gotta-get-through-it",
            "created_at": "2022-06-28T15:25:31Z",
            "votes": {
                "negative": 0,
                "positive": 0,
                "important": 0,
                "liked": 0,
                "disliked": 0,
                "lol": 0,
                "toxic": 0,
                "saved": 0,
                "comments": 0
            }
        },
        {
            "kind": "news",
            "domain": "@wlitidao",
            "source": {
                "title": "wLitiDAO Twitter",
                "region": "en",
                "domain": "twitter.com",
                "path": "@wlitidao"
            },
            "title": "RT @DanialAfri: \nHey feel free to join us and talk about your projects or just chat about daily stuff",
            "published_at": "2022-06-28T00:07:53Z",
            "slug": "RT-DanialAfri-Hey-feel-free-to-join-us-and-talk-about-your-projects-or-just-chat-about-daily-stuff",
            "currencies": [
                {
                    "code": "WLD",
                    "title": "wLitiDAO",
                    "slug": "wlitidao",
                    "url": "https:\/\/cryptopanic.com\/news\/wlitidao\/"
                }
            ],
            "id": 15621232,
            "url": "https:\/\/cryptopanic.com\/news\/15621232\/RT-DanialAfri-Hey-feel-free-to-join-us-and-talk-about-your-projects-or-just-chat-about-daily-stuff",
            "created_at": "2022-06-28T00:07:53Z",
            "votes": {
                "negative": 0,
                "positive": 0,
                "important": 0,
                "liked": 0,
                "disliked": 0,
                "lol": 0,
                "toxic": 0,
                "saved": 0,
                "comments": 0
            }
        },
        {
            "kind": "news",
            "domain": "@wlitidao",
            "source": {
                "title": "wLitiDAO Twitter",
                "region": "en",
                "domain": "twitter.com",
                "path": "@wlitidao"
            },
            "title": "Set a reminder for our upcoming Space! \nWe've dropped a handful of exciting information; this might be your chance\u2026",
            "published_at": "2022-06-27T19:17:27Z",
            "slug": "Set-a-reminder-for-our-upcoming-Space-Weve-dropped-a-handful-of-exciting-information-this-might-be-your-chance",
            "currencies": [
                {
                    "code": "WLD",
                    "title": "wLitiDAO",
                    "slug": "wlitidao",
                    "url": "https:\/\/cryptopanic.com\/news\/wlitidao\/"
                }
            ],
            "id": 15621233,
            "url": "https:\/\/cryptopanic.com\/news\/15621233\/Set-a-reminder-for-our-upcoming-Space-Weve-dropped-a-handful-of-exciting-information-this-might-be-your-chance",
            "created_at": "2022-06-27T19:17:27Z",
            "votes": {
                "negative": 0,
                "positive": 0,
                "important": 0,
                "liked": 0,
                "disliked": 0,
                "lol": 0,
                "toxic": 0,
                "saved": 0,
                "comments": 0
            }
        },
        {
            "kind": "news",
            "domain": "@wlitidao",
            "source": {
                "title": "wLitiDAO Twitter",
                "region": "en",
                "domain": "twitter.com",
                "path": "@wlitidao"
            },
            "title": "Hey everyone incase you missed it, this was sent in one of the channels on Discord the other day. This is pretty si\u2026",
            "published_at": "2022-06-27T16:32:43Z",
            "slug": "Hey-everyone-incase-you-missed-it-this-was-sent-in-one-of-the-channels-on-Discord-the-other-day-This-is-pretty-si",
            "currencies": [
                {
                    "code": "WLD",
                    "title": "wLitiDAO",
                    "slug": "wlitidao",
                    "url": "https:\/\/cryptopanic.com\/news\/wlitidao\/"
                }
            ],
            "id": 15621234,
            "url": "https:\/\/cryptopanic.com\/news\/15621234\/Hey-everyone-incase-you-missed-it-this-was-sent-in-one-of-the-channels-on-Discord-the-other-day-This-is-pretty-si",
            "created_at": "2022-06-27T16:32:43Z",
            "votes": {
                "negative": 0,
                "positive": 0,
                "important": 0,
                "liked": 0,
                "disliked": 0,
                "lol": 0,
                "toxic": 0,
                "saved": 0,
                "comments": 0
            }
        },
        {
            "kind": "news",
            "domain": "@wlitidao",
            "source": {
                "title": "wLitiDAO Twitter",
                "region": "en",
                "domain": "twitter.com",
                "path": "@wlitidao"
            },
            "title": "RT @AhmedSadiq_Ab: Stay healthy",
            "published_at": "2022-06-27T15:58:09Z",
            "slug": "RT-AhmedSadiq_Ab-Stay-healthy",
            "currencies": [
                {
                    "code": "WLD",
                    "title": "wLitiDAO",
                    "slug": "wlitidao",
                    "url": "https:\/\/cryptopanic.com\/news\/wlitidao\/"
                }
            ],
            "id": 15621235,
            "url": "https:\/\/cryptopanic.com\/news\/15621235\/RT-AhmedSadiq_Ab-Stay-healthy",
            "created_at": "2022-06-27T15:58:09Z",
            "votes": {
                "negative": 0,
                "positive": 0,
                "important": 0,
                "liked": 0,
                "disliked": 0,
                "lol": 0,
                "toxic": 0,
                "saved": 0,
                "comments": 0
            }
        },
        {
            "kind": "news",
            "domain": "@wlitidao",
            "source": {
                "title": "wLitiDAO Twitter",
                "region": "en",
                "domain": "twitter.com",
                "path": "@wlitidao"
            },
            "title": "Have you checked the discord yet ",
            "published_at": "2022-06-27T15:50:07Z",
            "slug": "Have-you-checked-the-discord-yet",
            "currencies": [
                {
                    "code": "WLD",
                    "title": "wLitiDAO",
                    "slug": "wlitidao",
                    "url": "https:\/\/cryptopanic.com\/news\/wlitidao\/"
                }
            ],
            "id": 15621236,
            "url": "https:\/\/cryptopanic.com\/news\/15621236\/Have-you-checked-the-discord-yet",
            "created_at": "2022-06-27T15:50:07Z",
            "votes": {
                "negative": 0,
                "positive": 0,
                "important": 0,
                "liked": 0,
                "disliked": 0,
                "lol": 0,
                "toxic": 0,
                "saved": 0,
                "comments": 0
            }
        },
        {
            "kind": "news",
            "domain": "@wlitidao",
            "source": {
                "title": "wLitiDAO Twitter",
                "region": "en",
                "domain": "twitter.com",
                "path": "@wlitidao"
            },
            "title": "RT @NavalismHQ: \"I, and I alone, am responsible for everything I think and feel.\"\n\n@naval",
            "published_at": "2022-06-25T15:13:52Z",
            "slug": "RT-NavalismHQ-I-and-I-alone-am-responsible-for-everything-I-think-and-feel-naval",
            "currencies": [
                {
                    "code": "WLD",
                    "title": "wLitiDAO",
                    "slug": "wlitidao",
                    "url": "https:\/\/cryptopanic.com\/news\/wlitidao\/"
                }
            ],
            "id": 15604968,
            "url": "https:\/\/cryptopanic.com\/news\/15604968\/RT-NavalismHQ-I-and-I-alone-am-responsible-for-everything-I-think-and-feel-naval",
            "created_at": "2022-06-25T15:13:52Z",
            "votes": {
                "negative": 0,
                "positive": 0,
                "important": 0,
                "liked": 0,
                "disliked": 0,
                "lol": 0,
                "toxic": 0,
                "saved": 0,
                "comments": 0
            }
        },
        {
            "kind": "news",
            "domain": "@wlitidao",
            "source": {
                "title": "wLitiDAO Twitter",
                "region": "en",
                "domain": "twitter.com",
                "path": "@wlitidao"
            },
            "title": "Happy Saturday!",
            "published_at": "2022-06-25T15:11:41Z",
            "slug": "Happy-Saturday",
            "currencies": [
                {
                    "code": "WLD",
                    "title": "wLitiDAO",
                    "slug": "wlitidao",
                    "url": "https:\/\/cryptopanic.com\/news\/wlitidao\/"
                }
            ],
            "id": 15604969,
            "url": "https:\/\/cryptopanic.com\/news\/15604969\/Happy-Saturday",
            "created_at": "2022-06-25T15:11:41Z",
            "votes": {
                "negative": 0,
                "positive": 0,
                "important": 0,
                "liked": 0,
                "disliked": 0,
                "lol": 0,
                "toxic": 0,
                "saved": 0,
                "comments": 0
            }
        },
        {
            "kind": "news",
            "domain": "@wlitidao",
            "source": {
                "title": "wLitiDAO Twitter",
                "region": "en",
                "domain": "twitter.com",
                "path": "@wlitidao"
            },
            "title": "RT @jfx: I live by 3 rules:\n\nLoyalty.\nCommunication.\nTrust.",
            "published_at": "2022-06-23T20:32:26Z",
            "slug": "RT-jfx-I-live-by-3-rules-Loyalty-Communication-Trust",
            "currencies": [
                {
                    "code": "WLD",
                    "title": "wLitiDAO",
                    "slug": "wlitidao",
                    "url": "https:\/\/cryptopanic.com\/news\/wlitidao\/"
                }
            ],
            "id": 15589962,
            "url": "https:\/\/cryptopanic.com\/news\/15589962\/RT-jfx-I-live-by-3-rules-Loyalty-Communication-Trust",
            "created_at": "2022-06-23T20:32:26Z",
            "votes": {
                "negative": 0,
                "positive": 0,
                "important": 0,
                "liked": 0,
                "disliked": 0,
                "lol": 0,
                "toxic": 0,
                "saved": 0,
                "comments": 0
            }
        },
        {
            "kind": "news",
            "domain": "@wlitidao",
            "source": {
                "title": "wLitiDAO Twitter",
                "region": "en",
                "domain": "twitter.com",
                "path": "@wlitidao"
            },
            "title": "RT @mariusbreitweg: @wlitidao Everything starts from a dot. \ud83e\udde1",
            "published_at": "2022-06-23T11:22:56Z",
            "slug": "RT-mariusbreitweg-wlitidao-Everything-starts-from-a-dot",
            "currencies": [
                {
                    "code": "WLD",
                    "title": "wLitiDAO",
                    "slug": "wlitidao",
                    "url": "https:\/\/cryptopanic.com\/news\/wlitidao\/"
                }
            ],
            "id": 15589963,
            "url": "https:\/\/cryptopanic.com\/news\/15589963\/RT-mariusbreitweg-wlitidao-Everything-starts-from-a-dot",
            "created_at": "2022-06-23T11:22:56Z",
            "votes": {
                "negative": 0,
                "positive": 0,
                "important": 0,
                "liked": 0,
                "disliked": 0,
                "lol": 0,
                "toxic": 0,
                "saved": 0,
                "comments": 0
            }
        },
        {
            "kind": "news",
            "domain": "@wlitidao",
            "source": {
                "title": "wLitiDAO Twitter",
                "region": "en",
                "domain": "twitter.com",
                "path": "@wlitidao"
            },
            "title": "-Insert your favorite motivational quote-",
            "published_at": "2022-06-22T18:59:00Z",
            "slug": "-Insert-your-favorite-motivational-quote-",
            "currencies": [
                {
                    "code": "WLD",
                    "title": "wLitiDAO",
                    "slug": "wlitidao",
                    "url": "https:\/\/cryptopanic.com\/news\/wlitidao\/"
                }
            ],
            "id": 15579510,
            "url": "https:\/\/cryptopanic.com\/news\/15579510\/-Insert-your-favorite-motivational-quote-",
            "created_at": "2022-06-22T18:59:00Z",
            "votes": {
                "negative": 0,
                "positive": 0,
                "important": 0,
                "liked": 0,
                "disliked": 0,
                "lol": 0,
                "toxic": 0,
                "saved": 0,
                "comments": 0
            }
        }
    ]
}
