{
    "count": 200,
    "next": "https:\/\/cryptopanic.com\/api\/v1\/posts\/?auth_token=01c356e89ffc1b8eba2127c81fc8c66ee0eace75&kind=news&currencies=BLZ&page=2",
    "previous": null,
    "results": [
        {
            "kind": "news",
            "domain": "@BluzelleHQ",
            "source": {
                "title": "Bluzelle Twitter",
                "region": "en",
                "domain": "twitter.com",
                "path": "@bluzellehq"
            },
            "title": "\u23f0 The #GAMMA4 Discord Invite Contest is ongoing!\n\n Hop in now! Immerse yourself in our buzzing GAMMA 4 Discord Ch\u2026",
            "published_at": "2023-07-11T12:16:06Z",
            "slug": "The-GAMMA4-Discord-Invite-Contest-is-ongoing-Hop-in-now-Immerse-yourself-in-our-buzzing-GAMMA-4-Discord-Ch",
            "currencies": [
                {
                    "code": "BLZ",
                    "title": "Bluzelle",
                    "slug": "bluzelle",
                    "url": "https:\/\/cryptopanic.com\/news\/bluzelle\/"
                }
            ],
            "id": 18763063,
            "url": "https:\/\/cryptopanic.com\/news\/18763063\/The-GAMMA4-Discord-Invite-Contest-is-ongoing-Hop-in-now-Immerse-yourself-in-our-buzzing-GAMMA-4-Discord-Ch",
            "created_at": "2023-07-11T12:16:06Z",
            "votes": {
                "negative": 0,
                "positive": 0,
                "important": 0,
                "liked": 0,
                "disliked": 0,
                "lol": 0,
                "toxic": 0,
                "saved": 0,
                "comments": 0
            }
        },
        {
            "kind": "news",
            "domain": "@BluzelleHQ",
            "source": {
                "title": "Bluzelle Twitter",
                "region": "en",
                "domain": "twitter.com",
                "path": "@bluzellehq"
            },
            "title": "\ufe0f Beyond the stars, the adventure of new horizons awaits. Take a venture beyond the known space. \n\n\ufe0f Welcome to\u2026",
            "published_at": "2023-07-10T12:32:40Z",
            "slug": "Beyond-the-stars-the-adventure-of-new-horizons-awaits-Take-a-venture-beyond-the-known-space-Welcome-to",
            "currencies": [
                {
                    "code": "BLZ",
                    "title": "Bluzelle",
                    "slug": "bluzelle",
                    "url": "https:\/\/cryptopanic.com\/news\/bluzelle\/"
                }
            ],
            "id": 18754894,
            "url": "https:\/\/cryptopanic.com\/news\/18754894\/Beyond-the-stars-the-adventure-of-new-horizons-awaits-Take-a-venture-beyond-the-known-space-Welcome-to",
            "created_at": "2023-07-10T12:32:40Z",
            "votes": {
                "negative": 0,
                "positive": 0,
                "important": 0,
                "liked": 0,
                "disliked": 0,
                "lol": 0,
                "toxic": 0,
                "saved": 0,
                "comments": 0
            }
        },
        {
            "kind": "news",
            "domain": "@BluzelleHQ",
            "source": {
                "title": "Bluzelle Twitter",
                "region": "en",
                "domain": "twitter.com",
                "path": "@bluzellehq"
            },
            "title": "Which blockchain feature excites you the most in the context of #GameFi? ",
            "published_at": "2023-07-07T13:17:16Z",
            "slug": "Which-blockchain-feature-excites-you-the-most-in-the-context-of-GameFi",
            "currencies": [
                {
                    "code": "BLZ",
                    "title": "Bluzelle",
                    "slug": "bluzelle",
                    "url": "https:\/\/cryptopanic.com\/news\/bluzelle\/"
                }
            ],
            "id": 18739112,
            "url": "https:\/\/cryptopanic.com\/news\/18739112\/Which-blockchain-feature-excites-you-the-most-in-the-context-of-GameFi",
            "created_at": "2023-07-07T13:17:16Z",
            "votes": {
                "negative": 0,
                "positive": 0,
                "important": 0,
                "liked": 0,
                "disliked": 0,
                "lol": 0,
                "toxic": 0,
                "saved": 0,
                "comments": 0
            }
        },
        {
            "kind": "news",
            "domain": "@BluzelleHQ",
            "source": {
                "title": "Bluzelle Twitter",
                "region": "en",
                "domain": "twitter.com",
                "path": "@bluzellehq"
            },
            "title": "#Bluzelle x @CryptoVIPSignal Voice #AMA is LIVE now on Telegram!\n\n Reward pool: $500 in $BLZ\n\n Join the AMA sessi\u2026",
            "published_at": "2023-07-07T11:02:19Z",
            "slug": "Bluzelle-x-CryptoVIPSignal-Voice-AMA-is-LIVE-now-on-Telegram-Reward-pool-500-in-BLZ-Join-the-AMA-sessi",
            "currencies": [
                {
                    "code": "BLZ",
                    "title": "Bluzelle",
                    "slug": "bluzelle",
                    "url": "https:\/\/cryptopanic.com\/news\/bluzelle\/"
                }
            ],
            "id": 18739113,
            "url": "https:\/\/cryptopanic.com\/news\/18739113\/Bluzelle-x-CryptoVIPSignal-Voice-AMA-is-LIVE-now-on-Telegram-Reward-pool-500-in-BLZ-Join-the-AMA-sessi",
            "created_at": "2023-07-07T11:02:19Z",
            "votes": {
                "negative": 0,
                "positive": 0,
                "important": 0,
                "liked": 0,
                "disliked": 0,
                "lol": 0,
                "toxic": 0,
                "saved": 0,
                "comments": 0
            }
        },
        {
            "kind": "news",
            "domain": "@BluzelleHQ",
            "source": {
                "title": "Bluzelle Twitter",
                "region": "en",
                "domain": "twitter.com",
                "path": "@bluzellehq"
            },
            "title": " 20 Minutes to go for the #Bluzelle x @CryptoVIPSignal Voice AMA!\n\nDon't miss the chance to grab your share of $50\u2026",
            "published_at": "2023-07-07T10:40:06Z",
            "slug": "20-Minutes-to-go-for-the-Bluzelle-x-CryptoVIPSignal-Voice-AMA-Dont-miss-the-chance-to-grab-your-share-of-50",
            "currencies": [
                {
                    "code": "BLZ",
                    "title": "Bluzelle",
                    "slug": "bluzelle",
                    "url": "https:\/\/cryptopanic.com\/news\/bluzelle\/"
                }
            ],
            "id": 18739114,
            "url": "https:\/\/cryptopanic.com\/news\/18739114\/20-Minutes-to-go-for-the-Bluzelle-x-CryptoVIPSignal-Voice-AMA-Dont-miss-the-chance-to-grab-your-share-of-50",
            "created_at": "2023-07-07T10:40:06Z",
            "votes": {
                "negative": 0,
                "positive": 0,
                "important": 0,
                "liked": 0,
                "disliked": 0,
                "lol": 0,
                "toxic": 0,
                "saved": 0,
                "comments": 0
            }
        },
        {
            "kind": "news",
            "domain": "@BluzelleHQ",
            "source": {
                "title": "Bluzelle Twitter",
                "region": "en",
                "domain": "twitter.com",
                "path": "@bluzellehq"
            },
            "title": " Ready for a new era of #Web3 gaming? Enter @BluzelleHQ, an advanced L1 #blockchain Bringing #GameFi on @Cosmos w\u2026",
            "published_at": "2023-07-06T14:36:48Z",
            "slug": "Ready-for-a-new-era-of-Web3-gaming-Enter-BluzelleHQ-an-advanced-L1-blockchain-Bringing-GameFi-on-Cosmos-w",
            "currencies": [
                {
                    "code": "BLZ",
                    "title": "Bluzelle",
                    "slug": "bluzelle",
                    "url": "https:\/\/cryptopanic.com\/news\/bluzelle\/"
                }
            ],
            "id": 18731284,
            "url": "https:\/\/cryptopanic.com\/news\/18731284\/Ready-for-a-new-era-of-Web3-gaming-Enter-BluzelleHQ-an-advanced-L1-blockchain-Bringing-GameFi-on-Cosmos-w",
            "created_at": "2023-07-06T14:36:48Z",
            "votes": {
                "negative": 0,
                "positive": 0,
                "important": 0,
                "liked": 0,
                "disliked": 0,
                "lol": 0,
                "toxic": 0,
                "saved": 0,
                "comments": 0
            }
        },
        {
            "kind": "news",
            "domain": "@BluzelleHQ",
            "source": {
                "title": "Bluzelle Twitter",
                "region": "en",
                "domain": "twitter.com",
                "path": "@bluzellehq"
            },
            "title": "1\/ \u200dTune in for #Bluzelle x @CryptoVIPSignal AMA as our CEO, @pavelbains, will share insights into Bluzelle\u2019s L1\u2026",
            "published_at": "2023-07-06T09:52:13Z",
            "slug": "1-Tune-in-for-Bluzelle-x-CryptoVIPSignal-AMA-as-our-CEO-pavelbains-will-share-insights-into-Bluzelles-L1",
            "currencies": [
                {
                    "code": "BLZ",
                    "title": "Bluzelle",
                    "slug": "bluzelle",
                    "url": "https:\/\/cryptopanic.com\/news\/bluzelle\/"
                }
            ],
            "id": 18731285,
            "url": "https:\/\/cryptopanic.com\/news\/18731285\/1-Tune-in-for-Bluzelle-x-CryptoVIPSignal-AMA-as-our-CEO-pavelbains-will-share-insights-into-Bluzelles-L1",
            "created_at": "2023-07-06T09:52:13Z",
            "votes": {
                "negative": 0,
                "positive": 0,
                "important": 0,
                "liked": 0,
                "disliked": 0,
                "lol": 0,
                "toxic": 0,
                "saved": 0,
                "comments": 0
            }
        },
        {
            "kind": "news",
            "domain": "@BluzelleHQ",
            "source": {
                "title": "Bluzelle Twitter",
                "region": "en",
                "domain": "twitter.com",
                "path": "@bluzellehq"
            },
            "title": "RT @CryptoVIPsignal: We will host #Telegram Voice #AMA with @BluzelleHQ CEO @Pavelbains on 7th July.\nTop 6 questions gets 300$ in $BLZ\nSubm\u2026",
            "published_at": "2023-07-06T06:38:48Z",
            "slug": "RT-CryptoVIPsignal-We-will-host-Telegram-Voice-AMA-with-BluzelleHQ-CEO-Pavelbains-on-7th-July-Top-6-questions-gets-300-in-BLZ-Subm",
            "currencies": [
                {
                    "code": "BLZ",
                    "title": "Bluzelle",
                    "slug": "bluzelle",
                    "url": "https:\/\/cryptopanic.com\/news\/bluzelle\/"
                }
            ],
            "id": 18731286,
            "url": "https:\/\/cryptopanic.com\/news\/18731286\/RT-CryptoVIPsignal-We-will-host-Telegram-Voice-AMA-with-BluzelleHQ-CEO-Pavelbains-on-7th-July-Top-6-questions-gets-300-in-BLZ-Subm",
            "created_at": "2023-07-06T06:38:48Z",
            "votes": {
                "negative": 0,
                "positive": 0,
                "important": 0,
                "liked": 0,
                "disliked": 0,
                "lol": 0,
                "toxic": 0,
                "saved": 0,
                "comments": 0
            }
        },
        {
            "kind": "news",
            "domain": "@BluzelleHQ",
            "source": {
                "title": "Bluzelle Twitter",
                "region": "en",
                "domain": "twitter.com",
                "path": "@bluzellehq"
            },
            "title": "\ud83e\uddd1\u200d #GAMMA4 Discord Invite Contest!\n\nJoin GAMMA 4 Discord, the hive for gaming enthusiasts.\n\nHop in, engage in ch\u2026",
            "published_at": "2023-07-05T08:38:25Z",
            "slug": "GAMMA4-Discord-Invite-Contest-Join-GAMMA-4-Discord-the-hive-for-gaming-enthusiasts-Hop-in-engage-in-ch",
            "currencies": [
                {
                    "code": "BLZ",
                    "title": "Bluzelle",
                    "slug": "bluzelle",
                    "url": "https:\/\/cryptopanic.com\/news\/bluzelle\/"
                }
            ],
            "id": 18722690,
            "url": "https:\/\/cryptopanic.com\/news\/18722690\/GAMMA4-Discord-Invite-Contest-Join-GAMMA-4-Discord-the-hive-for-gaming-enthusiasts-Hop-in-engage-in-ch",
            "created_at": "2023-07-05T08:38:25Z",
            "votes": {
                "negative": 0,
                "positive": 0,
                "important": 0,
                "liked": 0,
                "disliked": 0,
                "lol": 0,
                "toxic": 0,
                "saved": 0,
                "comments": 0
            }
        },
        {
            "kind": "news",
            "domain": "@BluzelleHQ",
            "source": {
                "title": "Bluzelle Twitter",
                "region": "en",
                "domain": "twitter.com",
                "path": "@bluzellehq"
            },
            "title": "\ud83e\ude90 Buckle up, spacelings!  \n\n Meet Onno Ishimura, the \"Soother Archivist\" turned mutant warrior scribe of GAMMA 4,\u2026",
            "published_at": "2023-07-03T15:46:17Z",
            "slug": "Buckle-up-spacelings-Meet-Onno-Ishimura-the-Soother-Archivist-turned-mutant-warrior-scribe-of-GAMMA-4",
            "currencies": [
                {
                    "code": "BLZ",
                    "title": "Bluzelle",
                    "slug": "bluzelle",
                    "url": "https:\/\/cryptopanic.com\/news\/bluzelle\/"
                }
            ],
            "id": 18707787,
            "url": "https:\/\/cryptopanic.com\/news\/18707787\/Buckle-up-spacelings-Meet-Onno-Ishimura-the-Soother-Archivist-turned-mutant-warrior-scribe-of-GAMMA-4",
            "created_at": "2023-07-03T15:46:17Z",
            "votes": {
                "negative": 0,
                "positive": 0,
                "important": 0,
                "liked": 0,
                "disliked": 0,
                "lol": 0,
                "toxic": 0,
                "saved": 0,
                "comments": 0
            }
        },
        {
            "kind": "news",
            "domain": "@BluzelleHQ",
            "source": {
                "title": "Bluzelle Twitter",
                "region": "en",
                "domain": "twitter.com",
                "path": "@bluzellehq"
            },
            "title": "The right way to say GM \n\nJoin GAMMA 4 on Discord",
            "published_at": "2023-07-02T05:23:32Z",
            "slug": "The-right-way-to-say-GM-Join-GAMMA-4-on-Discord",
            "currencies": [
                {
                    "code": "BLZ",
                    "title": "Bluzelle",
                    "slug": "bluzelle",
                    "url": "https:\/\/cryptopanic.com\/news\/bluzelle\/"
                }
            ],
            "id": 18697973,
            "url": "https:\/\/cryptopanic.com\/news\/18697973\/The-right-way-to-say-GM-Join-GAMMA-4-on-Discord",
            "created_at": "2023-07-02T05:23:32Z",
            "votes": {
                "negative": 0,
                "positive": 0,
                "important": 0,
                "liked": 0,
                "disliked": 0,
                "lol": 0,
                "toxic": 0,
                "saved": 0,
                "comments": 0
            }
        },
        {
            "kind": "news",
            "domain": "@BluzelleHQ",
            "source": {
                "title": "Bluzelle Twitter",
                "region": "en",
                "domain": "twitter.com",
                "path": "@bluzellehq"
            },
            "title": " Prepare to face the heat in GAMMA 4's Desert Arena! \n\nMaster the art of tactical card combat amidst the dunes and\u2026",
            "published_at": "2023-06-30T14:47:34Z",
            "slug": "Prepare-to-face-the-heat-in-GAMMA-4s-Desert-Arena-Master-the-art-of-tactical-card-combat-amidst-the-dunes-and",
            "currencies": [
                {
                    "code": "BLZ",
                    "title": "Bluzelle",
                    "slug": "bluzelle",
                    "url": "https:\/\/cryptopanic.com\/news\/bluzelle\/"
                }
            ],
            "id": 18692276,
            "url": "https:\/\/cryptopanic.com\/news\/18692276\/Prepare-to-face-the-heat-in-GAMMA-4s-Desert-Arena-Master-the-art-of-tactical-card-combat-amidst-the-dunes-and",
            "created_at": "2023-06-30T14:47:34Z",
            "votes": {
                "negative": 0,
                "positive": 0,
                "important": 0,
                "liked": 0,
                "disliked": 0,
                "lol": 0,
                "toxic": 0,
                "saved": 0,
                "comments": 0
            }
        },
        {
            "kind": "news",
            "domain": "@BluzelleHQ",
            "source": {
                "title": "Bluzelle Twitter",
                "region": "en",
                "domain": "twitter.com",
                "path": "@bluzellehq"
            },
            "title": " Calling All Gamers to come &amp; chill at the GAMMA 4 Discord channel.\n\n Catch the latest news &amp; updates, exclusive\u2026",
            "published_at": "2023-06-29T17:44:08Z",
            "slug": "Calling-All-Gamers-to-come-amp-chill-at-the-GAMMA-4-Discord-channel-Catch-the-latest-news-amp-updates-exclusive",
            "currencies": [
                {
                    "code": "BLZ",
                    "title": "Bluzelle",
                    "slug": "bluzelle",
                    "url": "https:\/\/cryptopanic.com\/news\/bluzelle\/"
                }
            ],
            "id": 18684294,
            "url": "https:\/\/cryptopanic.com\/news\/18684294\/Calling-All-Gamers-to-come-amp-chill-at-the-GAMMA-4-Discord-channel-Catch-the-latest-news-amp-updates-exclusive",
            "created_at": "2023-06-29T17:44:08Z",
            "votes": {
                "negative": 0,
                "positive": 0,
                "important": 0,
                "liked": 0,
                "disliked": 0,
                "lol": 0,
                "toxic": 0,
                "saved": 0,
                "comments": 0
            }
        },
        {
            "kind": "news",
            "domain": "@BluzelleHQ",
            "source": {
                "title": "Bluzelle Twitter",
                "region": "en",
                "domain": "twitter.com",
                "path": "@bluzellehq"
            },
            "title": " How would you describe #Bluzelle's Stargate upgrade in one word?",
            "published_at": "2023-06-28T10:43:14Z",
            "slug": "How-would-you-describe-Bluzelles-Stargate-upgrade-in-one-word",
            "currencies": [
                {
                    "code": "BLZ",
                    "title": "Bluzelle",
                    "slug": "bluzelle",
                    "url": "https:\/\/cryptopanic.com\/news\/bluzelle\/"
                }
            ],
            "id": 18676221,
            "url": "https:\/\/cryptopanic.com\/news\/18676221\/How-would-you-describe-Bluzelles-Stargate-upgrade-in-one-word",
            "created_at": "2023-06-28T10:43:14Z",
            "votes": {
                "negative": 0,
                "positive": 0,
                "important": 0,
                "liked": 0,
                "disliked": 0,
                "lol": 0,
                "toxic": 0,
                "saved": 0,
                "comments": 0
            }
        },
        {
            "kind": "news",
            "domain": "@BluzelleHQ",
            "source": {
                "title": "Bluzelle Twitter",
                "region": "en",
                "domain": "twitter.com",
                "path": "@bluzellehq"
            },
            "title": " Enter #Bluzelle's GameFi ecosystem.\n\n Discover a world of high-quality games, secure your #NFT treasures, and ha\u2026",
            "published_at": "2023-06-27T16:46:16Z",
            "slug": "Enter-Bluzelles-GameFi-ecosystem-Discover-a-world-of-high-quality-games-secure-your-NFT-treasures-and-ha",
            "currencies": [
                {
                    "code": "BLZ",
                    "title": "Bluzelle",
                    "slug": "bluzelle",
                    "url": "https:\/\/cryptopanic.com\/news\/bluzelle\/"
                }
            ],
            "id": 18667996,
            "url": "https:\/\/cryptopanic.com\/news\/18667996\/Enter-Bluzelles-GameFi-ecosystem-Discover-a-world-of-high-quality-games-secure-your-NFT-treasures-and-ha",
            "created_at": "2023-06-27T16:46:16Z",
            "votes": {
                "negative": 0,
                "positive": 0,
                "important": 0,
                "liked": 0,
                "disliked": 0,
                "lol": 0,
                "toxic": 0,
                "saved": 0,
                "comments": 0
            }
        },
        {
            "kind": "news",
            "domain": "@BluzelleHQ",
            "source": {
                "title": "Bluzelle Twitter",
                "region": "en",
                "domain": "twitter.com",
                "path": "@bluzellehq"
            },
            "title": "(1\/3)  #ICYMI We've recently released a comprehensive guide on how to convert ERC20-BLZ to L1-BLZ and vice versa!\u2026",
            "published_at": "2023-06-26T16:39:27Z",
            "slug": "13-ICYMI-Weve-recently-released-a-comprehensive-guide-on-how-to-convert-ERC20-BLZ-to-L1-BLZ-and-vice-versa",
            "currencies": [
                {
                    "code": "BLZ",
                    "title": "Bluzelle",
                    "slug": "bluzelle",
                    "url": "https:\/\/cryptopanic.com\/news\/bluzelle\/"
                }
            ],
            "id": 18659733,
            "url": "https:\/\/cryptopanic.com\/news\/18659733\/13-ICYMI-Weve-recently-released-a-comprehensive-guide-on-how-to-convert-ERC20-BLZ-to-L1-BLZ-and-vice-versa",
            "created_at": "2023-06-26T16:39:27Z",
            "votes": {
                "negative": 0,
                "positive": 0,
                "important": 0,
                "liked": 0,
                "disliked": 0,
                "lol": 0,
                "toxic": 0,
                "saved": 0,
                "comments": 0
            }
        },
        {
            "kind": "news",
            "domain": "@BluzelleHQ",
            "source": {
                "title": "Bluzelle Twitter",
                "region": "en",
                "domain": "twitter.com",
                "path": "@bluzellehq"
            },
            "title": "#Bluzelle's Stargate upgrade brings a world of possibilities.\n\nExperience high-quality games, secure NFT protection\u2026",
            "published_at": "2023-06-24T16:40:43Z",
            "slug": "Bluzelles-Stargate-upgrade-brings-a-world-of-possibilities-Experience-high-quality-games-secure-NFT-protection",
            "currencies": [
                {
                    "code": "BLZ",
                    "title": "Bluzelle",
                    "slug": "bluzelle",
                    "url": "https:\/\/cryptopanic.com\/news\/bluzelle\/"
                }
            ],
            "id": 18649437,
            "url": "https:\/\/cryptopanic.com\/news\/18649437\/Bluzelles-Stargate-upgrade-brings-a-world-of-possibilities-Experience-high-quality-games-secure-NFT-protection",
            "created_at": "2023-06-24T16:40:43Z",
            "votes": {
                "negative": 0,
                "positive": 0,
                "important": 0,
                "liked": 0,
                "disliked": 0,
                "lol": 0,
                "toxic": 0,
                "saved": 0,
                "comments": 0
            }
        },
        {
            "kind": "news",
            "domain": "@BluzelleHQ",
            "source": {
                "title": "Bluzelle Twitter",
                "region": "en",
                "domain": "twitter.com",
                "path": "@bluzellehq"
            },
            "title": " Ready for some high-yield action? The $BLZ\/$USDC pool on Osmosis is live and running!\n\n Stake now and enjoy a hi\u2026",
            "published_at": "2023-06-23T09:46:02Z",
            "slug": "Ready-for-some-high-yield-action-The-BLZUSDC-pool-on-Osmosis-is-live-and-running-Stake-now-and-enjoy-a-hi",
            "currencies": [
                {
                    "code": "BLZ",
                    "title": "Bluzelle",
                    "slug": "bluzelle",
                    "url": "https:\/\/cryptopanic.com\/news\/bluzelle\/"
                }
            ],
            "id": 18643375,
            "url": "https:\/\/cryptopanic.com\/news\/18643375\/Ready-for-some-high-yield-action-The-BLZUSDC-pool-on-Osmosis-is-live-and-running-Stake-now-and-enjoy-a-hi",
            "created_at": "2023-06-23T09:46:02Z",
            "votes": {
                "negative": 0,
                "positive": 0,
                "important": 0,
                "liked": 0,
                "disliked": 0,
                "lol": 0,
                "toxic": 0,
                "saved": 0,
                "comments": 0
            }
        },
        {
            "kind": "news",
            "domain": "@BluzelleHQ",
            "source": {
                "title": "Bluzelle Twitter",
                "region": "en",
                "domain": "twitter.com",
                "path": "@bluzellehq"
            },
            "title": " Gaming + Storage + DeFi + NFT = @BluzelleHQ! \n\nElevate your gaming experience with #Bluzelle's innovative blockc\u2026",
            "published_at": "2023-06-22T17:16:27Z",
            "slug": "Gaming-Storage-DeFi-NFT-BluzelleHQ-Elevate-your-gaming-experience-with-Bluzelles-innovative-blockc",
            "currencies": [
                {
                    "code": "BLZ",
                    "title": "Bluzelle",
                    "slug": "bluzelle",
                    "url": "https:\/\/cryptopanic.com\/news\/bluzelle\/"
                }
            ],
            "id": 18635503,
            "url": "https:\/\/cryptopanic.com\/news\/18635503\/Gaming-Storage-DeFi-NFT-BluzelleHQ-Elevate-your-gaming-experience-with-Bluzelles-innovative-blockc",
            "created_at": "2023-06-22T17:16:27Z",
            "votes": {
                "negative": 0,
                "positive": 0,
                "important": 0,
                "liked": 0,
                "disliked": 0,
                "lol": 0,
                "toxic": 0,
                "saved": 0,
                "comments": 0
            }
        },
        {
            "kind": "news",
            "domain": "@BluzelleHQ",
            "source": {
                "title": "Bluzelle Twitter",
                "region": "en",
                "domain": "twitter.com",
                "path": "@bluzellehq"
            },
            "title": "Whose launch are you most excited about?",
            "published_at": "2023-06-21T10:43:16Z",
            "slug": "Whose-launch-are-you-most-excited-about",
            "currencies": [
                {
                    "code": "BLZ",
                    "title": "Bluzelle",
                    "slug": "bluzelle",
                    "url": "https:\/\/cryptopanic.com\/news\/bluzelle\/"
                }
            ],
            "id": 18626848,
            "url": "https:\/\/cryptopanic.com\/news\/18626848\/Whose-launch-are-you-most-excited-about",
            "created_at": "2023-06-21T10:43:16Z",
            "votes": {
                "negative": 0,
                "positive": 0,
                "important": 0,
                "liked": 0,
                "disliked": 0,
                "lol": 0,
                "toxic": 0,
                "saved": 0,
                "comments": 0
            }
        }
    ]
}
