{
    "count": 200,
    "next": "https:\/\/cryptopanic.com\/api\/v1\/posts\/?auth_token=01c356e89ffc1b8eba2127c81fc8c66ee0eace75&kind=news&currencies=SSV&page=2",
    "previous": null,
    "results": [
        {
            "kind": "news",
            "domain": "@ssv_network",
            "source": {
                "title": "SSV Network Twitter",
                "region": "en",
                "domain": "twitter.com",
                "path": "@ssv_network"
            },
            "title": "1\/ The Ethereum network is about to achieve quite an impressive metric. Nearly 20% of the Eth supply will be staked\u2026",
            "published_at": "2023-07-09T12:30:36Z",
            "slug": "1-The-Ethereum-network-is-about-to-achieve-quite-an-impressive-metric-Nearly-20-of-the-Eth-supply-will-be-staked",
            "currencies": [
                {
                    "code": "SSV",
                    "title": "SSV Network",
                    "slug": "ssv-network",
                    "url": "https:\/\/cryptopanic.com\/news\/ssv-network\/"
                }
            ],
            "id": 18751305,
            "url": "https:\/\/cryptopanic.com\/news\/18751305\/1-The-Ethereum-network-is-about-to-achieve-quite-an-impressive-metric-Nearly-20-of-the-Eth-supply-will-be-staked",
            "created_at": "2023-07-09T12:30:36Z",
            "votes": {
                "negative": 0,
                "positive": 0,
                "important": 0,
                "liked": 0,
                "disliked": 0,
                "lol": 0,
                "toxic": 0,
                "saved": 0,
                "comments": 0
            }
        },
        {
            "kind": "news",
            "domain": "@ssv_network",
            "source": {
                "title": "SSV Network Twitter",
                "region": "en",
                "domain": "twitter.com",
                "path": "@ssv_network"
            },
            "title": "Did you know we have a weekly discussion panel with our host, Shaun?\ud83e\uddd1\u200d\n\nEach week, Shaun interacts with the commun\u2026",
            "published_at": "2023-07-09T11:06:01Z",
            "slug": "Did-you-know-we-have-a-weekly-discussion-panel-with-our-host-Shaun-Each-week-Shaun-interacts-with-the-commun",
            "currencies": [
                {
                    "code": "SSV",
                    "title": "SSV Network",
                    "slug": "ssv-network",
                    "url": "https:\/\/cryptopanic.com\/news\/ssv-network\/"
                }
            ],
            "id": 18751306,
            "url": "https:\/\/cryptopanic.com\/news\/18751306\/Did-you-know-we-have-a-weekly-discussion-panel-with-our-host-Shaun-Each-week-Shaun-interacts-with-the-commun",
            "created_at": "2023-07-09T11:06:01Z",
            "votes": {
                "negative": 0,
                "positive": 0,
                "important": 0,
                "liked": 0,
                "disliked": 0,
                "lol": 0,
                "toxic": 0,
                "saved": 0,
                "comments": 0
            }
        },
        {
            "kind": "news",
            "domain": "@ssv_network",
            "source": {
                "title": "SSV Network Twitter",
                "region": "en",
                "domain": "twitter.com",
                "path": "@ssv_network"
            },
            "title": "Want to get involved in the #SSV ecosystem and reshape the future of #staking?\ufe0f\n\nIf so, run an SSV node! Our docum\u2026",
            "published_at": "2023-07-07T15:27:19Z",
            "slug": "Want-to-get-involved-in-the-SSV-ecosystem-and-reshape-the-future-of-staking-If-so-run-an-SSV-node-Our-docum",
            "currencies": [
                {
                    "code": "SSV",
                    "title": "SSV Network",
                    "slug": "ssv-network",
                    "url": "https:\/\/cryptopanic.com\/news\/ssv-network\/"
                }
            ],
            "id": 18742331,
            "url": "https:\/\/cryptopanic.com\/news\/18742331\/Want-to-get-involved-in-the-SSV-ecosystem-and-reshape-the-future-of-staking-If-so-run-an-SSV-node-Our-docum",
            "created_at": "2023-07-07T15:27:19Z",
            "votes": {
                "negative": 0,
                "positive": 0,
                "important": 0,
                "liked": 0,
                "disliked": 0,
                "lol": 0,
                "toxic": 0,
                "saved": 0,
                "comments": 0
            }
        },
        {
            "kind": "news",
            "domain": "@ssv_network",
            "source": {
                "title": "SSV Network Twitter",
                "region": "en",
                "domain": "twitter.com",
                "path": "@ssv_network"
            },
            "title": "RT @P2Pvalidator: We\u2019re excited to announce that on Wednesday, 19th July, we will host our first side event at #EthCCParis 2023. \n\nWe wil\u2026",
            "published_at": "2023-07-06T18:23:05Z",
            "slug": "RT-P2Pvalidator-Were-excited-to-announce-that-on-Wednesday-19th-July-we-will-host-our-first-side-event-at-EthCCParis-2023-We-wil",
            "currencies": [
                {
                    "code": "SSV",
                    "title": "SSV Network",
                    "slug": "ssv-network",
                    "url": "https:\/\/cryptopanic.com\/news\/ssv-network\/"
                }
            ],
            "id": 18735077,
            "url": "https:\/\/cryptopanic.com\/news\/18735077\/RT-P2Pvalidator-Were-excited-to-announce-that-on-Wednesday-19th-July-we-will-host-our-first-side-event-at-EthCCParis-2023-We-wil",
            "created_at": "2023-07-06T18:23:05Z",
            "votes": {
                "negative": 0,
                "positive": 0,
                "important": 0,
                "liked": 0,
                "disliked": 0,
                "lol": 0,
                "toxic": 0,
                "saved": 0,
                "comments": 0
            }
        },
        {
            "kind": "news",
            "domain": "@ssv_network",
            "source": {
                "title": "SSV Network Twitter",
                "region": "en",
                "domain": "twitter.com",
                "path": "@ssv_network"
            },
            "title": "We're going to be at @EthCC, and @markoinether has set up a Telegram group for people to come meet us and chat! Joi\u2026",
            "published_at": "2023-07-06T15:06:49Z",
            "slug": "Were-going-to-be-at-EthCC-and-markoinether-has-set-up-a-Telegram-group-for-people-to-come-meet-us-and-chat-Joi",
            "currencies": [
                {
                    "code": "SSV",
                    "title": "SSV Network",
                    "slug": "ssv-network",
                    "url": "https:\/\/cryptopanic.com\/news\/ssv-network\/"
                }
            ],
            "id": 18735078,
            "url": "https:\/\/cryptopanic.com\/news\/18735078\/Were-going-to-be-at-EthCC-and-markoinether-has-set-up-a-Telegram-group-for-people-to-come-meet-us-and-chat-Joi",
            "created_at": "2023-07-06T15:06:49Z",
            "votes": {
                "negative": 0,
                "positive": 0,
                "important": 0,
                "liked": 0,
                "disliked": 0,
                "lol": 0,
                "toxic": 0,
                "saved": 0,
                "comments": 0
            }
        },
        {
            "kind": "news",
            "domain": "@ssv_network",
            "source": {
                "title": "SSV Network Twitter",
                "region": "en",
                "domain": "twitter.com",
                "path": "@ssv_network"
            },
            "title": "Friendly reminder that in 1 hour we'll start a session of AMA with Shaun, our Ecosystem Growth Manager. \ud83e\udd16\n\nTune in\u2026",
            "published_at": "2023-07-06T11:07:59Z",
            "slug": "Friendly-reminder-that-in-1-hour-well-start-a-session-of-AMA-with-Shaun-our-Ecosystem-Growth-Manager-Tune-in",
            "currencies": [
                {
                    "code": "SSV",
                    "title": "SSV Network",
                    "slug": "ssv-network",
                    "url": "https:\/\/cryptopanic.com\/news\/ssv-network\/"
                }
            ],
            "id": 18735079,
            "url": "https:\/\/cryptopanic.com\/news\/18735079\/Friendly-reminder-that-in-1-hour-well-start-a-session-of-AMA-with-Shaun-our-Ecosystem-Growth-Manager-Tune-in",
            "created_at": "2023-07-06T11:07:59Z",
            "votes": {
                "negative": 0,
                "positive": 0,
                "important": 0,
                "liked": 0,
                "disliked": 0,
                "lol": 0,
                "toxic": 0,
                "saved": 0,
                "comments": 0
            }
        },
        {
            "kind": "news",
            "domain": "@ssv_network",
            "source": {
                "title": "SSV Network Twitter",
                "region": "en",
                "domain": "twitter.com",
                "path": "@ssv_network"
            },
            "title": "Tune in to @AmMuroch at @eth_barcelona discussing Democratizing Ethereum: state of the art of distributed validatio\u2026",
            "published_at": "2023-07-06T10:39:37Z",
            "slug": "Tune-in-to-AmMuroch-at-eth_barcelona-discussing-Democratizing-Ethereum-state-of-the-art-of-distributed-validatio",
            "currencies": [
                {
                    "code": "SSV",
                    "title": "SSV Network",
                    "slug": "ssv-network",
                    "url": "https:\/\/cryptopanic.com\/news\/ssv-network\/"
                }
            ],
            "id": 18735080,
            "url": "https:\/\/cryptopanic.com\/news\/18735080\/Tune-in-to-AmMuroch-at-eth_barcelona-discussing-Democratizing-Ethereum-state-of-the-art-of-distributed-validatio",
            "created_at": "2023-07-06T10:39:37Z",
            "votes": {
                "negative": 0,
                "positive": 0,
                "important": 0,
                "liked": 0,
                "disliked": 0,
                "lol": 0,
                "toxic": 0,
                "saved": 0,
                "comments": 0
            }
        },
        {
            "kind": "news",
            "domain": "@ssv_network",
            "source": {
                "title": "SSV Network Twitter",
                "region": "en",
                "domain": "twitter.com",
                "path": "@ssv_network"
            },
            "title": "We have just released a new blog post on all things mainnet, our roadmap, and vision. We're incredibly excited to h\u2026",
            "published_at": "2023-07-05T09:00:52Z",
            "slug": "We-have-just-released-a-new-blog-post-on-all-things-mainnet-our-roadmap-and-vision-Were-incredibly-excited-to-h",
            "currencies": [
                {
                    "code": "SSV",
                    "title": "SSV Network",
                    "slug": "ssv-network",
                    "url": "https:\/\/cryptopanic.com\/news\/ssv-network\/"
                }
            ],
            "id": 18718547,
            "url": "https:\/\/cryptopanic.com\/news\/18718547\/We-have-just-released-a-new-blog-post-on-all-things-mainnet-our-roadmap-and-vision-Were-incredibly-excited-to-h",
            "created_at": "2023-07-05T09:00:52Z",
            "votes": {
                "negative": 0,
                "positive": 0,
                "important": 0,
                "liked": 0,
                "disliked": 0,
                "lol": 0,
                "toxic": 0,
                "saved": 0,
                "comments": 0
            }
        },
        {
            "kind": "news",
            "domain": "@ssv_network",
            "source": {
                "title": "SSV Network Twitter",
                "region": "en",
                "domain": "twitter.com",
                "path": "@ssv_network"
            },
            "title": ".@StaFi_Protocol wonderfully explained the enhancements it would gain following the integration of\u2026",
            "published_at": "2023-07-05T04:54:23Z",
            "slug": "StaFi_Protocol-wonderfully-explained-the-enhancements-it-would-gain-following-the-integration-of",
            "currencies": [
                {
                    "code": "SSV",
                    "title": "SSV Network",
                    "slug": "ssv-network",
                    "url": "https:\/\/cryptopanic.com\/news\/ssv-network\/"
                }
            ],
            "id": 18718548,
            "url": "https:\/\/cryptopanic.com\/news\/18718548\/StaFi_Protocol-wonderfully-explained-the-enhancements-it-would-gain-following-the-integration-of",
            "created_at": "2023-07-05T04:54:23Z",
            "votes": {
                "negative": 0,
                "positive": 0,
                "important": 0,
                "liked": 0,
                "disliked": 0,
                "lol": 0,
                "toxic": 0,
                "saved": 0,
                "comments": 0
            }
        },
        {
            "kind": "news",
            "domain": "@ssv_network",
            "source": {
                "title": "SSV Network Twitter",
                "region": "en",
                "domain": "twitter.com",
                "path": "@ssv_network"
            },
            "title": "Nothing quite great like 100% effectiveness on mainnet ",
            "published_at": "2023-07-04T14:28:16Z",
            "slug": "Nothing-quite-great-like-100-effectiveness-on-mainnet",
            "currencies": [
                {
                    "code": "SSV",
                    "title": "SSV Network",
                    "slug": "ssv-network",
                    "url": "https:\/\/cryptopanic.com\/news\/ssv-network\/"
                }
            ],
            "id": 18718549,
            "url": "https:\/\/cryptopanic.com\/news\/18718549\/Nothing-quite-great-like-100-effectiveness-on-mainnet",
            "created_at": "2023-07-04T14:28:16Z",
            "votes": {
                "negative": 0,
                "positive": 0,
                "important": 0,
                "liked": 0,
                "disliked": 0,
                "lol": 0,
                "toxic": 0,
                "saved": 0,
                "comments": 0
            }
        },
        {
            "kind": "news",
            "domain": "@ssv_network",
            "source": {
                "title": "SSV Network Twitter",
                "region": "en",
                "domain": "twitter.com",
                "path": "@ssv_network"
            },
            "title": "[1\\6]\ud83e\uddf5 We've just concluded our first Mainnet Call! \ud83e\udd73\n\nWe discussed the rollout of SSV network to mainnet and how e\u2026",
            "published_at": "2023-07-04T14:01:45Z",
            "slug": "16-Weve-just-concluded-our-first-Mainnet-Call-We-discussed-the-rollout-of-SSV-network-to-mainnet-and-how-e",
            "currencies": [
                {
                    "code": "SSV",
                    "title": "SSV Network",
                    "slug": "ssv-network",
                    "url": "https:\/\/cryptopanic.com\/news\/ssv-network\/"
                }
            ],
            "id": 18718550,
            "url": "https:\/\/cryptopanic.com\/news\/18718550\/16-Weve-just-concluded-our-first-Mainnet-Call-We-discussed-the-rollout-of-SSV-network-to-mainnet-and-how-e",
            "created_at": "2023-07-04T14:01:45Z",
            "votes": {
                "negative": 0,
                "positive": 0,
                "important": 0,
                "liked": 0,
                "disliked": 0,
                "lol": 0,
                "toxic": 0,
                "saved": 0,
                "comments": 0
            }
        },
        {
            "kind": "news",
            "domain": "@ssv_network",
            "source": {
                "title": "SSV Network Twitter",
                "region": "en",
                "domain": "twitter.com",
                "path": "@ssv_network"
            },
            "title": "Our Mainnet Call is now live on !\n\nSubsequently, our OAT on @Galxe has been updated with the\u2026",
            "published_at": "2023-07-04T13:01:25Z",
            "slug": "Our-Mainnet-Call-is-now-live-on-Subsequently-our-OAT-on-Galxe-has-been-updated-with-the",
            "currencies": [
                {
                    "code": "SSV",
                    "title": "SSV Network",
                    "slug": "ssv-network",
                    "url": "https:\/\/cryptopanic.com\/news\/ssv-network\/"
                }
            ],
            "id": 18718551,
            "url": "https:\/\/cryptopanic.com\/news\/18718551\/Our-Mainnet-Call-is-now-live-on-Subsequently-our-OAT-on-Galxe-has-been-updated-with-the",
            "created_at": "2023-07-04T13:01:25Z",
            "votes": {
                "negative": 0,
                "positive": 0,
                "important": 0,
                "liked": 0,
                "disliked": 0,
                "lol": 0,
                "toxic": 0,
                "saved": 0,
                "comments": 0
            }
        },
        {
            "kind": "news",
            "domain": "@ssv_network",
            "source": {
                "title": "SSV Network Twitter",
                "region": "en",
                "domain": "twitter.com",
                "path": "@ssv_network"
            },
            "title": "We're thrilled to announce that @AmMuroch, representing SSV, will attend @eth_barcelona, and will be among the key\u2026",
            "published_at": "2023-07-04T10:00:10Z",
            "slug": "Were-thrilled-to-announce-that-AmMuroch-representing-SSV-will-attend-eth_barcelona-and-will-be-among-the-key",
            "currencies": [
                {
                    "code": "SSV",
                    "title": "SSV Network",
                    "slug": "ssv-network",
                    "url": "https:\/\/cryptopanic.com\/news\/ssv-network\/"
                }
            ],
            "id": 18718552,
            "url": "https:\/\/cryptopanic.com\/news\/18718552\/Were-thrilled-to-announce-that-AmMuroch-representing-SSV-will-attend-eth_barcelona-and-will-be-among-the-key",
            "created_at": "2023-07-04T10:00:10Z",
            "votes": {
                "negative": 0,
                "positive": 0,
                "important": 0,
                "liked": 0,
                "disliked": 0,
                "lol": 0,
                "toxic": 0,
                "saved": 0,
                "comments": 0
            }
        },
        {
            "kind": "news",
            "domain": "@ssv_network",
            "source": {
                "title": "SSV Network Twitter",
                "region": "en",
                "domain": "twitter.com",
                "path": "@ssv_network"
            },
            "title": "24 hours to go! \n\nGet ready for SSV Network's Community Mainnet Call #1, which is happening tomorrow at 1 PM UTC!\u2026",
            "published_at": "2023-07-03T13:00:18Z",
            "slug": "24-hours-to-go-Get-ready-for-SSV-Networks-Community-Mainnet-Call-1-which-is-happening-tomorrow-at-1-PM-UTC",
            "currencies": [
                {
                    "code": "SSV",
                    "title": "SSV Network",
                    "slug": "ssv-network",
                    "url": "https:\/\/cryptopanic.com\/news\/ssv-network\/"
                }
            ],
            "id": 18711478,
            "url": "https:\/\/cryptopanic.com\/news\/18711478\/24-hours-to-go-Get-ready-for-SSV-Networks-Community-Mainnet-Call-1-which-is-happening-tomorrow-at-1-PM-UTC",
            "created_at": "2023-07-03T13:00:18Z",
            "votes": {
                "negative": 0,
                "positive": 0,
                "important": 0,
                "liked": 0,
                "disliked": 0,
                "lol": 0,
                "toxic": 0,
                "saved": 0,
                "comments": 0
            }
        },
        {
            "kind": "news",
            "domain": "@ssv_network",
            "source": {
                "title": "SSV Network Twitter",
                "region": "en",
                "domain": "twitter.com",
                "path": "@ssv_network"
            },
            "title": "We're launching our first @Galxe campaign \ud83e\udd73\n\nThis will allow us to track participation and loyalty within our commu\u2026",
            "published_at": "2023-07-02T15:09:18Z",
            "slug": "Were-launching-our-first-Galxe-campaign-This-will-allow-us-to-track-participation-and-loyalty-within-our-commu",
            "currencies": [
                {
                    "code": "SSV",
                    "title": "SSV Network",
                    "slug": "ssv-network",
                    "url": "https:\/\/cryptopanic.com\/news\/ssv-network\/"
                }
            ],
            "id": 18704339,
            "url": "https:\/\/cryptopanic.com\/news\/18704339\/Were-launching-our-first-Galxe-campaign-This-will-allow-us-to-track-participation-and-loyalty-within-our-commu",
            "created_at": "2023-07-02T15:09:18Z",
            "votes": {
                "negative": 0,
                "positive": 0,
                "important": 0,
                "liked": 0,
                "disliked": 0,
                "lol": 0,
                "toxic": 0,
                "saved": 0,
                "comments": 0
            }
        },
        {
            "kind": "news",
            "domain": "@ssv_network",
            "source": {
                "title": "SSV Network Twitter",
                "region": "en",
                "domain": "twitter.com",
                "path": "@ssv_network"
            },
            "title": "We are delighted to welcome @meta_pool to the family! \ud83e\udd16\n\nWith this integration, Meta Pool'\u2026",
            "published_at": "2023-07-01T17:44:02Z",
            "slug": "We-are-delighted-to-welcome-meta_pool-to-the-family-With-this-integration-Meta-Pool",
            "currencies": [
                {
                    "code": "SSV",
                    "title": "SSV Network",
                    "slug": "ssv-network",
                    "url": "https:\/\/cryptopanic.com\/news\/ssv-network\/"
                }
            ],
            "id": 18699967,
            "url": "https:\/\/cryptopanic.com\/news\/18699967\/We-are-delighted-to-welcome-meta_pool-to-the-family-With-this-integration-Meta-Pool",
            "created_at": "2023-07-01T17:44:02Z",
            "votes": {
                "negative": 0,
                "positive": 0,
                "important": 0,
                "liked": 0,
                "disliked": 0,
                "lol": 0,
                "toxic": 0,
                "saved": 0,
                "comments": 0
            }
        },
        {
            "kind": "news",
            "domain": "@ssv_network",
            "source": {
                "title": "SSV Network Twitter",
                "region": "en",
                "domain": "twitter.com",
                "path": "@ssv_network"
            },
            "title": "We're pleased to have @StaFi_Protocol integrate #SSV to their staking architecture!\n\nFollowing this integration, St\u2026",
            "published_at": "2023-06-30T13:27:43Z",
            "slug": "Were-pleased-to-have-StaFi_Protocol-integrate-SSV-to-their-staking-architecture-Following-this-integration-St",
            "currencies": [
                {
                    "code": "SSV",
                    "title": "SSV Network",
                    "slug": "ssv-network",
                    "url": "https:\/\/cryptopanic.com\/news\/ssv-network\/"
                }
            ],
            "id": 18695541,
            "url": "https:\/\/cryptopanic.com\/news\/18695541\/Were-pleased-to-have-StaFi_Protocol-integrate-SSV-to-their-staking-architecture-Following-this-integration-St",
            "created_at": "2023-06-30T13:27:43Z",
            "votes": {
                "negative": 0,
                "positive": 0,
                "important": 0,
                "liked": 0,
                "disliked": 0,
                "lol": 0,
                "toxic": 0,
                "saved": 0,
                "comments": 0
            }
        },
        {
            "kind": "news",
            "domain": "@ssv_network",
            "source": {
                "title": "SSV Network Twitter",
                "region": "en",
                "domain": "twitter.com",
                "path": "@ssv_network"
            },
            "title": "Will @VitalikButerin finally stake his ETH ?\n\nCheck out the lasted @BanklessHQ panel (min 29)\n\nVitalik: \"If you sta\u2026",
            "published_at": "2023-06-30T10:28:37Z",
            "slug": "Will-VitalikButerin-finally-stake-his-ETH-Check-out-the-lasted-BanklessHQ-panel-min-29-Vitalik-If-you-sta",
            "currencies": [
                {
                    "code": "SSV",
                    "title": "SSV Network",
                    "slug": "ssv-network",
                    "url": "https:\/\/cryptopanic.com\/news\/ssv-network\/"
                }
            ],
            "id": 18695542,
            "url": "https:\/\/cryptopanic.com\/news\/18695542\/Will-VitalikButerin-finally-stake-his-ETH-Check-out-the-lasted-BanklessHQ-panel-min-29-Vitalik-If-you-sta",
            "created_at": "2023-06-30T10:28:37Z",
            "votes": {
                "negative": 0,
                "positive": 0,
                "important": 0,
                "liked": 0,
                "disliked": 0,
                "lol": 0,
                "toxic": 0,
                "saved": 0,
                "comments": 0
            }
        },
        {
            "kind": "news",
            "domain": "@ssv_network",
            "source": {
                "title": "SSV Network Twitter",
                "region": "en",
                "domain": "twitter.com",
                "path": "@ssv_network"
            },
            "title": "If you're a visual learner, you might want to check this tutorial out from @markoinether, explaining how to easily\u2026",
            "published_at": "2023-06-29T16:56:32Z",
            "slug": "If-youre-a-visual-learner-you-might-want-to-check-this-tutorial-out-from-markoinether-explaining-how-to-easily",
            "currencies": [
                {
                    "code": "SSV",
                    "title": "SSV Network",
                    "slug": "ssv-network",
                    "url": "https:\/\/cryptopanic.com\/news\/ssv-network\/"
                }
            ],
            "id": 18688108,
            "url": "https:\/\/cryptopanic.com\/news\/18688108\/If-youre-a-visual-learner-you-might-want-to-check-this-tutorial-out-from-markoinether-explaining-how-to-easily",
            "created_at": "2023-06-29T16:56:32Z",
            "votes": {
                "negative": 0,
                "positive": 0,
                "important": 0,
                "liked": 0,
                "disliked": 0,
                "lol": 0,
                "toxic": 0,
                "saved": 0,
                "comments": 0
            }
        },
        {
            "kind": "news",
            "domain": "@ssv_network",
            "source": {
                "title": "SSV Network Twitter",
                "region": "en",
                "domain": "twitter.com",
                "path": "@ssv_network"
            },
            "title": "Mark your calendars, because we have a big day ahead! \ufe0f\u25b6\ufe0f\n\nOur Mainnet Call goes live on July 4th, 1:00 PM UTC.\n\nW\u2026",
            "published_at": "2023-06-29T11:20:53Z",
            "slug": "Mark-your-calendars-because-we-have-a-big-day-ahead-Our-Mainnet-Call-goes-live-on-July-4th-100-PM-UTC-W",
            "currencies": [
                {
                    "code": "SSV",
                    "title": "SSV Network",
                    "slug": "ssv-network",
                    "url": "https:\/\/cryptopanic.com\/news\/ssv-network\/"
                }
            ],
            "id": 18688109,
            "url": "https:\/\/cryptopanic.com\/news\/18688109\/Mark-your-calendars-because-we-have-a-big-day-ahead-Our-Mainnet-Call-goes-live-on-July-4th-100-PM-UTC-W",
            "created_at": "2023-06-29T11:20:53Z",
            "votes": {
                "negative": 0,
                "positive": 0,
                "important": 0,
                "liked": 0,
                "disliked": 0,
                "lol": 0,
                "toxic": 0,
                "saved": 0,
                "comments": 0
            }
        }
    ]
}
