{
    "count": 200,
    "next": "https:\/\/cryptopanic.com\/api\/v1\/posts\/?auth_token=01c356e89ffc1b8eba2127c81fc8c66ee0eace75&kind=news&currencies=CELR&page=2",
    "previous": null,
    "results": [
        {
            "kind": "news",
            "domain": "@CelerNetwork",
            "source": {
                "title": "Celer Network Twitter",
                "region": "en",
                "domain": "twitter.com",
                "path": "@celernetwork"
            },
            "title": "\ud83c\uddeb\ud83c\uddf7Bonjour, Paris! \ud83c\uddeb\ud83c\uddf7 Let's rendezvous at #EthCC!\nCeler is thrilled to be sharing insights, hosting talks, and engag\u2026",
            "published_at": "2023-07-12T02:53:35Z",
            "slug": "Bonjour-Paris-Lets-rendezvous-at-EthCC-Celer-is-thrilled-to-be-sharing-insights-hosting-talks-and-engag",
            "currencies": [
                {
                    "code": "CELR",
                    "title": "Celer Network",
                    "slug": "celer-network",
                    "url": "https:\/\/cryptopanic.com\/news\/celer-network\/"
                }
            ],
            "id": 18763242,
            "url": "https:\/\/cryptopanic.com\/news\/18763242\/Bonjour-Paris-Lets-rendezvous-at-EthCC-Celer-is-thrilled-to-be-sharing-insights-hosting-talks-and-engag",
            "created_at": "2023-07-12T02:53:35Z",
            "votes": {
                "negative": 0,
                "positive": 0,
                "important": 0,
                "liked": 0,
                "disliked": 0,
                "lol": 0,
                "toxic": 0,
                "saved": 0,
                "comments": 0
            }
        },
        {
            "kind": "news",
            "domain": "@CelerNetwork",
            "source": {
                "title": "Celer Network Twitter",
                "region": "en",
                "domain": "twitter.com",
                "path": "@celernetwork"
            },
            "title": "\ud83e\udd29#Celer is excited to chat with @OasisProtocol about the recent Celer IM integration with Sapphire! \nJoin us this\u2026",
            "published_at": "2023-07-11T20:00:01Z",
            "slug": "Celer-is-excited-to-chat-with-OasisProtocol-about-the-recent-Celer-IM-integration-with-Sapphire-Join-us-this",
            "currencies": [
                {
                    "code": "CELR",
                    "title": "Celer Network",
                    "slug": "celer-network",
                    "url": "https:\/\/cryptopanic.com\/news\/celer-network\/"
                }
            ],
            "id": 18763243,
            "url": "https:\/\/cryptopanic.com\/news\/18763243\/Celer-is-excited-to-chat-with-OasisProtocol-about-the-recent-Celer-IM-integration-with-Sapphire-Join-us-this",
            "created_at": "2023-07-11T20:00:01Z",
            "votes": {
                "negative": 0,
                "positive": 0,
                "important": 0,
                "liked": 0,
                "disliked": 0,
                "lol": 0,
                "toxic": 0,
                "saved": 0,
                "comments": 0
            }
        },
        {
            "kind": "news",
            "domain": "@CelerNetwork",
            "source": {
                "title": "Celer Network Twitter",
                "region": "en",
                "domain": "twitter.com",
                "path": "@celernetwork"
            },
            "title": "Don\u2019t miss out on another thrilling event at #ETHCC!\n\ud83e\udd73We are excited to be part of the #EpicLayer2Day hosted by\u2026",
            "published_at": "2023-07-11T01:42:06Z",
            "slug": "Dont-miss-out-on-another-thrilling-event-at-ETHCC-We-are-excited-to-be-part-of-the-EpicLayer2Day-hosted-by",
            "currencies": [
                {
                    "code": "CELR",
                    "title": "Celer Network",
                    "slug": "celer-network",
                    "url": "https:\/\/cryptopanic.com\/news\/celer-network\/"
                }
            ],
            "id": 18755077,
            "url": "https:\/\/cryptopanic.com\/news\/18755077\/Dont-miss-out-on-another-thrilling-event-at-ETHCC-We-are-excited-to-be-part-of-the-EpicLayer2Day-hosted-by",
            "created_at": "2023-07-11T01:42:06Z",
            "votes": {
                "negative": 0,
                "positive": 0,
                "important": 0,
                "liked": 0,
                "disliked": 0,
                "lol": 0,
                "toxic": 0,
                "saved": 0,
                "comments": 0
            }
        },
        {
            "kind": "news",
            "domain": "@CelerNetwork",
            "source": {
                "title": "Celer Network Twitter",
                "region": "en",
                "domain": "twitter.com",
                "path": "@celernetwork"
            },
            "title": " Celer is thrilled to participate in #zkDayParis, hosted by @MantaNetwork and @Cointelegraph.\n We\u2019re honored to b\u2026",
            "published_at": "2023-07-10T04:33:52Z",
            "slug": "Celer-is-thrilled-to-participate-in-zkDayParis-hosted-by-MantaNetwork-and-Cointelegraph-Were-honored-to-b",
            "currencies": [
                {
                    "code": "CELR",
                    "title": "Celer Network",
                    "slug": "celer-network",
                    "url": "https:\/\/cryptopanic.com\/news\/celer-network\/"
                }
            ],
            "id": 18749115,
            "url": "https:\/\/cryptopanic.com\/news\/18749115\/Celer-is-thrilled-to-participate-in-zkDayParis-hosted-by-MantaNetwork-and-Cointelegraph-Were-honored-to-b",
            "created_at": "2023-07-10T04:33:52Z",
            "votes": {
                "negative": 0,
                "positive": 0,
                "important": 0,
                "liked": 0,
                "disliked": 0,
                "lol": 0,
                "toxic": 0,
                "saved": 0,
                "comments": 0
            }
        },
        {
            "kind": "news",
            "domain": "@CelerNetwork",
            "source": {
                "title": "Celer Network Twitter",
                "region": "en",
                "domain": "twitter.com",
                "path": "@celernetwork"
            },
            "title": "RT @PancakeSwap: PancakeSwap expands zero slippage trades to the OP(BEP20)\/USDT pair on @BNBCHAIN!\n\n\ud83e\udd1dThanks to our partnership with Market\u2026",
            "published_at": "2023-07-07T05:07:38Z",
            "slug": "RT-PancakeSwap-PancakeSwap-expands-zero-slippage-trades-to-the-OPBEP20USDT-pair-on-BNBCHAIN-Thanks-to-our-partnership-with-Market",
            "currencies": [
                {
                    "code": "CELR",
                    "title": "Celer Network",
                    "slug": "celer-network",
                    "url": "https:\/\/cryptopanic.com\/news\/celer-network\/"
                }
            ],
            "id": 18731443,
            "url": "https:\/\/cryptopanic.com\/news\/18731443\/RT-PancakeSwap-PancakeSwap-expands-zero-slippage-trades-to-the-OPBEP20USDT-pair-on-BNBCHAIN-Thanks-to-our-partnership-with-Market",
            "created_at": "2023-07-07T05:07:38Z",
            "votes": {
                "negative": 0,
                "positive": 0,
                "important": 0,
                "liked": 0,
                "disliked": 0,
                "lol": 0,
                "toxic": 0,
                "saved": 0,
                "comments": 0
            }
        },
        {
            "kind": "news",
            "domain": "@CelerNetwork",
            "source": {
                "title": "Celer Network Twitter",
                "region": "en",
                "domain": "twitter.com",
                "path": "@celernetwork"
            },
            "title": "#Celer #cBridge is happy to be expanding our support for our partner @PancakeSwap with this new bridge!\nUsers are\u2026",
            "published_at": "2023-07-07T04:01:25Z",
            "slug": "Celer-cBridge-is-happy-to-be-expanding-our-support-for-our-partner-PancakeSwap-with-this-new-bridge-Users-are",
            "currencies": [
                {
                    "code": "CELR",
                    "title": "Celer Network",
                    "slug": "celer-network",
                    "url": "https:\/\/cryptopanic.com\/news\/celer-network\/"
                }
            ],
            "id": 18731444,
            "url": "https:\/\/cryptopanic.com\/news\/18731444\/Celer-cBridge-is-happy-to-be-expanding-our-support-for-our-partner-PancakeSwap-with-this-new-bridge-Users-are",
            "created_at": "2023-07-07T04:01:25Z",
            "votes": {
                "negative": 0,
                "positive": 0,
                "important": 0,
                "liked": 0,
                "disliked": 0,
                "lol": 0,
                "toxic": 0,
                "saved": 0,
                "comments": 0
            }
        },
        {
            "kind": "news",
            "domain": "@CelerNetwork",
            "source": {
                "title": "Celer Network Twitter",
                "region": "en",
                "domain": "twitter.com",
                "path": "@celernetwork"
            },
            "title": "\ud83e\udd29 Get ready for an exciting event in Paris!\n Join us at the @OasisProtocol Rendezvous during #ETHCC on July 19th\uff01",
            "published_at": "2023-07-06T06:47:10Z",
            "slug": "Get-ready-for-an-exciting-event-in-Paris-Join-us-at-the-OasisProtocol-Rendezvous-during-ETHCC-on-July-19th",
            "currencies": [
                {
                    "code": "CELR",
                    "title": "Celer Network",
                    "slug": "celer-network",
                    "url": "https:\/\/cryptopanic.com\/news\/celer-network\/"
                }
            ],
            "id": 18731445,
            "url": "https:\/\/cryptopanic.com\/news\/18731445\/Get-ready-for-an-exciting-event-in-Paris-Join-us-at-the-OasisProtocol-Rendezvous-during-ETHCC-on-July-19th",
            "created_at": "2023-07-06T06:47:10Z",
            "votes": {
                "negative": 0,
                "positive": 0,
                "important": 0,
                "liked": 0,
                "disliked": 0,
                "lol": 0,
                "toxic": 0,
                "saved": 0,
                "comments": 0
            }
        },
        {
            "kind": "news",
            "domain": "@CelerNetwork",
            "source": {
                "title": "Celer Network Twitter",
                "region": "en",
                "domain": "twitter.com",
                "path": "@celernetwork"
            },
            "title": "STARTING IN 1 HOUR\nDon't miss the developer workshop on how to build on @LineaBuild with #cBridge &amp; the #Celer\u2026",
            "published_at": "2023-07-03T13:00:00Z",
            "slug": "STARTING-IN-1-HOUR-Dont-miss-the-developer-workshop-on-how-to-build-on-LineaBuild-with-cBridge-amp-the-Celer",
            "currencies": [
                {
                    "code": "CELR",
                    "title": "Celer Network",
                    "slug": "celer-network",
                    "url": "https:\/\/cryptopanic.com\/news\/celer-network\/"
                }
            ],
            "id": 18707962,
            "url": "https:\/\/cryptopanic.com\/news\/18707962\/STARTING-IN-1-HOUR-Dont-miss-the-developer-workshop-on-how-to-build-on-LineaBuild-with-cBridge-amp-the-Celer",
            "created_at": "2023-07-03T13:00:00Z",
            "votes": {
                "negative": 0,
                "positive": 0,
                "important": 0,
                "liked": 0,
                "disliked": 0,
                "lol": 0,
                "toxic": 0,
                "saved": 0,
                "comments": 0
            }
        },
        {
            "kind": "news",
            "domain": "@CelerNetwork",
            "source": {
                "title": "Celer Network Twitter",
                "region": "en",
                "domain": "twitter.com",
                "path": "@celernetwork"
            },
            "title": "Celer is taking part in @Echo_DEX's @LineaBuild Giveaway! Don't miss out!\n1\ufe0f\u20e3 Like\ufe0f&amp; Retweet the Tweet below\n2\ufe0f\u20e3\u2026",
            "published_at": "2023-07-03T12:06:53Z",
            "slug": "Celer-is-taking-part-in-Echo_DEXs-LineaBuild-Giveaway-Dont-miss-out-1-Likeamp-Retweet-the-Tweet-below-2",
            "currencies": [
                {
                    "code": "CELR",
                    "title": "Celer Network",
                    "slug": "celer-network",
                    "url": "https:\/\/cryptopanic.com\/news\/celer-network\/"
                }
            ],
            "id": 18707963,
            "url": "https:\/\/cryptopanic.com\/news\/18707963\/Celer-is-taking-part-in-Echo_DEXs-LineaBuild-Giveaway-Dont-miss-out-1-Likeamp-Retweet-the-Tweet-below-2",
            "created_at": "2023-07-03T12:06:53Z",
            "votes": {
                "negative": 0,
                "positive": 0,
                "important": 0,
                "liked": 0,
                "disliked": 0,
                "lol": 0,
                "toxic": 0,
                "saved": 0,
                "comments": 0
            }
        },
        {
            "kind": "news",
            "domain": "@CelerNetwork",
            "source": {
                "title": "Celer Network Twitter",
                "region": "en",
                "domain": "twitter.com",
                "path": "@celernetwork"
            },
            "title": "1\/We can't believe it is over halfway through 2023!\n\ufe0fJune flew by as #Celer was able to add or expand on 14 integ\u2026",
            "published_at": "2023-07-01T19:25:55Z",
            "slug": "1We-cant-believe-it-is-over-halfway-through-2023-June-flew-by-as-Celer-was-able-to-add-or-expand-on-14-integ",
            "currencies": [
                {
                    "code": "CELR",
                    "title": "Celer Network",
                    "slug": "celer-network",
                    "url": "https:\/\/cryptopanic.com\/news\/celer-network\/"
                }
            ],
            "id": 18698083,
            "url": "https:\/\/cryptopanic.com\/news\/18698083\/1We-cant-believe-it-is-over-halfway-through-2023-June-flew-by-as-Celer-was-able-to-add-or-expand-on-14-integ",
            "created_at": "2023-07-01T19:25:55Z",
            "votes": {
                "negative": 0,
                "positive": 0,
                "important": 0,
                "liked": 0,
                "disliked": 0,
                "lol": 0,
                "toxic": 0,
                "saved": 0,
                "comments": 0
            }
        },
        {
            "kind": "news",
            "domain": "@CelerNetwork",
            "source": {
                "title": "Celer Network Twitter",
                "region": "en",
                "domain": "twitter.com",
                "path": "@celernetwork"
            },
            "title": "#cBridge now supports bridging to 48 chains &amp; layers with more than 170 different assets!\nA simple and easy-to-u\u2026",
            "published_at": "2023-06-30T03:00:53Z",
            "slug": "cBridge-now-supports-bridging-to-48-chains-amp-layers-with-more-than-170-different-assets-A-simple-and-easy-to-u",
            "currencies": [
                {
                    "code": "CELR",
                    "title": "Celer Network",
                    "slug": "celer-network",
                    "url": "https:\/\/cryptopanic.com\/news\/celer-network\/"
                }
            ],
            "id": 18684503,
            "url": "https:\/\/cryptopanic.com\/news\/18684503\/cBridge-now-supports-bridging-to-48-chains-amp-layers-with-more-than-170-different-assets-A-simple-and-easy-to-u",
            "created_at": "2023-06-30T03:00:53Z",
            "votes": {
                "negative": 0,
                "positive": 0,
                "important": 0,
                "liked": 0,
                "disliked": 0,
                "lol": 0,
                "toxic": 0,
                "saved": 0,
                "comments": 0
            }
        },
        {
            "kind": "news",
            "domain": "@CelerNetwork",
            "source": {
                "title": "Celer Network Twitter",
                "region": "en",
                "domain": "twitter.com",
                "path": "@celernetwork"
            },
            "title": "Dev Workshop Incoming!\ufe0f\n\ud83e\udd14Topic: \"How to Build One-click UX Multi-chain dApps on @LineaBuild with cBridge &amp; Celer\u2026",
            "published_at": "2023-06-27T18:00:02Z",
            "slug": "Dev-Workshop-Incoming-Topic-How-to-Build-One-click-UX-Multi-chain-dApps-on-LineaBuild-with-cBridge-amp-Celer",
            "currencies": [
                {
                    "code": "CELR",
                    "title": "Celer Network",
                    "slug": "celer-network",
                    "url": "https:\/\/cryptopanic.com\/news\/celer-network\/"
                }
            ],
            "id": 18668200,
            "url": "https:\/\/cryptopanic.com\/news\/18668200\/Dev-Workshop-Incoming-Topic-How-to-Build-One-click-UX-Multi-chain-dApps-on-LineaBuild-with-cBridge-amp-Celer",
            "created_at": "2023-06-27T18:00:02Z",
            "votes": {
                "negative": 0,
                "positive": 0,
                "important": 0,
                "liked": 0,
                "disliked": 0,
                "lol": 0,
                "toxic": 0,
                "saved": 0,
                "comments": 0
            }
        },
        {
            "kind": "news",
            "domain": "@CelerNetwork",
            "source": {
                "title": "Celer Network Twitter",
                "region": "en",
                "domain": "twitter.com",
                "path": "@celernetwork"
            },
            "title": "\ud83e\udd84\ufe0fCeler is the first to design and implement an initial multi-bridge aggregation solution for @Uniswap governance\u2026",
            "published_at": "2023-06-27T15:02:12Z",
            "slug": "Celer-is-the-first-to-design-and-implement-an-initial-multi-bridge-aggregation-solution-for-Uniswap-governance",
            "currencies": [
                {
                    "code": "CELR",
                    "title": "Celer Network",
                    "slug": "celer-network",
                    "url": "https:\/\/cryptopanic.com\/news\/celer-network\/"
                }
            ],
            "id": 18668201,
            "url": "https:\/\/cryptopanic.com\/news\/18668201\/Celer-is-the-first-to-design-and-implement-an-initial-multi-bridge-aggregation-solution-for-Uniswap-governance",
            "created_at": "2023-06-27T15:02:12Z",
            "votes": {
                "negative": 0,
                "positive": 0,
                "important": 0,
                "liked": 0,
                "disliked": 0,
                "lol": 0,
                "toxic": 0,
                "saved": 0,
                "comments": 0
            }
        },
        {
            "kind": "news",
            "domain": "@CelerNetwork",
            "source": {
                "title": "Celer Network Twitter",
                "region": "en",
                "domain": "twitter.com",
                "path": "@celernetwork"
            },
            "title": "\ud83e\udd29An exciting announcement from #Celer!\n\ufe0f#cBridge is expanding our support of the @circle Cross-Chain Transfer Prot\u2026",
            "published_at": "2023-06-27T13:00:34Z",
            "slug": "An-exciting-announcement-from-Celer-cBridge-is-expanding-our-support-of-the-circle-Cross-Chain-Transfer-Prot",
            "currencies": [
                {
                    "code": "CELR",
                    "title": "Celer Network",
                    "slug": "celer-network",
                    "url": "https:\/\/cryptopanic.com\/news\/celer-network\/"
                }
            ],
            "id": 18668202,
            "url": "https:\/\/cryptopanic.com\/news\/18668202\/An-exciting-announcement-from-Celer-cBridge-is-expanding-our-support-of-the-circle-Cross-Chain-Transfer-Prot",
            "created_at": "2023-06-27T13:00:34Z",
            "votes": {
                "negative": 0,
                "positive": 0,
                "important": 0,
                "liked": 0,
                "disliked": 0,
                "lol": 0,
                "toxic": 0,
                "saved": 0,
                "comments": 0
            }
        },
        {
            "kind": "news",
            "domain": "@CelerNetwork",
            "source": {
                "title": "Celer Network Twitter",
                "region": "en",
                "domain": "twitter.com",
                "path": "@celernetwork"
            },
            "title": "\ud83e\udd29Celer is thrilled to announce our bridging support for the @AuraNetworkHQ!\nUsers are now able to bridge $AURA and\u2026",
            "published_at": "2023-06-27T11:00:25Z",
            "slug": "Celer-is-thrilled-to-announce-our-bridging-support-for-the-AuraNetworkHQ-Users-are-now-able-to-bridge-AURA-and",
            "currencies": [
                {
                    "code": "CELR",
                    "title": "Celer Network",
                    "slug": "celer-network",
                    "url": "https:\/\/cryptopanic.com\/news\/celer-network\/"
                }
            ],
            "id": 18668203,
            "url": "https:\/\/cryptopanic.com\/news\/18668203\/Celer-is-thrilled-to-announce-our-bridging-support-for-the-AuraNetworkHQ-Users-are-now-able-to-bridge-AURA-and",
            "created_at": "2023-06-27T11:00:25Z",
            "votes": {
                "negative": 0,
                "positive": 0,
                "important": 0,
                "liked": 0,
                "disliked": 0,
                "lol": 0,
                "toxic": 0,
                "saved": 0,
                "comments": 0
            }
        },
        {
            "kind": "news",
            "domain": "@CelerNetwork",
            "source": {
                "title": "Celer Network Twitter",
                "region": "en",
                "domain": "twitter.com",
                "path": "@celernetwork"
            },
            "title": "Excited to announce our bridging support for the @SuiNetwork!\nUsers are now able to bridge ETH, WBTC, USDC, USDT,\u2026",
            "published_at": "2023-06-26T17:00:09Z",
            "slug": "Excited-to-announce-our-bridging-support-for-the-SuiNetwork-Users-are-now-able-to-bridge-ETH-WBTC-USDC-USDT",
            "currencies": [
                {
                    "code": "CELR",
                    "title": "Celer Network",
                    "slug": "celer-network",
                    "url": "https:\/\/cryptopanic.com\/news\/celer-network\/"
                }
            ],
            "id": 18659929,
            "url": "https:\/\/cryptopanic.com\/news\/18659929\/Excited-to-announce-our-bridging-support-for-the-SuiNetwork-Users-are-now-able-to-bridge-ETH-WBTC-USDC-USDT",
            "created_at": "2023-06-26T17:00:09Z",
            "votes": {
                "negative": 0,
                "positive": 0,
                "important": 0,
                "liked": 0,
                "disliked": 0,
                "lol": 0,
                "toxic": 0,
                "saved": 0,
                "comments": 0
            }
        },
        {
            "kind": "news",
            "domain": "@CelerNetwork",
            "source": {
                "title": "Celer Network Twitter",
                "region": "en",
                "domain": "twitter.com",
                "path": "@celernetwork"
            },
            "title": "\ud83e\udd29#Celer is excited to be taking part in the next #Linea Talk hosted by @izumi_Finance this Friday!\nJoin us along w\u2026",
            "published_at": "2023-06-22T15:00:01Z",
            "slug": "Celer-is-excited-to-be-taking-part-in-the-next-Linea-Talk-hosted-by-izumi_Finance-this-Friday-Join-us-along-w",
            "currencies": [
                {
                    "code": "CELR",
                    "title": "Celer Network",
                    "slug": "celer-network",
                    "url": "https:\/\/cryptopanic.com\/news\/celer-network\/"
                }
            ],
            "id": 18635698,
            "url": "https:\/\/cryptopanic.com\/news\/18635698\/Celer-is-excited-to-be-taking-part-in-the-next-Linea-Talk-hosted-by-izumi_Finance-this-Friday-Join-us-along-w",
            "created_at": "2023-06-22T15:00:01Z",
            "votes": {
                "negative": 0,
                "positive": 0,
                "important": 0,
                "liked": 0,
                "disliked": 0,
                "lol": 0,
                "toxic": 0,
                "saved": 0,
                "comments": 0
            }
        },
        {
            "kind": "news",
            "domain": "@CelerNetwork",
            "source": {
                "title": "Celer Network Twitter",
                "region": "en",
                "domain": "twitter.com",
                "path": "@celernetwork"
            },
            "title": "We will be hosting an special AMA tomorrow with @forgeDEX and @EvmosOrg to chat with them about various topics in\u2026",
            "published_at": "2023-06-21T11:01:02Z",
            "slug": "We-will-be-hosting-an-special-AMA-tomorrow-with-forgeDEX-and-EvmosOrg-to-chat-with-them-about-various-topics-in",
            "currencies": [
                {
                    "code": "CELR",
                    "title": "Celer Network",
                    "slug": "celer-network",
                    "url": "https:\/\/cryptopanic.com\/news\/celer-network\/"
                }
            ],
            "id": 18627065,
            "url": "https:\/\/cryptopanic.com\/news\/18627065\/We-will-be-hosting-an-special-AMA-tomorrow-with-forgeDEX-and-EvmosOrg-to-chat-with-them-about-various-topics-in",
            "created_at": "2023-06-21T11:01:02Z",
            "votes": {
                "negative": 0,
                "positive": 0,
                "important": 0,
                "liked": 0,
                "disliked": 0,
                "lol": 0,
                "toxic": 0,
                "saved": 0,
                "comments": 0
            }
        },
        {
            "kind": "news",
            "domain": "@CelerNetwork",
            "source": {
                "title": "Celer Network Twitter",
                "region": "en",
                "domain": "twitter.com",
                "path": "@celernetwork"
            },
            "title": "\u23f0The first week of @auroraisnear's Aurora Adventures - Aurora Week - has come to end!\nWe want to thank everyone wh\u2026",
            "published_at": "2023-06-21T02:04:06Z",
            "slug": "The-first-week-of-auroraisnears-Aurora-Adventures-Aurora-Week-has-come-to-end-We-want-to-thank-everyone-wh",
            "currencies": [
                {
                    "code": "CELR",
                    "title": "Celer Network",
                    "slug": "celer-network",
                    "url": "https:\/\/cryptopanic.com\/news\/celer-network\/"
                }
            ],
            "id": 18619087,
            "url": "https:\/\/cryptopanic.com\/news\/18619087\/The-first-week-of-auroraisnears-Aurora-Adventures-Aurora-Week-has-come-to-end-We-want-to-thank-everyone-wh",
            "created_at": "2023-06-21T02:04:06Z",
            "votes": {
                "negative": 0,
                "positive": 0,
                "important": 0,
                "liked": 0,
                "disliked": 0,
                "lol": 0,
                "toxic": 0,
                "saved": 0,
                "comments": 0
            }
        },
        {
            "kind": "news",
            "domain": "@CelerNetwork",
            "source": {
                "title": "Celer Network Twitter",
                "region": "en",
                "domain": "twitter.com",
                "path": "@celernetwork"
            },
            "title": "#Celer IM continues to see more and more adoption within #Web3!\n\ufe0fThe newest use case with @tofuNFT is using Celer\u2026",
            "published_at": "2023-06-20T21:00:00Z",
            "slug": "Celer-IM-continues-to-see-more-and-more-adoption-within-Web3-The-newest-use-case-with-tofuNFT-is-using-Celer",
            "currencies": [
                {
                    "code": "CELR",
                    "title": "Celer Network",
                    "slug": "celer-network",
                    "url": "https:\/\/cryptopanic.com\/news\/celer-network\/"
                }
            ],
            "id": 18619088,
            "url": "https:\/\/cryptopanic.com\/news\/18619088\/Celer-IM-continues-to-see-more-and-more-adoption-within-Web3-The-newest-use-case-with-tofuNFT-is-using-Celer",
            "created_at": "2023-06-20T21:00:00Z",
            "votes": {
                "negative": 0,
                "positive": 0,
                "important": 0,
                "liked": 0,
                "disliked": 0,
                "lol": 0,
                "toxic": 0,
                "saved": 0,
                "comments": 0
            }
        }
    ]
}
