{
    "count": 200,
    "next": "https:\/\/cryptopanic.com\/api\/v1\/posts\/?auth_token=01c356e89ffc1b8eba2127c81fc8c66ee0eace75&kind=news&currencies=TCT&page=2",
    "previous": null,
    "results": [
        {
            "kind": "news",
            "domain": "@TacoCatToken",
            "source": {
                "title": "TacoCat Token Twitter",
                "region": "en",
                "domain": "twitter.com",
                "path": "@tacocattoken"
            },
            "title": "RT @wildcardp2e: HURRY UP! \n\nA new #WildcardWednesday AMA is live NOW! \n\n\n\n\n\n#WildcardP2E #PlayToEarn #P2E #NFT\u2026",
            "published_at": "2022-03-02T19:07:25Z",
            "slug": "RT-wildcardp2e-HURRY-UP-A-new-WildcardWednesday-AMA-is-live-NOW-WildcardP2E-PlayToEarn-P2E-NFT",
            "currencies": [
                {
                    "code": "TCT",
                    "title": "TacoCat Token",
                    "slug": null,
                    "url": "https:\/\/cryptopanic.com\/news\/None\/"
                }
            ],
            "id": 14462192,
            "url": "https:\/\/cryptopanic.com\/news\/14462192\/RT-wildcardp2e-HURRY-UP-A-new-WildcardWednesday-AMA-is-live-NOW-WildcardP2E-PlayToEarn-P2E-NFT",
            "created_at": "2022-03-02T19:07:25Z",
            "votes": {
                "negative": 0,
                "positive": 0,
                "important": 0,
                "liked": 0,
                "disliked": 0,
                "lol": 0,
                "toxic": 0,
                "saved": 0,
                "comments": 0
            }
        },
        {
            "kind": "news",
            "domain": "@TacoCatToken",
            "source": {
                "title": "TacoCat Token Twitter",
                "region": "en",
                "domain": "twitter.com",
                "path": "@tacocattoken"
            },
            "title": "RT @wildcardp2e: The #WildcardP2E Team is literally working 24\/7 to successfully launch the best #Play2Earn game EVER! \n\nBut you know... #\u2026",
            "published_at": "2022-02-23T19:49:32Z",
            "slug": "RT-wildcardp2e-The-WildcardP2E-Team-is-literally-working-247-to-successfully-launch-the-best-Play2Earn-game-EVER-But-you-know",
            "currencies": [
                {
                    "code": "TCT",
                    "title": "TacoCat Token",
                    "slug": null,
                    "url": "https:\/\/cryptopanic.com\/news\/None\/"
                }
            ],
            "id": 14392836,
            "url": "https:\/\/cryptopanic.com\/news\/14392836\/RT-wildcardp2e-The-WildcardP2E-Team-is-literally-working-247-to-successfully-launch-the-best-Play2Earn-game-EVER-But-you-know",
            "created_at": "2022-02-23T19:49:32Z",
            "votes": {
                "negative": 0,
                "positive": 0,
                "important": 0,
                "liked": 0,
                "disliked": 0,
                "lol": 0,
                "toxic": 0,
                "saved": 0,
                "comments": 0
            }
        },
        {
            "kind": "news",
            "domain": "@TacoCatToken",
            "source": {
                "title": "TacoCat Token Twitter",
                "region": "en",
                "domain": "twitter.com",
                "path": "@tacocattoken"
            },
            "title": "RT @GenxAnalytics: These are the GOTO #GAMEFI on #BSC \ufe0f\ud83e\uddd9\u200d\ufe0f\ufe0f\n\n#NFTGame #Metaverse Projects with STAGGERING levels of Social Volume mea\u2026",
            "published_at": "2022-02-23T13:51:14Z",
            "slug": "RT-GenxAnalytics-These-are-the-GOTO-GAMEFI-on-BSC-NFTGame-Metaverse-Projects-with-STAGGERING-levels-of-Social-Volume-mea",
            "currencies": [
                {
                    "code": "TCT",
                    "title": "TacoCat Token",
                    "slug": null,
                    "url": "https:\/\/cryptopanic.com\/news\/None\/"
                }
            ],
            "id": 14392837,
            "url": "https:\/\/cryptopanic.com\/news\/14392837\/RT-GenxAnalytics-These-are-the-GOTO-GAMEFI-on-BSC-NFTGame-Metaverse-Projects-with-STAGGERING-levels-of-Social-Volume-mea",
            "created_at": "2022-02-23T13:51:14Z",
            "votes": {
                "negative": 0,
                "positive": 0,
                "important": 0,
                "liked": 0,
                "disliked": 0,
                "lol": 0,
                "toxic": 0,
                "saved": 0,
                "comments": 0
            }
        },
        {
            "kind": "news",
            "domain": "@TacoCatToken",
            "source": {
                "title": "TacoCat Token Twitter",
                "region": "en",
                "domain": "twitter.com",
                "path": "@tacocattoken"
            },
            "title": "RT @wildcardp2e: You can be the next one! \n\nToday we will host a special Pre-Alpha #gameplay stream with one of our community members \n\nC\u2026",
            "published_at": "2022-02-17T20:26:49Z",
            "slug": "RT-wildcardp2e-You-can-be-the-next-one-Today-we-will-host-a-special-Pre-Alpha-gameplay-stream-with-one-of-our-community-members-C",
            "currencies": [
                {
                    "code": "TCT",
                    "title": "TacoCat Token",
                    "slug": null,
                    "url": "https:\/\/cryptopanic.com\/news\/None\/"
                }
            ],
            "id": 14335039,
            "url": "https:\/\/cryptopanic.com\/news\/14335039\/RT-wildcardp2e-You-can-be-the-next-one-Today-we-will-host-a-special-Pre-Alpha-gameplay-stream-with-one-of-our-community-members-C",
            "created_at": "2022-02-17T20:26:49Z",
            "votes": {
                "negative": 0,
                "positive": 0,
                "important": 0,
                "liked": 0,
                "disliked": 0,
                "lol": 0,
                "toxic": 0,
                "saved": 0,
                "comments": 0
            }
        },
        {
            "kind": "news",
            "domain": "@TacoCatToken",
            "source": {
                "title": "TacoCat Token Twitter",
                "region": "en",
                "domain": "twitter.com",
                "path": "@tacocattoken"
            },
            "title": "RT @wildcardp2e: A new #WildcardWednesday is here \n\nJoin us on #YouTube for the latest fantastic news on our game's development and launch\u2026",
            "published_at": "2022-02-16T18:23:18Z",
            "slug": "RT-wildcardp2e-A-new-WildcardWednesday-is-here-Join-us-on-YouTube-for-the-latest-fantastic-news-on-our-games-development-and-launch",
            "currencies": [
                {
                    "code": "TCT",
                    "title": "TacoCat Token",
                    "slug": null,
                    "url": "https:\/\/cryptopanic.com\/news\/None\/"
                }
            ],
            "id": 14323467,
            "url": "https:\/\/cryptopanic.com\/news\/14323467\/RT-wildcardp2e-A-new-WildcardWednesday-is-here-Join-us-on-YouTube-for-the-latest-fantastic-news-on-our-games-development-and-launch",
            "created_at": "2022-02-16T18:23:18Z",
            "votes": {
                "negative": 0,
                "positive": 0,
                "important": 0,
                "liked": 0,
                "disliked": 0,
                "lol": 0,
                "toxic": 0,
                "saved": 0,
                "comments": 0
            }
        },
        {
            "kind": "news",
            "domain": "@TacoCatToken",
            "source": {
                "title": "TacoCat Token Twitter",
                "region": "en",
                "domain": "twitter.com",
                "path": "@tacocattoken"
            },
            "title": "RT @wildcardp2e: Wildcard Dev Chat #6",
            "published_at": "2022-02-16T10:40:08Z",
            "slug": "RT-wildcardp2e-Wildcard-Dev-Chat-6",
            "currencies": [
                {
                    "code": "TCT",
                    "title": "TacoCat Token",
                    "slug": null,
                    "url": "https:\/\/cryptopanic.com\/news\/None\/"
                }
            ],
            "id": 14323468,
            "url": "https:\/\/cryptopanic.com\/news\/14323468\/RT-wildcardp2e-Wildcard-Dev-Chat-6",
            "created_at": "2022-02-16T10:40:08Z",
            "votes": {
                "negative": 0,
                "positive": 0,
                "important": 0,
                "liked": 0,
                "disliked": 0,
                "lol": 0,
                "toxic": 0,
                "saved": 0,
                "comments": 0
            }
        },
        {
            "kind": "news",
            "domain": "@TacoCatToken",
            "source": {
                "title": "TacoCat Token Twitter",
                "region": "en",
                "domain": "twitter.com",
                "path": "@tacocattoken"
            },
            "title": "RT @wildcardp2e: Wildcard Pre-Alpha Gameplay Stream #6",
            "published_at": "2022-02-13T10:00:22Z",
            "slug": "RT-wildcardp2e-Wildcard-Pre-Alpha-Gameplay-Stream-6",
            "currencies": [
                {
                    "code": "TCT",
                    "title": "TacoCat Token",
                    "slug": null,
                    "url": "https:\/\/cryptopanic.com\/news\/None\/"
                }
            ],
            "id": 14288710,
            "url": "https:\/\/cryptopanic.com\/news\/14288710\/RT-wildcardp2e-Wildcard-Pre-Alpha-Gameplay-Stream-6",
            "created_at": "2022-02-13T10:00:22Z",
            "votes": {
                "negative": 0,
                "positive": 0,
                "important": 0,
                "liked": 0,
                "disliked": 0,
                "lol": 0,
                "toxic": 0,
                "saved": 0,
                "comments": 0
            }
        },
        {
            "kind": "news",
            "domain": "@TacoCatToken",
            "source": {
                "title": "TacoCat Token Twitter",
                "region": "en",
                "domain": "twitter.com",
                "path": "@tacocattoken"
            },
            "title": "RT @tct_gg: Congrats to our Rocket League team on making day 2 of the #RLCS open qualifiers! ggs @VNCEOfficial @Duckyuckyy @zioht_ &amp; @p1geo\u2026",
            "published_at": "2022-02-13T09:58:03Z",
            "slug": "RT-tct_gg-Congrats-to-our-Rocket-League-team-on-making-day-2-of-the-RLCS-open-qualifiers-ggs-VNCEOfficial-Duckyuckyy-zioht_-amp-p1geo",
            "currencies": [
                {
                    "code": "TCT",
                    "title": "TacoCat Token",
                    "slug": null,
                    "url": "https:\/\/cryptopanic.com\/news\/None\/"
                }
            ],
            "id": 14288711,
            "url": "https:\/\/cryptopanic.com\/news\/14288711\/RT-tct_gg-Congrats-to-our-Rocket-League-team-on-making-day-2-of-the-RLCS-open-qualifiers-ggs-VNCEOfficial-Duckyuckyy-zioht_-amp-p1geo",
            "created_at": "2022-02-13T09:58:03Z",
            "votes": {
                "negative": 0,
                "positive": 0,
                "important": 0,
                "liked": 0,
                "disliked": 0,
                "lol": 0,
                "toxic": 0,
                "saved": 0,
                "comments": 0
            }
        },
        {
            "kind": "news",
            "domain": "@TacoCatToken",
            "source": {
                "title": "TacoCat Token Twitter",
                "region": "en",
                "domain": "twitter.com",
                "path": "@tacocattoken"
            },
            "title": "RT @wildcardp2e: Wildcard Pre-Alpha Gameplay Stream #5",
            "published_at": "2022-02-11T08:35:42Z",
            "slug": "RT-wildcardp2e-Wildcard-Pre-Alpha-Gameplay-Stream-5",
            "currencies": [
                {
                    "code": "TCT",
                    "title": "TacoCat Token",
                    "slug": null,
                    "url": "https:\/\/cryptopanic.com\/news\/None\/"
                }
            ],
            "id": 14263213,
            "url": "https:\/\/cryptopanic.com\/news\/14263213\/RT-wildcardp2e-Wildcard-Pre-Alpha-Gameplay-Stream-5",
            "created_at": "2022-02-11T08:35:42Z",
            "votes": {
                "negative": 0,
                "positive": 0,
                "important": 0,
                "liked": 0,
                "disliked": 0,
                "lol": 0,
                "toxic": 0,
                "saved": 0,
                "comments": 0
            }
        },
        {
            "kind": "news",
            "domain": "@TacoCatToken",
            "source": {
                "title": "TacoCat Token Twitter",
                "region": "en",
                "domain": "twitter.com",
                "path": "@tacocattoken"
            },
            "title": "Wildcard Pre-Alpha Gameplay Stream #5",
            "published_at": "2022-02-11T02:59:47Z",
            "slug": "Wildcard-Pre-Alpha-Gameplay-Stream-5",
            "currencies": [
                {
                    "code": "TCT",
                    "title": "TacoCat Token",
                    "slug": null,
                    "url": "https:\/\/cryptopanic.com\/news\/None\/"
                }
            ],
            "id": 14263214,
            "url": "https:\/\/cryptopanic.com\/news\/14263214\/Wildcard-Pre-Alpha-Gameplay-Stream-5",
            "created_at": "2022-02-11T02:59:47Z",
            "votes": {
                "negative": 0,
                "positive": 0,
                "important": 0,
                "liked": 0,
                "disliked": 0,
                "lol": 0,
                "toxic": 0,
                "saved": 0,
                "comments": 0
            }
        },
        {
            "kind": "news",
            "domain": "@TacoCatToken",
            "source": {
                "title": "TacoCat Token Twitter",
                "region": "en",
                "domain": "twitter.com",
                "path": "@tacocattoken"
            },
            "title": "RT @wildcardp2e: Are you ready for the next battle? \n\nJoin us and enjoy a new pre-alpha #gameplay stream! \n\n Today, on #YouTube @ 7PM PS\u2026",
            "published_at": "2022-02-10T19:22:30Z",
            "slug": "RT-wildcardp2e-Are-you-ready-for-the-next-battle-Join-us-and-enjoy-a-new-pre-alpha-gameplay-stream-Today-on-YouTube-7PM-PS",
            "currencies": [
                {
                    "code": "TCT",
                    "title": "TacoCat Token",
                    "slug": null,
                    "url": "https:\/\/cryptopanic.com\/news\/None\/"
                }
            ],
            "id": 14263215,
            "url": "https:\/\/cryptopanic.com\/news\/14263215\/RT-wildcardp2e-Are-you-ready-for-the-next-battle-Join-us-and-enjoy-a-new-pre-alpha-gameplay-stream-Today-on-YouTube-7PM-PS",
            "created_at": "2022-02-10T19:22:30Z",
            "votes": {
                "negative": 0,
                "positive": 0,
                "important": 0,
                "liked": 0,
                "disliked": 0,
                "lol": 0,
                "toxic": 0,
                "saved": 0,
                "comments": 0
            }
        },
        {
            "kind": "news",
            "domain": "@TacoCatToken",
            "source": {
                "title": "TacoCat Token Twitter",
                "region": "en",
                "domain": "twitter.com",
                "path": "@tacocattoken"
            },
            "title": "RT @wildcardp2e: WILDCARD Wednesday LIVE AMA - Feb 9th 2022",
            "published_at": "2022-02-09T22:38:53Z",
            "slug": "RT-wildcardp2e-WILDCARD-Wednesday-LIVE-AMA-Feb-9th-2022",
            "currencies": [
                {
                    "code": "TCT",
                    "title": "TacoCat Token",
                    "slug": null,
                    "url": "https:\/\/cryptopanic.com\/news\/None\/"
                }
            ],
            "id": 14251414,
            "url": "https:\/\/cryptopanic.com\/news\/14251414\/RT-wildcardp2e-WILDCARD-Wednesday-LIVE-AMA-Feb-9th-2022",
            "created_at": "2022-02-09T22:38:53Z",
            "votes": {
                "negative": 0,
                "positive": 0,
                "important": 0,
                "liked": 0,
                "disliked": 0,
                "lol": 0,
                "toxic": 0,
                "saved": 0,
                "comments": 0
            }
        },
        {
            "kind": "news",
            "domain": "@TacoCatToken",
            "source": {
                "title": "TacoCat Token Twitter",
                "region": "en",
                "domain": "twitter.com",
                "path": "@tacocattoken"
            },
            "title": "WILDCARD Wednesday LIVE AMA - Feb 9th 2022",
            "published_at": "2022-02-09T18:56:24Z",
            "slug": "WILDCARD-Wednesday-LIVE-AMA-Feb-9th-2022",
            "currencies": [
                {
                    "code": "TCT",
                    "title": "TacoCat Token",
                    "slug": null,
                    "url": "https:\/\/cryptopanic.com\/news\/None\/"
                }
            ],
            "id": 14251415,
            "url": "https:\/\/cryptopanic.com\/news\/14251415\/WILDCARD-Wednesday-LIVE-AMA-Feb-9th-2022",
            "created_at": "2022-02-09T18:56:24Z",
            "votes": {
                "negative": 0,
                "positive": 0,
                "important": 0,
                "liked": 0,
                "disliked": 0,
                "lol": 0,
                "toxic": 0,
                "saved": 0,
                "comments": 0
            }
        },
        {
            "kind": "news",
            "domain": "@TacoCatToken",
            "source": {
                "title": "TacoCat Token Twitter",
                "region": "en",
                "domain": "twitter.com",
                "path": "@tacocattoken"
            },
            "title": "RT @wildcardp2e: Are you ready for some exciting updates on #WildcardP2E game's development? \n\nDon't miss today's #WildcardWednesday AMA!\u2026",
            "published_at": "2022-02-09T17:16:53Z",
            "slug": "RT-wildcardp2e-Are-you-ready-for-some-exciting-updates-on-WildcardP2E-games-development-Dont-miss-todays-WildcardWednesday-AMA",
            "currencies": [
                {
                    "code": "TCT",
                    "title": "TacoCat Token",
                    "slug": null,
                    "url": "https:\/\/cryptopanic.com\/news\/None\/"
                }
            ],
            "id": 14251416,
            "url": "https:\/\/cryptopanic.com\/news\/14251416\/RT-wildcardp2e-Are-you-ready-for-some-exciting-updates-on-WildcardP2E-games-development-Dont-miss-todays-WildcardWednesday-AMA",
            "created_at": "2022-02-09T17:16:53Z",
            "votes": {
                "negative": 0,
                "positive": 0,
                "important": 0,
                "liked": 0,
                "disliked": 0,
                "lol": 0,
                "toxic": 0,
                "saved": 0,
                "comments": 0
            }
        },
        {
            "kind": "news",
            "domain": "@TacoCatToken",
            "source": {
                "title": "TacoCat Token Twitter",
                "region": "en",
                "domain": "twitter.com",
                "path": "@tacocattoken"
            },
            "title": "RT @wildcardp2e: #WildcardP2E is a brand new #PlayToEarn game, actually in a pre-alpha testing phase \n\nJoin us on #Discord now and be one\u2026",
            "published_at": "2022-02-09T11:22:49Z",
            "slug": "RT-wildcardp2e-WildcardP2E-is-a-brand-new-PlayToEarn-game-actually-in-a-pre-alpha-testing-phase-Join-us-on-Discord-now-and-be-one",
            "currencies": [
                {
                    "code": "TCT",
                    "title": "TacoCat Token",
                    "slug": null,
                    "url": "https:\/\/cryptopanic.com\/news\/None\/"
                }
            ],
            "id": 14251417,
            "url": "https:\/\/cryptopanic.com\/news\/14251417\/RT-wildcardp2e-WildcardP2E-is-a-brand-new-PlayToEarn-game-actually-in-a-pre-alpha-testing-phase-Join-us-on-Discord-now-and-be-one",
            "created_at": "2022-02-09T11:22:49Z",
            "votes": {
                "negative": 0,
                "positive": 0,
                "important": 0,
                "liked": 0,
                "disliked": 0,
                "lol": 0,
                "toxic": 0,
                "saved": 0,
                "comments": 0
            }
        },
        {
            "kind": "news",
            "domain": "@TacoCatToken",
            "source": {
                "title": "TacoCat Token Twitter",
                "region": "en",
                "domain": "twitter.com",
                "path": "@tacocattoken"
            },
            "title": "RT @wildcardp2e: Big updates are gonna to be revealed in today's #DevChat \n\nJoin us on #YouTube at 7PM PST \n\nDon't miss it! \n\nThe most w\u2026",
            "published_at": "2022-02-08T18:21:35Z",
            "slug": "RT-wildcardp2e-Big-updates-are-gonna-to-be-revealed-in-todays-DevChat-Join-us-on-YouTube-at-7PM-PST-Dont-miss-it-The-most-w",
            "currencies": [
                {
                    "code": "TCT",
                    "title": "TacoCat Token",
                    "slug": null,
                    "url": "https:\/\/cryptopanic.com\/news\/None\/"
                }
            ],
            "id": 14238480,
            "url": "https:\/\/cryptopanic.com\/news\/14238480\/RT-wildcardp2e-Big-updates-are-gonna-to-be-revealed-in-todays-DevChat-Join-us-on-YouTube-at-7PM-PST-Dont-miss-it-The-most-w",
            "created_at": "2022-02-08T18:21:35Z",
            "votes": {
                "negative": 0,
                "positive": 0,
                "important": 0,
                "liked": 0,
                "disliked": 0,
                "lol": 0,
                "toxic": 0,
                "saved": 0,
                "comments": 0
            }
        },
        {
            "kind": "news",
            "domain": "@TacoCatToken",
            "source": {
                "title": "TacoCat Token Twitter",
                "region": "en",
                "domain": "twitter.com",
                "path": "@tacocattoken"
            },
            "title": "RT @GamingfiTv: TOP GAMING PROJECT WITH HIGHEST SOCIAL VOLUME \n\n@TacoCatToken $TCT\n@catecoin $CATE\n@AxieInfinity $AXS\n@decentraland $MANA\u2026",
            "published_at": "2022-02-07T12:33:42Z",
            "slug": "RT-GamingfiTv-TOP-GAMING-PROJECT-WITH-HIGHEST-SOCIAL-VOLUME-TacoCatToken-TCT-catecoin-CATE-AxieInfinity-AXS-decentraland-MANA",
            "currencies": [
                {
                    "code": "TCT",
                    "title": "TacoCat Token",
                    "slug": null,
                    "url": "https:\/\/cryptopanic.com\/news\/None\/"
                }
            ],
            "id": 14226782,
            "url": "https:\/\/cryptopanic.com\/news\/14226782\/RT-GamingfiTv-TOP-GAMING-PROJECT-WITH-HIGHEST-SOCIAL-VOLUME-TacoCatToken-TCT-catecoin-CATE-AxieInfinity-AXS-decentraland-MANA",
            "created_at": "2022-02-07T12:33:42Z",
            "votes": {
                "negative": 0,
                "positive": 0,
                "important": 0,
                "liked": 0,
                "disliked": 0,
                "lol": 0,
                "toxic": 0,
                "saved": 0,
                "comments": 0
            }
        },
        {
            "kind": "news",
            "domain": "@TacoCatToken",
            "source": {
                "title": "TacoCat Token Twitter",
                "region": "en",
                "domain": "twitter.com",
                "path": "@tacocattoken"
            },
            "title": "RT @Coin98Insights: TOP 10 MOST MENTIONED #NFT PROJECTS ON TWITTER\n\n$XTZ $NFTBS $RARI $MANA $TCT $CATE $AXS $LUV $RARE $STARL",
            "published_at": "2022-02-03T15:43:02Z",
            "slug": "RT-Coin98Insights-TOP-10-MOST-MENTIONED-NFT-PROJECTS-ON-TWITTER-XTZ-NFTBS-RARI-MANA-TCT-CATE-AXS-LUV-RARE-STARL",
            "currencies": [
                {
                    "code": "TCT",
                    "title": "TacoCat Token",
                    "slug": null,
                    "url": "https:\/\/cryptopanic.com\/news\/None\/"
                },
                {
                    "code": "AXS",
                    "title": "Axie Infinity",
                    "slug": "axie-infinity",
                    "url": "https:\/\/cryptopanic.com\/news\/axie-infinity\/"
                },
                {
                    "code": "MANA",
                    "title": "Decentraland",
                    "slug": "decentraland",
                    "url": "https:\/\/cryptopanic.com\/news\/decentraland\/"
                }
            ],
            "id": 14190058,
            "url": "https:\/\/cryptopanic.com\/news\/14190058\/RT-Coin98Insights-TOP-10-MOST-MENTIONED-NFT-PROJECTS-ON-TWITTER-XTZ-NFTBS-RARI-MANA-TCT-CATE-AXS-LUV-RARE-STARL",
            "created_at": "2022-02-03T15:43:02Z",
            "votes": {
                "negative": 0,
                "positive": 0,
                "important": 0,
                "liked": 0,
                "disliked": 0,
                "lol": 0,
                "toxic": 0,
                "saved": 0,
                "comments": 0
            }
        },
        {
            "kind": "news",
            "domain": "@TacoCatToken",
            "source": {
                "title": "TacoCat Token Twitter",
                "region": "en",
                "domain": "twitter.com",
                "path": "@tacocattoken"
            },
            "title": "RT @wildcardp2e: We are ready for another amazing #WildcardWednesday \n\nToday we'll find out more about our beloved #Nemots \n\nJoin us on #\u2026",
            "published_at": "2022-02-02T19:27:29Z",
            "slug": "RT-wildcardp2e-We-are-ready-for-another-amazing-WildcardWednesday-Today-well-find-out-more-about-our-beloved-Nemots-Join-us-on",
            "currencies": [
                {
                    "code": "TCT",
                    "title": "TacoCat Token",
                    "slug": null,
                    "url": "https:\/\/cryptopanic.com\/news\/None\/"
                }
            ],
            "id": 14178544,
            "url": "https:\/\/cryptopanic.com\/news\/14178544\/RT-wildcardp2e-We-are-ready-for-another-amazing-WildcardWednesday-Today-well-find-out-more-about-our-beloved-Nemots-Join-us-on",
            "created_at": "2022-02-02T19:27:29Z",
            "votes": {
                "negative": 0,
                "positive": 0,
                "important": 0,
                "liked": 0,
                "disliked": 0,
                "lol": 0,
                "toxic": 0,
                "saved": 0,
                "comments": 0
            }
        },
        {
            "kind": "news",
            "domain": "@TacoCatToken",
            "source": {
                "title": "TacoCat Token Twitter",
                "region": "en",
                "domain": "twitter.com",
                "path": "@tacocattoken"
            },
            "title": "We are all set! \n\nJoin us for this week's #TacoCatTuesday AMA \n\n$TCT #TacoCatToken #WildcardP2E #Gaming #NFT\u2026",
            "published_at": "2022-02-01T19:03:03Z",
            "slug": "We-are-all-set-Join-us-for-this-weeks-TacoCatTuesday-AMA-TCT-TacoCatToken-WildcardP2E-Gaming-NFT",
            "currencies": [
                {
                    "code": "TCT",
                    "title": "TacoCat Token",
                    "slug": null,
                    "url": "https:\/\/cryptopanic.com\/news\/None\/"
                }
            ],
            "id": 14167912,
            "url": "https:\/\/cryptopanic.com\/news\/14167912\/We-are-all-set-Join-us-for-this-weeks-TacoCatTuesday-AMA-TCT-TacoCatToken-WildcardP2E-Gaming-NFT",
            "created_at": "2022-02-01T19:03:03Z",
            "votes": {
                "negative": 0,
                "positive": 0,
                "important": 0,
                "liked": 0,
                "disliked": 0,
                "lol": 0,
                "toxic": 0,
                "saved": 0,
                "comments": 0
            }
        }
    ]
}
