{
    "count": 200,
    "next": "https:\/\/cryptopanic.com\/api\/v1\/posts\/?auth_token=01c356e89ffc1b8eba2127c81fc8c66ee0eace75&kind=news&currencies=BGBP&page=2",
    "previous": null,
    "results": [
        {
            "kind": "news",
            "domain": "@BinanceJE",
            "source": {
                "title": "Binance GBP Stable Coin Twitter",
                "region": "en",
                "domain": "twitter.com",
                "path": "@binanceje"
            },
            "title": "RT @binance: Watch this. #Binance",
            "published_at": "2020-01-15T11:58:13Z",
            "slug": "RT-binance-Watch-this-Binance",
            "currencies": [
                {
                    "code": "BGBP",
                    "title": "Binance GBP Stable Coin",
                    "slug": null,
                    "url": "https:\/\/cryptopanic.com\/news\/None\/"
                }
            ],
            "id": 7655851,
            "url": "https:\/\/cryptopanic.com\/news\/7655851\/RT-binance-Watch-this-Binance",
            "created_at": "2020-01-15T11:58:13Z",
            "votes": {
                "negative": 0,
                "positive": 0,
                "important": 0,
                "liked": 0,
                "disliked": 0,
                "lol": 0,
                "toxic": 0,
                "saved": 0,
                "comments": 0
            }
        },
        {
            "kind": "news",
            "domain": "@BinanceJE",
            "source": {
                "title": "Binance GBP Stable Coin Twitter",
                "region": "en",
                "domain": "twitter.com",
                "path": "@binanceje"
            },
            "title": "RT @binance: #Binance Adds $GBP Faster Payments Service and Australian Dollar On-Ramp With Global Fiat Solution @BanxaOfficial\n\n\"In 2020, w\u2026",
            "published_at": "2020-01-08T07:47:24Z",
            "slug": "RT-binance-Binance-Adds-GBP-Faster-Payments-Service-and-Australian-Dollar-On-Ramp-With-Global-Fiat-Solution-BanxaOfficial-In-2020-w",
            "currencies": [
                {
                    "code": "BGBP",
                    "title": "Binance GBP Stable Coin",
                    "slug": null,
                    "url": "https:\/\/cryptopanic.com\/news\/None\/"
                }
            ],
            "id": 7593946,
            "url": "https:\/\/cryptopanic.com\/news\/7593946\/RT-binance-Binance-Adds-GBP-Faster-Payments-Service-and-Australian-Dollar-On-Ramp-With-Global-Fiat-Solution-BanxaOfficial-In-2020-w",
            "created_at": "2020-01-08T07:47:24Z",
            "votes": {
                "negative": 0,
                "positive": 0,
                "important": 0,
                "liked": 0,
                "disliked": 0,
                "lol": 0,
                "toxic": 0,
                "saved": 0,
                "comments": 0
            }
        },
        {
            "kind": "news",
            "domain": "@BinanceJE",
            "source": {
                "title": "Binance GBP Stable Coin Twitter",
                "region": "en",
                "domain": "twitter.com",
                "path": "@binanceje"
            },
            "title": "RT @binance: Last week @binance \n\n1. 75x leverage BCHUSDT on #BinanceFutures\n2. @FTX_Official strategic investment\n3. ETHUSDT leverage incr\u2026",
            "published_at": "2019-12-26T08:23:09Z",
            "slug": "RT-binance-Last-week-binance-1-75x-leverage-BCHUSDT-on-BinanceFutures-2-FTX_Official-strategic-investment-3-ETHUSDT-leverage-incr",
            "currencies": [
                {
                    "code": "BGBP",
                    "title": "Binance GBP Stable Coin",
                    "slug": null,
                    "url": "https:\/\/cryptopanic.com\/news\/None\/"
                }
            ],
            "id": 7500075,
            "url": "https:\/\/cryptopanic.com\/news\/7500075\/RT-binance-Last-week-binance-1-75x-leverage-BCHUSDT-on-BinanceFutures-2-FTX_Official-strategic-investment-3-ETHUSDT-leverage-incr",
            "created_at": "2019-12-26T08:23:09Z",
            "votes": {
                "negative": 0,
                "positive": 0,
                "important": 0,
                "liked": 0,
                "disliked": 0,
                "lol": 0,
                "toxic": 0,
                "saved": 0,
                "comments": 0
            }
        },
        {
            "kind": "news",
            "domain": "@BinanceJE",
            "source": {
                "title": "Binance GBP Stable Coin Twitter",
                "region": "en",
                "domain": "twitter.com",
                "path": "@binanceje"
            },
            "title": "RT @binance: #Binance Report - \u200aMonth 29\n\n1. @WazirXIndia &amp; @dapp_review acquisitions\n2. 16 fiat to #Crypto options on",
            "published_at": "2019-12-17T06:23:14Z",
            "slug": "RT-binance-Binance-Report-Month-29-1-WazirXIndia-amp-dapp_review-acquisitions-2-16-fiat-to-Crypto-options-on",
            "currencies": [
                {
                    "code": "BGBP",
                    "title": "Binance GBP Stable Coin",
                    "slug": null,
                    "url": "https:\/\/cryptopanic.com\/news\/None\/"
                }
            ],
            "id": 7427602,
            "url": "https:\/\/cryptopanic.com\/news\/7427602\/RT-binance-Binance-Report-Month-29-1-WazirXIndia-amp-dapp_review-acquisitions-2-16-fiat-to-Crypto-options-on",
            "created_at": "2019-12-17T06:23:14Z",
            "votes": {
                "negative": 0,
                "positive": 0,
                "important": 0,
                "liked": 0,
                "disliked": 0,
                "lol": 0,
                "toxic": 0,
                "saved": 0,
                "comments": 0
            }
        },
        {
            "kind": "news",
            "domain": "@BinanceJE",
            "source": {
                "title": "Binance GBP Stable Coin Twitter",
                "region": "en",
                "domain": "twitter.com",
                "path": "@binanceje"
            },
            "title": "RT @binance: Last week @binance \n\n1. #BinanceFutures on iOS\n2. Even more #Crypto to fiat options ( $ARS, $COP, $CAD, $MXN, $VND &amp; $IDR)\n3.\u2026",
            "published_at": "2019-12-10T09:16:33Z",
            "slug": "RT-binance-Last-week-binance-1-BinanceFutures-on-iOS-2-Even-more-Crypto-to-fiat-options-ARS-COP-CAD-MXN-VND-amp-IDR-3",
            "currencies": [
                {
                    "code": "BGBP",
                    "title": "Binance GBP Stable Coin",
                    "slug": null,
                    "url": "https:\/\/cryptopanic.com\/news\/None\/"
                }
            ],
            "id": 7367826,
            "url": "https:\/\/cryptopanic.com\/news\/7367826\/RT-binance-Last-week-binance-1-BinanceFutures-on-iOS-2-Even-more-Crypto-to-fiat-options-ARS-COP-CAD-MXN-VND-amp-IDR-3",
            "created_at": "2019-12-10T09:16:33Z",
            "votes": {
                "negative": 0,
                "positive": 0,
                "important": 0,
                "liked": 0,
                "disliked": 0,
                "lol": 0,
                "toxic": 0,
                "saved": 0,
                "comments": 0
            }
        },
        {
            "kind": "news",
            "domain": "@BinanceJE",
            "source": {
                "title": "Binance GBP Stable Coin Twitter",
                "region": "en",
                "domain": "twitter.com",
                "path": "@binanceje"
            },
            "title": "RT @binance: #UseBNB at for 10% off your next holiday ",
            "published_at": "2019-12-03T06:18:52Z",
            "slug": "RT-binance-UseBNB-at-for-10-off-your-next-holiday",
            "currencies": [
                {
                    "code": "BGBP",
                    "title": "Binance GBP Stable Coin",
                    "slug": null,
                    "url": "https:\/\/cryptopanic.com\/news\/None\/"
                }
            ],
            "id": 7305379,
            "url": "https:\/\/cryptopanic.com\/news\/7305379\/RT-binance-UseBNB-at-for-10-off-your-next-holiday",
            "created_at": "2019-12-03T06:18:52Z",
            "votes": {
                "negative": 0,
                "positive": 0,
                "important": 0,
                "liked": 0,
                "disliked": 0,
                "lol": 0,
                "toxic": 0,
                "saved": 0,
                "comments": 0
            }
        },
        {
            "kind": "news",
            "domain": "@BinanceJE",
            "source": {
                "title": "Binance GBP Stable Coin Twitter",
                "region": "en",
                "domain": "twitter.com",
                "path": "@binanceje"
            },
            "title": "RT @binance: #Binance Partners with @TravelbyBit to Launch Crypto-Backed Travel Rewards Card\n\nLoad your travel card with $BTC, $BUSD, $BNB,\u2026",
            "published_at": "2019-11-28T07:47:55Z",
            "slug": "RT-binance-Binance-Partners-with-TravelbyBit-to-Launch-Crypto-Backed-Travel-Rewards-Card-Load-your-travel-card-with-BTC-BUSD-BNB",
            "currencies": [
                {
                    "code": "BGBP",
                    "title": "Binance GBP Stable Coin",
                    "slug": null,
                    "url": "https:\/\/cryptopanic.com\/news\/None\/"
                }
            ],
            "id": 7267913,
            "url": "https:\/\/cryptopanic.com\/news\/7267913\/RT-binance-Binance-Partners-with-TravelbyBit-to-Launch-Crypto-Backed-Travel-Rewards-Card-Load-your-travel-card-with-BTC-BUSD-BNB",
            "created_at": "2019-11-28T07:47:55Z",
            "votes": {
                "negative": 0,
                "positive": 0,
                "important": 0,
                "liked": 0,
                "disliked": 0,
                "lol": 0,
                "toxic": 0,
                "saved": 0,
                "comments": 0
            }
        },
        {
            "kind": "news",
            "domain": "@BinanceJE",
            "source": {
                "title": "Binance GBP Stable Coin Twitter",
                "region": "en",
                "domain": "twitter.com",
                "path": "@binanceje"
            },
            "title": "RT @binance: #Binance Monthly Report #28\n\n1. 125x Leverage on #BinanceFutures\n2. $EUR, $NGN, $RUB, $KZT &amp; $UAH fiat gateways\n3. Binance x @\u2026",
            "published_at": "2019-11-19T10:08:02Z",
            "slug": "RT-binance-Binance-Monthly-Report-28-1-125x-Leverage-on-BinanceFutures-2-EUR-NGN-RUB-KZT-amp-UAH-fiat-gateways-3-Binance-x",
            "currencies": [
                {
                    "code": "BGBP",
                    "title": "Binance GBP Stable Coin",
                    "slug": null,
                    "url": "https:\/\/cryptopanic.com\/news\/None\/"
                }
            ],
            "id": 7183433,
            "url": "https:\/\/cryptopanic.com\/news\/7183433\/RT-binance-Binance-Monthly-Report-28-1-125x-Leverage-on-BinanceFutures-2-EUR-NGN-RUB-KZT-amp-UAH-fiat-gateways-3-Binance-x",
            "created_at": "2019-11-19T10:08:02Z",
            "votes": {
                "negative": 0,
                "positive": 0,
                "important": 0,
                "liked": 0,
                "disliked": 0,
                "lol": 0,
                "toxic": 0,
                "saved": 0,
                "comments": 0
            }
        },
        {
            "kind": "news",
            "domain": "@BinanceJE",
            "source": {
                "title": "Binance GBP Stable Coin Twitter",
                "region": "en",
                "domain": "twitter.com",
                "path": "@binanceje"
            },
            "title": "RT @binance: #Binance Opens Turkish lira $TRY Fiat Gateway Through Papara",
            "published_at": "2019-11-19T09:43:25Z",
            "slug": "RT-binance-Binance-Opens-Turkish-lira-TRY-Fiat-Gateway-Through-Papara",
            "currencies": [
                {
                    "code": "BGBP",
                    "title": "Binance GBP Stable Coin",
                    "slug": null,
                    "url": "https:\/\/cryptopanic.com\/news\/None\/"
                }
            ],
            "id": 7183278,
            "url": "https:\/\/cryptopanic.com\/news\/7183278\/RT-binance-Binance-Opens-Turkish-lira-TRY-Fiat-Gateway-Through-Papara",
            "created_at": "2019-11-19T09:43:25Z",
            "votes": {
                "negative": 0,
                "positive": 0,
                "important": 0,
                "liked": 0,
                "disliked": 0,
                "lol": 0,
                "toxic": 0,
                "saved": 0,
                "comments": 0
            }
        },
        {
            "kind": "news",
            "domain": "@BinanceJE",
            "source": {
                "title": "Binance GBP Stable Coin Twitter",
                "region": "en",
                "domain": "twitter.com",
                "path": "@binanceje"
            },
            "title": "RT @Timccopeland: I spent six months working in my spare time to create this, as a decent bit of real journalism in this space. if you appr\u2026",
            "published_at": "2019-11-18T07:07:39Z",
            "slug": "RT-Timccopeland-I-spent-six-months-working-in-my-spare-time-to-create-this-as-a-decent-bit-of-real-journalism-in-this-space-if-you-appr",
            "currencies": [
                {
                    "code": "BGBP",
                    "title": "Binance GBP Stable Coin",
                    "slug": null,
                    "url": "https:\/\/cryptopanic.com\/news\/None\/"
                }
            ],
            "id": 7172348,
            "url": "https:\/\/cryptopanic.com\/news\/7172348\/RT-Timccopeland-I-spent-six-months-working-in-my-spare-time-to-create-this-as-a-decent-bit-of-real-journalism-in-this-space-if-you-appr",
            "created_at": "2019-11-18T07:07:39Z",
            "votes": {
                "negative": 0,
                "positive": 0,
                "important": 0,
                "liked": 0,
                "disliked": 0,
                "lol": 0,
                "toxic": 0,
                "saved": 0,
                "comments": 0
            }
        },
        {
            "kind": "news",
            "domain": "@BinanceJE",
            "source": {
                "title": "Binance GBP Stable Coin Twitter",
                "region": "en",
                "domain": "twitter.com",
                "path": "@binanceje"
            },
            "title": "RT @binance: Last week @binance \n\n1. 125x Leverage on #BinanceFutures\n2. 2,061 ,888 $BNB burn \n3. BNB ETP on Swiss stock exchange\n4. @kava\u2026",
            "published_at": "2019-10-22T09:11:47Z",
            "slug": "RT-binance-Last-week-binance-1-125x-Leverage-on-BinanceFutures-2-2061-888-BNB-burn-3-BNB-ETP-on-Swiss-stock-exchange-4-kava",
            "currencies": [
                {
                    "code": "BGBP",
                    "title": "Binance GBP Stable Coin",
                    "slug": null,
                    "url": "https:\/\/cryptopanic.com\/news\/None\/"
                },
                {
                    "code": "ETP",
                    "title": "Metaverse ETP",
                    "slug": "metaverse-etp",
                    "url": "https:\/\/cryptopanic.com\/news\/metaverse-etp\/"
                },
                {
                    "code": "BNB",
                    "title": "OEC Binance Coin",
                    "slug": "oec-binance-coin",
                    "url": "https:\/\/cryptopanic.com\/news\/oec-binance-coin\/"
                }
            ],
            "id": 6921987,
            "url": "https:\/\/cryptopanic.com\/news\/6921987\/RT-binance-Last-week-binance-1-125x-Leverage-on-BinanceFutures-2-2061-888-BNB-burn-3-BNB-ETP-on-Swiss-stock-exchange-4-kava",
            "created_at": "2019-10-22T09:11:47Z",
            "votes": {
                "negative": 0,
                "positive": 0,
                "important": 0,
                "liked": 0,
                "disliked": 0,
                "lol": 0,
                "toxic": 0,
                "saved": 0,
                "comments": 0
            }
        },
        {
            "kind": "news",
            "domain": "@BinanceJE",
            "source": {
                "title": "Binance GBP Stable Coin Twitter",
                "region": "en",
                "domain": "twitter.com",
                "path": "@binanceje"
            },
            "title": "RT @binance: #Binance Adds Multiple $BUSD Trading Pairs",
            "published_at": "2019-10-21T09:02:55Z",
            "slug": "RT-binance-Binance-Adds-Multiple-BUSD-Trading-Pairs",
            "currencies": [
                {
                    "code": "BGBP",
                    "title": "Binance GBP Stable Coin",
                    "slug": null,
                    "url": "https:\/\/cryptopanic.com\/news\/None\/"
                },
                {
                    "code": "BUSD",
                    "title": "Binance USD",
                    "slug": "binance-usd",
                    "url": "https:\/\/cryptopanic.com\/news\/binance-usd\/"
                }
            ],
            "id": 6911992,
            "url": "https:\/\/cryptopanic.com\/news\/6911992\/RT-binance-Binance-Adds-Multiple-BUSD-Trading-Pairs",
            "created_at": "2019-10-21T09:02:55Z",
            "votes": {
                "negative": 0,
                "positive": 0,
                "important": 0,
                "liked": 0,
                "disliked": 0,
                "lol": 0,
                "toxic": 0,
                "saved": 0,
                "comments": 0
            }
        },
        {
            "kind": "news",
            "domain": "@BinanceJE",
            "source": {
                "title": "Binance GBP Stable Coin Twitter",
                "region": "en",
                "domain": "twitter.com",
                "path": "@binanceje"
            },
            "title": "RT @NuggetsNewsAU: 9th @Binance $BNB burn is huge!\n\nThe 'Binance Futures' effect, @cz_binance?\n\n{\\__\/}\n( \u2022 - \u2022)\n&lt; \\\n\n{\\__\/}\n( \u2022 . \u2022)\n\/ &gt;\u2026",
            "published_at": "2019-10-18T06:54:58Z",
            "slug": "RT-NuggetsNewsAU-9th-Binance-BNB-burn-is-huge-The-Binance-Futures-effect-cz_binance-__-lt-__-gt",
            "currencies": [
                {
                    "code": "BGBP",
                    "title": "Binance GBP Stable Coin",
                    "slug": null,
                    "url": "https:\/\/cryptopanic.com\/news\/None\/"
                },
                {
                    "code": "BNB",
                    "title": "OEC Binance Coin",
                    "slug": "oec-binance-coin",
                    "url": "https:\/\/cryptopanic.com\/news\/oec-binance-coin\/"
                }
            ],
            "id": 6889659,
            "url": "https:\/\/cryptopanic.com\/news\/6889659\/RT-NuggetsNewsAU-9th-Binance-BNB-burn-is-huge-The-Binance-Futures-effect-cz_binance-__-lt-__-gt",
            "created_at": "2019-10-18T06:54:58Z",
            "votes": {
                "negative": 0,
                "positive": 0,
                "important": 0,
                "liked": 0,
                "disliked": 0,
                "lol": 0,
                "toxic": 0,
                "saved": 0,
                "comments": 0
            }
        },
        {
            "kind": "news",
            "domain": "@BinanceJE",
            "source": {
                "title": "Binance GBP Stable Coin Twitter",
                "region": "en",
                "domain": "twitter.com",
                "path": "@binanceje"
            },
            "title": "RT @binance: 9th $BNB Burn: Q3 2019 Recap - @cz_binance \n\n\" I know for a fact that the long-term winners are the people who build products\u2026",
            "published_at": "2019-10-17T08:28:30Z",
            "slug": "RT-binance-9th-BNB-Burn-Q3-2019-Recap-cz_binance-I-know-for-a-fact-that-the-long-term-winners-are-the-people-who-build-products",
            "currencies": [
                {
                    "code": "BGBP",
                    "title": "Binance GBP Stable Coin",
                    "slug": null,
                    "url": "https:\/\/cryptopanic.com\/news\/None\/"
                },
                {
                    "code": "BNB",
                    "title": "OEC Binance Coin",
                    "slug": "oec-binance-coin",
                    "url": "https:\/\/cryptopanic.com\/news\/oec-binance-coin\/"
                }
            ],
            "id": 6879703,
            "url": "https:\/\/cryptopanic.com\/news\/6879703\/RT-binance-9th-BNB-Burn-Q3-2019-Recap-cz_binance-I-know-for-a-fact-that-the-long-term-winners-are-the-people-who-build-products",
            "created_at": "2019-10-17T08:28:30Z",
            "votes": {
                "negative": 0,
                "positive": 0,
                "important": 0,
                "liked": 0,
                "disliked": 0,
                "lol": 0,
                "toxic": 0,
                "saved": 0,
                "comments": 0
            }
        }
    ]
}
