{
    "count": 200,
    "next": "https:\/\/cryptopanic.com\/api\/v1\/posts\/?auth_token=01c356e89ffc1b8eba2127c81fc8c66ee0eace75&kind=news&currencies=DODO&page=2",
    "previous": null,
    "results": [
        {
            "kind": "news",
            "domain": "@BreederDodo",
            "source": {
                "title": "DODO Twitter",
                "region": "en",
                "domain": "twitter.com",
                "path": "@breederdodo"
            },
            "title": " We're thrilled to announce that DODO has hit a major milestone of 20 million in total transactions! \n\n Thanks\u2026",
            "published_at": "2023-07-12T05:58:50Z",
            "slug": "Were-thrilled-to-announce-that-DODO-has-hit-a-major-milestone-of-20-million-in-total-transactions-Thanks",
            "currencies": [
                {
                    "code": "DODO",
                    "title": "DODO",
                    "slug": "dodo",
                    "url": "https:\/\/cryptopanic.com\/news\/dodo\/"
                }
            ],
            "id": 18763624,
            "url": "https:\/\/cryptopanic.com\/news\/18763624\/Were-thrilled-to-announce-that-DODO-has-hit-a-major-milestone-of-20-million-in-total-transactions-Thanks",
            "created_at": "2023-07-12T05:58:50Z",
            "votes": {
                "negative": 0,
                "positive": 0,
                "important": 0,
                "liked": 0,
                "disliked": 0,
                "lol": 0,
                "toxic": 0,
                "saved": 0,
                "comments": 0
            }
        },
        {
            "kind": "news",
            "domain": "@BreederDodo",
            "source": {
                "title": "DODO Twitter",
                "region": "en",
                "domain": "twitter.com",
                "path": "@breederdodo"
            },
            "title": "Question: What do you think are the most important characteristics to succeed in the industry of Web 3?\ud83e\udd14",
            "published_at": "2023-07-10T11:45:02Z",
            "slug": "Question-What-do-you-think-are-the-most-important-characteristics-to-succeed-in-the-industry-of-Web-3",
            "currencies": [
                {
                    "code": "DODO",
                    "title": "DODO",
                    "slug": "dodo",
                    "url": "https:\/\/cryptopanic.com\/news\/dodo\/"
                }
            ],
            "id": 18755517,
            "url": "https:\/\/cryptopanic.com\/news\/18755517\/Question-What-do-you-think-are-the-most-important-characteristics-to-succeed-in-the-industry-of-Web-3",
            "created_at": "2023-07-10T11:45:02Z",
            "votes": {
                "negative": 0,
                "positive": 0,
                "important": 0,
                "liked": 0,
                "disliked": 0,
                "lol": 0,
                "toxic": 0,
                "saved": 0,
                "comments": 0
            }
        },
        {
            "kind": "news",
            "domain": "@BreederDodo",
            "source": {
                "title": "DODO Twitter",
                "region": "en",
                "domain": "twitter.com",
                "path": "@breederdodo"
            },
            "title": "RT @DodoResearch: Tokenomics is the backbone of DeFi projects.\n\nIt\u2019s essential for users to understand where the incentive comes from and h\u2026",
            "published_at": "2023-07-10T03:25:19Z",
            "slug": "RT-DodoResearch-Tokenomics-is-the-backbone-of-DeFi-projects-Its-essential-for-users-to-understand-where-the-incentive-comes-from-and-h",
            "currencies": [
                {
                    "code": "DODO",
                    "title": "DODO",
                    "slug": "dodo",
                    "url": "https:\/\/cryptopanic.com\/news\/dodo\/"
                }
            ],
            "id": 18749326,
            "url": "https:\/\/cryptopanic.com\/news\/18749326\/RT-DodoResearch-Tokenomics-is-the-backbone-of-DeFi-projects-Its-essential-for-users-to-understand-where-the-incentive-comes-from-and-h",
            "created_at": "2023-07-10T03:25:19Z",
            "votes": {
                "negative": 0,
                "positive": 0,
                "important": 0,
                "liked": 0,
                "disliked": 0,
                "lol": 0,
                "toxic": 0,
                "saved": 0,
                "comments": 0
            }
        },
        {
            "kind": "news",
            "domain": "@BreederDodo",
            "source": {
                "title": "DODO Twitter",
                "region": "en",
                "domain": "twitter.com",
                "path": "@breederdodo"
            },
            "title": "Following today\u2019s incident, $DODO has removed @MultichainOrg from the cross-chain bridges provided for the time be\u2026",
            "published_at": "2023-07-07T07:47:20Z",
            "slug": "Following-todays-incident-DODO-has-removed-MultichainOrg-from-the-cross-chain-bridges-provided-for-the-time-be",
            "currencies": [
                {
                    "code": "DODO",
                    "title": "DODO",
                    "slug": "dodo",
                    "url": "https:\/\/cryptopanic.com\/news\/dodo\/"
                }
            ],
            "id": 18739569,
            "url": "https:\/\/cryptopanic.com\/news\/18739569\/Following-todays-incident-DODO-has-removed-MultichainOrg-from-the-cross-chain-bridges-provided-for-the-time-be",
            "created_at": "2023-07-07T07:47:20Z",
            "votes": {
                "negative": 0,
                "positive": 0,
                "important": 0,
                "liked": 0,
                "disliked": 0,
                "lol": 0,
                "toxic": 0,
                "saved": 0,
                "comments": 0
            }
        },
        {
            "kind": "news",
            "domain": "@BreederDodo",
            "source": {
                "title": "DODO Twitter",
                "region": "en",
                "domain": "twitter.com",
                "path": "@breederdodo"
            },
            "title": "\u203c\ufe0fFriendly reminder",
            "published_at": "2023-07-07T06:29:32Z",
            "slug": "Friendly-reminder",
            "currencies": [
                {
                    "code": "DODO",
                    "title": "DODO",
                    "slug": "dodo",
                    "url": "https:\/\/cryptopanic.com\/news\/dodo\/"
                }
            ],
            "id": 18731864,
            "url": "https:\/\/cryptopanic.com\/news\/18731864\/Friendly-reminder",
            "created_at": "2023-07-07T06:29:32Z",
            "votes": {
                "negative": 0,
                "positive": 0,
                "important": 0,
                "liked": 0,
                "disliked": 0,
                "lol": 0,
                "toxic": 0,
                "saved": 0,
                "comments": 0
            }
        },
        {
            "kind": "news",
            "domain": "@BreederDodo",
            "source": {
                "title": "DODO Twitter",
                "region": "en",
                "domain": "twitter.com",
                "path": "@breederdodo"
            },
            "title": "Let\u2019s settle the debate. #Twitter or #Threads?",
            "published_at": "2023-07-06T13:25:50Z",
            "slug": "Lets-settle-the-debate-Twitter-or-Threads",
            "currencies": [
                {
                    "code": "DODO",
                    "title": "DODO",
                    "slug": "dodo",
                    "url": "https:\/\/cryptopanic.com\/news\/dodo\/"
                }
            ],
            "id": 18731865,
            "url": "https:\/\/cryptopanic.com\/news\/18731865\/Lets-settle-the-debate-Twitter-or-Threads",
            "created_at": "2023-07-06T13:25:50Z",
            "votes": {
                "negative": 0,
                "positive": 0,
                "important": 0,
                "liked": 0,
                "disliked": 0,
                "lol": 0,
                "toxic": 0,
                "saved": 0,
                "comments": 0
            }
        },
        {
            "kind": "news",
            "domain": "@BreederDodo",
            "source": {
                "title": "DODO Twitter",
                "region": "en",
                "domain": "twitter.com",
                "path": "@breederdodo"
            },
            "title": "RT @DodoResearch: The emergence of #memecoins like $PEPE created a frenzy of speculative trading.\n\nDODO Research examines 5 tools utilized\u2026",
            "published_at": "2023-07-06T11:28:23Z",
            "slug": "RT-DodoResearch-The-emergence-of-memecoins-like-PEPE-created-a-frenzy-of-speculative-trading-DODO-Research-examines-5-tools-utilized",
            "currencies": [
                {
                    "code": "DODO",
                    "title": "DODO",
                    "slug": "dodo",
                    "url": "https:\/\/cryptopanic.com\/news\/dodo\/"
                },
                {
                    "code": "PEPE",
                    "title": "Pepe",
                    "slug": "pepe",
                    "url": "https:\/\/cryptopanic.com\/news\/pepe\/"
                }
            ],
            "id": 18731866,
            "url": "https:\/\/cryptopanic.com\/news\/18731866\/RT-DodoResearch-The-emergence-of-memecoins-like-PEPE-created-a-frenzy-of-speculative-trading-DODO-Research-examines-5-tools-utilized",
            "created_at": "2023-07-06T11:28:23Z",
            "votes": {
                "negative": 0,
                "positive": 0,
                "important": 0,
                "liked": 0,
                "disliked": 0,
                "lol": 0,
                "toxic": 0,
                "saved": 0,
                "comments": 0
            }
        },
        {
            "kind": "news",
            "domain": "@BreederDodo",
            "source": {
                "title": "DODO Twitter",
                "region": "en",
                "domain": "twitter.com",
                "path": "@breederdodo"
            },
            "title": " $DODO has successfully deployed on @Scroll_ZKP Alpha Testnet!\n\nScroll is a #zkEVM-based zkRollup on #ETH enabli\u2026",
            "published_at": "2023-07-05T09:38:11Z",
            "slug": "DODO-has-successfully-deployed-on-Scroll_ZKP-Alpha-Testnet-Scroll-is-a-zkEVM-based-zkRollup-on-ETH-enabli",
            "currencies": [
                {
                    "code": "DODO",
                    "title": "DODO",
                    "slug": "dodo",
                    "url": "https:\/\/cryptopanic.com\/news\/dodo\/"
                }
            ],
            "id": 18723275,
            "url": "https:\/\/cryptopanic.com\/news\/18723275\/DODO-has-successfully-deployed-on-Scroll_ZKP-Alpha-Testnet-Scroll-is-a-zkEVM-based-zkRollup-on-ETH-enabli",
            "created_at": "2023-07-05T09:38:11Z",
            "votes": {
                "negative": 0,
                "positive": 0,
                "important": 0,
                "liked": 0,
                "disliked": 0,
                "lol": 0,
                "toxic": 0,
                "saved": 0,
                "comments": 0
            }
        },
        {
            "kind": "news",
            "domain": "@BreederDodo",
            "source": {
                "title": "DODO Twitter",
                "region": "en",
                "domain": "twitter.com",
                "path": "@breederdodo"
            },
            "title": " How to Use DODO's Cross-Chain Trading Feature \n\n DODO's Cross-Chain Trading feature allows you to exchange as\u2026",
            "published_at": "2023-07-03T07:11:41Z",
            "slug": "How-to-Use-DODOs-Cross-Chain-Trading-Feature-DODOs-Cross-Chain-Trading-feature-allows-you-to-exchange-as",
            "currencies": [
                {
                    "code": "DODO",
                    "title": "DODO",
                    "slug": "dodo",
                    "url": "https:\/\/cryptopanic.com\/news\/dodo\/"
                }
            ],
            "id": 18708361,
            "url": "https:\/\/cryptopanic.com\/news\/18708361\/How-to-Use-DODOs-Cross-Chain-Trading-Feature-DODOs-Cross-Chain-Trading-feature-allows-you-to-exchange-as",
            "created_at": "2023-07-03T07:11:41Z",
            "votes": {
                "negative": 0,
                "positive": 0,
                "important": 0,
                "liked": 0,
                "disliked": 0,
                "lol": 0,
                "toxic": 0,
                "saved": 0,
                "comments": 0
            }
        },
        {
            "kind": "news",
            "domain": "@BreederDodo",
            "source": {
                "title": "DODO Twitter",
                "region": "en",
                "domain": "twitter.com",
                "path": "@breederdodo"
            },
            "title": "$120,000,000,000\n \ufe0fOne hundred and twenty billion\n $120B\n\nAll time volume on DODO DEX has surpassed $120 billio\u2026",
            "published_at": "2023-06-30T04:44:51Z",
            "slug": "120000000000-One-hundred-and-twenty-billion-120B-All-time-volume-on-DODO-DEX-has-surpassed-120-billio",
            "currencies": [
                {
                    "code": "DODO",
                    "title": "DODO",
                    "slug": "dodo",
                    "url": "https:\/\/cryptopanic.com\/news\/dodo\/"
                }
            ],
            "id": 18684911,
            "url": "https:\/\/cryptopanic.com\/news\/18684911\/120000000000-One-hundred-and-twenty-billion-120B-All-time-volume-on-DODO-DEX-has-surpassed-120-billio",
            "created_at": "2023-06-30T04:44:51Z",
            "votes": {
                "negative": 0,
                "positive": 0,
                "important": 0,
                "liked": 0,
                "disliked": 0,
                "lol": 0,
                "toxic": 0,
                "saved": 0,
                "comments": 0
            }
        },
        {
            "kind": "news",
            "domain": "@BreederDodo",
            "source": {
                "title": "DODO Twitter",
                "region": "en",
                "domain": "twitter.com",
                "path": "@breederdodo"
            },
            "title": "1\/ \ud83e\uddf5 @daomaker, a leading crypto entity known for their Launchpad and support for startups, has integrated DODO\u2019s T\u2026",
            "published_at": "2023-06-29T05:00:52Z",
            "slug": "1-daomaker-a-leading-crypto-entity-known-for-their-Launchpad-and-support-for-startups-has-integrated-DODOs-T",
            "currencies": [
                {
                    "code": "DODO",
                    "title": "DODO",
                    "slug": "dodo",
                    "url": "https:\/\/cryptopanic.com\/news\/dodo\/"
                }
            ],
            "id": 18676861,
            "url": "https:\/\/cryptopanic.com\/news\/18676861\/1-daomaker-a-leading-crypto-entity-known-for-their-Launchpad-and-support-for-startups-has-integrated-DODOs-T",
            "created_at": "2023-06-29T05:00:52Z",
            "votes": {
                "negative": 0,
                "positive": 0,
                "important": 0,
                "liked": 0,
                "disliked": 0,
                "lol": 0,
                "toxic": 0,
                "saved": 0,
                "comments": 0
            }
        },
        {
            "kind": "news",
            "domain": "@BreederDodo",
            "source": {
                "title": "DODO Twitter",
                "region": "en",
                "domain": "twitter.com",
                "path": "@breederdodo"
            },
            "title": "CommanDODOs, what is your go-to chain to swap on DODO?",
            "published_at": "2023-06-27T08:31:18Z",
            "slug": "CommanDODOs-what-is-your-go-to-chain-to-swap-on-DODO",
            "currencies": [
                {
                    "code": "DODO",
                    "title": "DODO",
                    "slug": "dodo",
                    "url": "https:\/\/cryptopanic.com\/news\/dodo\/"
                }
            ],
            "id": 18668597,
            "url": "https:\/\/cryptopanic.com\/news\/18668597\/CommanDODOs-what-is-your-go-to-chain-to-swap-on-DODO",
            "created_at": "2023-06-27T08:31:18Z",
            "votes": {
                "negative": 0,
                "positive": 0,
                "important": 0,
                "liked": 0,
                "disliked": 0,
                "lol": 0,
                "toxic": 0,
                "saved": 0,
                "comments": 0
            }
        },
        {
            "kind": "news",
            "domain": "@BreederDodo",
            "source": {
                "title": "DODO Twitter",
                "region": "en",
                "domain": "twitter.com",
                "path": "@breederdodo"
            },
            "title": "CommanDODOs, what are some improvements you\u2019d like to see from DODO down the line\ud83e\udd14\u2026",
            "published_at": "2023-06-24T08:01:09Z",
            "slug": "CommanDODOs-what-are-some-improvements-youd-like-to-see-from-DODO-down-the-line",
            "currencies": [
                {
                    "code": "DODO",
                    "title": "DODO",
                    "slug": "dodo",
                    "url": "https:\/\/cryptopanic.com\/news\/dodo\/"
                }
            ],
            "id": 18649706,
            "url": "https:\/\/cryptopanic.com\/news\/18649706\/CommanDODOs-what-are-some-improvements-youd-like-to-see-from-DODO-down-the-line",
            "created_at": "2023-06-24T08:01:09Z",
            "votes": {
                "negative": 0,
                "positive": 0,
                "important": 0,
                "liked": 0,
                "disliked": 0,
                "lol": 0,
                "toxic": 0,
                "saved": 0,
                "comments": 0
            }
        },
        {
            "kind": "news",
            "domain": "@BreederDodo",
            "source": {
                "title": "DODO Twitter",
                "region": "en",
                "domain": "twitter.com",
                "path": "@breederdodo"
            },
            "title": "The 24th DODO buyback &amp; Distribution to vDODO holders is complete!\n\n 206,396.50 $DODO tokens have been distribute\u2026",
            "published_at": "2023-06-22T08:53:27Z",
            "slug": "The-24th-DODO-buyback-amp-Distribution-to-vDODO-holders-is-complete-20639650-DODO-tokens-have-been-distribute",
            "currencies": [
                {
                    "code": "DODO",
                    "title": "DODO",
                    "slug": "dodo",
                    "url": "https:\/\/cryptopanic.com\/news\/dodo\/"
                }
            ],
            "id": 18636122,
            "url": "https:\/\/cryptopanic.com\/news\/18636122\/The-24th-DODO-buyback-amp-Distribution-to-vDODO-holders-is-complete-20639650-DODO-tokens-have-been-distribute",
            "created_at": "2023-06-22T08:53:27Z",
            "votes": {
                "negative": 0,
                "positive": 0,
                "important": 0,
                "liked": 0,
                "disliked": 0,
                "lol": 0,
                "toxic": 0,
                "saved": 0,
                "comments": 0
            }
        },
        {
            "kind": "news",
            "domain": "@BreederDodo",
            "source": {
                "title": "DODO Twitter",
                "region": "en",
                "domain": "twitter.com",
                "path": "@breederdodo"
            },
            "title": "Exciting news! DODO has successfully integrated @okx DEX's API. \n\nThis integration opens up new possibilities and\u2026",
            "published_at": "2023-06-22T05:55:07Z",
            "slug": "Exciting-news-DODO-has-successfully-integrated-okx-DEXs-API-This-integration-opens-up-new-possibilities-and",
            "currencies": [
                {
                    "code": "DODO",
                    "title": "DODO",
                    "slug": "dodo",
                    "url": "https:\/\/cryptopanic.com\/news\/dodo\/"
                }
            ],
            "id": 18627504,
            "url": "https:\/\/cryptopanic.com\/news\/18627504\/Exciting-news-DODO-has-successfully-integrated-okx-DEXs-API-This-integration-opens-up-new-possibilities-and",
            "created_at": "2023-06-22T05:55:07Z",
            "votes": {
                "negative": 0,
                "positive": 0,
                "important": 0,
                "liked": 0,
                "disliked": 0,
                "lol": 0,
                "toxic": 0,
                "saved": 0,
                "comments": 0
            }
        },
        {
            "kind": "news",
            "domain": "@BreederDodo",
            "source": {
                "title": "DODO Twitter",
                "region": "en",
                "domain": "twitter.com",
                "path": "@breederdodo"
            },
            "title": "RT @AcrossProtocol: Across \ud83e\udd1d DODO\n\nHappy to announce that @BreederDodo has integrated Across as one of their exchange's bridging solutions.\u2026",
            "published_at": "2023-06-21T13:21:22Z",
            "slug": "RT-AcrossProtocol-Across-DODO-Happy-to-announce-that-BreederDodo-has-integrated-Across-as-one-of-their-exchanges-bridging-solutions",
            "currencies": [
                {
                    "code": "DODO",
                    "title": "DODO",
                    "slug": "dodo",
                    "url": "https:\/\/cryptopanic.com\/news\/dodo\/"
                }
            ],
            "id": 18627505,
            "url": "https:\/\/cryptopanic.com\/news\/18627505\/RT-AcrossProtocol-Across-DODO-Happy-to-announce-that-BreederDodo-has-integrated-Across-as-one-of-their-exchanges-bridging-solutions",
            "created_at": "2023-06-21T13:21:22Z",
            "votes": {
                "negative": 0,
                "positive": 0,
                "important": 0,
                "liked": 0,
                "disliked": 0,
                "lol": 0,
                "toxic": 0,
                "saved": 0,
                "comments": 0
            }
        },
        {
            "kind": "news",
            "domain": "@BreederDodo",
            "source": {
                "title": "DODO Twitter",
                "region": "en",
                "domain": "twitter.com",
                "path": "@breederdodo"
            },
            "title": " Seeking information about DODO?\n\n Thanks to the @rss3_ ChatGPT Plugin on @OpenAI #ChatGPTPlus , users can now ea\u2026",
            "published_at": "2023-06-21T06:03:56Z",
            "slug": "Seeking-information-about-DODO-Thanks-to-the-rss3_-ChatGPT-Plugin-on-OpenAI-ChatGPTPlus-users-can-now-ea",
            "currencies": [
                {
                    "code": "DODO",
                    "title": "DODO",
                    "slug": "dodo",
                    "url": "https:\/\/cryptopanic.com\/news\/dodo\/"
                }
            ],
            "id": 18619513,
            "url": "https:\/\/cryptopanic.com\/news\/18619513\/Seeking-information-about-DODO-Thanks-to-the-rss3_-ChatGPT-Plugin-on-OpenAI-ChatGPTPlus-users-can-now-ea",
            "created_at": "2023-06-21T06:03:56Z",
            "votes": {
                "negative": 0,
                "positive": 0,
                "important": 0,
                "liked": 0,
                "disliked": 0,
                "lol": 0,
                "toxic": 0,
                "saved": 0,
                "comments": 0
            }
        },
        {
            "kind": "news",
            "domain": "@BreederDodo",
            "source": {
                "title": "DODO Twitter",
                "region": "en",
                "domain": "twitter.com",
                "path": "@breederdodo"
            },
            "title": "RT @DodoResearch: We are excited to join @Midaswap_ and @BuidlerDAO as they host a fascinating discussion on the latest innovations in @Uni\u2026",
            "published_at": "2023-06-20T05:45:32Z",
            "slug": "RT-DodoResearch-We-are-excited-to-join-Midaswap_-and-BuidlerDAO-as-they-host-a-fascinating-discussion-on-the-latest-innovations-in-Uni",
            "currencies": [
                {
                    "code": "DODO",
                    "title": "DODO",
                    "slug": "dodo",
                    "url": "https:\/\/cryptopanic.com\/news\/dodo\/"
                }
            ],
            "id": 18611496,
            "url": "https:\/\/cryptopanic.com\/news\/18611496\/RT-DodoResearch-We-are-excited-to-join-Midaswap_-and-BuidlerDAO-as-they-host-a-fascinating-discussion-on-the-latest-innovations-in-Uni",
            "created_at": "2023-06-20T05:45:32Z",
            "votes": {
                "negative": 0,
                "positive": 0,
                "important": 0,
                "liked": 0,
                "disliked": 0,
                "lol": 0,
                "toxic": 0,
                "saved": 0,
                "comments": 0
            }
        },
        {
            "kind": "news",
            "domain": "@BreederDodo",
            "source": {
                "title": "DODO Twitter",
                "region": "en",
                "domain": "twitter.com",
                "path": "@breederdodo"
            },
            "title": "RT @sherlockdefi: \u203c\ufe0f @BreederDodo DODO V3 contest is live!! \u203c\ufe0f",
            "published_at": "2023-06-19T22:11:39Z",
            "slug": "RT-sherlockdefi-BreederDodo-DODO-V3-contest-is-live",
            "currencies": [
                {
                    "code": "DODO",
                    "title": "DODO",
                    "slug": "dodo",
                    "url": "https:\/\/cryptopanic.com\/news\/dodo\/"
                }
            ],
            "id": 18611497,
            "url": "https:\/\/cryptopanic.com\/news\/18611497\/RT-sherlockdefi-BreederDodo-DODO-V3-contest-is-live",
            "created_at": "2023-06-19T22:11:39Z",
            "votes": {
                "negative": 0,
                "positive": 0,
                "important": 0,
                "liked": 0,
                "disliked": 0,
                "lol": 0,
                "toxic": 0,
                "saved": 0,
                "comments": 0
            }
        },
        {
            "kind": "news",
            "domain": "@BreederDodo",
            "source": {
                "title": "DODO Twitter",
                "region": "en",
                "domain": "twitter.com",
                "path": "@breederdodo"
            },
            "title": "Wishing all the dads a happy Father\u2019s Day\ud83e\udd42",
            "published_at": "2023-06-18T15:08:45Z",
            "slug": "Wishing-all-the-dads-a-happy-Fathers-Day",
            "currencies": [
                {
                    "code": "DODO",
                    "title": "DODO",
                    "slug": "dodo",
                    "url": "https:\/\/cryptopanic.com\/news\/dodo\/"
                }
            ],
            "id": 18605471,
            "url": "https:\/\/cryptopanic.com\/news\/18605471\/Wishing-all-the-dads-a-happy-Fathers-Day",
            "created_at": "2023-06-18T15:08:45Z",
            "votes": {
                "negative": 0,
                "positive": 0,
                "important": 0,
                "liked": 0,
                "disliked": 0,
                "lol": 0,
                "toxic": 0,
                "saved": 0,
                "comments": 0
            }
        }
    ]
}
