{
    "count": 200,
    "next": "https:\/\/cryptopanic.com\/api\/v1\/posts\/?auth_token=01c356e89ffc1b8eba2127c81fc8c66ee0eace75&kind=news&currencies=CLV&page=2",
    "previous": null,
    "results": [
        {
            "kind": "news",
            "domain": "@clv_org",
            "source": {
                "title": "Clover Finance Twitter",
                "region": "en",
                "domain": "twitter.com",
                "path": "@clv_org"
            },
            "title": " Calling all CLVians!  \n\nParticipate in the exciting campaign by @0xPolygonLabs to unlock exclusive roles on Poly\u2026",
            "published_at": "2023-07-10T11:49:53Z",
            "slug": "Calling-all-CLVians-Participate-in-the-exciting-campaign-by-0xPolygonLabs-to-unlock-exclusive-roles-on-Poly",
            "currencies": [
                {
                    "code": "CLV",
                    "title": "Clover Finance",
                    "slug": "clover-finance",
                    "url": "https:\/\/cryptopanic.com\/news\/clover-finance\/"
                }
            ],
            "id": 18755191,
            "url": "https:\/\/cryptopanic.com\/news\/18755191\/Calling-all-CLVians-Participate-in-the-exciting-campaign-by-0xPolygonLabs-to-unlock-exclusive-roles-on-Poly",
            "created_at": "2023-07-10T11:49:53Z",
            "votes": {
                "negative": 0,
                "positive": 0,
                "important": 0,
                "liked": 0,
                "disliked": 0,
                "lol": 0,
                "toxic": 0,
                "saved": 0,
                "comments": 0
            }
        },
        {
            "kind": "news",
            "domain": "@clv_org",
            "source": {
                "title": "Clover Finance Twitter",
                "region": "en",
                "domain": "twitter.com",
                "path": "@clv_org"
            },
            "title": " CLV\u2019s Quarter in Review Q2, 2023 \n\nAs Q2 draws to a close, it\u2019s time for reflection and evaluation.\n\n Amidst th\u2026",
            "published_at": "2023-07-07T11:23:16Z",
            "slug": "CLVs-Quarter-in-Review-Q2-2023-As-Q2-draws-to-a-close-its-time-for-reflection-and-evaluation-Amidst-th",
            "currencies": [
                {
                    "code": "CLV",
                    "title": "Clover Finance",
                    "slug": "clover-finance",
                    "url": "https:\/\/cryptopanic.com\/news\/clover-finance\/"
                }
            ],
            "id": 18739325,
            "url": "https:\/\/cryptopanic.com\/news\/18739325\/CLVs-Quarter-in-Review-Q2-2023-As-Q2-draws-to-a-close-its-time-for-reflection-and-evaluation-Amidst-th",
            "created_at": "2023-07-07T11:23:16Z",
            "votes": {
                "negative": 0,
                "positive": 0,
                "important": 0,
                "liked": 0,
                "disliked": 0,
                "lol": 0,
                "toxic": 0,
                "saved": 0,
                "comments": 0
            }
        },
        {
            "kind": "news",
            "domain": "@clv_org",
            "source": {
                "title": "Clover Finance Twitter",
                "region": "en",
                "domain": "twitter.com",
                "path": "@clv_org"
            },
            "title": " Say Hello to Seamless Verifiable Credential Management with @GateKeeperId!\n\n We're thrilled to announce the inte\u2026",
            "published_at": "2023-06-23T12:10:56Z",
            "slug": "Say-Hello-to-Seamless-Verifiable-Credential-Management-with-GateKeeperId-Were-thrilled-to-announce-the-inte",
            "currencies": [
                {
                    "code": "CLV",
                    "title": "Clover Finance",
                    "slug": "clover-finance",
                    "url": "https:\/\/cryptopanic.com\/news\/clover-finance\/"
                }
            ],
            "id": 18643629,
            "url": "https:\/\/cryptopanic.com\/news\/18643629\/Say-Hello-to-Seamless-Verifiable-Credential-Management-with-GateKeeperId-Were-thrilled-to-announce-the-inte",
            "created_at": "2023-06-23T12:10:56Z",
            "votes": {
                "negative": 0,
                "positive": 0,
                "important": 0,
                "liked": 0,
                "disliked": 0,
                "lol": 0,
                "toxic": 0,
                "saved": 0,
                "comments": 0
            }
        },
        {
            "kind": "news",
            "domain": "@clv_org",
            "source": {
                "title": "Clover Finance Twitter",
                "region": "en",
                "domain": "twitter.com",
                "path": "@clv_org"
            },
            "title": "RT @GateKeeperId:  Exciting news! GateKeeper is thrilled to announce its official integration with @clv_org . \n\nCheck out the article bel\u2026",
            "published_at": "2023-06-22T11:38:46Z",
            "slug": "RT-GateKeeperId-Exciting-news-GateKeeper-is-thrilled-to-announce-its-official-integration-with-clv_org-Check-out-the-article-bel",
            "currencies": [
                {
                    "code": "CLV",
                    "title": "Clover Finance",
                    "slug": "clover-finance",
                    "url": "https:\/\/cryptopanic.com\/news\/clover-finance\/"
                }
            ],
            "id": 18635812,
            "url": "https:\/\/cryptopanic.com\/news\/18635812\/RT-GateKeeperId-Exciting-news-GateKeeper-is-thrilled-to-announce-its-official-integration-with-clv_org-Check-out-the-article-bel",
            "created_at": "2023-06-22T11:38:46Z",
            "votes": {
                "negative": 0,
                "positive": 0,
                "important": 0,
                "liked": 0,
                "disliked": 0,
                "lol": 0,
                "toxic": 0,
                "saved": 0,
                "comments": 0
            }
        },
        {
            "kind": "news",
            "domain": "@clv_org",
            "source": {
                "title": "Clover Finance Twitter",
                "region": "en",
                "domain": "twitter.com",
                "path": "@clv_org"
            },
            "title": " New Day, New Integration!\n\n Say hello to our new partner - @humanode_io, the world\u2019s first crypto-biometric netw\u2026",
            "published_at": "2023-06-22T04:41:42Z",
            "slug": "New-Day-New-Integration-Say-hello-to-our-new-partner-humanode_io-the-worlds-first-crypto-biometric-netw",
            "currencies": [
                {
                    "code": "CLV",
                    "title": "Clover Finance",
                    "slug": "clover-finance",
                    "url": "https:\/\/cryptopanic.com\/news\/clover-finance\/"
                }
            ],
            "id": 18627189,
            "url": "https:\/\/cryptopanic.com\/news\/18627189\/New-Day-New-Integration-Say-hello-to-our-new-partner-humanode_io-the-worlds-first-crypto-biometric-netw",
            "created_at": "2023-06-22T04:41:42Z",
            "votes": {
                "negative": 0,
                "positive": 0,
                "important": 0,
                "liked": 0,
                "disliked": 0,
                "lol": 0,
                "toxic": 0,
                "saved": 0,
                "comments": 0
            }
        },
        {
            "kind": "news",
            "domain": "@clv_org",
            "source": {
                "title": "Clover Finance Twitter",
                "region": "en",
                "domain": "twitter.com",
                "path": "@clv_org"
            },
            "title": "RT @BiconomyCom: #BICONOMYEXCHANGE MARKET STATS  \n\nTOP GAINERS IN #BICONOMY \n\n$CLV @clv_org\n$SBT #SolBit\n$QUACK @RichQuack\n$VINU @VitaI\u2026",
            "published_at": "2023-06-19T15:04:01Z",
            "slug": "RT-BiconomyCom-BICONOMYEXCHANGE-MARKET-STATS-TOP-GAINERS-IN-BICONOMY-CLV-clv_org-SBT-SolBit-QUACK-RichQuack-VINU-VitaI",
            "currencies": [
                {
                    "code": "CLV",
                    "title": "Clover Finance",
                    "slug": "clover-finance",
                    "url": "https:\/\/cryptopanic.com\/news\/clover-finance\/"
                }
            ],
            "id": 18611193,
            "url": "https:\/\/cryptopanic.com\/news\/18611193\/RT-BiconomyCom-BICONOMYEXCHANGE-MARKET-STATS-TOP-GAINERS-IN-BICONOMY-CLV-clv_org-SBT-SolBit-QUACK-RichQuack-VINU-VitaI",
            "created_at": "2023-06-19T15:04:01Z",
            "votes": {
                "negative": 0,
                "positive": 0,
                "important": 0,
                "liked": 0,
                "disliked": 0,
                "lol": 0,
                "toxic": 0,
                "saved": 0,
                "comments": 0
            }
        },
        {
            "kind": "news",
            "domain": "@clv_org",
            "source": {
                "title": "Clover Finance Twitter",
                "region": "en",
                "domain": "twitter.com",
                "path": "@clv_org"
            },
            "title": " CLVians, Get ready to Own, Play, Purchase, and Earn with Artreus! \n\nWe're beyond excited to announce our incredi\u2026",
            "published_at": "2023-06-19T11:55:56Z",
            "slug": "CLVians-Get-ready-to-Own-Play-Purchase-and-Earn-with-Artreus-Were-beyond-excited-to-announce-our-incredi",
            "currencies": [
                {
                    "code": "CLV",
                    "title": "Clover Finance",
                    "slug": "clover-finance",
                    "url": "https:\/\/cryptopanic.com\/news\/clover-finance\/"
                }
            ],
            "id": 18611194,
            "url": "https:\/\/cryptopanic.com\/news\/18611194\/CLVians-Get-ready-to-Own-Play-Purchase-and-Earn-with-Artreus-Were-beyond-excited-to-announce-our-incredi",
            "created_at": "2023-06-19T11:55:56Z",
            "votes": {
                "negative": 0,
                "positive": 0,
                "important": 0,
                "liked": 0,
                "disliked": 0,
                "lol": 0,
                "toxic": 0,
                "saved": 0,
                "comments": 0
            }
        },
        {
            "kind": "news",
            "domain": "@clv_org",
            "source": {
                "title": "Clover Finance Twitter",
                "region": "en",
                "domain": "twitter.com",
                "path": "@clv_org"
            },
            "title": " Polygon 2.0 is here, Hats off to the awesome crew  @0xPolygonLabs \n\nCLV is proud to be the part of  clan, Toge\u2026",
            "published_at": "2023-06-13T13:35:47Z",
            "slug": "Polygon-20-is-here-Hats-off-to-the-awesome-crew-0xPolygonLabs-CLV-is-proud-to-be-the-part-of-clan-Toge",
            "currencies": [
                {
                    "code": "CLV",
                    "title": "Clover Finance",
                    "slug": "clover-finance",
                    "url": "https:\/\/cryptopanic.com\/news\/clover-finance\/"
                },
                {
                    "code": "MATIC",
                    "title": "Polygon",
                    "slug": "matic-network",
                    "url": "https:\/\/cryptopanic.com\/news\/matic-network\/"
                }
            ],
            "id": 18569684,
            "url": "https:\/\/cryptopanic.com\/news\/18569684\/Polygon-20-is-here-Hats-off-to-the-awesome-crew-0xPolygonLabs-CLV-is-proud-to-be-the-part-of-clan-Toge",
            "created_at": "2023-06-13T13:35:47Z",
            "votes": {
                "negative": 0,
                "positive": 0,
                "important": 0,
                "liked": 0,
                "disliked": 0,
                "lol": 0,
                "toxic": 0,
                "saved": 0,
                "comments": 0
            }
        },
        {
            "kind": "news",
            "domain": "@clv_org",
            "source": {
                "title": "Clover Finance Twitter",
                "region": "en",
                "domain": "twitter.com",
                "path": "@clv_org"
            },
            "title": "\ud83e\udd41 Drumroll, please!\n\nCLVians, The moment we've all been waiting for is just around the corner! \n\nThe AMA with our i\u2026",
            "published_at": "2023-06-13T09:18:12Z",
            "slug": "Drumroll-please-CLVians-The-moment-weve-all-been-waiting-for-is-just-around-the-corner-The-AMA-with-our-i",
            "currencies": [
                {
                    "code": "CLV",
                    "title": "Clover Finance",
                    "slug": "clover-finance",
                    "url": "https:\/\/cryptopanic.com\/news\/clover-finance\/"
                }
            ],
            "id": 18569685,
            "url": "https:\/\/cryptopanic.com\/news\/18569685\/Drumroll-please-CLVians-The-moment-weve-all-been-waiting-for-is-just-around-the-corner-The-AMA-with-our-i",
            "created_at": "2023-06-13T09:18:12Z",
            "votes": {
                "negative": 0,
                "positive": 0,
                "important": 0,
                "liked": 0,
                "disliked": 0,
                "lol": 0,
                "toxic": 0,
                "saved": 0,
                "comments": 0
            }
        },
        {
            "kind": "news",
            "domain": "@clv_org",
            "source": {
                "title": "Clover Finance Twitter",
                "region": "en",
                "domain": "twitter.com",
                "path": "@clv_org"
            },
            "title": " Get ready for an electrifying crypto experience with CLV! \ufe0f We've got something epic brewing.  As we gear up fo\u2026",
            "published_at": "2023-06-08T14:13:26Z",
            "slug": "Get-ready-for-an-electrifying-crypto-experience-with-CLV-Weve-got-something-epic-brewing-As-we-gear-up-fo",
            "currencies": [
                {
                    "code": "CLV",
                    "title": "Clover Finance",
                    "slug": "clover-finance",
                    "url": "https:\/\/cryptopanic.com\/news\/clover-finance\/"
                }
            ],
            "id": 18536027,
            "url": "https:\/\/cryptopanic.com\/news\/18536027\/Get-ready-for-an-electrifying-crypto-experience-with-CLV-Weve-got-something-epic-brewing-As-we-gear-up-fo",
            "created_at": "2023-06-08T14:13:26Z",
            "votes": {
                "negative": 0,
                "positive": 0,
                "important": 0,
                "liked": 0,
                "disliked": 0,
                "lol": 0,
                "toxic": 0,
                "saved": 0,
                "comments": 0
            }
        },
        {
            "kind": "news",
            "domain": "@clv_org",
            "source": {
                "title": "Clover Finance Twitter",
                "region": "en",
                "domain": "twitter.com",
                "path": "@clv_org"
            },
            "title": " May took us on a wild journey at CLV! \n\n We soared through a sky filled with electrifying updates, revolutionary\u2026",
            "published_at": "2023-06-06T12:53:52Z",
            "slug": "May-took-us-on-a-wild-journey-at-CLV-We-soared-through-a-sky-filled-with-electrifying-updates-revolutionary",
            "currencies": [
                {
                    "code": "CLV",
                    "title": "Clover Finance",
                    "slug": "clover-finance",
                    "url": "https:\/\/cryptopanic.com\/news\/clover-finance\/"
                }
            ],
            "id": 18518823,
            "url": "https:\/\/cryptopanic.com\/news\/18518823\/May-took-us-on-a-wild-journey-at-CLV-We-soared-through-a-sky-filled-with-electrifying-updates-revolutionary",
            "created_at": "2023-06-06T12:53:52Z",
            "votes": {
                "negative": 0,
                "positive": 0,
                "important": 0,
                "liked": 0,
                "disliked": 0,
                "lol": 0,
                "toxic": 0,
                "saved": 0,
                "comments": 0
            }
        },
        {
            "kind": "news",
            "domain": "@clv_org",
            "source": {
                "title": "Clover Finance Twitter",
                "region": "en",
                "domain": "twitter.com",
                "path": "@clv_org"
            },
            "title": " Calling all crypto enthusiasts! \n\nExperience the future of Web3 wallets with CLV Wallet, the all-in-one solution!\u2026",
            "published_at": "2023-06-05T12:07:33Z",
            "slug": "Calling-all-crypto-enthusiasts-Experience-the-future-of-Web3-wallets-with-CLV-Wallet-the-all-in-one-solution",
            "currencies": [
                {
                    "code": "CLV",
                    "title": "Clover Finance",
                    "slug": "clover-finance",
                    "url": "https:\/\/cryptopanic.com\/news\/clover-finance\/"
                }
            ],
            "id": 18509803,
            "url": "https:\/\/cryptopanic.com\/news\/18509803\/Calling-all-crypto-enthusiasts-Experience-the-future-of-Web3-wallets-with-CLV-Wallet-the-all-in-one-solution",
            "created_at": "2023-06-05T12:07:33Z",
            "votes": {
                "negative": 0,
                "positive": 0,
                "important": 0,
                "liked": 0,
                "disliked": 0,
                "lol": 0,
                "toxic": 0,
                "saved": 0,
                "comments": 0
            }
        },
        {
            "kind": "news",
            "domain": "@clv_org",
            "source": {
                "title": "Clover Finance Twitter",
                "region": "en",
                "domain": "twitter.com",
                "path": "@clv_org"
            },
            "title": " Wondering how to start?\n\n \ud83e\udd14 Discover the answer in our new product demo video!  \u2b07\ufe0f \n\n Experience the power of C\u2026",
            "published_at": "2023-06-01T15:07:56Z",
            "slug": "Wondering-how-to-start-Discover-the-answer-in-our-new-product-demo-video-Experience-the-power-of-C",
            "currencies": [
                {
                    "code": "CLV",
                    "title": "Clover Finance",
                    "slug": "clover-finance",
                    "url": "https:\/\/cryptopanic.com\/news\/clover-finance\/"
                }
            ],
            "id": 18483440,
            "url": "https:\/\/cryptopanic.com\/news\/18483440\/Wondering-how-to-start-Discover-the-answer-in-our-new-product-demo-video-Experience-the-power-of-C",
            "created_at": "2023-06-01T15:07:56Z",
            "votes": {
                "negative": 0,
                "positive": 0,
                "important": 0,
                "liked": 0,
                "disliked": 0,
                "lol": 0,
                "toxic": 0,
                "saved": 0,
                "comments": 0
            }
        },
        {
            "kind": "news",
            "domain": "@clv_org",
            "source": {
                "title": "Clover Finance Twitter",
                "region": "en",
                "domain": "twitter.com",
                "path": "@clv_org"
            },
            "title": "RT @0xPolygonDevs: \ud83e\udeaa@clv_org is an infrastructure platform for cross-chain &amp; dApps. CLV wallet can be used for Day-to-Day, DeFi, Metaverse\u2026",
            "published_at": "2023-05-26T16:31:53Z",
            "slug": "RT-0xPolygonDevs-clv_org-is-an-infrastructure-platform-for-cross-chain-amp-dApps-CLV-wallet-can-be-used-for-Day-to-Day-DeFi-Metaverse",
            "currencies": [
                {
                    "code": "CLV",
                    "title": "Clover Finance",
                    "slug": "clover-finance",
                    "url": "https:\/\/cryptopanic.com\/news\/clover-finance\/"
                }
            ],
            "id": 18440338,
            "url": "https:\/\/cryptopanic.com\/news\/18440338\/RT-0xPolygonDevs-clv_org-is-an-infrastructure-platform-for-cross-chain-amp-dApps-CLV-wallet-can-be-used-for-Day-to-Day-DeFi-Metaverse",
            "created_at": "2023-05-26T16:31:53Z",
            "votes": {
                "negative": 0,
                "positive": 0,
                "important": 0,
                "liked": 0,
                "disliked": 0,
                "lol": 0,
                "toxic": 0,
                "saved": 0,
                "comments": 0
            }
        },
        {
            "kind": "news",
            "domain": "@clv_org",
            "source": {
                "title": "Clover Finance Twitter",
                "region": "en",
                "domain": "twitter.com",
                "path": "@clv_org"
            },
            "title": " Psst! We know you're pretty savvy, but here's something you might not know about: Wallet Talk!  \n\nA Secret : Wa\u2026",
            "published_at": "2023-05-25T10:19:26Z",
            "slug": "Psst-We-know-youre-pretty-savvy-but-heres-something-you-might-not-know-about-Wallet-Talk-A-Secret-Wa",
            "currencies": [
                {
                    "code": "CLV",
                    "title": "Clover Finance",
                    "slug": "clover-finance",
                    "url": "https:\/\/cryptopanic.com\/news\/clover-finance\/"
                }
            ],
            "id": 18431891,
            "url": "https:\/\/cryptopanic.com\/news\/18431891\/Psst-We-know-youre-pretty-savvy-but-heres-something-you-might-not-know-about-Wallet-Talk-A-Secret-Wa",
            "created_at": "2023-05-25T10:19:26Z",
            "votes": {
                "negative": 0,
                "positive": 0,
                "important": 0,
                "liked": 0,
                "disliked": 0,
                "lol": 0,
                "toxic": 0,
                "saved": 0,
                "comments": 0
            }
        },
        {
            "kind": "news",
            "domain": "@clv_org",
            "source": {
                "title": "Clover Finance Twitter",
                "region": "en",
                "domain": "twitter.com",
                "path": "@clv_org"
            },
            "title": "CLV Wallet x PolygonID integration is here!\n\nGet ready to blast off into the future of crypto with #CLV Wallet'\u2026",
            "published_at": "2023-05-24T12:31:39Z",
            "slug": "CLV-Wallet-x-PolygonID-integration-is-here-Get-ready-to-blast-off-into-the-future-of-crypto-with-CLV-Wallet",
            "currencies": [
                {
                    "code": "CLV",
                    "title": "Clover Finance",
                    "slug": "clover-finance",
                    "url": "https:\/\/cryptopanic.com\/news\/clover-finance\/"
                }
            ],
            "id": 18422818,
            "url": "https:\/\/cryptopanic.com\/news\/18422818\/CLV-Wallet-x-PolygonID-integration-is-here-Get-ready-to-blast-off-into-the-future-of-crypto-with-CLV-Wallet",
            "created_at": "2023-05-24T12:31:39Z",
            "votes": {
                "negative": 0,
                "positive": 0,
                "important": 0,
                "liked": 0,
                "disliked": 0,
                "lol": 0,
                "toxic": 0,
                "saved": 0,
                "comments": 0
            }
        },
        {
            "kind": "news",
            "domain": "@clv_org",
            "source": {
                "title": "Clover Finance Twitter",
                "region": "en",
                "domain": "twitter.com",
                "path": "@clv_org"
            },
            "title": " Get ready for an epic trading extravaganza!  \n\n CLV has landed on @OpenEx_HQ's Prediction Market, and we're tur\u2026",
            "published_at": "2023-05-22T15:58:29Z",
            "slug": "Get-ready-for-an-epic-trading-extravaganza-CLV-has-landed-on-OpenEx_HQs-Prediction-Market-and-were-tur",
            "currencies": [
                {
                    "code": "CLV",
                    "title": "Clover Finance",
                    "slug": "clover-finance",
                    "url": "https:\/\/cryptopanic.com\/news\/clover-finance\/"
                }
            ],
            "id": 18403743,
            "url": "https:\/\/cryptopanic.com\/news\/18403743\/Get-ready-for-an-epic-trading-extravaganza-CLV-has-landed-on-OpenEx_HQs-Prediction-Market-and-were-tur",
            "created_at": "2023-05-22T15:58:29Z",
            "votes": {
                "negative": 0,
                "positive": 0,
                "important": 0,
                "liked": 0,
                "disliked": 0,
                "lol": 0,
                "toxic": 0,
                "saved": 0,
                "comments": 0
            }
        },
        {
            "kind": "news",
            "domain": "@clv_org",
            "source": {
                "title": "Clover Finance Twitter",
                "region": "en",
                "domain": "twitter.com",
                "path": "@clv_org"
            },
            "title": "\" Celebrate Bitcoin Pizza Day 2023! \nRemember the mouthwatering moment when 10,000 bitcoins bought two pizzas. \nS\u2026",
            "published_at": "2023-05-22T15:25:07Z",
            "slug": "Celebrate-Bitcoin-Pizza-Day-2023-Remember-the-mouthwatering-moment-when-10000-bitcoins-bought-two-pizzas-S",
            "currencies": [
                {
                    "code": "CLV",
                    "title": "Clover Finance",
                    "slug": "clover-finance",
                    "url": "https:\/\/cryptopanic.com\/news\/clover-finance\/"
                }
            ],
            "id": 18403744,
            "url": "https:\/\/cryptopanic.com\/news\/18403744\/Celebrate-Bitcoin-Pizza-Day-2023-Remember-the-mouthwatering-moment-when-10000-bitcoins-bought-two-pizzas-S",
            "created_at": "2023-05-22T15:25:07Z",
            "votes": {
                "negative": 0,
                "positive": 0,
                "important": 0,
                "liked": 0,
                "disliked": 0,
                "lol": 0,
                "toxic": 0,
                "saved": 0,
                "comments": 0
            }
        },
        {
            "kind": "news",
            "domain": "@clv_org",
            "source": {
                "title": "Clover Finance Twitter",
                "region": "en",
                "domain": "twitter.com",
                "path": "@clv_org"
            },
            "title": "1\/3\n\n Big News! \n\nCLV Wallet x PolygonID AMA is Coming Soon : Ask, Learn, and Unleash the Future! \n\n Brace you\u2026",
            "published_at": "2023-05-18T13:50:35Z",
            "slug": "13-Big-News-CLV-Wallet-x-PolygonID-AMA-is-Coming-Soon-Ask-Learn-and-Unleash-the-Future-Brace-you",
            "currencies": [
                {
                    "code": "CLV",
                    "title": "Clover Finance",
                    "slug": "clover-finance",
                    "url": "https:\/\/cryptopanic.com\/news\/clover-finance\/"
                }
            ],
            "id": 18376234,
            "url": "https:\/\/cryptopanic.com\/news\/18376234\/13-Big-News-CLV-Wallet-x-PolygonID-AMA-is-Coming-Soon-Ask-Learn-and-Unleash-the-Future-Brace-you",
            "created_at": "2023-05-18T13:50:35Z",
            "votes": {
                "negative": 0,
                "positive": 0,
                "important": 0,
                "liked": 0,
                "disliked": 0,
                "lol": 0,
                "toxic": 0,
                "saved": 0,
                "comments": 0
            }
        },
        {
            "kind": "news",
            "domain": "@clv_org",
            "source": {
                "title": "Clover Finance Twitter",
                "region": "en",
                "domain": "twitter.com",
                "path": "@clv_org"
            },
            "title": " Blast off to a better #CLV experience! \n\nExperience the latest version of #CLVScan and enjoy enhanced features a\u2026",
            "published_at": "2023-05-15T14:12:24Z",
            "slug": "Blast-off-to-a-better-CLV-experience-Experience-the-latest-version-of-CLVScan-and-enjoy-enhanced-features-a",
            "currencies": [
                {
                    "code": "CLV",
                    "title": "Clover Finance",
                    "slug": "clover-finance",
                    "url": "https:\/\/cryptopanic.com\/news\/clover-finance\/"
                }
            ],
            "id": 18348515,
            "url": "https:\/\/cryptopanic.com\/news\/18348515\/Blast-off-to-a-better-CLV-experience-Experience-the-latest-version-of-CLVScan-and-enjoy-enhanced-features-a",
            "created_at": "2023-05-15T14:12:24Z",
            "votes": {
                "negative": 0,
                "positive": 0,
                "important": 0,
                "liked": 0,
                "disliked": 0,
                "lol": 0,
                "toxic": 0,
                "saved": 0,
                "comments": 0
            }
        }
    ]
}
