{
    "count": 200,
    "next": "https:\/\/cryptopanic.com\/api\/v1\/posts\/?auth_token=01c356e89ffc1b8eba2127c81fc8c66ee0eace75&kind=news&currencies=OOKI&page=2",
    "previous": null,
    "results": [
        {
            "kind": "news",
            "domain": "@OokiTrade",
            "source": {
                "title": "Ooki Twitter",
                "region": "en",
                "domain": "twitter.com",
                "path": "@ookitrade"
            },
            "title": "Feeling bored? Head over to the Ookiversity now ",
            "published_at": "2023-07-12T04:53:55Z",
            "slug": "Feeling-bored-Head-over-to-the-Ookiversity-now",
            "currencies": [
                {
                    "code": "OOKI",
                    "title": "Ooki",
                    "slug": "ooki",
                    "url": "https:\/\/cryptopanic.com\/news\/ooki\/"
                }
            ],
            "id": 18766144,
            "url": "https:\/\/cryptopanic.com\/news\/18766144\/Feeling-bored-Head-over-to-the-Ookiversity-now",
            "created_at": "2023-07-12T04:53:55Z",
            "votes": {
                "negative": 0,
                "positive": 0,
                "important": 0,
                "liked": 0,
                "disliked": 0,
                "lol": 0,
                "toxic": 0,
                "saved": 0,
                "comments": 0
            }
        },
        {
            "kind": "news",
            "domain": "@OokiTrade",
            "source": {
                "title": "Ooki Twitter",
                "region": "en",
                "domain": "twitter.com",
                "path": "@ookitrade"
            },
            "title": "The answer is YES! ",
            "published_at": "2023-07-10T12:32:42Z",
            "slug": "The-answer-is-YES",
            "currencies": [
                {
                    "code": "OOKI",
                    "title": "Ooki",
                    "slug": "ooki",
                    "url": "https:\/\/cryptopanic.com\/news\/ooki\/"
                }
            ],
            "id": 18758001,
            "url": "https:\/\/cryptopanic.com\/news\/18758001\/The-answer-is-YES",
            "created_at": "2023-07-10T12:32:42Z",
            "votes": {
                "negative": 0,
                "positive": 0,
                "important": 0,
                "liked": 0,
                "disliked": 0,
                "lol": 0,
                "toxic": 0,
                "saved": 0,
                "comments": 0
            }
        },
        {
            "kind": "news",
            "domain": "@OokiTrade",
            "source": {
                "title": "Ooki Twitter",
                "region": "en",
                "domain": "twitter.com",
                "path": "@ookitrade"
            },
            "title": "Happy Weekend, Ookinauts! ",
            "published_at": "2023-07-07T13:00:03Z",
            "slug": "Happy-Weekend-Ookinauts",
            "currencies": [
                {
                    "code": "OOKI",
                    "title": "Ooki",
                    "slug": "ooki",
                    "url": "https:\/\/cryptopanic.com\/news\/ooki\/"
                }
            ],
            "id": 18741724,
            "url": "https:\/\/cryptopanic.com\/news\/18741724\/Happy-Weekend-Ookinauts",
            "created_at": "2023-07-07T13:00:03Z",
            "votes": {
                "negative": 0,
                "positive": 0,
                "important": 0,
                "liked": 0,
                "disliked": 0,
                "lol": 0,
                "toxic": 0,
                "saved": 0,
                "comments": 0
            }
        },
        {
            "kind": "news",
            "domain": "@OokiTrade",
            "source": {
                "title": "Ooki Twitter",
                "region": "en",
                "domain": "twitter.com",
                "path": "@ookitrade"
            },
            "title": "RT @itsme_Ooki: #DeFi Dictionary with Ooki #17!\n\nCheck out my Ookiversity as well to learn more about trading and other things.",
            "published_at": "2023-07-05T20:02:50Z",
            "slug": "RT-itsme_Ooki-DeFi-Dictionary-with-Ooki-17-Check-out-my-Ookiversity-as-well-to-learn-more-about-trading-and-other-things",
            "currencies": [
                {
                    "code": "OOKI",
                    "title": "Ooki",
                    "slug": "ooki",
                    "url": "https:\/\/cryptopanic.com\/news\/ooki\/"
                }
            ],
            "id": 18725808,
            "url": "https:\/\/cryptopanic.com\/news\/18725808\/RT-itsme_Ooki-DeFi-Dictionary-with-Ooki-17-Check-out-my-Ookiversity-as-well-to-learn-more-about-trading-and-other-things",
            "created_at": "2023-07-05T20:02:50Z",
            "votes": {
                "negative": 0,
                "positive": 0,
                "important": 0,
                "liked": 0,
                "disliked": 0,
                "lol": 0,
                "toxic": 0,
                "saved": 0,
                "comments": 0
            }
        },
        {
            "kind": "news",
            "domain": "@OokiTrade",
            "source": {
                "title": "Ooki Twitter",
                "region": "en",
                "domain": "twitter.com",
                "path": "@ookitrade"
            },
            "title": "Hey #Ookinaut! Need a link? ",
            "published_at": "2023-07-05T08:03:46Z",
            "slug": "Hey-Ookinaut-Need-a-link",
            "currencies": [
                {
                    "code": "OOKI",
                    "title": "Ooki",
                    "slug": "ooki",
                    "url": "https:\/\/cryptopanic.com\/news\/ooki\/"
                }
            ],
            "id": 18717901,
            "url": "https:\/\/cryptopanic.com\/news\/18717901\/Hey-Ookinaut-Need-a-link",
            "created_at": "2023-07-05T08:03:46Z",
            "votes": {
                "negative": 0,
                "positive": 0,
                "important": 0,
                "liked": 0,
                "disliked": 0,
                "lol": 0,
                "toxic": 0,
                "saved": 0,
                "comments": 0
            }
        },
        {
            "kind": "news",
            "domain": "@OokiTrade",
            "source": {
                "title": "Ooki Twitter",
                "region": "en",
                "domain": "twitter.com",
                "path": "@ookitrade"
            },
            "title": "Happy Fourth of July!",
            "published_at": "2023-07-04T08:00:00Z",
            "slug": "Happy-Fourth-of-July",
            "currencies": [
                {
                    "code": "OOKI",
                    "title": "Ooki",
                    "slug": "ooki",
                    "url": "https:\/\/cryptopanic.com\/news\/ooki\/"
                }
            ],
            "id": 18710783,
            "url": "https:\/\/cryptopanic.com\/news\/18710783\/Happy-Fourth-of-July",
            "created_at": "2023-07-04T08:00:00Z",
            "votes": {
                "negative": 0,
                "positive": 0,
                "important": 0,
                "liked": 0,
                "disliked": 0,
                "lol": 0,
                "toxic": 0,
                "saved": 0,
                "comments": 0
            }
        },
        {
            "kind": "news",
            "domain": "@OokiTrade",
            "source": {
                "title": "Ooki Twitter",
                "region": "en",
                "domain": "twitter.com",
                "path": "@ookitrade"
            },
            "title": "Gm, Ookinauts! \n\nStart the week with some juicy #APRs! \n\n@arbitrum\n $FRAX 89.7%\n $USDC 80.6% \n $USDT 44.2%\u2026",
            "published_at": "2023-07-03T09:08:48Z",
            "slug": "Gm-Ookinauts-Start-the-week-with-some-juicy-APRs-arbitrum-FRAX-897-USDC-806-USDT-442",
            "currencies": [
                {
                    "code": "OOKI",
                    "title": "Ooki",
                    "slug": "ooki",
                    "url": "https:\/\/cryptopanic.com\/news\/ooki\/"
                },
                {
                    "code": "FRAX",
                    "title": "Frax",
                    "slug": "frax",
                    "url": "https:\/\/cryptopanic.com\/news\/frax\/"
                }
            ],
            "id": 18710784,
            "url": "https:\/\/cryptopanic.com\/news\/18710784\/Gm-Ookinauts-Start-the-week-with-some-juicy-APRs-arbitrum-FRAX-897-USDC-806-USDT-442",
            "created_at": "2023-07-03T09:08:48Z",
            "votes": {
                "negative": 0,
                "positive": 0,
                "important": 0,
                "liked": 0,
                "disliked": 0,
                "lol": 0,
                "toxic": 0,
                "saved": 0,
                "comments": 0
            }
        },
        {
            "kind": "news",
            "domain": "@OokiTrade",
            "source": {
                "title": "Ooki Twitter",
                "region": "en",
                "domain": "twitter.com",
                "path": "@ookitrade"
            },
            "title": "Happy weekend, Ookinauts! ",
            "published_at": "2023-06-30T12:00:02Z",
            "slug": "Happy-weekend-Ookinauts",
            "currencies": [
                {
                    "code": "OOKI",
                    "title": "Ooki",
                    "slug": "ooki",
                    "url": "https:\/\/cryptopanic.com\/news\/ooki\/"
                }
            ],
            "id": 18694981,
            "url": "https:\/\/cryptopanic.com\/news\/18694981\/Happy-weekend-Ookinauts",
            "created_at": "2023-06-30T12:00:02Z",
            "votes": {
                "negative": 0,
                "positive": 0,
                "important": 0,
                "liked": 0,
                "disliked": 0,
                "lol": 0,
                "toxic": 0,
                "saved": 0,
                "comments": 0
            }
        },
        {
            "kind": "news",
            "domain": "@OokiTrade",
            "source": {
                "title": "Ooki Twitter",
                "region": "en",
                "domain": "twitter.com",
                "path": "@ookitrade"
            },
            "title": "RT @itsme_Ooki: #DeFi Dictionary with Ooki #16!\n\nCheck out my Ookiversity as well to learn more about trading and other things.",
            "published_at": "2023-06-29T12:32:44Z",
            "slug": "RT-itsme_Ooki-DeFi-Dictionary-with-Ooki-16-Check-out-my-Ookiversity-as-well-to-learn-more-about-trading-and-other-things",
            "currencies": [
                {
                    "code": "OOKI",
                    "title": "Ooki",
                    "slug": "ooki",
                    "url": "https:\/\/cryptopanic.com\/news\/ooki\/"
                }
            ],
            "id": 18687364,
            "url": "https:\/\/cryptopanic.com\/news\/18687364\/RT-itsme_Ooki-DeFi-Dictionary-with-Ooki-16-Check-out-my-Ookiversity-as-well-to-learn-more-about-trading-and-other-things",
            "created_at": "2023-06-29T12:32:44Z",
            "votes": {
                "negative": 0,
                "positive": 0,
                "important": 0,
                "liked": 0,
                "disliked": 0,
                "lol": 0,
                "toxic": 0,
                "saved": 0,
                "comments": 0
            }
        },
        {
            "kind": "news",
            "domain": "@OokiTrade",
            "source": {
                "title": "Ooki Twitter",
                "region": "en",
                "domain": "twitter.com",
                "path": "@ookitrade"
            },
            "title": "RT @ETH_Daily:  @optimismFND Ecosystem by TVL Growth in Last 7D\n\n@routerprotocol $ROUTE\n@flashstake $FLASH\n@xyfinance $XY\n@AngleProtocol\u2026",
            "published_at": "2023-06-27T15:51:19Z",
            "slug": "RT-ETH_Daily-optimismFND-Ecosystem-by-TVL-Growth-in-Last-7D-routerprotocol-ROUTE-flashstake-FLASH-xyfinance-XY-AngleProtocol",
            "currencies": [
                {
                    "code": "OOKI",
                    "title": "Ooki",
                    "slug": "ooki",
                    "url": "https:\/\/cryptopanic.com\/news\/ooki\/"
                }
            ],
            "id": 18671225,
            "url": "https:\/\/cryptopanic.com\/news\/18671225\/RT-ETH_Daily-optimismFND-Ecosystem-by-TVL-Growth-in-Last-7D-routerprotocol-ROUTE-flashstake-FLASH-xyfinance-XY-AngleProtocol",
            "created_at": "2023-06-27T15:51:19Z",
            "votes": {
                "negative": 0,
                "positive": 0,
                "important": 0,
                "liked": 0,
                "disliked": 0,
                "lol": 0,
                "toxic": 0,
                "saved": 0,
                "comments": 0
            }
        },
        {
            "kind": "news",
            "domain": "@OokiTrade",
            "source": {
                "title": "Ooki Twitter",
                "region": "en",
                "domain": "twitter.com",
                "path": "@ookitrade"
            },
            "title": "Wondering what's behind ? \n\nIt's .\n\nBut what the hell is that? Just\u2026",
            "published_at": "2023-06-27T12:12:18Z",
            "slug": "Wondering-whats-behind-Its-But-what-the-hell-is-that-Just",
            "currencies": [
                {
                    "code": "OOKI",
                    "title": "Ooki",
                    "slug": "ooki",
                    "url": "https:\/\/cryptopanic.com\/news\/ooki\/"
                }
            ],
            "id": 18671226,
            "url": "https:\/\/cryptopanic.com\/news\/18671226\/Wondering-whats-behind-Its-But-what-the-hell-is-that-Just",
            "created_at": "2023-06-27T12:12:18Z",
            "votes": {
                "negative": 0,
                "positive": 0,
                "important": 0,
                "liked": 0,
                "disliked": 0,
                "lol": 0,
                "toxic": 0,
                "saved": 0,
                "comments": 0
            }
        },
        {
            "kind": "news",
            "domain": "@OokiTrade",
            "source": {
                "title": "Ooki Twitter",
                "region": "en",
                "domain": "twitter.com",
                "path": "@ookitrade"
            },
            "title": "Reflecting on a dynamic H1 for #Ooki with advancements in trading, stats, and development.\n\nBrace for an exhilarati\u2026",
            "published_at": "2023-06-23T08:07:12Z",
            "slug": "Reflecting-on-a-dynamic-H1-for-Ooki-with-advancements-in-trading-stats-and-development-Brace-for-an-exhilarati",
            "currencies": [
                {
                    "code": "OOKI",
                    "title": "Ooki",
                    "slug": "ooki",
                    "url": "https:\/\/cryptopanic.com\/news\/ooki\/"
                }
            ],
            "id": 18638710,
            "url": "https:\/\/cryptopanic.com\/news\/18638710\/Reflecting-on-a-dynamic-H1-for-Ooki-with-advancements-in-trading-stats-and-development-Brace-for-an-exhilarati",
            "created_at": "2023-06-23T08:07:12Z",
            "votes": {
                "negative": 0,
                "positive": 0,
                "important": 0,
                "liked": 0,
                "disliked": 0,
                "lol": 0,
                "toxic": 0,
                "saved": 0,
                "comments": 0
            }
        },
        {
            "kind": "news",
            "domain": "@OokiTrade",
            "source": {
                "title": "Ooki Twitter",
                "region": "en",
                "domain": "twitter.com",
                "path": "@ookitrade"
            },
            "title": "Looking for Ooki...?  All you need is here \n\nApp: \nBlog: \nDocs:\u2026",
            "published_at": "2023-06-21T19:52:08Z",
            "slug": "Looking-for-Ooki-All-you-need-is-here-App-Blog-Docs",
            "currencies": [
                {
                    "code": "OOKI",
                    "title": "Ooki",
                    "slug": "ooki",
                    "url": "https:\/\/cryptopanic.com\/news\/ooki\/"
                }
            ],
            "id": 18630201,
            "url": "https:\/\/cryptopanic.com\/news\/18630201\/Looking-for-Ooki-All-you-need-is-here-App-Blog-Docs",
            "created_at": "2023-06-21T19:52:08Z",
            "votes": {
                "negative": 0,
                "positive": 0,
                "important": 0,
                "liked": 0,
                "disliked": 0,
                "lol": 0,
                "toxic": 0,
                "saved": 0,
                "comments": 0
            }
        },
        {
            "kind": "news",
            "domain": "@OokiTrade",
            "source": {
                "title": "Ooki Twitter",
                "region": "en",
                "domain": "twitter.com",
                "path": "@ookitrade"
            },
            "title": "One Ooki, endless tranquility. Find harmony in knowing Ooki is as transparent as #DeFi can be. \ud83e\uddd8\u200d\ufe0f\n\nHappy\u2026",
            "published_at": "2023-06-21T19:35:03Z",
            "slug": "One-Ooki-endless-tranquility-Find-harmony-in-knowing-Ooki-is-as-transparent-as-DeFi-can-be-Happy",
            "currencies": [
                {
                    "code": "OOKI",
                    "title": "Ooki",
                    "slug": "ooki",
                    "url": "https:\/\/cryptopanic.com\/news\/ooki\/"
                }
            ],
            "id": 18630202,
            "url": "https:\/\/cryptopanic.com\/news\/18630202\/One-Ooki-endless-tranquility-Find-harmony-in-knowing-Ooki-is-as-transparent-as-DeFi-can-be-Happy",
            "created_at": "2023-06-21T19:35:03Z",
            "votes": {
                "negative": 0,
                "positive": 0,
                "important": 0,
                "liked": 0,
                "disliked": 0,
                "lol": 0,
                "toxic": 0,
                "saved": 0,
                "comments": 0
            }
        },
        {
            "kind": "news",
            "domain": "@OokiTrade",
            "source": {
                "title": "Ooki Twitter",
                "region": "en",
                "domain": "twitter.com",
                "path": "@ookitrade"
            },
            "title": "RT @itsme_Ooki: #DeFi Dictionary with Ooki #15!\n\nCheck out my Ookiversity as well to learn more about trading and other things.",
            "published_at": "2023-06-21T18:50:21Z",
            "slug": "RT-itsme_Ooki-DeFi-Dictionary-with-Ooki-15-Check-out-my-Ookiversity-as-well-to-learn-more-about-trading-and-other-things",
            "currencies": [
                {
                    "code": "OOKI",
                    "title": "Ooki",
                    "slug": "ooki",
                    "url": "https:\/\/cryptopanic.com\/news\/ooki\/"
                }
            ],
            "id": 18630203,
            "url": "https:\/\/cryptopanic.com\/news\/18630203\/RT-itsme_Ooki-DeFi-Dictionary-with-Ooki-15-Check-out-my-Ookiversity-as-well-to-learn-more-about-trading-and-other-things",
            "created_at": "2023-06-21T18:50:21Z",
            "votes": {
                "negative": 0,
                "positive": 0,
                "important": 0,
                "liked": 0,
                "disliked": 0,
                "lol": 0,
                "toxic": 0,
                "saved": 0,
                "comments": 0
            }
        },
        {
            "kind": "news",
            "domain": "@OokiTrade",
            "source": {
                "title": "Ooki Twitter",
                "region": "en",
                "domain": "twitter.com",
                "path": "@ookitrade"
            },
            "title": "RT @Cryptolaxy: Top-11 #PJTs with Market Cap from $10M to $15M by Undervaluation Index (UI*) \n\n#UI is a Market Cap to 24H Trading Volume ra\u2026",
            "published_at": "2023-06-20T17:05:10Z",
            "slug": "RT-Cryptolaxy-Top-11-PJTs-with-Market-Cap-from-10M-to-15M-by-Undervaluation-Index-UI-UI-is-a-Market-Cap-to-24H-Trading-Volume-ra",
            "currencies": [
                {
                    "code": "OOKI",
                    "title": "Ooki",
                    "slug": "ooki",
                    "url": "https:\/\/cryptopanic.com\/news\/ooki\/"
                }
            ],
            "id": 18622193,
            "url": "https:\/\/cryptopanic.com\/news\/18622193\/RT-Cryptolaxy-Top-11-PJTs-with-Market-Cap-from-10M-to-15M-by-Undervaluation-Index-UI-UI-is-a-Market-Cap-to-24H-Trading-Volume-ra",
            "created_at": "2023-06-20T17:05:10Z",
            "votes": {
                "negative": 0,
                "positive": 0,
                "important": 0,
                "liked": 0,
                "disliked": 0,
                "lol": 0,
                "toxic": 0,
                "saved": 0,
                "comments": 0
            }
        },
        {
            "kind": "news",
            "domain": "@OokiTrade",
            "source": {
                "title": "Ooki Twitter",
                "region": "en",
                "domain": "twitter.com",
                "path": "@ookitrade"
            },
            "title": "Got stables...? Looking for an easy way to earn?\n\nGo get those APRs!\n\n@arbitrum\n$FRAX 94% \n$USDC 47.4% \n$USDT 46.\u2026",
            "published_at": "2023-06-20T04:33:46Z",
            "slug": "Got-stables-Looking-for-an-easy-way-to-earn-Go-get-those-APRs-arbitrum-FRAX-94-USDC-474-USDT-46",
            "currencies": [
                {
                    "code": "OOKI",
                    "title": "Ooki",
                    "slug": "ooki",
                    "url": "https:\/\/cryptopanic.com\/news\/ooki\/"
                }
            ],
            "id": 18614077,
            "url": "https:\/\/cryptopanic.com\/news\/18614077\/Got-stables-Looking-for-an-easy-way-to-earn-Go-get-those-APRs-arbitrum-FRAX-94-USDC-474-USDT-46",
            "created_at": "2023-06-20T04:33:46Z",
            "votes": {
                "negative": 0,
                "positive": 0,
                "important": 0,
                "liked": 0,
                "disliked": 0,
                "lol": 0,
                "toxic": 0,
                "saved": 0,
                "comments": 0
            }
        },
        {
            "kind": "news",
            "domain": "@OokiTrade",
            "source": {
                "title": "Ooki Twitter",
                "region": "en",
                "domain": "twitter.com",
                "path": "@ookitrade"
            },
            "title": "The Ookiverse! ",
            "published_at": "2023-06-19T14:00:01Z",
            "slug": "The-Ookiverse",
            "currencies": [
                {
                    "code": "OOKI",
                    "title": "Ooki",
                    "slug": "ooki",
                    "url": "https:\/\/cryptopanic.com\/news\/ooki\/"
                }
            ],
            "id": 18614078,
            "url": "https:\/\/cryptopanic.com\/news\/18614078\/The-Ookiverse",
            "created_at": "2023-06-19T14:00:01Z",
            "votes": {
                "negative": 0,
                "positive": 0,
                "important": 0,
                "liked": 0,
                "disliked": 0,
                "lol": 0,
                "toxic": 0,
                "saved": 0,
                "comments": 0
            }
        },
        {
            "kind": "news",
            "domain": "@OokiTrade",
            "source": {
                "title": "Ooki Twitter",
                "region": "en",
                "domain": "twitter.com",
                "path": "@ookitrade"
            },
            "title": "Gm, Ookinauts! \n\nWhat better way to start the weekend than with some nice APRs? \n\n@arbitrum\n$FRAX 108% \n$USDC\u2026",
            "published_at": "2023-06-16T08:53:26Z",
            "slug": "Gm-Ookinauts-What-better-way-to-start-the-weekend-than-with-some-nice-APRs-arbitrum-FRAX-108-USDC",
            "currencies": [
                {
                    "code": "OOKI",
                    "title": "Ooki",
                    "slug": "ooki",
                    "url": "https:\/\/cryptopanic.com\/news\/ooki\/"
                }
            ],
            "id": 18597514,
            "url": "https:\/\/cryptopanic.com\/news\/18597514\/Gm-Ookinauts-What-better-way-to-start-the-weekend-than-with-some-nice-APRs-arbitrum-FRAX-108-USDC",
            "created_at": "2023-06-16T08:53:26Z",
            "votes": {
                "negative": 0,
                "positive": 0,
                "important": 0,
                "liked": 0,
                "disliked": 0,
                "lol": 0,
                "toxic": 0,
                "saved": 0,
                "comments": 0
            }
        },
        {
            "kind": "news",
            "domain": "@OokiTrade",
            "source": {
                "title": "Ooki Twitter",
                "region": "en",
                "domain": "twitter.com",
                "path": "@ookitrade"
            },
            "title": "Is it possible to be even more decentralized?\n\nOf course! A concerned Ooki community member has moved the protocol\u2026",
            "published_at": "2023-06-15T18:23:27Z",
            "slug": "Is-it-possible-to-be-even-more-decentralized-Of-course-A-concerned-Ooki-community-member-has-moved-the-protocol",
            "currencies": [
                {
                    "code": "OOKI",
                    "title": "Ooki",
                    "slug": "ooki",
                    "url": "https:\/\/cryptopanic.com\/news\/ooki\/"
                }
            ],
            "id": 18588984,
            "url": "https:\/\/cryptopanic.com\/news\/18588984\/Is-it-possible-to-be-even-more-decentralized-Of-course-A-concerned-Ooki-community-member-has-moved-the-protocol",
            "created_at": "2023-06-15T18:23:27Z",
            "votes": {
                "negative": 0,
                "positive": 0,
                "important": 0,
                "liked": 0,
                "disliked": 0,
                "lol": 0,
                "toxic": 0,
                "saved": 0,
                "comments": 0
            }
        }
    ]
}
