{
    "count": 200,
    "next": "https:\/\/cryptopanic.com\/api\/v1\/posts\/?auth_token=01c356e89ffc1b8eba2127c81fc8c66ee0eace75&kind=news&currencies=REQ&page=2",
    "previous": null,
    "results": [
        {
            "kind": "news",
            "domain": "@RequestNetwork",
            "source": {
                "title": "Request Network Twitter",
                "region": "en",
                "domain": "twitter.com",
                "path": "@requestnetwork"
            },
            "title": " Announcement time! We are absolutely thrilled to welcome @BSOStech to the Request Network ecosystem as a grant re\u2026",
            "published_at": "2023-07-10T17:41:43Z",
            "slug": "Announcement-time-We-are-absolutely-thrilled-to-welcome-BSOStech-to-the-Request-Network-ecosystem-as-a-grant-re",
            "currencies": [
                {
                    "code": "REQ",
                    "title": "Request",
                    "slug": "request-network",
                    "url": "https:\/\/cryptopanic.com\/news\/request-network\/"
                }
            ],
            "id": 18758593,
            "url": "https:\/\/cryptopanic.com\/news\/18758593\/Announcement-time-We-are-absolutely-thrilled-to-welcome-BSOStech-to-the-Request-Network-ecosystem-as-a-grant-re",
            "created_at": "2023-07-10T17:41:43Z",
            "votes": {
                "negative": 0,
                "positive": 0,
                "important": 0,
                "liked": 0,
                "disliked": 0,
                "lol": 0,
                "toxic": 0,
                "saved": 0,
                "comments": 0
            }
        },
        {
            "kind": "news",
            "domain": "@RequestNetwork",
            "source": {
                "title": "Request Network Twitter",
                "region": "en",
                "domain": "twitter.com",
                "path": "@requestnetwork"
            },
            "title": "Quick snapshots from the @eth_barcelona hackathon \ufe0f Submissions tomorrow at 10:00am CET, can't wait to see what th\u2026",
            "published_at": "2023-07-08T18:34:52Z",
            "slug": "Quick-snapshots-from-the-eth_barcelona-hackathon-Submissions-tomorrow-at-1000am-CET-cant-wait-to-see-what-th",
            "currencies": [
                {
                    "code": "REQ",
                    "title": "Request",
                    "slug": "request-network",
                    "url": "https:\/\/cryptopanic.com\/news\/request-network\/"
                }
            ],
            "id": 18746760,
            "url": "https:\/\/cryptopanic.com\/news\/18746760\/Quick-snapshots-from-the-eth_barcelona-hackathon-Submissions-tomorrow-at-1000am-CET-cant-wait-to-see-what-th",
            "created_at": "2023-07-08T18:34:52Z",
            "votes": {
                "negative": 0,
                "positive": 0,
                "important": 0,
                "liked": 0,
                "disliked": 0,
                "lol": 0,
                "toxic": 0,
                "saved": 0,
                "comments": 0
            }
        },
        {
            "kind": "news",
            "domain": "@RequestNetwork",
            "source": {
                "title": "Request Network Twitter",
                "region": "en",
                "domain": "twitter.com",
                "path": "@requestnetwork"
            },
            "title": "The prize pool for the @eth_barcelona IRL hackathon is ~$100k, and we're sponsoring a dedicated $3k prize for whoev\u2026",
            "published_at": "2023-07-06T10:30:49Z",
            "slug": "The-prize-pool-for-the-eth_barcelona-IRL-hackathon-is-100k-and-were-sponsoring-a-dedicated-3k-prize-for-whoev",
            "currencies": [
                {
                    "code": "REQ",
                    "title": "Request",
                    "slug": "request-network",
                    "url": "https:\/\/cryptopanic.com\/news\/request-network\/"
                }
            ],
            "id": 18734958,
            "url": "https:\/\/cryptopanic.com\/news\/18734958\/The-prize-pool-for-the-eth_barcelona-IRL-hackathon-is-100k-and-were-sponsoring-a-dedicated-3k-prize-for-whoev",
            "created_at": "2023-07-06T10:30:49Z",
            "votes": {
                "negative": 0,
                "positive": 0,
                "important": 0,
                "liked": 0,
                "disliked": 0,
                "lol": 0,
                "toxic": 0,
                "saved": 0,
                "comments": 0
            }
        },
        {
            "kind": "news",
            "domain": "@RequestNetwork",
            "source": {
                "title": "Request Network Twitter",
                "region": "en",
                "domain": "twitter.com",
                "path": "@requestnetwork"
            },
            "title": "Thank you for having us @eth_barcelona &lt;3 Grants, payments, hackers, and tapas for an entire weekend!",
            "published_at": "2023-07-04T18:14:22Z",
            "slug": "Thank-you-for-having-us-eth_barcelona-lt3-Grants-payments-hackers-and-tapas-for-an-entire-weekend",
            "currencies": [
                {
                    "code": "REQ",
                    "title": "Request",
                    "slug": "request-network",
                    "url": "https:\/\/cryptopanic.com\/news\/request-network\/"
                }
            ],
            "id": 18718477,
            "url": "https:\/\/cryptopanic.com\/news\/18718477\/Thank-you-for-having-us-eth_barcelona-lt3-Grants-payments-hackers-and-tapas-for-an-entire-weekend",
            "created_at": "2023-07-04T18:14:22Z",
            "votes": {
                "negative": 0,
                "positive": 0,
                "important": 0,
                "liked": 0,
                "disliked": 0,
                "lol": 0,
                "toxic": 0,
                "saved": 0,
                "comments": 0
            }
        },
        {
            "kind": "news",
            "domain": "@RequestNetwork",
            "source": {
                "title": "Request Network Twitter",
                "region": "en",
                "domain": "twitter.com",
                "path": "@requestnetwork"
            },
            "title": "A deep-dive\ud83e\uddf5into @flock_io and how they are leveraging AI and decentralization. Find out why we're so incredibly b\u2026",
            "published_at": "2023-07-04T10:41:07Z",
            "slug": "A-deep-diveinto-flock_io-and-how-they-are-leveraging-AI-and-decentralization-Find-out-why-were-so-incredibly-b",
            "currencies": [
                {
                    "code": "REQ",
                    "title": "Request",
                    "slug": "request-network",
                    "url": "https:\/\/cryptopanic.com\/news\/request-network\/"
                }
            ],
            "id": 18718478,
            "url": "https:\/\/cryptopanic.com\/news\/18718478\/A-deep-diveinto-flock_io-and-how-they-are-leveraging-AI-and-decentralization-Find-out-why-were-so-incredibly-b",
            "created_at": "2023-07-04T10:41:07Z",
            "votes": {
                "negative": 0,
                "positive": 0,
                "important": 0,
                "liked": 0,
                "disliked": 0,
                "lol": 0,
                "toxic": 0,
                "saved": 0,
                "comments": 0
            }
        },
        {
            "kind": "news",
            "domain": "@RequestNetwork",
            "source": {
                "title": "Request Network Twitter",
                "region": "en",
                "domain": "twitter.com",
                "path": "@requestnetwork"
            },
            "title": " Announcement time! We couldn't be happier to announce that @flock_io has been awarded a Request Network grant of\u2026",
            "published_at": "2023-07-03T19:11:44Z",
            "slug": "Announcement-time-We-couldnt-be-happier-to-announce-that-flock_io-has-been-awarded-a-Request-Network-grant-of",
            "currencies": [
                {
                    "code": "REQ",
                    "title": "Request",
                    "slug": "request-network",
                    "url": "https:\/\/cryptopanic.com\/news\/request-network\/"
                }
            ],
            "id": 18711372,
            "url": "https:\/\/cryptopanic.com\/news\/18711372\/Announcement-time-We-couldnt-be-happier-to-announce-that-flock_io-has-been-awarded-a-Request-Network-grant-of",
            "created_at": "2023-07-03T19:11:44Z",
            "votes": {
                "negative": 0,
                "positive": 0,
                "important": 0,
                "liked": 0,
                "disliked": 0,
                "lol": 0,
                "toxic": 0,
                "saved": 0,
                "comments": 0
            }
        },
        {
            "kind": "news",
            "domain": "@RequestNetwork",
            "source": {
                "title": "Request Network Twitter",
                "region": "en",
                "domain": "twitter.com",
                "path": "@requestnetwork"
            },
            "title": "\u00a1Hola Barcelona \ud83c\uddea\ud83c\uddf8! Request Network is attending the hackathon over at @eth_barcelona as a sponsor, with @st0icescu\u2026",
            "published_at": "2023-06-30T14:22:33Z",
            "slug": "Hola-Barcelona-Request-Network-is-attending-the-hackathon-over-at-eth_barcelona-as-a-sponsor-with-st0icescu",
            "currencies": [
                {
                    "code": "REQ",
                    "title": "Request",
                    "slug": "request-network",
                    "url": "https:\/\/cryptopanic.com\/news\/request-network\/"
                }
            ],
            "id": 18695476,
            "url": "https:\/\/cryptopanic.com\/news\/18695476\/Hola-Barcelona-Request-Network-is-attending-the-hackathon-over-at-eth_barcelona-as-a-sponsor-with-st0icescu",
            "created_at": "2023-06-30T14:22:33Z",
            "votes": {
                "negative": 0,
                "positive": 0,
                "important": 0,
                "liked": 0,
                "disliked": 0,
                "lol": 0,
                "toxic": 0,
                "saved": 0,
                "comments": 0
            }
        },
        {
            "kind": "news",
            "domain": "@RequestNetwork",
            "source": {
                "title": "Request Network Twitter",
                "region": "en",
                "domain": "twitter.com",
                "path": "@requestnetwork"
            },
            "title": "Going to @EthCC in a couple of weeks? Well, so are we! @FPinto229 and @st0icescu will be around, eager to share wit\u2026",
            "published_at": "2023-06-27T09:47:24Z",
            "slug": "Going-to-EthCC-in-a-couple-of-weeks-Well-so-are-we-FPinto229-and-st0icescu-will-be-around-eager-to-share-wit",
            "currencies": [
                {
                    "code": "REQ",
                    "title": "Request",
                    "slug": "request-network",
                    "url": "https:\/\/cryptopanic.com\/news\/request-network\/"
                }
            ],
            "id": 18671846,
            "url": "https:\/\/cryptopanic.com\/news\/18671846\/Going-to-EthCC-in-a-couple-of-weeks-Well-so-are-we-FPinto229-and-st0icescu-will-be-around-eager-to-share-wit",
            "created_at": "2023-06-27T09:47:24Z",
            "votes": {
                "negative": 0,
                "positive": 0,
                "important": 0,
                "liked": 0,
                "disliked": 0,
                "lol": 0,
                "toxic": 0,
                "saved": 0,
                "comments": 0
            }
        },
        {
            "kind": "news",
            "domain": "@RequestNetwork",
            "source": {
                "title": "Request Network Twitter",
                "region": "en",
                "domain": "twitter.com",
                "path": "@requestnetwork"
            },
            "title": "Our friends from @RequestFinance have just launched their new pricing model, carefully crafted to suit every (payme\u2026",
            "published_at": "2023-06-26T10:21:13Z",
            "slug": "Our-friends-from-RequestFinance-have-just-launched-their-new-pricing-model-carefully-crafted-to-suit-every-payme",
            "currencies": [
                {
                    "code": "REQ",
                    "title": "Request",
                    "slug": "request-network",
                    "url": "https:\/\/cryptopanic.com\/news\/request-network\/"
                }
            ],
            "id": 18663622,
            "url": "https:\/\/cryptopanic.com\/news\/18663622\/Our-friends-from-RequestFinance-have-just-launched-their-new-pricing-model-carefully-crafted-to-suit-every-payme",
            "created_at": "2023-06-26T10:21:13Z",
            "votes": {
                "negative": 0,
                "positive": 0,
                "important": 0,
                "liked": 0,
                "disliked": 0,
                "lol": 0,
                "toxic": 0,
                "saved": 0,
                "comments": 0
            }
        },
        {
            "kind": "news",
            "domain": "@RequestNetwork",
            "source": {
                "title": "Request Network Twitter",
                "region": "en",
                "domain": "twitter.com",
                "path": "@requestnetwork"
            },
            "title": " $REQ meme contest winners! Our team (anonymously) voted on the fantastic creations of our community and the highe\u2026",
            "published_at": "2023-06-23T14:59:43Z",
            "slug": "REQ-meme-contest-winners-Our-team-anonymously-voted-on-the-fantastic-creations-of-our-community-and-the-highe",
            "currencies": [
                {
                    "code": "REQ",
                    "title": "Request",
                    "slug": "request-network",
                    "url": "https:\/\/cryptopanic.com\/news\/request-network\/"
                }
            ],
            "id": 18646647,
            "url": "https:\/\/cryptopanic.com\/news\/18646647\/REQ-meme-contest-winners-Our-team-anonymously-voted-on-the-fantastic-creations-of-our-community-and-the-highe",
            "created_at": "2023-06-23T14:59:43Z",
            "votes": {
                "negative": 0,
                "positive": 0,
                "important": 0,
                "liked": 0,
                "disliked": 0,
                "lol": 0,
                "toxic": 0,
                "saved": 0,
                "comments": 0
            }
        },
        {
            "kind": "news",
            "domain": "@RequestNetwork",
            "source": {
                "title": "Request Network Twitter",
                "region": "en",
                "domain": "twitter.com",
                "path": "@requestnetwork"
            },
            "title": " The $REQ Ecosystem Update for May 2023 was sent moments ago by newsletter and published on our blog \n\nFind out m\u2026",
            "published_at": "2023-06-19T17:10:14Z",
            "slug": "The-REQ-Ecosystem-Update-for-May-2023-was-sent-moments-ago-by-newsletter-and-published-on-our-blog-Find-out-m",
            "currencies": [
                {
                    "code": "REQ",
                    "title": "Request",
                    "slug": "request-network",
                    "url": "https:\/\/cryptopanic.com\/news\/request-network\/"
                }
            ],
            "id": 18614715,
            "url": "https:\/\/cryptopanic.com\/news\/18614715\/The-REQ-Ecosystem-Update-for-May-2023-was-sent-moments-ago-by-newsletter-and-published-on-our-blog-Find-out-m",
            "created_at": "2023-06-19T17:10:14Z",
            "votes": {
                "negative": 0,
                "positive": 0,
                "important": 0,
                "liked": 0,
                "disliked": 0,
                "lol": 0,
                "toxic": 0,
                "saved": 0,
                "comments": 0
            }
        },
        {
            "kind": "news",
            "domain": "@RequestNetwork",
            "source": {
                "title": "Request Network Twitter",
                "region": "en",
                "domain": "twitter.com",
                "path": "@requestnetwork"
            },
            "title": "A round of applause for MoneyBoxes, the project who won our challenge in the @encodeclub x @gnosischain hackathon,\u2026",
            "published_at": "2023-06-15T16:34:57Z",
            "slug": "A-round-of-applause-for-MoneyBoxes-the-project-who-won-our-challenge-in-the-encodeclub-x-gnosischain-hackathon",
            "currencies": [
                {
                    "code": "REQ",
                    "title": "Request",
                    "slug": "request-network",
                    "url": "https:\/\/cryptopanic.com\/news\/request-network\/"
                }
            ],
            "id": 18589644,
            "url": "https:\/\/cryptopanic.com\/news\/18589644\/A-round-of-applause-for-MoneyBoxes-the-project-who-won-our-challenge-in-the-encodeclub-x-gnosischain-hackathon",
            "created_at": "2023-06-15T16:34:57Z",
            "votes": {
                "negative": 0,
                "positive": 0,
                "important": 0,
                "liked": 0,
                "disliked": 0,
                "lol": 0,
                "toxic": 0,
                "saved": 0,
                "comments": 0
            }
        },
        {
            "kind": "news",
            "domain": "@RequestNetwork",
            "source": {
                "title": "Request Network Twitter",
                "region": "en",
                "domain": "twitter.com",
                "path": "@requestnetwork"
            },
            "title": "\ud83e\udd33A couple of snapshots taken by @MantisClone while reppin' Request Network at the @coinbase Web3IRL event over at\u2026",
            "published_at": "2023-06-15T11:06:19Z",
            "slug": "A-couple-of-snapshots-taken-by-MantisClone-while-reppin-Request-Network-at-the-coinbase-Web3IRL-event-over-at",
            "currencies": [
                {
                    "code": "REQ",
                    "title": "Request",
                    "slug": "request-network",
                    "url": "https:\/\/cryptopanic.com\/news\/request-network\/"
                }
            ],
            "id": 18589645,
            "url": "https:\/\/cryptopanic.com\/news\/18589645\/A-couple-of-snapshots-taken-by-MantisClone-while-reppin-Request-Network-at-the-coinbase-Web3IRL-event-over-at",
            "created_at": "2023-06-15T11:06:19Z",
            "votes": {
                "negative": 0,
                "positive": 0,
                "important": 0,
                "liked": 0,
                "disliked": 0,
                "lol": 0,
                "toxic": 0,
                "saved": 0,
                "comments": 0
            }
        },
        {
            "kind": "news",
            "domain": "@RequestNetwork",
            "source": {
                "title": "Request Network Twitter",
                "region": "en",
                "domain": "twitter.com",
                "path": "@requestnetwork"
            },
            "title": "Good luck @MantisClone &lt;3 Can't wait to post some photos from the event for y'all!",
            "published_at": "2023-06-14T15:19:25Z",
            "slug": "Good-luck-MantisClone-lt3-Cant-wait-to-post-some-photos-from-the-event-for-yall",
            "currencies": [
                {
                    "code": "REQ",
                    "title": "Request",
                    "slug": "request-network",
                    "url": "https:\/\/cryptopanic.com\/news\/request-network\/"
                }
            ],
            "id": 18581766,
            "url": "https:\/\/cryptopanic.com\/news\/18581766\/Good-luck-MantisClone-lt3-Cant-wait-to-post-some-photos-from-the-event-for-yall",
            "created_at": "2023-06-14T15:19:25Z",
            "votes": {
                "negative": 0,
                "positive": 0,
                "important": 0,
                "liked": 0,
                "disliked": 0,
                "lol": 0,
                "toxic": 0,
                "saved": 0,
                "comments": 0
            }
        },
        {
            "kind": "news",
            "domain": "@RequestNetwork",
            "source": {
                "title": "Request Network Twitter",
                "region": "en",
                "domain": "twitter.com",
                "path": "@requestnetwork"
            },
            "title": "\u23f0\u23f0\u23f0Last day to get your memes in for the 3000 $REQ competition \u23f0\u23f0\u23f0\n\nShoutout to our Discord family for the savage m\u2026",
            "published_at": "2023-06-14T10:01:04Z",
            "slug": "Last-day-to-get-your-memes-in-for-the-3000-REQ-competition-Shoutout-to-our-Discord-family-for-the-savage-m",
            "currencies": [
                {
                    "code": "REQ",
                    "title": "Request",
                    "slug": "request-network",
                    "url": "https:\/\/cryptopanic.com\/news\/request-network\/"
                }
            ],
            "id": 18581767,
            "url": "https:\/\/cryptopanic.com\/news\/18581767\/Last-day-to-get-your-memes-in-for-the-3000-REQ-competition-Shoutout-to-our-Discord-family-for-the-savage-m",
            "created_at": "2023-06-14T10:01:04Z",
            "votes": {
                "negative": 0,
                "positive": 0,
                "important": 0,
                "liked": 0,
                "disliked": 0,
                "lol": 0,
                "toxic": 0,
                "saved": 0,
                "comments": 0
            }
        },
        {
            "kind": "news",
            "domain": "@RequestNetwork",
            "source": {
                "title": "Request Network Twitter",
                "region": "en",
                "domain": "twitter.com",
                "path": "@requestnetwork"
            },
            "title": "Big day ahead for us, $REQ fam! The @encodeclub x @gnosischain hackathon finale event is happening around the same\u2026",
            "published_at": "2023-06-14T00:36:00Z",
            "slug": "Big-day-ahead-for-us-REQ-fam-The-encodeclub-x-gnosischain-hackathon-finale-event-is-happening-around-the-same",
            "currencies": [
                {
                    "code": "REQ",
                    "title": "Request",
                    "slug": "request-network",
                    "url": "https:\/\/cryptopanic.com\/news\/request-network\/"
                }
            ],
            "id": 18573253,
            "url": "https:\/\/cryptopanic.com\/news\/18573253\/Big-day-ahead-for-us-REQ-fam-The-encodeclub-x-gnosischain-hackathon-finale-event-is-happening-around-the-same",
            "created_at": "2023-06-14T00:36:00Z",
            "votes": {
                "negative": 0,
                "positive": 0,
                "important": 0,
                "liked": 0,
                "disliked": 0,
                "lol": 0,
                "toxic": 0,
                "saved": 0,
                "comments": 0
            }
        },
        {
            "kind": "news",
            "domain": "@RequestNetwork",
            "source": {
                "title": "Request Network Twitter",
                "region": "en",
                "domain": "twitter.com",
                "path": "@requestnetwork"
            },
            "title": "We've had quite a lot of submissions to go through, but in the end, we've picked the best one and we're eager to an\u2026",
            "published_at": "2023-06-13T13:12:05Z",
            "slug": "Weve-had-quite-a-lot-of-submissions-to-go-through-but-in-the-end-weve-picked-the-best-one-and-were-eager-to-an",
            "currencies": [
                {
                    "code": "REQ",
                    "title": "Request",
                    "slug": "request-network",
                    "url": "https:\/\/cryptopanic.com\/news\/request-network\/"
                }
            ],
            "id": 18573254,
            "url": "https:\/\/cryptopanic.com\/news\/18573254\/Weve-had-quite-a-lot-of-submissions-to-go-through-but-in-the-end-weve-picked-the-best-one-and-were-eager-to-an",
            "created_at": "2023-06-13T13:12:05Z",
            "votes": {
                "negative": 0,
                "positive": 0,
                "important": 0,
                "liked": 0,
                "disliked": 0,
                "lol": 0,
                "toxic": 0,
                "saved": 0,
                "comments": 0
            }
        },
        {
            "kind": "news",
            "domain": "@RequestNetwork",
            "source": {
                "title": "Request Network Twitter",
                "region": "en",
                "domain": "twitter.com",
                "path": "@requestnetwork"
            },
            "title": "Thank you @coinbase for inviting us and our engineering expert @MantisClone to the Crypto Demo Day in Columbus, Ohi\u2026",
            "published_at": "2023-06-12T18:36:05Z",
            "slug": "Thank-you-coinbase-for-inviting-us-and-our-engineering-expert-MantisClone-to-the-Crypto-Demo-Day-in-Columbus-Ohi",
            "currencies": [
                {
                    "code": "REQ",
                    "title": "Request",
                    "slug": "request-network",
                    "url": "https:\/\/cryptopanic.com\/news\/request-network\/"
                }
            ],
            "id": 18565019,
            "url": "https:\/\/cryptopanic.com\/news\/18565019\/Thank-you-coinbase-for-inviting-us-and-our-engineering-expert-MantisClone-to-the-Crypto-Demo-Day-in-Columbus-Ohi",
            "created_at": "2023-06-12T18:36:05Z",
            "votes": {
                "negative": 0,
                "positive": 0,
                "important": 0,
                "liked": 0,
                "disliked": 0,
                "lol": 0,
                "toxic": 0,
                "saved": 0,
                "comments": 0
            }
        },
        {
            "kind": "news",
            "domain": "@RequestNetwork",
            "source": {
                "title": "Request Network Twitter",
                "region": "en",
                "domain": "twitter.com",
                "path": "@requestnetwork"
            },
            "title": " Reminder: only 2 days left for our meme competition! \n\n What's at stake? 1st place: 1500 $REQ, 2nd place: 1000\u2026",
            "published_at": "2023-06-12T10:21:01Z",
            "slug": "Reminder-only-2-days-left-for-our-meme-competition-Whats-at-stake-1st-place-1500-REQ-2nd-place-1000",
            "currencies": [
                {
                    "code": "REQ",
                    "title": "Request",
                    "slug": "request-network",
                    "url": "https:\/\/cryptopanic.com\/news\/request-network\/"
                }
            ],
            "id": 18565020,
            "url": "https:\/\/cryptopanic.com\/news\/18565020\/Reminder-only-2-days-left-for-our-meme-competition-Whats-at-stake-1st-place-1500-REQ-2nd-place-1000",
            "created_at": "2023-06-12T10:21:01Z",
            "votes": {
                "negative": 0,
                "positive": 0,
                "important": 0,
                "liked": 0,
                "disliked": 0,
                "lol": 0,
                "toxic": 0,
                "saved": 0,
                "comments": 0
            }
        },
        {
            "kind": "news",
            "domain": "@RequestNetwork",
            "source": {
                "title": "Request Network Twitter",
                "region": "en",
                "domain": "twitter.com",
                "path": "@requestnetwork"
            },
            "title": "Best thread today is definitely @VitalikButerin's three transitions through the filter of @MantisClone",
            "published_at": "2023-06-10T14:39:02Z",
            "slug": "Best-thread-today-is-definitely-VitalikButerins-three-transitions-through-the-filter-of-MantisClone",
            "currencies": [
                {
                    "code": "REQ",
                    "title": "Request",
                    "slug": "request-network",
                    "url": "https:\/\/cryptopanic.com\/news\/request-network\/"
                }
            ],
            "id": 18552654,
            "url": "https:\/\/cryptopanic.com\/news\/18552654\/Best-thread-today-is-definitely-VitalikButerins-three-transitions-through-the-filter-of-MantisClone",
            "created_at": "2023-06-10T14:39:02Z",
            "votes": {
                "negative": 0,
                "positive": 0,
                "important": 0,
                "liked": 0,
                "disliked": 0,
                "lol": 0,
                "toxic": 0,
                "saved": 0,
                "comments": 0
            }
        }
    ]
}
