{
    "count": 200,
    "next": "https:\/\/cryptopanic.com\/api\/v1\/posts\/?auth_token=01c356e89ffc1b8eba2127c81fc8c66ee0eace75&kind=news&currencies=BAND&page=2",
    "previous": null,
    "results": [
        {
            "kind": "news",
            "domain": "@BandProtocol",
            "source": {
                "title": "Band Protocol Twitter",
                "region": "en",
                "domain": "twitter.com",
                "path": "@bandprotocol"
            },
            "title": "1\/ The $BAND Protocol team has released its 2023 half-year wrap-up and next steps!\n See the key points below\n Fo\u2026",
            "published_at": "2023-07-11T11:01:23Z",
            "slug": "1-The-BAND-Protocol-team-has-released-its-2023-half-year-wrap-up-and-next-steps-See-the-key-points-below-Fo",
            "currencies": [
                {
                    "code": "BAND",
                    "title": "Band Protocol",
                    "slug": "band-protocol",
                    "url": "https:\/\/cryptopanic.com\/news\/band-protocol\/"
                }
            ],
            "id": 18762850,
            "url": "https:\/\/cryptopanic.com\/news\/18762850\/1-The-BAND-Protocol-team-has-released-its-2023-half-year-wrap-up-and-next-steps-See-the-key-points-below-Fo",
            "created_at": "2023-07-11T11:01:23Z",
            "votes": {
                "negative": 0,
                "positive": 0,
                "important": 0,
                "liked": 0,
                "disliked": 0,
                "lol": 0,
                "toxic": 0,
                "saved": 0,
                "comments": 0
            }
        },
        {
            "kind": "news",
            "domain": "@BandProtocol",
            "source": {
                "title": "Band Protocol Twitter",
                "region": "en",
                "domain": "twitter.com",
                "path": "@bandprotocol"
            },
            "title": ".@sirada_l (BAND's senior business development manager) will be joining the \" IBC \" panel discussion at\u2026",
            "published_at": "2023-07-07T11:26:50Z",
            "slug": "sirada_l-BANDs-senior-business-development-manager-will-be-joining-the-IBC-panel-discussion-at",
            "currencies": [
                {
                    "code": "BAND",
                    "title": "Band Protocol",
                    "slug": "band-protocol",
                    "url": "https:\/\/cryptopanic.com\/news\/band-protocol\/"
                }
            ],
            "id": 18738914,
            "url": "https:\/\/cryptopanic.com\/news\/18738914\/sirada_l-BANDs-senior-business-development-manager-will-be-joining-the-IBC-panel-discussion-at",
            "created_at": "2023-07-07T11:26:50Z",
            "votes": {
                "negative": 0,
                "positive": 0,
                "important": 0,
                "liked": 0,
                "disliked": 0,
                "lol": 0,
                "toxic": 0,
                "saved": 0,
                "comments": 0
            }
        },
        {
            "kind": "news",
            "domain": "@BandProtocol",
            "source": {
                "title": "Band Protocol Twitter",
                "region": "en",
                "domain": "twitter.com",
                "path": "@bandprotocol"
            },
            "title": "RT @pzshine: I'm excited and honored to announce that I'll be speaking at the upcoming @AwesomWasm event! I'm looking forward to connecting\u2026",
            "published_at": "2023-07-07T07:08:18Z",
            "slug": "RT-pzshine-Im-excited-and-honored-to-announce-that-Ill-be-speaking-at-the-upcoming-AwesomWasm-event-Im-looking-forward-to-connecting",
            "currencies": [
                {
                    "code": "BAND",
                    "title": "Band Protocol",
                    "slug": "band-protocol",
                    "url": "https:\/\/cryptopanic.com\/news\/band-protocol\/"
                }
            ],
            "id": 18738915,
            "url": "https:\/\/cryptopanic.com\/news\/18738915\/RT-pzshine-Im-excited-and-honored-to-announce-that-Ill-be-speaking-at-the-upcoming-AwesomWasm-event-Im-looking-forward-to-connecting",
            "created_at": "2023-07-07T07:08:18Z",
            "votes": {
                "negative": 0,
                "positive": 0,
                "important": 0,
                "liked": 0,
                "disliked": 0,
                "lol": 0,
                "toxic": 0,
                "saved": 0,
                "comments": 0
            }
        },
        {
            "kind": "news",
            "domain": "@BandProtocol",
            "source": {
                "title": "Band Protocol Twitter",
                "region": "en",
                "domain": "twitter.com",
                "path": "@bandprotocol"
            },
            "title": "RT @Cosmos_allday: INTRODUCING CW-BAND\n\ncw-band is a step-up solution that relies on the integration of #BandChain's oracle data into @Cos\u2026",
            "published_at": "2023-07-06T11:02:44Z",
            "slug": "RT-Cosmos_allday-INTRODUCING-CW-BAND-cw-band-is-a-step-up-solution-that-relies-on-the-integration-of-BandChains-oracle-data-into-Cos",
            "currencies": [
                {
                    "code": "BAND",
                    "title": "Band Protocol",
                    "slug": "band-protocol",
                    "url": "https:\/\/cryptopanic.com\/news\/band-protocol\/"
                }
            ],
            "id": 18731038,
            "url": "https:\/\/cryptopanic.com\/news\/18731038\/RT-Cosmos_allday-INTRODUCING-CW-BAND-cw-band-is-a-step-up-solution-that-relies-on-the-integration-of-BandChains-oracle-data-into-Cos",
            "created_at": "2023-07-06T11:02:44Z",
            "votes": {
                "negative": 0,
                "positive": 0,
                "important": 0,
                "liked": 0,
                "disliked": 0,
                "lol": 0,
                "toxic": 0,
                "saved": 0,
                "comments": 0
            }
        },
        {
            "kind": "news",
            "domain": "@BandProtocol",
            "source": {
                "title": "Band Protocol Twitter",
                "region": "en",
                "domain": "twitter.com",
                "path": "@bandprotocol"
            },
            "title": "1\/ Are you ready to join the force &amp; make a difference to the $BAND ecosystem? Get started with our Band Protocol G\u2026",
            "published_at": "2023-07-05T10:59:36Z",
            "slug": "1-Are-you-ready-to-join-the-force-amp-make-a-difference-to-the-BAND-ecosystem-Get-started-with-our-Band-Protocol-G",
            "currencies": [
                {
                    "code": "BAND",
                    "title": "Band Protocol",
                    "slug": "band-protocol",
                    "url": "https:\/\/cryptopanic.com\/news\/band-protocol\/"
                }
            ],
            "id": 18722462,
            "url": "https:\/\/cryptopanic.com\/news\/18722462\/1-Are-you-ready-to-join-the-force-amp-make-a-difference-to-the-BAND-ecosystem-Get-started-with-our-Band-Protocol-G",
            "created_at": "2023-07-05T10:59:36Z",
            "votes": {
                "negative": 0,
                "positive": 0,
                "important": 0,
                "liked": 0,
                "disliked": 0,
                "lol": 0,
                "toxic": 0,
                "saved": 0,
                "comments": 0
            }
        },
        {
            "kind": "news",
            "domain": "@BandProtocol",
            "source": {
                "title": "Band Protocol Twitter",
                "region": "en",
                "domain": "twitter.com",
                "path": "@bandprotocol"
            },
            "title": "RT @Cosmos_allday: BAND PROTOCOL MONTHLY RECAP | JUNE 2023\n\n@BandProtocol had an explosive June with many notable updates such as cw-band\u2026",
            "published_at": "2023-07-05T07:08:03Z",
            "slug": "RT-Cosmos_allday-BAND-PROTOCOL-MONTHLY-RECAP-JUNE-2023-BandProtocol-had-an-explosive-June-with-many-notable-updates-such-as-cw-band",
            "currencies": [
                {
                    "code": "BAND",
                    "title": "Band Protocol",
                    "slug": "band-protocol",
                    "url": "https:\/\/cryptopanic.com\/news\/band-protocol\/"
                }
            ],
            "id": 18722463,
            "url": "https:\/\/cryptopanic.com\/news\/18722463\/RT-Cosmos_allday-BAND-PROTOCOL-MONTHLY-RECAP-JUNE-2023-BandProtocol-had-an-explosive-June-with-many-notable-updates-such-as-cw-band",
            "created_at": "2023-07-05T07:08:03Z",
            "votes": {
                "negative": 0,
                "positive": 0,
                "important": 0,
                "liked": 0,
                "disliked": 0,
                "lol": 0,
                "toxic": 0,
                "saved": 0,
                "comments": 0
            }
        },
        {
            "kind": "news",
            "domain": "@BandProtocol",
            "source": {
                "title": "Band Protocol Twitter",
                "region": "en",
                "domain": "twitter.com",
                "path": "@bandprotocol"
            },
            "title": "\ufe0f BAND's June 2023 Monthly Update is here! \n\ud83e\udd1d Now Available On: @axelarcore @SeiNetwork @bitgertbrise \n Learn mo\u2026",
            "published_at": "2023-07-04T10:24:29Z",
            "slug": "BANDs-June-2023-Monthly-Update-is-here-Now-Available-On-axelarcore-SeiNetwork-bitgertbrise-Learn-mo",
            "currencies": [
                {
                    "code": "BAND",
                    "title": "Band Protocol",
                    "slug": "band-protocol",
                    "url": "https:\/\/cryptopanic.com\/news\/band-protocol\/"
                }
            ],
            "id": 18714895,
            "url": "https:\/\/cryptopanic.com\/news\/18714895\/BANDs-June-2023-Monthly-Update-is-here-Now-Available-On-axelarcore-SeiNetwork-bitgertbrise-Learn-mo",
            "created_at": "2023-07-04T10:24:29Z",
            "votes": {
                "negative": 0,
                "positive": 0,
                "important": 0,
                "liked": 0,
                "disliked": 0,
                "lol": 0,
                "toxic": 0,
                "saved": 0,
                "comments": 0
            }
        },
        {
            "kind": "news",
            "domain": "@BandProtocol",
            "source": {
                "title": "Band Protocol Twitter",
                "region": "en",
                "domain": "twitter.com",
                "path": "@bandprotocol"
            },
            "title": "RT @Cosmos_allday: @osmosiszone, @stride_zone &amp; @cosmoshub are the projects with the biggest volume IBC in 30D in the past    \n\n@Ume\u2026",
            "published_at": "2023-07-04T10:20:50Z",
            "slug": "RT-Cosmos_allday-osmosiszone-stride_zone-amp-cosmoshub-are-the-projects-with-the-biggest-volume-IBC-in-30D-in-the-past-Ume",
            "currencies": [
                {
                    "code": "BAND",
                    "title": "Band Protocol",
                    "slug": "band-protocol",
                    "url": "https:\/\/cryptopanic.com\/news\/band-protocol\/"
                }
            ],
            "id": 18714896,
            "url": "https:\/\/cryptopanic.com\/news\/18714896\/RT-Cosmos_allday-osmosiszone-stride_zone-amp-cosmoshub-are-the-projects-with-the-biggest-volume-IBC-in-30D-in-the-past-Ume",
            "created_at": "2023-07-04T10:20:50Z",
            "votes": {
                "negative": 0,
                "positive": 0,
                "important": 0,
                "liked": 0,
                "disliked": 0,
                "lol": 0,
                "toxic": 0,
                "saved": 0,
                "comments": 0
            }
        },
        {
            "kind": "news",
            "domain": "@BandProtocol",
            "source": {
                "title": "Band Protocol Twitter",
                "region": "en",
                "domain": "twitter.com",
                "path": "@bandprotocol"
            },
            "title": "\ufe0f BAND's June 2023 Monthly Update is here! \n\ud83e\udd1d Now Available On: @axelarcore @SeiNetwork @bitgertbrise\n Learn more\u2026",
            "published_at": "2023-07-03T14:00:00Z",
            "slug": "BANDs-June-2023-Monthly-Update-is-here-Now-Available-On-axelarcore-SeiNetwork-bitgertbrise-Learn-more",
            "currencies": [
                {
                    "code": "BAND",
                    "title": "Band Protocol",
                    "slug": "band-protocol",
                    "url": "https:\/\/cryptopanic.com\/news\/band-protocol\/"
                }
            ],
            "id": 18707536,
            "url": "https:\/\/cryptopanic.com\/news\/18707536\/BANDs-June-2023-Monthly-Update-is-here-Now-Available-On-axelarcore-SeiNetwork-bitgertbrise-Learn-more",
            "created_at": "2023-07-03T14:00:00Z",
            "votes": {
                "negative": 0,
                "positive": 0,
                "important": 0,
                "liked": 0,
                "disliked": 0,
                "lol": 0,
                "toxic": 0,
                "saved": 0,
                "comments": 0
            }
        },
        {
            "kind": "news",
            "domain": "@BandProtocol",
            "source": {
                "title": "Band Protocol Twitter",
                "region": "en",
                "domain": "twitter.com",
                "path": "@bandprotocol"
            },
            "title": "1\/ Embark on your $BAND adventure by diving into our Discord community!\n\nStay up to date with the latest news, join\u2026",
            "published_at": "2023-06-30T10:57:30Z",
            "slug": "1-Embark-on-your-BAND-adventure-by-diving-into-our-Discord-community-Stay-up-to-date-with-the-latest-news-join",
            "currencies": [
                {
                    "code": "BAND",
                    "title": "Band Protocol",
                    "slug": "band-protocol",
                    "url": "https:\/\/cryptopanic.com\/news\/band-protocol\/"
                }
            ],
            "id": 18692049,
            "url": "https:\/\/cryptopanic.com\/news\/18692049\/1-Embark-on-your-BAND-adventure-by-diving-into-our-Discord-community-Stay-up-to-date-with-the-latest-news-join",
            "created_at": "2023-06-30T10:57:30Z",
            "votes": {
                "negative": 0,
                "positive": 0,
                "important": 0,
                "liked": 0,
                "disliked": 0,
                "lol": 0,
                "toxic": 0,
                "saved": 0,
                "comments": 0
            }
        },
        {
            "kind": "news",
            "domain": "@BandProtocol",
            "source": {
                "title": "Band Protocol Twitter",
                "region": "en",
                "domain": "twitter.com",
                "path": "@bandprotocol"
            },
            "title": "RT @CosmosATOMDaily:  Exciting news for #CosmWasm developers!\n\nIntroducing cw-band, the seamless integration solution for #BandChain's ora\u2026",
            "published_at": "2023-06-30T10:26:04Z",
            "slug": "RT-CosmosATOMDaily-Exciting-news-for-CosmWasm-developers-Introducing-cw-band-the-seamless-integration-solution-for-BandChains-ora",
            "currencies": [
                {
                    "code": "BAND",
                    "title": "Band Protocol",
                    "slug": "band-protocol",
                    "url": "https:\/\/cryptopanic.com\/news\/band-protocol\/"
                }
            ],
            "id": 18692050,
            "url": "https:\/\/cryptopanic.com\/news\/18692050\/RT-CosmosATOMDaily-Exciting-news-for-CosmWasm-developers-Introducing-cw-band-the-seamless-integration-solution-for-BandChains-ora",
            "created_at": "2023-06-30T10:26:04Z",
            "votes": {
                "negative": 0,
                "positive": 0,
                "important": 0,
                "liked": 0,
                "disliked": 0,
                "lol": 0,
                "toxic": 0,
                "saved": 0,
                "comments": 0
            }
        },
        {
            "kind": "news",
            "domain": "@BandProtocol",
            "source": {
                "title": "Band Protocol Twitter",
                "region": "en",
                "domain": "twitter.com",
                "path": "@bandprotocol"
            },
            "title": "1\/ \ufe0f Introducing cw-band, Band\u2019s upgraded solution that enhances the integration of #bandchain's oracle data into\u2026",
            "published_at": "2023-06-28T11:07:26Z",
            "slug": "1-Introducing-cw-band-Bands-upgraded-solution-that-enhances-the-integration-of-bandchains-oracle-data-into",
            "currencies": [
                {
                    "code": "BAND",
                    "title": "Band Protocol",
                    "slug": "band-protocol",
                    "url": "https:\/\/cryptopanic.com\/news\/band-protocol\/"
                }
            ],
            "id": 18675986,
            "url": "https:\/\/cryptopanic.com\/news\/18675986\/1-Introducing-cw-band-Bands-upgraded-solution-that-enhances-the-integration-of-bandchains-oracle-data-into",
            "created_at": "2023-06-28T11:07:26Z",
            "votes": {
                "negative": 0,
                "positive": 0,
                "important": 0,
                "liked": 0,
                "disliked": 0,
                "lol": 0,
                "toxic": 0,
                "saved": 0,
                "comments": 0
            }
        },
        {
            "kind": "news",
            "domain": "@BandProtocol",
            "source": {
                "title": "Band Protocol Twitter",
                "region": "en",
                "domain": "twitter.com",
                "path": "@bandprotocol"
            },
            "title": "RT @BNBSwap:  @bitgertbrise #Bitgertchain has integrated on @BandProtocol mainnet!\n\nBand Protocol is a cross-chain data oracle platform th\u2026",
            "published_at": "2023-06-27T10:08:15Z",
            "slug": "RT-BNBSwap-bitgertbrise-Bitgertchain-has-integrated-on-BandProtocol-mainnet-Band-Protocol-is-a-cross-chain-data-oracle-platform-th",
            "currencies": [
                {
                    "code": "BAND",
                    "title": "Band Protocol",
                    "slug": "band-protocol",
                    "url": "https:\/\/cryptopanic.com\/news\/band-protocol\/"
                }
            ],
            "id": 18667764,
            "url": "https:\/\/cryptopanic.com\/news\/18667764\/RT-BNBSwap-bitgertbrise-Bitgertchain-has-integrated-on-BandProtocol-mainnet-Band-Protocol-is-a-cross-chain-data-oracle-platform-th",
            "created_at": "2023-06-27T10:08:15Z",
            "votes": {
                "negative": 0,
                "positive": 0,
                "important": 0,
                "liked": 0,
                "disliked": 0,
                "lol": 0,
                "toxic": 0,
                "saved": 0,
                "comments": 0
            }
        },
        {
            "kind": "news",
            "domain": "@BandProtocol",
            "source": {
                "title": "Band Protocol Twitter",
                "region": "en",
                "domain": "twitter.com",
                "path": "@bandprotocol"
            },
            "title": "\ufe0f #CosmWasm \u2194\ufe0f\u00a0#bandchain = cw-band!\n\ufe0f The official announcement will be made this Wednesday! Don't forget to sav\u2026",
            "published_at": "2023-06-26T14:30:00Z",
            "slug": "CosmWasm-bandchain-cw-band-The-official-announcement-will-be-made-this-Wednesday-Dont-forget-to-sav",
            "currencies": [
                {
                    "code": "BAND",
                    "title": "Band Protocol",
                    "slug": "band-protocol",
                    "url": "https:\/\/cryptopanic.com\/news\/band-protocol\/"
                }
            ],
            "id": 18659500,
            "url": "https:\/\/cryptopanic.com\/news\/18659500\/CosmWasm-bandchain-cw-band-The-official-announcement-will-be-made-this-Wednesday-Dont-forget-to-sav",
            "created_at": "2023-06-26T14:30:00Z",
            "votes": {
                "negative": 0,
                "positive": 0,
                "important": 0,
                "liked": 0,
                "disliked": 0,
                "lol": 0,
                "toxic": 0,
                "saved": 0,
                "comments": 0
            }
        },
        {
            "kind": "news",
            "domain": "@BandProtocol",
            "source": {
                "title": "Band Protocol Twitter",
                "region": "en",
                "domain": "twitter.com",
                "path": "@bandprotocol"
            },
            "title": "\ufe0f Don't forget to tune in within the next 3 hours to listen to our CSO, @siree_fon, as she shares the most recent\u2026",
            "published_at": "2023-06-26T11:17:06Z",
            "slug": "Dont-forget-to-tune-in-within-the-next-3-hours-to-listen-to-our-CSO-siree_fon-as-she-shares-the-most-recent",
            "currencies": [
                {
                    "code": "BAND",
                    "title": "Band Protocol",
                    "slug": "band-protocol",
                    "url": "https:\/\/cryptopanic.com\/news\/band-protocol\/"
                }
            ],
            "id": 18659501,
            "url": "https:\/\/cryptopanic.com\/news\/18659501\/Dont-forget-to-tune-in-within-the-next-3-hours-to-listen-to-our-CSO-siree_fon-as-she-shares-the-most-recent",
            "created_at": "2023-06-26T11:17:06Z",
            "votes": {
                "negative": 0,
                "positive": 0,
                "important": 0,
                "liked": 0,
                "disliked": 0,
                "lol": 0,
                "toxic": 0,
                "saved": 0,
                "comments": 0
            }
        },
        {
            "kind": "news",
            "domain": "@BandProtocol",
            "source": {
                "title": "Band Protocol Twitter",
                "region": "en",
                "domain": "twitter.com",
                "path": "@bandprotocol"
            },
            "title": "RT @CryptoMiners_Co: \ufe0f Join us for the special Twitter Space #AMA with @BandProtocol \n\n\ufe0f 26th June at 2:00 PM UTC\n\ufe0f Guest appearance:\n-\u2026",
            "published_at": "2023-06-23T12:49:17Z",
            "slug": "RT-CryptoMiners_Co-Join-us-for-the-special-Twitter-Space-AMA-with-BandProtocol-26th-June-at-200-PM-UTC-Guest-appearance-",
            "currencies": [
                {
                    "code": "BAND",
                    "title": "Band Protocol",
                    "slug": "band-protocol",
                    "url": "https:\/\/cryptopanic.com\/news\/band-protocol\/"
                }
            ],
            "id": 18643141,
            "url": "https:\/\/cryptopanic.com\/news\/18643141\/RT-CryptoMiners_Co-Join-us-for-the-special-Twitter-Space-AMA-with-BandProtocol-26th-June-at-200-PM-UTC-Guest-appearance-",
            "created_at": "2023-06-23T12:49:17Z",
            "votes": {
                "negative": 0,
                "positive": 0,
                "important": 0,
                "liked": 0,
                "disliked": 0,
                "lol": 0,
                "toxic": 0,
                "saved": 0,
                "comments": 0
            }
        },
        {
            "kind": "news",
            "domain": "@BandProtocol",
            "source": {
                "title": "Band Protocol Twitter",
                "region": "en",
                "domain": "twitter.com",
                "path": "@bandprotocol"
            },
            "title": "RT @bitgertbrise:  Bitgert chain is now live on @BandProtocol MainNet!\n\nRead more",
            "published_at": "2023-06-23T07:11:53Z",
            "slug": "RT-bitgertbrise-Bitgert-chain-is-now-live-on-BandProtocol-MainNet-Read-more",
            "currencies": [
                {
                    "code": "BAND",
                    "title": "Band Protocol",
                    "slug": "band-protocol",
                    "url": "https:\/\/cryptopanic.com\/news\/band-protocol\/"
                }
            ],
            "id": 18643142,
            "url": "https:\/\/cryptopanic.com\/news\/18643142\/RT-bitgertbrise-Bitgert-chain-is-now-live-on-BandProtocol-MainNet-Read-more",
            "created_at": "2023-06-23T07:11:53Z",
            "votes": {
                "negative": 0,
                "positive": 0,
                "important": 0,
                "liked": 0,
                "disliked": 0,
                "lol": 0,
                "toxic": 0,
                "saved": 0,
                "comments": 0
            }
        },
        {
            "kind": "news",
            "domain": "@BandProtocol",
            "source": {
                "title": "Band Protocol Twitter",
                "region": "en",
                "domain": "twitter.com",
                "path": "@bandprotocol"
            },
            "title": "RT @Findora: \"By joining forces, Band Protocol and Findora are set to...foster innovation in #Web3Gaming, and drive the growth of their #De\u2026",
            "published_at": "2023-06-23T06:52:48Z",
            "slug": "RT-Findora-By-joining-forces-Band-Protocol-and-Findora-are-set-tofoster-innovation-in-Web3Gaming-and-drive-the-growth-of-their-De",
            "currencies": [
                {
                    "code": "BAND",
                    "title": "Band Protocol",
                    "slug": "band-protocol",
                    "url": "https:\/\/cryptopanic.com\/news\/band-protocol\/"
                }
            ],
            "id": 18643143,
            "url": "https:\/\/cryptopanic.com\/news\/18643143\/RT-Findora-By-joining-forces-Band-Protocol-and-Findora-are-set-tofoster-innovation-in-Web3Gaming-and-drive-the-growth-of-their-De",
            "created_at": "2023-06-23T06:52:48Z",
            "votes": {
                "negative": 0,
                "positive": 0,
                "important": 0,
                "liked": 0,
                "disliked": 0,
                "lol": 0,
                "toxic": 0,
                "saved": 0,
                "comments": 0
            }
        },
        {
            "kind": "news",
            "domain": "@BandProtocol",
            "source": {
                "title": "Band Protocol Twitter",
                "region": "en",
                "domain": "twitter.com",
                "path": "@bandprotocol"
            },
            "title": "Last weekend, our Head of Operations, @pzshine, represented Band at @buidl_asia to share his knowledge and discuss\u2026",
            "published_at": "2023-06-22T12:01:39Z",
            "slug": "Last-weekend-our-Head-of-Operations-pzshine-represented-Band-at-buidl_asia-to-share-his-knowledge-and-discuss",
            "currencies": [
                {
                    "code": "BAND",
                    "title": "Band Protocol",
                    "slug": "band-protocol",
                    "url": "https:\/\/cryptopanic.com\/news\/band-protocol\/"
                }
            ],
            "id": 18635277,
            "url": "https:\/\/cryptopanic.com\/news\/18635277\/Last-weekend-our-Head-of-Operations-pzshine-represented-Band-at-buidl_asia-to-share-his-knowledge-and-discuss",
            "created_at": "2023-06-22T12:01:39Z",
            "votes": {
                "negative": 0,
                "positive": 0,
                "important": 0,
                "liked": 0,
                "disliked": 0,
                "lol": 0,
                "toxic": 0,
                "saved": 0,
                "comments": 0
            }
        },
        {
            "kind": "news",
            "domain": "@BandProtocol",
            "source": {
                "title": "Band Protocol Twitter",
                "region": "en",
                "domain": "twitter.com",
                "path": "@bandprotocol"
            },
            "title": "1\/ Let's collaborate to build a decentralized future, powered by innovation, for the $BAND ecosystem. Join the Band\u2026",
            "published_at": "2023-06-21T11:03:45Z",
            "slug": "1-Lets-collaborate-to-build-a-decentralized-future-powered-by-innovation-for-the-BAND-ecosystem-Join-the-Band",
            "currencies": [
                {
                    "code": "BAND",
                    "title": "Band Protocol",
                    "slug": "band-protocol",
                    "url": "https:\/\/cryptopanic.com\/news\/band-protocol\/"
                }
            ],
            "id": 18626607,
            "url": "https:\/\/cryptopanic.com\/news\/18626607\/1-Lets-collaborate-to-build-a-decentralized-future-powered-by-innovation-for-the-BAND-ecosystem-Join-the-Band",
            "created_at": "2023-06-21T11:03:45Z",
            "votes": {
                "negative": 0,
                "positive": 0,
                "important": 0,
                "liked": 0,
                "disliked": 0,
                "lol": 0,
                "toxic": 0,
                "saved": 0,
                "comments": 0
            }
        }
    ]
}
