{
    "count": 200,
    "next": "https:\/\/cryptopanic.com\/api\/v1\/posts\/?auth_token=01c356e89ffc1b8eba2127c81fc8c66ee0eace75&kind=news&currencies=POWR&page=2",
    "previous": null,
    "results": [
        {
            "kind": "news",
            "domain": "@PowerLedger_io",
            "source": {
                "title": "Power Ledger Twitter",
                "region": "en",
                "domain": "twitter.com",
                "path": "@powerledger_io"
            },
            "title": "A new report by @GSEF, @ISGF and @PowerLedger_io delves into the revolutionary impact of blockchain technology on t\u2026",
            "published_at": "2023-07-11T12:20:06Z",
            "slug": "A-new-report-by-GSEF-ISGF-and-PowerLedger_io-delves-into-the-revolutionary-impact-of-blockchain-technology-on-t",
            "currencies": [
                {
                    "code": "POWR",
                    "title": "Power Ledger",
                    "slug": "power-ledger",
                    "url": "https:\/\/cryptopanic.com\/news\/power-ledger\/"
                }
            ],
            "id": 18766575,
            "url": "https:\/\/cryptopanic.com\/news\/18766575\/A-new-report-by-GSEF-ISGF-and-PowerLedger_io-delves-into-the-revolutionary-impact-of-blockchain-technology-on-t",
            "created_at": "2023-07-11T12:20:06Z",
            "votes": {
                "negative": 0,
                "positive": 0,
                "important": 0,
                "liked": 0,
                "disliked": 0,
                "lol": 0,
                "toxic": 0,
                "saved": 0,
                "comments": 0
            }
        },
        {
            "kind": "news",
            "domain": "@PowerLedger_io",
            "source": {
                "title": "Power Ledger Twitter",
                "region": "en",
                "domain": "twitter.com",
                "path": "@powerledger_io"
            },
            "title": "RT @GSmartEnergyFed: Join GSEF Webinar on Blockchain Applications for Electric Utilities with @PowerLedger_io on 11 July'23.  Concept talk\u2026",
            "published_at": "2023-07-10T07:09:11Z",
            "slug": "RT-GSmartEnergyFed-Join-GSEF-Webinar-on-Blockchain-Applications-for-Electric-Utilities-with-PowerLedger_io-on-11-July23-Concept-talk",
            "currencies": [
                {
                    "code": "POWR",
                    "title": "Power Ledger",
                    "slug": "power-ledger",
                    "url": "https:\/\/cryptopanic.com\/news\/power-ledger\/"
                }
            ],
            "id": 18751076,
            "url": "https:\/\/cryptopanic.com\/news\/18751076\/RT-GSmartEnergyFed-Join-GSEF-Webinar-on-Blockchain-Applications-for-Electric-Utilities-with-PowerLedger_io-on-11-July23-Concept-talk",
            "created_at": "2023-07-10T07:09:11Z",
            "votes": {
                "negative": 0,
                "positive": 0,
                "important": 0,
                "liked": 0,
                "disliked": 0,
                "lol": 0,
                "toxic": 0,
                "saved": 0,
                "comments": 0
            }
        },
        {
            "kind": "news",
            "domain": "@PowerLedger_io",
            "source": {
                "title": "Power Ledger Twitter",
                "region": "en",
                "domain": "twitter.com",
                "path": "@powerledger_io"
            },
            "title": "Discover how Powerledger successfully ran a pilot project on peer-to-peer trading, paving the way for crucial regul\u2026",
            "published_at": "2023-07-07T09:10:06Z",
            "slug": "Discover-how-Powerledger-successfully-ran-a-pilot-project-on-peer-to-peer-trading-paving-the-way-for-crucial-regul",
            "currencies": [
                {
                    "code": "POWR",
                    "title": "Power Ledger",
                    "slug": "power-ledger",
                    "url": "https:\/\/cryptopanic.com\/news\/power-ledger\/"
                }
            ],
            "id": 18742034,
            "url": "https:\/\/cryptopanic.com\/news\/18742034\/Discover-how-Powerledger-successfully-ran-a-pilot-project-on-peer-to-peer-trading-paving-the-way-for-crucial-regul",
            "created_at": "2023-07-07T09:10:06Z",
            "votes": {
                "negative": 0,
                "positive": 0,
                "important": 0,
                "liked": 0,
                "disliked": 0,
                "lol": 0,
                "toxic": 0,
                "saved": 0,
                "comments": 0
            }
        },
        {
            "kind": "news",
            "domain": "@PowerLedger_io",
            "source": {
                "title": "Power Ledger Twitter",
                "region": "en",
                "domain": "twitter.com",
                "path": "@powerledger_io"
            },
            "title": " Join our webinar on July 11th, 5.30 pm -7 pm IST. Discover how blockchain technology can create trust, facilitate\u2026",
            "published_at": "2023-07-06T10:45:16Z",
            "slug": "Join-our-webinar-on-July-11th-530-pm-7-pm-IST-Discover-how-blockchain-technology-can-create-trust-facilitate",
            "currencies": [
                {
                    "code": "POWR",
                    "title": "Power Ledger",
                    "slug": "power-ledger",
                    "url": "https:\/\/cryptopanic.com\/news\/power-ledger\/"
                }
            ],
            "id": 18734719,
            "url": "https:\/\/cryptopanic.com\/news\/18734719\/Join-our-webinar-on-July-11th-530-pm-7-pm-IST-Discover-how-blockchain-technology-can-create-trust-facilitate",
            "created_at": "2023-07-06T10:45:16Z",
            "votes": {
                "negative": 0,
                "positive": 0,
                "important": 0,
                "liked": 0,
                "disliked": 0,
                "lol": 0,
                "toxic": 0,
                "saved": 0,
                "comments": 0
            }
        },
        {
            "kind": "news",
            "domain": "@PowerLedger_io",
            "source": {
                "title": "Power Ledger Twitter",
                "region": "en",
                "domain": "twitter.com",
                "path": "@powerledger_io"
            },
            "title": " We had an incredible townhall at Powerledger! Our team united for insightful discussions, brainstorming, and team\u2026",
            "published_at": "2023-07-05T09:50:09Z",
            "slug": "We-had-an-incredible-townhall-at-Powerledger-Our-team-united-for-insightful-discussions-brainstorming-and-team",
            "currencies": [
                {
                    "code": "POWR",
                    "title": "Power Ledger",
                    "slug": "power-ledger",
                    "url": "https:\/\/cryptopanic.com\/news\/power-ledger\/"
                }
            ],
            "id": 18726209,
            "url": "https:\/\/cryptopanic.com\/news\/18726209\/We-had-an-incredible-townhall-at-Powerledger-Our-team-united-for-insightful-discussions-brainstorming-and-team",
            "created_at": "2023-07-05T09:50:09Z",
            "votes": {
                "negative": 0,
                "positive": 0,
                "important": 0,
                "liked": 0,
                "disliked": 0,
                "lol": 0,
                "toxic": 0,
                "saved": 0,
                "comments": 0
            }
        },
        {
            "kind": "news",
            "domain": "@PowerLedger_io",
            "source": {
                "title": "Power Ledger Twitter",
                "region": "en",
                "domain": "twitter.com",
                "path": "@powerledger_io"
            },
            "title": "Transparency is an answer to solving the tiresome problem of prosumer pricing in the power sector. Explore new appr\u2026",
            "published_at": "2023-07-04T11:36:06Z",
            "slug": "Transparency-is-an-answer-to-solving-the-tiresome-problem-of-prosumer-pricing-in-the-power-sector-Explore-new-appr",
            "currencies": [
                {
                    "code": "POWR",
                    "title": "Power Ledger",
                    "slug": "power-ledger",
                    "url": "https:\/\/cryptopanic.com\/news\/power-ledger\/"
                }
            ],
            "id": 18718306,
            "url": "https:\/\/cryptopanic.com\/news\/18718306\/Transparency-is-an-answer-to-solving-the-tiresome-problem-of-prosumer-pricing-in-the-power-sector-Explore-new-appr",
            "created_at": "2023-07-04T11:36:06Z",
            "votes": {
                "negative": 0,
                "positive": 0,
                "important": 0,
                "liked": 0,
                "disliked": 0,
                "lol": 0,
                "toxic": 0,
                "saved": 0,
                "comments": 0
            }
        },
        {
            "kind": "news",
            "domain": "@PowerLedger_io",
            "source": {
                "title": "Power Ledger Twitter",
                "region": "en",
                "domain": "twitter.com",
                "path": "@powerledger_io"
            },
            "title": "Powerledger is transforming the energy landscape with Local Energy Markets (LEM). Unlock the potential of peer-to-p\u2026",
            "published_at": "2023-07-03T09:10:05Z",
            "slug": "Powerledger-is-transforming-the-energy-landscape-with-Local-Energy-Markets-LEM-Unlock-the-potential-of-peer-to-p",
            "currencies": [
                {
                    "code": "POWR",
                    "title": "Power Ledger",
                    "slug": "power-ledger",
                    "url": "https:\/\/cryptopanic.com\/news\/power-ledger\/"
                }
            ],
            "id": 18711174,
            "url": "https:\/\/cryptopanic.com\/news\/18711174\/Powerledger-is-transforming-the-energy-landscape-with-Local-Energy-Markets-LEM-Unlock-the-potential-of-peer-to-p",
            "created_at": "2023-07-03T09:10:05Z",
            "votes": {
                "negative": 0,
                "positive": 0,
                "important": 0,
                "liked": 0,
                "disliked": 0,
                "lol": 0,
                "toxic": 0,
                "saved": 0,
                "comments": 0
            }
        },
        {
            "kind": "news",
            "domain": "@PowerLedger_io",
            "source": {
                "title": "Power Ledger Twitter",
                "region": "en",
                "domain": "twitter.com",
                "path": "@powerledger_io"
            },
            "title": "Exciting news from Rystad Energy! Global Battery Energy Storage System (BESS) deployments are on track to exceed 40\u2026",
            "published_at": "2023-06-30T04:30:01Z",
            "slug": "Exciting-news-from-Rystad-Energy-Global-Battery-Energy-Storage-System-BESS-deployments-are-on-track-to-exceed-40",
            "currencies": [
                {
                    "code": "POWR",
                    "title": "Power Ledger",
                    "slug": "power-ledger",
                    "url": "https:\/\/cryptopanic.com\/news\/power-ledger\/"
                }
            ],
            "id": 18687775,
            "url": "https:\/\/cryptopanic.com\/news\/18687775\/Exciting-news-from-Rystad-Energy-Global-Battery-Energy-Storage-System-BESS-deployments-are-on-track-to-exceed-40",
            "created_at": "2023-06-30T04:30:01Z",
            "votes": {
                "negative": 0,
                "positive": 0,
                "important": 0,
                "liked": 0,
                "disliked": 0,
                "lol": 0,
                "toxic": 0,
                "saved": 0,
                "comments": 0
            }
        },
        {
            "kind": "news",
            "domain": "@PowerLedger_io",
            "source": {
                "title": "Power Ledger Twitter",
                "region": "en",
                "domain": "twitter.com",
                "path": "@powerledger_io"
            },
            "title": "The Eurelectric Power Summit in Brussels was a phenomenal success! Check out how industry pioneers including Powerl\u2026",
            "published_at": "2023-06-28T09:10:11Z",
            "slug": "The-Eurelectric-Power-Summit-in-Brussels-was-a-phenomenal-success-Check-out-how-industry-pioneers-including-Powerl",
            "currencies": [
                {
                    "code": "POWR",
                    "title": "Power Ledger",
                    "slug": "power-ledger",
                    "url": "https:\/\/cryptopanic.com\/news\/power-ledger\/"
                }
            ],
            "id": 18679827,
            "url": "https:\/\/cryptopanic.com\/news\/18679827\/The-Eurelectric-Power-Summit-in-Brussels-was-a-phenomenal-success-Check-out-how-industry-pioneers-including-Powerl",
            "created_at": "2023-06-28T09:10:11Z",
            "votes": {
                "negative": 0,
                "positive": 0,
                "important": 0,
                "liked": 0,
                "disliked": 0,
                "lol": 0,
                "toxic": 0,
                "saved": 0,
                "comments": 0
            }
        },
        {
            "kind": "news",
            "domain": "@PowerLedger_io",
            "source": {
                "title": "Power Ledger Twitter",
                "region": "en",
                "domain": "twitter.com",
                "path": "@powerledger_io"
            },
            "title": " Strengthen Your Defense: Don't leave your business vulnerable to cyber threats. Dr. Vivek Bhandari from Powerledg\u2026",
            "published_at": "2023-06-27T09:10:02Z",
            "slug": "Strengthen-Your-Defense-Dont-leave-your-business-vulnerable-to-cyber-threats-Dr-Vivek-Bhandari-from-Powerledg",
            "currencies": [
                {
                    "code": "POWR",
                    "title": "Power Ledger",
                    "slug": "power-ledger",
                    "url": "https:\/\/cryptopanic.com\/news\/power-ledger\/"
                }
            ],
            "id": 18671658,
            "url": "https:\/\/cryptopanic.com\/news\/18671658\/Strengthen-Your-Defense-Dont-leave-your-business-vulnerable-to-cyber-threats-Dr-Vivek-Bhandari-from-Powerledg",
            "created_at": "2023-06-27T09:10:02Z",
            "votes": {
                "negative": 0,
                "positive": 0,
                "important": 0,
                "liked": 0,
                "disliked": 0,
                "lol": 0,
                "toxic": 0,
                "saved": 0,
                "comments": 0
            }
        },
        {
            "kind": "news",
            "domain": "@PowerLedger_io",
            "source": {
                "title": "Power Ledger Twitter",
                "region": "en",
                "domain": "twitter.com",
                "path": "@powerledger_io"
            },
            "title": "Want to pave the future of local energy markets? Forbes Tech Council shares valuable insights on how to create a su\u2026",
            "published_at": "2023-06-26T09:10:01Z",
            "slug": "Want-to-pave-the-future-of-local-energy-markets-Forbes-Tech-Council-shares-valuable-insights-on-how-to-create-a-su",
            "currencies": [
                {
                    "code": "POWR",
                    "title": "Power Ledger",
                    "slug": "power-ledger",
                    "url": "https:\/\/cryptopanic.com\/news\/power-ledger\/"
                }
            ],
            "id": 18663357,
            "url": "https:\/\/cryptopanic.com\/news\/18663357\/Want-to-pave-the-future-of-local-energy-markets-Forbes-Tech-Council-shares-valuable-insights-on-how-to-create-a-su",
            "created_at": "2023-06-26T09:10:01Z",
            "votes": {
                "negative": 0,
                "positive": 0,
                "important": 0,
                "liked": 0,
                "disliked": 0,
                "lol": 0,
                "toxic": 0,
                "saved": 0,
                "comments": 0
            }
        },
        {
            "kind": "news",
            "domain": "@PowerLedger_io",
            "source": {
                "title": "Power Ledger Twitter",
                "region": "en",
                "domain": "twitter.com",
                "path": "@powerledger_io"
            },
            "title": "Vinod Tiwari, Global Head of Business Development &amp; Partnerships at @Powerledger\u00a0will be speaking at the WA Renewab\u2026",
            "published_at": "2023-06-25T18:15:06Z",
            "slug": "Vinod-Tiwari-Global-Head-of-Business-Development-amp-Partnerships-at-Powerledger-will-be-speaking-at-the-WA-Renewab",
            "currencies": [
                {
                    "code": "POWR",
                    "title": "Power Ledger",
                    "slug": "power-ledger",
                    "url": "https:\/\/cryptopanic.com\/news\/power-ledger\/"
                }
            ],
            "id": 18655778,
            "url": "https:\/\/cryptopanic.com\/news\/18655778\/Vinod-Tiwari-Global-Head-of-Business-Development-amp-Partnerships-at-Powerledger-will-be-speaking-at-the-WA-Renewab",
            "created_at": "2023-06-25T18:15:06Z",
            "votes": {
                "negative": 0,
                "positive": 0,
                "important": 0,
                "liked": 0,
                "disliked": 0,
                "lol": 0,
                "toxic": 0,
                "saved": 0,
                "comments": 0
            }
        },
        {
            "kind": "news",
            "domain": "@PowerLedger_io",
            "source": {
                "title": "Power Ledger Twitter",
                "region": "en",
                "domain": "twitter.com",
                "path": "@powerledger_io"
            },
            "title": "Unlocking the Power of 3rd Gen Blockchain: Discover the groundbreaking advancements that transcend FinTech and delv\u2026",
            "published_at": "2023-06-22T08:00:02Z",
            "slug": "Unlocking-the-Power-of-3rd-Gen-Blockchain-Discover-the-groundbreaking-advancements-that-transcend-FinTech-and-delv",
            "currencies": [
                {
                    "code": "POWR",
                    "title": "Power Ledger",
                    "slug": "power-ledger",
                    "url": "https:\/\/cryptopanic.com\/news\/power-ledger\/"
                }
            ],
            "id": 18630636,
            "url": "https:\/\/cryptopanic.com\/news\/18630636\/Unlocking-the-Power-of-3rd-Gen-Blockchain-Discover-the-groundbreaking-advancements-that-transcend-FinTech-and-delv",
            "created_at": "2023-06-22T08:00:02Z",
            "votes": {
                "negative": 0,
                "positive": 0,
                "important": 0,
                "liked": 0,
                "disliked": 0,
                "lol": 0,
                "toxic": 0,
                "saved": 0,
                "comments": 0
            }
        },
        {
            "kind": "news",
            "domain": "@PowerLedger_io",
            "source": {
                "title": "Power Ledger Twitter",
                "region": "en",
                "domain": "twitter.com",
                "path": "@powerledger_io"
            },
            "title": "Anya Nova will be speaking at World Blockchain Summit - Singapore, the leading blockchain and crypto event in Asia.\u2026",
            "published_at": "2023-06-15T09:10:06Z",
            "slug": "Anya-Nova-will-be-speaking-at-World-Blockchain-Summit-Singapore-the-leading-blockchain-and-crypto-event-in-Asia",
            "currencies": [
                {
                    "code": "POWR",
                    "title": "Power Ledger",
                    "slug": "power-ledger",
                    "url": "https:\/\/cryptopanic.com\/news\/power-ledger\/"
                }
            ],
            "id": 18589386,
            "url": "https:\/\/cryptopanic.com\/news\/18589386\/Anya-Nova-will-be-speaking-at-World-Blockchain-Summit-Singapore-the-leading-blockchain-and-crypto-event-in-Asia",
            "created_at": "2023-06-15T09:10:06Z",
            "votes": {
                "negative": 0,
                "positive": 0,
                "important": 0,
                "liked": 0,
                "disliked": 0,
                "lol": 0,
                "toxic": 0,
                "saved": 0,
                "comments": 0
            }
        },
        {
            "kind": "news",
            "domain": "@PowerLedger_io",
            "source": {
                "title": "Power Ledger Twitter",
                "region": "en",
                "domain": "twitter.com",
                "path": "@powerledger_io"
            },
            "title": "Igniting innovation in energy retail. Witness the awe-inspiring tale of ekWateur as they redefine the energy market\u2026",
            "published_at": "2023-06-14T11:10:01Z",
            "slug": "Igniting-innovation-in-energy-retail-Witness-the-awe-inspiring-tale-of-ekWateur-as-they-redefine-the-energy-market",
            "currencies": [
                {
                    "code": "POWR",
                    "title": "Power Ledger",
                    "slug": "power-ledger",
                    "url": "https:\/\/cryptopanic.com\/news\/power-ledger\/"
                }
            ],
            "id": 18581522,
            "url": "https:\/\/cryptopanic.com\/news\/18581522\/Igniting-innovation-in-energy-retail-Witness-the-awe-inspiring-tale-of-ekWateur-as-they-redefine-the-energy-market",
            "created_at": "2023-06-14T11:10:01Z",
            "votes": {
                "negative": 0,
                "positive": 0,
                "important": 0,
                "liked": 0,
                "disliked": 0,
                "lol": 0,
                "toxic": 0,
                "saved": 0,
                "comments": 0
            }
        },
        {
            "kind": "news",
            "domain": "@PowerLedger_io",
            "source": {
                "title": "Power Ledger Twitter",
                "region": "en",
                "domain": "twitter.com",
                "path": "@powerledger_io"
            },
            "title": "Experience a transparent, efficient, and sustainable energy future with Powerledger's Vision\u2122*! Optimize energy usa\u2026",
            "published_at": "2023-06-12T09:10:06Z",
            "slug": "Experience-a-transparent-efficient-and-sustainable-energy-future-with-Powerledgers-VisionTM-Optimize-energy-usa",
            "currencies": [
                {
                    "code": "POWR",
                    "title": "Power Ledger",
                    "slug": "power-ledger",
                    "url": "https:\/\/cryptopanic.com\/news\/power-ledger\/"
                }
            ],
            "id": 18564783,
            "url": "https:\/\/cryptopanic.com\/news\/18564783\/Experience-a-transparent-efficient-and-sustainable-energy-future-with-Powerledgers-VisionTM-Optimize-energy-usa",
            "created_at": "2023-06-12T09:10:06Z",
            "votes": {
                "negative": 0,
                "positive": 0,
                "important": 0,
                "liked": 0,
                "disliked": 0,
                "lol": 0,
                "toxic": 0,
                "saved": 0,
                "comments": 0
            }
        },
        {
            "kind": "news",
            "domain": "@PowerLedger_io",
            "source": {
                "title": "Power Ledger Twitter",
                "region": "en",
                "domain": "twitter.com",
                "path": "@powerledger_io"
            },
            "title": "Join Powerledger's CTO, Dr. Vivek Bhandari, at the Eurelectric #PS23 #BalanceofPower Power Summit in Brussels. Expl\u2026",
            "published_at": "2023-06-09T11:40:06Z",
            "slug": "Join-Powerledgers-CTO-Dr-Vivek-Bhandari-at-the-Eurelectric-PS23-BalanceofPower-Power-Summit-in-Brussels-Expl",
            "currencies": [
                {
                    "code": "POWR",
                    "title": "Power Ledger",
                    "slug": "power-ledger",
                    "url": "https:\/\/cryptopanic.com\/news\/power-ledger\/"
                }
            ],
            "id": 18547483,
            "url": "https:\/\/cryptopanic.com\/news\/18547483\/Join-Powerledgers-CTO-Dr-Vivek-Bhandari-at-the-Eurelectric-PS23-BalanceofPower-Power-Summit-in-Brussels-Expl",
            "created_at": "2023-06-09T11:40:06Z",
            "votes": {
                "negative": 0,
                "positive": 0,
                "important": 0,
                "liked": 0,
                "disliked": 0,
                "lol": 0,
                "toxic": 0,
                "saved": 0,
                "comments": 0
            }
        },
        {
            "kind": "news",
            "domain": "@PowerLedger_io",
            "source": {
                "title": "Power Ledger Twitter",
                "region": "en",
                "domain": "twitter.com",
                "path": "@powerledger_io"
            },
            "title": "Discover uGrid by Powerledger, the platform reshaping energy trading in microgrids. Experience the freedom of peer-\u2026",
            "published_at": "2023-06-08T09:10:07Z",
            "slug": "Discover-uGrid-by-Powerledger-the-platform-reshaping-energy-trading-in-microgrids-Experience-the-freedom-of-peer-",
            "currencies": [
                {
                    "code": "POWR",
                    "title": "Power Ledger",
                    "slug": "power-ledger",
                    "url": "https:\/\/cryptopanic.com\/news\/power-ledger\/"
                }
            ],
            "id": 18539379,
            "url": "https:\/\/cryptopanic.com\/news\/18539379\/Discover-uGrid-by-Powerledger-the-platform-reshaping-energy-trading-in-microgrids-Experience-the-freedom-of-peer-",
            "created_at": "2023-06-08T09:10:07Z",
            "votes": {
                "negative": 0,
                "positive": 0,
                "important": 0,
                "liked": 0,
                "disliked": 0,
                "lol": 0,
                "toxic": 0,
                "saved": 0,
                "comments": 0
            }
        },
        {
            "kind": "news",
            "domain": "@PowerLedger_io",
            "source": {
                "title": "Power Ledger Twitter",
                "region": "en",
                "domain": "twitter.com",
                "path": "@powerledger_io"
            },
            "title": "Powerledger's Xgrid revolutionizes the energy market by enabling direct peer-to-peer trading of renewable energy. B\u2026",
            "published_at": "2023-06-07T09:10:07Z",
            "slug": "Powerledgers-Xgrid-revolutionizes-the-energy-market-by-enabling-direct-peer-to-peer-trading-of-renewable-energy-B",
            "currencies": [
                {
                    "code": "POWR",
                    "title": "Power Ledger",
                    "slug": "power-ledger",
                    "url": "https:\/\/cryptopanic.com\/news\/power-ledger\/"
                }
            ],
            "id": 18530786,
            "url": "https:\/\/cryptopanic.com\/news\/18530786\/Powerledgers-Xgrid-revolutionizes-the-energy-market-by-enabling-direct-peer-to-peer-trading-of-renewable-energy-B",
            "created_at": "2023-06-07T09:10:07Z",
            "votes": {
                "negative": 0,
                "positive": 0,
                "important": 0,
                "liked": 0,
                "disliked": 0,
                "lol": 0,
                "toxic": 0,
                "saved": 0,
                "comments": 0
            }
        },
        {
            "kind": "news",
            "domain": "@PowerLedger_io",
            "source": {
                "title": "Power Ledger Twitter",
                "region": "en",
                "domain": "twitter.com",
                "path": "@powerledger_io"
            },
            "title": " Power up your energy future with Powerledger!  Our blockchain platform enables seamless trading of renewable ene\u2026",
            "published_at": "2023-06-06T09:10:06Z",
            "slug": "Power-up-your-energy-future-with-Powerledger-Our-blockchain-platform-enables-seamless-trading-of-renewable-ene",
            "currencies": [
                {
                    "code": "POWR",
                    "title": "Power Ledger",
                    "slug": "power-ledger",
                    "url": "https:\/\/cryptopanic.com\/news\/power-ledger\/"
                }
            ],
            "id": 18522245,
            "url": "https:\/\/cryptopanic.com\/news\/18522245\/Power-up-your-energy-future-with-Powerledger-Our-blockchain-platform-enables-seamless-trading-of-renewable-ene",
            "created_at": "2023-06-06T09:10:06Z",
            "votes": {
                "negative": 0,
                "positive": 0,
                "important": 0,
                "liked": 0,
                "disliked": 0,
                "lol": 0,
                "toxic": 0,
                "saved": 0,
                "comments": 0
            }
        }
    ]
}
