{
    "count": 200,
    "next": "https:\/\/cryptopanic.com\/api\/v1\/posts\/?auth_token=01c356e89ffc1b8eba2127c81fc8c66ee0eace75&kind=news&currencies=ARK&page=2",
    "previous": null,
    "results": [
        {
            "kind": "news",
            "domain": "r\/ArkEcosystem",
            "source": {
                "title": "Ark Reddit",
                "region": "en",
                "domain": "reddit.com",
                "path": "r\/arkecosystem"
            },
            "title": "The 1 true warrior!",
            "published_at": "2021-05-19T09:38:54Z",
            "slug": "The-1-true-warrior",
            "currencies": [
                {
                    "code": "ARK",
                    "title": "Ark",
                    "slug": "ark",
                    "url": "https:\/\/cryptopanic.com\/news\/ark\/"
                }
            ],
            "id": 11966986,
            "url": "https:\/\/cryptopanic.com\/news\/11966986\/The-1-true-warrior",
            "created_at": "2021-05-19T09:38:54Z",
            "votes": {
                "negative": 0,
                "positive": 0,
                "important": 0,
                "liked": 0,
                "disliked": 0,
                "lol": 0,
                "toxic": 0,
                "saved": 0,
                "comments": 0
            }
        },
        {
            "kind": "news",
            "domain": "r\/ArkEcosystem",
            "source": {
                "title": "Ark Reddit",
                "region": "en",
                "domain": "reddit.com",
                "path": "r\/arkecosystem"
            },
            "title": "ARK right now :)",
            "published_at": "2021-05-19T06:27:43Z",
            "slug": "ARK-right-now",
            "currencies": [
                {
                    "code": "ARK",
                    "title": "Ark",
                    "slug": "ark",
                    "url": "https:\/\/cryptopanic.com\/news\/ark\/"
                }
            ],
            "id": 11965831,
            "url": "https:\/\/cryptopanic.com\/news\/11965831\/ARK-right-now",
            "created_at": "2021-05-19T06:27:43Z",
            "votes": {
                "negative": 0,
                "positive": 0,
                "important": 0,
                "liked": 0,
                "disliked": 0,
                "lol": 0,
                "toxic": 0,
                "saved": 0,
                "comments": 0
            }
        },
        {
            "kind": "news",
            "domain": "r\/ArkEcosystem",
            "source": {
                "title": "Ark Reddit",
                "region": "en",
                "domain": "reddit.com",
                "path": "r\/arkecosystem"
            },
            "title": "Today we are happy to announce that we will be supporting Polkadot on MarketSquare! Educational content, news, and bringing the best projects from the Polkadot ecosystem to you on MarketSquare!",
            "published_at": "2021-05-17T20:02:40.557908Z",
            "slug": "Today-we-are-happy-to-announce-that-we-will-be-supporting-Polkadot-on-MarketSquare-Educational-content-news-and-bringing-the-best-projects-from-the-Polkadot-ecosystem-to-you-on-MarketSquare",
            "currencies": [
                {
                    "code": "ARK",
                    "title": "Ark",
                    "slug": "ark",
                    "url": "https:\/\/cryptopanic.com\/news\/ark\/"
                },
                {
                    "code": "DOT",
                    "title": "Polkadot",
                    "slug": "polkadot",
                    "url": "https:\/\/cryptopanic.com\/news\/polkadot\/"
                }
            ],
            "id": 11951151,
            "url": "https:\/\/cryptopanic.com\/news\/11951151\/Today-we-are-happy-to-announce-that-we-will-be-supporting-Polkadot-on-MarketSquare-Educational-content-news-and-bringing-the-best-projects-from-the-Polkadot-ecosystem-to-you-on-MarketSquare",
            "created_at": "2021-05-17T20:02:40.557908Z",
            "votes": {
                "negative": 0,
                "positive": 0,
                "important": 0,
                "liked": 0,
                "disliked": 0,
                "lol": 0,
                "toxic": 0,
                "saved": 0,
                "comments": 0
            }
        },
        {
            "kind": "news",
            "domain": "r\/ArkEcosystem",
            "source": {
                "title": "Ark Reddit",
                "region": "en",
                "domain": "reddit.com",
                "path": "r\/arkecosystem"
            },
            "title": "Another milestone in the #MarketSquare launch plan is complete. The Partners & Projects Launch phase has started!",
            "published_at": "2021-05-17T19:09:12Z",
            "slug": "Another-milestone-in-the-MarketSquare-launch-plan-is-complete-The-Partners-Projects-Launch-phase-has-started",
            "currencies": [
                {
                    "code": "ARK",
                    "title": "Ark",
                    "slug": "ark",
                    "url": "https:\/\/cryptopanic.com\/news\/ark\/"
                }
            ],
            "id": 11951526,
            "url": "https:\/\/cryptopanic.com\/news\/11951526\/Another-milestone-in-the-MarketSquare-launch-plan-is-complete-The-Partners-Projects-Launch-phase-has-started",
            "created_at": "2021-05-17T19:09:12Z",
            "votes": {
                "negative": 0,
                "positive": 0,
                "important": 0,
                "liked": 0,
                "disliked": 0,
                "lol": 0,
                "toxic": 0,
                "saved": 0,
                "comments": 0
            }
        },
        {
            "kind": "news",
            "domain": "r\/ArkEcosystem",
            "source": {
                "title": "Ark Reddit",
                "region": "en",
                "domain": "reddit.com",
                "path": "r\/arkecosystem"
            },
            "title": "MSQ UPDATES?",
            "published_at": "2021-05-17T14:48:00Z",
            "slug": "MSQ-UPDATES",
            "currencies": [
                {
                    "code": "ARK",
                    "title": "Ark",
                    "slug": "ark",
                    "url": "https:\/\/cryptopanic.com\/news\/ark\/"
                }
            ],
            "id": 11960530,
            "url": "https:\/\/cryptopanic.com\/news\/11960530\/MSQ-UPDATES",
            "created_at": "2021-05-17T14:48:00Z",
            "votes": {
                "negative": 0,
                "positive": 0,
                "important": 0,
                "liked": 0,
                "disliked": 0,
                "lol": 0,
                "toxic": 0,
                "saved": 0,
                "comments": 0
            }
        },
        {
            "kind": "news",
            "domain": "r\/ArkEcosystem",
            "source": {
                "title": "Ark Reddit",
                "region": "en",
                "domain": "reddit.com",
                "path": "r\/arkecosystem"
            },
            "title": "[ARK Weekly Price & Trading Discussion Thread] - May 17, 2021",
            "published_at": "2021-05-17T08:00:14Z",
            "slug": "ARK-Weekly-Price-Trading-Discussion-Thread-May-17-2021",
            "currencies": [
                {
                    "code": "ARK",
                    "title": "Ark",
                    "slug": "ark",
                    "url": "https:\/\/cryptopanic.com\/news\/ark\/"
                }
            ],
            "id": 11965832,
            "url": "https:\/\/cryptopanic.com\/news\/11965832\/ARK-Weekly-Price-Trading-Discussion-Thread-May-17-2021",
            "created_at": "2021-05-17T08:00:14Z",
            "votes": {
                "negative": 0,
                "positive": 0,
                "important": 0,
                "liked": 0,
                "disliked": 0,
                "lol": 0,
                "toxic": 0,
                "saved": 0,
                "comments": 0
            }
        },
        {
            "kind": "news",
            "domain": "r\/ArkEcosystem",
            "source": {
                "title": "Ark Reddit",
                "region": "en",
                "domain": "reddit.com",
                "path": "r\/arkecosystem"
            },
            "title": "Ark\u2019s trajectory",
            "published_at": "2021-05-15T18:40:29Z",
            "slug": "Arks-trajectory",
            "currencies": [
                {
                    "code": "ARK",
                    "title": "Ark",
                    "slug": "ark",
                    "url": "https:\/\/cryptopanic.com\/news\/ark\/"
                }
            ],
            "id": 11945379,
            "url": "https:\/\/cryptopanic.com\/news\/11945379\/Arks-trajectory",
            "created_at": "2021-05-15T18:40:29Z",
            "votes": {
                "negative": 0,
                "positive": 0,
                "important": 0,
                "liked": 0,
                "disliked": 0,
                "lol": 0,
                "toxic": 0,
                "saved": 0,
                "comments": 0
            }
        },
        {
            "kind": "news",
            "domain": "r\/ArkEcosystem",
            "source": {
                "title": "Ark Reddit",
                "region": "en",
                "domain": "reddit.com",
                "path": "r\/arkecosystem"
            },
            "title": "Why hasn\u2019t marketsquare opened up yet. What is the problem?",
            "published_at": "2021-05-15T02:58:25Z",
            "slug": "Why-hasnt-marketsquare-opened-up-yet-What-is-the-problem",
            "currencies": [
                {
                    "code": "ARK",
                    "title": "Ark",
                    "slug": "ark",
                    "url": "https:\/\/cryptopanic.com\/news\/ark\/"
                }
            ],
            "id": 11940219,
            "url": "https:\/\/cryptopanic.com\/news\/11940219\/Why-hasnt-marketsquare-opened-up-yet-What-is-the-problem",
            "created_at": "2021-05-15T02:58:25Z",
            "votes": {
                "negative": 0,
                "positive": 0,
                "important": 0,
                "liked": 0,
                "disliked": 0,
                "lol": 0,
                "toxic": 0,
                "saved": 0,
                "comments": 0
            }
        },
        {
            "kind": "news",
            "domain": "r\/ArkEcosystem",
            "source": {
                "title": "Ark Reddit",
                "region": "en",
                "domain": "reddit.com",
                "path": "r\/arkecosystem"
            },
            "title": "Wanna more efficiency and scalability? ARK!",
            "published_at": "2021-05-14T07:52:37.998106Z",
            "slug": "Wanna-more-efficiency-and-scalability-ARK",
            "currencies": [
                {
                    "code": "ARK",
                    "title": "Ark",
                    "slug": "ark",
                    "url": "https:\/\/cryptopanic.com\/news\/ark\/"
                }
            ],
            "id": 11933789,
            "url": "https:\/\/cryptopanic.com\/news\/11933789\/Wanna-more-efficiency-and-scalability-ARK",
            "created_at": "2021-05-14T07:52:37.998106Z",
            "votes": {
                "negative": 0,
                "positive": 0,
                "important": 0,
                "liked": 0,
                "disliked": 0,
                "lol": 0,
                "toxic": 0,
                "saved": 0,
                "comments": 0
            }
        },
        {
            "kind": "news",
            "domain": "r\/ArkEcosystem",
            "source": {
                "title": "Ark Reddit",
                "region": "en",
                "domain": "reddit.com",
                "path": "r\/arkecosystem"
            },
            "title": "Services based on staking",
            "published_at": "2021-05-13T05:17:37Z",
            "slug": "Services-based-on-staking",
            "currencies": [
                {
                    "code": "ARK",
                    "title": "Ark",
                    "slug": "ark",
                    "url": "https:\/\/cryptopanic.com\/news\/ark\/"
                }
            ],
            "id": 11953325,
            "url": "https:\/\/cryptopanic.com\/news\/11953325\/Services-based-on-staking",
            "created_at": "2021-05-13T05:17:37Z",
            "votes": {
                "negative": 0,
                "positive": 0,
                "important": 0,
                "liked": 0,
                "disliked": 0,
                "lol": 0,
                "toxic": 0,
                "saved": 0,
                "comments": 0
            }
        },
        {
            "kind": "news",
            "domain": "r\/ArkEcosystem",
            "source": {
                "title": "Ark Reddit",
                "region": "en",
                "domain": "reddit.com",
                "path": "r\/arkecosystem"
            },
            "title": "Crazy",
            "published_at": "2021-05-11T17:09:00Z",
            "slug": "Crazy",
            "currencies": [
                {
                    "code": "ARK",
                    "title": "Ark",
                    "slug": "ark",
                    "url": "https:\/\/cryptopanic.com\/news\/ark\/"
                }
            ],
            "id": 11913583,
            "url": "https:\/\/cryptopanic.com\/news\/11913583\/Crazy",
            "created_at": "2021-05-11T17:09:00Z",
            "votes": {
                "negative": 0,
                "positive": 0,
                "important": 0,
                "liked": 0,
                "disliked": 0,
                "lol": 0,
                "toxic": 0,
                "saved": 0,
                "comments": 0
            }
        },
        {
            "kind": "news",
            "domain": "r\/ArkEcosystem",
            "source": {
                "title": "Ark Reddit",
                "region": "en",
                "domain": "reddit.com",
                "path": "r\/arkecosystem"
            },
            "title": "Servus! ARKs Crypto Podcast series in German goes into its 107th round!",
            "published_at": "2021-05-11T17:04:22Z",
            "slug": "Servus-ARKs-Crypto-Podcast-series-in-German-goes-into-its-107th-round",
            "currencies": [
                {
                    "code": "ARK",
                    "title": "Ark",
                    "slug": "ark",
                    "url": "https:\/\/cryptopanic.com\/news\/ark\/"
                }
            ],
            "id": 11950127,
            "url": "https:\/\/cryptopanic.com\/news\/11950127\/Servus-ARKs-Crypto-Podcast-series-in-German-goes-into-its-107th-round",
            "created_at": "2021-05-11T17:04:22Z",
            "votes": {
                "negative": 0,
                "positive": 0,
                "important": 0,
                "liked": 0,
                "disliked": 0,
                "lol": 0,
                "toxic": 0,
                "saved": 0,
                "comments": 0
            }
        },
        {
            "kind": "news",
            "domain": "r\/ArkEcosystem",
            "source": {
                "title": "Ark Reddit",
                "region": "en",
                "domain": "reddit.com",
                "path": "r\/arkecosystem"
            },
            "title": "After ethereum chain, now binance chain is getting congested. Is it time for ARK, or do I see this all wrong?",
            "published_at": "2021-05-11T11:54:22Z",
            "slug": "After-ethereum-chain-now-binance-chain-is-getting-congested-Is-it-time-for-ARK-or-do-I-see-this-all-wrong",
            "currencies": [
                {
                    "code": "ARK",
                    "title": "Ark",
                    "slug": "ark",
                    "url": "https:\/\/cryptopanic.com\/news\/ark\/"
                }
            ],
            "id": 11912990,
            "url": "https:\/\/cryptopanic.com\/news\/11912990\/After-ethereum-chain-now-binance-chain-is-getting-congested-Is-it-time-for-ARK-or-do-I-see-this-all-wrong",
            "created_at": "2021-05-11T11:54:22Z",
            "votes": {
                "negative": 0,
                "positive": 0,
                "important": 0,
                "liked": 0,
                "disliked": 0,
                "lol": 0,
                "toxic": 0,
                "saved": 0,
                "comments": 0
            }
        },
        {
            "kind": "news",
            "domain": "r\/ArkEcosystem",
            "source": {
                "title": "Ark Reddit",
                "region": "en",
                "domain": "reddit.com",
                "path": "r\/arkecosystem"
            },
            "title": "NGRAVE ZERO",
            "published_at": "2021-05-10T12:52:56Z",
            "slug": "NGRAVE-ZERO",
            "currencies": [
                {
                    "code": "ARK",
                    "title": "Ark",
                    "slug": "ark",
                    "url": "https:\/\/cryptopanic.com\/news\/ark\/"
                }
            ],
            "id": 11912199,
            "url": "https:\/\/cryptopanic.com\/news\/11912199\/NGRAVE-ZERO",
            "created_at": "2021-05-10T12:52:56Z",
            "votes": {
                "negative": 0,
                "positive": 0,
                "important": 0,
                "liked": 0,
                "disliked": 0,
                "lol": 0,
                "toxic": 0,
                "saved": 0,
                "comments": 0
            }
        },
        {
            "kind": "news",
            "domain": "r\/ArkEcosystem",
            "source": {
                "title": "Ark Reddit",
                "region": "en",
                "domain": "reddit.com",
                "path": "r\/arkecosystem"
            },
            "title": "[ARK Weekly Discussion Thread] - May 10, 2021",
            "published_at": "2021-05-10T08:00:13Z",
            "slug": "ARK-Weekly-Discussion-Thread-May-10-2021",
            "currencies": [
                {
                    "code": "ARK",
                    "title": "Ark",
                    "slug": "ark",
                    "url": "https:\/\/cryptopanic.com\/news\/ark\/"
                }
            ],
            "id": 11950532,
            "url": "https:\/\/cryptopanic.com\/news\/11950532\/ARK-Weekly-Discussion-Thread-May-10-2021",
            "created_at": "2021-05-10T08:00:13Z",
            "votes": {
                "negative": 0,
                "positive": 0,
                "important": 0,
                "liked": 0,
                "disliked": 0,
                "lol": 0,
                "toxic": 0,
                "saved": 0,
                "comments": 0
            }
        },
        {
            "kind": "news",
            "domain": "r\/ArkEcosystem",
            "source": {
                "title": "Ark Reddit",
                "region": "en",
                "domain": "reddit.com",
                "path": "r\/arkecosystem"
            },
            "title": "New to staking... is there a step by step video?",
            "published_at": "2021-05-08T23:35:05Z",
            "slug": "New-to-staking-is-there-a-step-by-step-video",
            "currencies": [
                {
                    "code": "ARK",
                    "title": "Ark",
                    "slug": "ark",
                    "url": "https:\/\/cryptopanic.com\/news\/ark\/"
                }
            ],
            "id": 11906183,
            "url": "https:\/\/cryptopanic.com\/news\/11906183\/New-to-staking-is-there-a-step-by-step-video",
            "created_at": "2021-05-08T23:35:05Z",
            "votes": {
                "negative": 0,
                "positive": 0,
                "important": 0,
                "liked": 0,
                "disliked": 0,
                "lol": 0,
                "toxic": 0,
                "saved": 0,
                "comments": 0
            }
        },
        {
            "kind": "news",
            "domain": "r\/ArkEcosystem",
            "source": {
                "title": "Ark Reddit",
                "region": "en",
                "domain": "reddit.com",
                "path": "r\/arkecosystem"
            },
            "title": "Just sold to boost the price.",
            "published_at": "2021-05-07T15:25:46Z",
            "slug": "Just-sold-to-boost-the-price",
            "currencies": [
                {
                    "code": "ARK",
                    "title": "Ark",
                    "slug": "ark",
                    "url": "https:\/\/cryptopanic.com\/news\/ark\/"
                }
            ],
            "id": 11891097,
            "url": "https:\/\/cryptopanic.com\/news\/11891097\/Just-sold-to-boost-the-price",
            "created_at": "2021-05-07T15:25:46Z",
            "votes": {
                "negative": 0,
                "positive": 0,
                "important": 0,
                "liked": 0,
                "disliked": 0,
                "lol": 0,
                "toxic": 0,
                "saved": 0,
                "comments": 0
            }
        },
        {
            "kind": "news",
            "domain": "r\/ArkEcosystem",
            "source": {
                "title": "Ark Reddit",
                "region": "en",
                "domain": "reddit.com",
                "path": "r\/arkecosystem"
            },
            "title": "I ended up losing 1367 ARK this morning.. whoopsies. (Totally my fault though)",
            "published_at": "2021-05-06T21:21:19Z",
            "slug": "I-ended-up-losing-1367-ARK-this-morning-whoopsies-Totally-my-fault-though",
            "currencies": [
                {
                    "code": "ARK",
                    "title": "Ark",
                    "slug": "ark",
                    "url": "https:\/\/cryptopanic.com\/news\/ark\/"
                }
            ],
            "id": 11889503,
            "url": "https:\/\/cryptopanic.com\/news\/11889503\/I-ended-up-losing-1367-ARK-this-morning-whoopsies-Totally-my-fault-though",
            "created_at": "2021-05-06T21:21:19Z",
            "votes": {
                "negative": 0,
                "positive": 0,
                "important": 0,
                "liked": 0,
                "disliked": 0,
                "lol": 0,
                "toxic": 0,
                "saved": 0,
                "comments": 0
            }
        },
        {
            "kind": "news",
            "domain": "r\/ArkEcosystem",
            "source": {
                "title": "Ark Reddit",
                "region": "en",
                "domain": "reddit.com",
                "path": "r\/arkecosystem"
            },
            "title": "[ARK Weekly Price & Trading Discussion Thread] - May 03, 2021",
            "published_at": "2021-05-03T08:00:14Z",
            "slug": "ARK-Weekly-Price-Trading-Discussion-Thread-May-03-2021",
            "currencies": [
                {
                    "code": "ARK",
                    "title": "Ark",
                    "slug": "ark",
                    "url": "https:\/\/cryptopanic.com\/news\/ark\/"
                }
            ],
            "id": 11889504,
            "url": "https:\/\/cryptopanic.com\/news\/11889504\/ARK-Weekly-Price-Trading-Discussion-Thread-May-03-2021",
            "created_at": "2021-05-03T08:00:14Z",
            "votes": {
                "negative": 0,
                "positive": 0,
                "important": 0,
                "liked": 0,
                "disliked": 0,
                "lol": 0,
                "toxic": 0,
                "saved": 0,
                "comments": 0
            }
        },
        {
            "kind": "news",
            "domain": "r\/ArkEcosystem",
            "source": {
                "title": "Ark Reddit",
                "region": "en",
                "domain": "reddit.com",
                "path": "r\/arkecosystem"
            },
            "title": "[ARK Weekly Discussion Thread] - May 03, 2021",
            "published_at": "2021-05-03T08:00:14Z",
            "slug": "ARK-Weekly-Discussion-Thread-May-03-2021",
            "currencies": [
                {
                    "code": "ARK",
                    "title": "Ark",
                    "slug": "ark",
                    "url": "https:\/\/cryptopanic.com\/news\/ark\/"
                }
            ],
            "id": 11905371,
            "url": "https:\/\/cryptopanic.com\/news\/11905371\/ARK-Weekly-Discussion-Thread-May-03-2021",
            "created_at": "2021-05-03T08:00:14Z",
            "votes": {
                "negative": 0,
                "positive": 0,
                "important": 0,
                "liked": 0,
                "disliked": 0,
                "lol": 0,
                "toxic": 0,
                "saved": 0,
                "comments": 0
            }
        }
    ]
}
