{
    "count": 200,
    "next": "https:\/\/cryptopanic.com\/api\/v1\/posts\/?auth_token=01c356e89ffc1b8eba2127c81fc8c66ee0eace75&kind=news&currencies=OM&page=2",
    "previous": null,
    "results": [
        {
            "kind": "news",
            "domain": "@MANTRAOMniverse",
            "source": {
                "title": "MANTRA DAO Twitter",
                "region": "en",
                "domain": "twitter.com",
                "path": "@mantraomniverse"
            },
            "title": "RT @SOMA_finance: Welcome to our interns that have joined us for the summer as part of our yearly internship program. \n\nLooking forward to\u2026",
            "published_at": "2023-07-11T12:04:24Z",
            "slug": "RT-SOMA_finance-Welcome-to-our-interns-that-have-joined-us-for-the-summer-as-part-of-our-yearly-internship-program-Looking-forward-to",
            "currencies": [
                {
                    "code": "OM",
                    "title": "MANTRA",
                    "slug": "mantra-dao",
                    "url": "https:\/\/cryptopanic.com\/news\/mantra-dao\/"
                }
            ],
            "id": 18765487,
            "url": "https:\/\/cryptopanic.com\/news\/18765487\/RT-SOMA_finance-Welcome-to-our-interns-that-have-joined-us-for-the-summer-as-part-of-our-yearly-internship-program-Looking-forward-to",
            "created_at": "2023-07-11T12:04:24Z",
            "votes": {
                "negative": 0,
                "positive": 0,
                "important": 0,
                "liked": 0,
                "disliked": 0,
                "lol": 0,
                "toxic": 0,
                "saved": 0,
                "comments": 0
            }
        },
        {
            "kind": "news",
            "domain": "@MANTRAOMniverse",
            "source": {
                "title": "MANTRA DAO Twitter",
                "region": "en",
                "domain": "twitter.com",
                "path": "@mantraomniverse"
            },
            "title": "A warm welcome to our summer interns at MANTRA! \ufe0f\n\nWe are happy to onboard our six talented interns who will be wo\u2026",
            "published_at": "2023-07-11T11:11:18Z",
            "slug": "A-warm-welcome-to-our-summer-interns-at-MANTRA-We-are-happy-to-onboard-our-six-talented-interns-who-will-be-wo",
            "currencies": [
                {
                    "code": "OM",
                    "title": "MANTRA",
                    "slug": "mantra-dao",
                    "url": "https:\/\/cryptopanic.com\/news\/mantra-dao\/"
                }
            ],
            "id": 18765488,
            "url": "https:\/\/cryptopanic.com\/news\/18765488\/A-warm-welcome-to-our-summer-interns-at-MANTRA-We-are-happy-to-onboard-our-six-talented-interns-who-will-be-wo",
            "created_at": "2023-07-11T11:11:18Z",
            "votes": {
                "negative": 0,
                "positive": 0,
                "important": 0,
                "liked": 0,
                "disliked": 0,
                "lol": 0,
                "toxic": 0,
                "saved": 0,
                "comments": 0
            }
        },
        {
            "kind": "news",
            "domain": "@MANTRAOMniverse",
            "source": {
                "title": "MANTRA DAO Twitter",
                "region": "en",
                "domain": "twitter.com",
                "path": "@mantraomniverse"
            },
            "title": "MANTRA Finance has been successfully validated on Magic Store, and we couldn't have done it without the incredible\u2026",
            "published_at": "2023-07-11T10:02:59Z",
            "slug": "MANTRA-Finance-has-been-successfully-validated-on-Magic-Store-and-we-couldnt-have-done-it-without-the-incredible",
            "currencies": [
                {
                    "code": "OM",
                    "title": "MANTRA",
                    "slug": "mantra-dao",
                    "url": "https:\/\/cryptopanic.com\/news\/mantra-dao\/"
                }
            ],
            "id": 18765489,
            "url": "https:\/\/cryptopanic.com\/news\/18765489\/MANTRA-Finance-has-been-successfully-validated-on-Magic-Store-and-we-couldnt-have-done-it-without-the-incredible",
            "created_at": "2023-07-11T10:02:59Z",
            "votes": {
                "negative": 0,
                "positive": 0,
                "important": 0,
                "liked": 0,
                "disliked": 0,
                "lol": 0,
                "toxic": 0,
                "saved": 0,
                "comments": 0
            }
        },
        {
            "kind": "news",
            "domain": "@MANTRAOMniverse",
            "source": {
                "title": "MANTRA DAO Twitter",
                "region": "en",
                "domain": "twitter.com",
                "path": "@mantraomniverse"
            },
            "title": "RT @Crypto_Dep: \ufe0fTOP GAINERS OF THE WEEK! \n10 July 2023\n$PNT $TROY $NOM $XVG $HIFI $UFT $ROUTE $POND $WAVES $OM",
            "published_at": "2023-07-10T13:22:42Z",
            "slug": "RT-Crypto_Dep-TOP-GAINERS-OF-THE-WEEK-10-July-2023-PNT-TROY-NOM-XVG-HIFI-UFT-ROUTE-POND-WAVES-OM",
            "currencies": [
                {
                    "code": "OM",
                    "title": "MANTRA",
                    "slug": "mantra-dao",
                    "url": "https:\/\/cryptopanic.com\/news\/mantra-dao\/"
                }
            ],
            "id": 18757341,
            "url": "https:\/\/cryptopanic.com\/news\/18757341\/RT-Crypto_Dep-TOP-GAINERS-OF-THE-WEEK-10-July-2023-PNT-TROY-NOM-XVG-HIFI-UFT-ROUTE-POND-WAVES-OM",
            "created_at": "2023-07-10T13:22:42Z",
            "votes": {
                "negative": 0,
                "positive": 0,
                "important": 0,
                "liked": 0,
                "disliked": 0,
                "lol": 0,
                "toxic": 0,
                "saved": 0,
                "comments": 0
            }
        },
        {
            "kind": "news",
            "domain": "@MANTRAOMniverse",
            "source": {
                "title": "MANTRA DAO Twitter",
                "region": "en",
                "domain": "twitter.com",
                "path": "@mantraomniverse"
            },
            "title": "Read the #MANTRAChain Litepaper NOW ",
            "published_at": "2023-07-10T10:35:01Z",
            "slug": "Read-the-MANTRAChain-Litepaper-NOW",
            "currencies": [
                {
                    "code": "OM",
                    "title": "MANTRA",
                    "slug": "mantra-dao",
                    "url": "https:\/\/cryptopanic.com\/news\/mantra-dao\/"
                }
            ],
            "id": 18757342,
            "url": "https:\/\/cryptopanic.com\/news\/18757342\/Read-the-MANTRAChain-Litepaper-NOW",
            "created_at": "2023-07-10T10:35:01Z",
            "votes": {
                "negative": 0,
                "positive": 0,
                "important": 0,
                "liked": 0,
                "disliked": 0,
                "lol": 0,
                "toxic": 0,
                "saved": 0,
                "comments": 0
            }
        },
        {
            "kind": "news",
            "domain": "@MANTRAOMniverse",
            "source": {
                "title": "MANTRA DAO Twitter",
                "region": "en",
                "domain": "twitter.com",
                "path": "@mantraomniverse"
            },
            "title": "RT @MANTRA_Chain: The MANTRA Chain Litepaper is now LIVE! \n\nOver the past several years, many new blockchain projects have been introduced\u2026",
            "published_at": "2023-07-10T10:34:15Z",
            "slug": "RT-MANTRA_Chain-The-MANTRA-Chain-Litepaper-is-now-LIVE-Over-the-past-several-years-many-new-blockchain-projects-have-been-introduced",
            "currencies": [
                {
                    "code": "OM",
                    "title": "MANTRA",
                    "slug": "mantra-dao",
                    "url": "https:\/\/cryptopanic.com\/news\/mantra-dao\/"
                }
            ],
            "id": 18757343,
            "url": "https:\/\/cryptopanic.com\/news\/18757343\/RT-MANTRA_Chain-The-MANTRA-Chain-Litepaper-is-now-LIVE-Over-the-past-several-years-many-new-blockchain-projects-have-been-introduced",
            "created_at": "2023-07-10T10:34:15Z",
            "votes": {
                "negative": 0,
                "positive": 0,
                "important": 0,
                "liked": 0,
                "disliked": 0,
                "lol": 0,
                "toxic": 0,
                "saved": 0,
                "comments": 0
            }
        },
        {
            "kind": "news",
            "domain": "@MANTRAOMniverse",
            "source": {
                "title": "MANTRA DAO Twitter",
                "region": "en",
                "domain": "twitter.com",
                "path": "@mantraomniverse"
            },
            "title": " The 2nd Multi-Asset Vault is launching next week, with $ATOM, $SOL, $ADA, $NEAR, and $KSM.\n\nThe vault will allow\u2026",
            "published_at": "2023-07-10T10:22:03Z",
            "slug": "The-2nd-Multi-Asset-Vault-is-launching-next-week-with-ATOM-SOL-ADA-NEAR-and-KSM-The-vault-will-allow",
            "currencies": [
                {
                    "code": "OM",
                    "title": "MANTRA",
                    "slug": "mantra-dao",
                    "url": "https:\/\/cryptopanic.com\/news\/mantra-dao\/"
                }
            ],
            "id": 18757344,
            "url": "https:\/\/cryptopanic.com\/news\/18757344\/The-2nd-Multi-Asset-Vault-is-launching-next-week-with-ATOM-SOL-ADA-NEAR-and-KSM-The-vault-will-allow",
            "created_at": "2023-07-10T10:22:03Z",
            "votes": {
                "negative": 0,
                "positive": 0,
                "important": 0,
                "liked": 0,
                "disliked": 0,
                "lol": 0,
                "toxic": 0,
                "saved": 0,
                "comments": 0
            }
        },
        {
            "kind": "news",
            "domain": "@MANTRAOMniverse",
            "source": {
                "title": "MANTRA DAO Twitter",
                "region": "en",
                "domain": "twitter.com",
                "path": "@mantraomniverse"
            },
            "title": "RT @CryptoDiffer: WEEKLY GAINERS LIST\n9 July 2023\n\n7 Days Price Change:\n$XVG +156.9%\n$TROY +95.7%\n$KEKE +78.8%\n$CRPT +49.1%\n$OM +28.9%\n$FIR\u2026",
            "published_at": "2023-07-10T02:19:35Z",
            "slug": "RT-CryptoDiffer-WEEKLY-GAINERS-LIST-9-July-2023-7-Days-Price-Change-XVG-1569-TROY-957-KEKE-788-CRPT-491-OM-289-FIR",
            "currencies": [
                {
                    "code": "OM",
                    "title": "MANTRA",
                    "slug": "mantra-dao",
                    "url": "https:\/\/cryptopanic.com\/news\/mantra-dao\/"
                }
            ],
            "id": 18750360,
            "url": "https:\/\/cryptopanic.com\/news\/18750360\/RT-CryptoDiffer-WEEKLY-GAINERS-LIST-9-July-2023-7-Days-Price-Change-XVG-1569-TROY-957-KEKE-788-CRPT-491-OM-289-FIR",
            "created_at": "2023-07-10T02:19:35Z",
            "votes": {
                "negative": 0,
                "positive": 0,
                "important": 0,
                "liked": 0,
                "disliked": 0,
                "lol": 0,
                "toxic": 0,
                "saved": 0,
                "comments": 0
            }
        },
        {
            "kind": "news",
            "domain": "@MANTRAOMniverse",
            "source": {
                "title": "MANTRA DAO Twitter",
                "region": "en",
                "domain": "twitter.com",
                "path": "@mantraomniverse"
            },
            "title": "It's looking juicier than ever before \n\n#MANTRA #crypto #memes #CryptoMemes #airdrop #airdrops $OM $SOMA $AUM",
            "published_at": "2023-07-07T10:44:38Z",
            "slug": "Its-looking-juicier-than-ever-before-MANTRA-crypto-memes-CryptoMemes-airdrop-airdrops-OM-SOMA-AUM",
            "currencies": [
                {
                    "code": "OM",
                    "title": "MANTRA",
                    "slug": "mantra-dao",
                    "url": "https:\/\/cryptopanic.com\/news\/mantra-dao\/"
                }
            ],
            "id": 18741126,
            "url": "https:\/\/cryptopanic.com\/news\/18741126\/Its-looking-juicier-than-ever-before-MANTRA-crypto-memes-CryptoMemes-airdrop-airdrops-OM-SOMA-AUM",
            "created_at": "2023-07-07T10:44:38Z",
            "votes": {
                "negative": 0,
                "positive": 0,
                "important": 0,
                "liked": 0,
                "disliked": 0,
                "lol": 0,
                "toxic": 0,
                "saved": 0,
                "comments": 0
            }
        },
        {
            "kind": "news",
            "domain": "@MANTRAOMniverse",
            "source": {
                "title": "MANTRA DAO Twitter",
                "region": "en",
                "domain": "twitter.com",
                "path": "@mantraomniverse"
            },
            "title": "MANTRA Finance is a hit on Magic Store!  \ud83e\ude84\n\nWe've been working hard to create an easy-to-use DeFi platform and are\u2026",
            "published_at": "2023-07-07T09:34:18Z",
            "slug": "MANTRA-Finance-is-a-hit-on-Magic-Store-Weve-been-working-hard-to-create-an-easy-to-use-DeFi-platform-and-are",
            "currencies": [
                {
                    "code": "OM",
                    "title": "MANTRA",
                    "slug": "mantra-dao",
                    "url": "https:\/\/cryptopanic.com\/news\/mantra-dao\/"
                }
            ],
            "id": 18741127,
            "url": "https:\/\/cryptopanic.com\/news\/18741127\/MANTRA-Finance-is-a-hit-on-Magic-Store-Weve-been-working-hard-to-create-an-easy-to-use-DeFi-platform-and-are",
            "created_at": "2023-07-07T09:34:18Z",
            "votes": {
                "negative": 0,
                "positive": 0,
                "important": 0,
                "liked": 0,
                "disliked": 0,
                "lol": 0,
                "toxic": 0,
                "saved": 0,
                "comments": 0
            }
        },
        {
            "kind": "news",
            "domain": "@MANTRAOMniverse",
            "source": {
                "title": "MANTRA DAO Twitter",
                "region": "en",
                "domain": "twitter.com",
                "path": "@mantraomniverse"
            },
            "title": "RT @jp_mullin888: The UAE continues to become a leading crypto &amp; Web3 hub! Onwards and upwards! \ud83c\udde6\ud83c\uddea\ufe0f",
            "published_at": "2023-07-07T08:52:08Z",
            "slug": "RT-jp_mullin888-The-UAE-continues-to-become-a-leading-crypto-amp-Web3-hub-Onwards-and-upwards",
            "currencies": [
                {
                    "code": "OM",
                    "title": "MANTRA",
                    "slug": "mantra-dao",
                    "url": "https:\/\/cryptopanic.com\/news\/mantra-dao\/"
                }
            ],
            "id": 18741128,
            "url": "https:\/\/cryptopanic.com\/news\/18741128\/RT-jp_mullin888-The-UAE-continues-to-become-a-leading-crypto-amp-Web3-hub-Onwards-and-upwards",
            "created_at": "2023-07-07T08:52:08Z",
            "votes": {
                "negative": 0,
                "positive": 0,
                "important": 0,
                "liked": 0,
                "disliked": 0,
                "lol": 0,
                "toxic": 0,
                "saved": 0,
                "comments": 0
            }
        },
        {
            "kind": "news",
            "domain": "@MANTRAOMniverse",
            "source": {
                "title": "MANTRA DAO Twitter",
                "region": "en",
                "domain": "twitter.com",
                "path": "@mantraomniverse"
            },
            "title": " @jp_mullin888 and @RocketXexchange are discussing the details of our integration and the exciting benefits for\u2026",
            "published_at": "2023-07-06T12:11:33Z",
            "slug": "jp_mullin888-and-RocketXexchange-are-discussing-the-details-of-our-integration-and-the-exciting-benefits-for",
            "currencies": [
                {
                    "code": "OM",
                    "title": "MANTRA",
                    "slug": "mantra-dao",
                    "url": "https:\/\/cryptopanic.com\/news\/mantra-dao\/"
                }
            ],
            "id": 18733582,
            "url": "https:\/\/cryptopanic.com\/news\/18733582\/jp_mullin888-and-RocketXexchange-are-discussing-the-details-of-our-integration-and-the-exciting-benefits-for",
            "created_at": "2023-07-06T12:11:33Z",
            "votes": {
                "negative": 0,
                "positive": 0,
                "important": 0,
                "liked": 0,
                "disliked": 0,
                "lol": 0,
                "toxic": 0,
                "saved": 0,
                "comments": 0
            }
        },
        {
            "kind": "news",
            "domain": "@MANTRAOMniverse",
            "source": {
                "title": "MANTRA DAO Twitter",
                "region": "en",
                "domain": "twitter.com",
                "path": "@mantraomniverse"
            },
            "title": "RT @jp_mullin888: Repping @MANTRAOMniverse @MANTRA_Chain and @SOMA_finance with the young legend @tomtsaoao at the @hailstonelabs x @CurveF\u2026",
            "published_at": "2023-07-06T11:44:08Z",
            "slug": "RT-jp_mullin888-Repping-MANTRAOMniverse-MANTRA_Chain-and-SOMA_finance-with-the-young-legend-tomtsaoao-at-the-hailstonelabs-x-CurveF",
            "currencies": [
                {
                    "code": "OM",
                    "title": "MANTRA",
                    "slug": "mantra-dao",
                    "url": "https:\/\/cryptopanic.com\/news\/mantra-dao\/"
                }
            ],
            "id": 18733583,
            "url": "https:\/\/cryptopanic.com\/news\/18733583\/RT-jp_mullin888-Repping-MANTRAOMniverse-MANTRA_Chain-and-SOMA_finance-with-the-young-legend-tomtsaoao-at-the-hailstonelabs-x-CurveF",
            "created_at": "2023-07-06T11:44:08Z",
            "votes": {
                "negative": 0,
                "positive": 0,
                "important": 0,
                "liked": 0,
                "disliked": 0,
                "lol": 0,
                "toxic": 0,
                "saved": 0,
                "comments": 0
            }
        },
        {
            "kind": "news",
            "domain": "@MANTRAOMniverse",
            "source": {
                "title": "MANTRA DAO Twitter",
                "region": "en",
                "domain": "twitter.com",
                "path": "@mantraomniverse"
            },
            "title": " Can you guess which #crypto assets will be featured in our upcoming Multi-Asset Vault?\n\nPut on your thinking caps\u2026",
            "published_at": "2023-07-06T10:08:56Z",
            "slug": "Can-you-guess-which-crypto-assets-will-be-featured-in-our-upcoming-Multi-Asset-Vault-Put-on-your-thinking-caps",
            "currencies": [
                {
                    "code": "OM",
                    "title": "MANTRA",
                    "slug": "mantra-dao",
                    "url": "https:\/\/cryptopanic.com\/news\/mantra-dao\/"
                }
            ],
            "id": 18733584,
            "url": "https:\/\/cryptopanic.com\/news\/18733584\/Can-you-guess-which-crypto-assets-will-be-featured-in-our-upcoming-Multi-Asset-Vault-Put-on-your-thinking-caps",
            "created_at": "2023-07-06T10:08:56Z",
            "votes": {
                "negative": 0,
                "positive": 0,
                "important": 0,
                "liked": 0,
                "disliked": 0,
                "lol": 0,
                "toxic": 0,
                "saved": 0,
                "comments": 0
            }
        },
        {
            "kind": "news",
            "domain": "@MANTRAOMniverse",
            "source": {
                "title": "MANTRA DAO Twitter",
                "region": "en",
                "domain": "twitter.com",
                "path": "@mantraomniverse"
            },
            "title": "$OM has seamlessly integrated with @uniramp, a DeFi-powered onramp aggregator! \ud83e\udd1d\n\nYou can now purchase $OM instantl\u2026",
            "published_at": "2023-07-06T09:09:37Z",
            "slug": "OM-has-seamlessly-integrated-with-uniramp-a-DeFi-powered-onramp-aggregator-You-can-now-purchase-OM-instantl",
            "currencies": [
                {
                    "code": "OM",
                    "title": "MANTRA",
                    "slug": "mantra-dao",
                    "url": "https:\/\/cryptopanic.com\/news\/mantra-dao\/"
                }
            ],
            "id": 18733586,
            "url": "https:\/\/cryptopanic.com\/news\/18733586\/OM-has-seamlessly-integrated-with-uniramp-a-DeFi-powered-onramp-aggregator-You-can-now-purchase-OM-instantl",
            "created_at": "2023-07-06T09:09:37Z",
            "votes": {
                "negative": 0,
                "positive": 0,
                "important": 0,
                "liked": 0,
                "disliked": 0,
                "lol": 0,
                "toxic": 0,
                "saved": 0,
                "comments": 0
            }
        },
        {
            "kind": "news",
            "domain": "@MANTRAOMniverse",
            "source": {
                "title": "MANTRA DAO Twitter",
                "region": "en",
                "domain": "twitter.com",
                "path": "@mantraomniverse"
            },
            "title": "RT @jp_mullin888: HK keeps BUIDLing! Les goh! ",
            "published_at": "2023-07-06T03:22:29Z",
            "slug": "RT-jp_mullin888-HK-keeps-BUIDLing-Les-goh",
            "currencies": [
                {
                    "code": "OM",
                    "title": "MANTRA",
                    "slug": "mantra-dao",
                    "url": "https:\/\/cryptopanic.com\/news\/mantra-dao\/"
                }
            ],
            "id": 18725129,
            "url": "https:\/\/cryptopanic.com\/news\/18725129\/RT-jp_mullin888-HK-keeps-BUIDLing-Les-goh",
            "created_at": "2023-07-06T03:22:29Z",
            "votes": {
                "negative": 0,
                "positive": 0,
                "important": 0,
                "liked": 0,
                "disliked": 0,
                "lol": 0,
                "toxic": 0,
                "saved": 0,
                "comments": 0
            }
        },
        {
            "kind": "news",
            "domain": "@MANTRAOMniverse",
            "source": {
                "title": "MANTRA DAO Twitter",
                "region": "en",
                "domain": "twitter.com",
                "path": "@mantraomniverse"
            },
            "title": "RT @RocketXexchange:  Calling all crypto enthusiasts! Get ready for an exclusive Twitter Spaces AMA with a powerful collaboration: #Rocket\u2026",
            "published_at": "2023-07-06T03:07:13Z",
            "slug": "RT-RocketXexchange-Calling-all-crypto-enthusiasts-Get-ready-for-an-exclusive-Twitter-Spaces-AMA-with-a-powerful-collaboration-Rocket",
            "currencies": [
                {
                    "code": "OM",
                    "title": "MANTRA",
                    "slug": "mantra-dao",
                    "url": "https:\/\/cryptopanic.com\/news\/mantra-dao\/"
                }
            ],
            "id": 18725130,
            "url": "https:\/\/cryptopanic.com\/news\/18725130\/RT-RocketXexchange-Calling-all-crypto-enthusiasts-Get-ready-for-an-exclusive-Twitter-Spaces-AMA-with-a-powerful-collaboration-Rocket",
            "created_at": "2023-07-06T03:07:13Z",
            "votes": {
                "negative": 0,
                "positive": 0,
                "important": 0,
                "liked": 0,
                "disliked": 0,
                "lol": 0,
                "toxic": 0,
                "saved": 0,
                "comments": 0
            }
        },
        {
            "kind": "news",
            "domain": "@MANTRAOMniverse",
            "source": {
                "title": "MANTRA DAO Twitter",
                "region": "en",
                "domain": "twitter.com",
                "path": "@mantraomniverse"
            },
            "title": "(1\/7) Missed out on our latest #TwitterSpaces? We've got you covered! \n\nOur CEO @jp_mullin888 answered numerous en\u2026",
            "published_at": "2023-07-05T10:49:04Z",
            "slug": "17-Missed-out-on-our-latest-TwitterSpaces-Weve-got-you-covered-Our-CEO-jp_mullin888-answered-numerous-en",
            "currencies": [
                {
                    "code": "OM",
                    "title": "MANTRA",
                    "slug": "mantra-dao",
                    "url": "https:\/\/cryptopanic.com\/news\/mantra-dao\/"
                }
            ],
            "id": 18725131,
            "url": "https:\/\/cryptopanic.com\/news\/18725131\/17-Missed-out-on-our-latest-TwitterSpaces-Weve-got-you-covered-Our-CEO-jp_mullin888-answered-numerous-en",
            "created_at": "2023-07-05T10:49:04Z",
            "votes": {
                "negative": 0,
                "positive": 0,
                "important": 0,
                "liked": 0,
                "disliked": 0,
                "lol": 0,
                "toxic": 0,
                "saved": 0,
                "comments": 0
            }
        },
        {
            "kind": "news",
            "domain": "@MANTRAOMniverse",
            "source": {
                "title": "MANTRA DAO Twitter",
                "region": "en",
                "domain": "twitter.com",
                "path": "@mantraomniverse"
            },
            "title": "Congratulations to our 5 winners who each won $50 in $OM during our $250 Twitter Spaces #Giveaway! \ud83e\udd73\n\nWe were blown\u2026",
            "published_at": "2023-07-05T10:10:28Z",
            "slug": "Congratulations-to-our-5-winners-who-each-won-50-in-OM-during-our-250-Twitter-Spaces-Giveaway-We-were-blown",
            "currencies": [
                {
                    "code": "OM",
                    "title": "MANTRA",
                    "slug": "mantra-dao",
                    "url": "https:\/\/cryptopanic.com\/news\/mantra-dao\/"
                }
            ],
            "id": 18725132,
            "url": "https:\/\/cryptopanic.com\/news\/18725132\/Congratulations-to-our-5-winners-who-each-won-50-in-OM-during-our-250-Twitter-Spaces-Giveaway-We-were-blown",
            "created_at": "2023-07-05T10:10:28Z",
            "votes": {
                "negative": 0,
                "positive": 0,
                "important": 0,
                "liked": 0,
                "disliked": 0,
                "lol": 0,
                "toxic": 0,
                "saved": 0,
                "comments": 0
            }
        },
        {
            "kind": "news",
            "domain": "@MANTRAOMniverse",
            "source": {
                "title": "MANTRA DAO Twitter",
                "region": "en",
                "domain": "twitter.com",
                "path": "@mantraomniverse"
            },
            "title": " Twitter Spaces AMA: RocketX \ud83e\udd1d MANTRA\n\nFollowing $OM's integration onto @RocketXexchange, we'll be hosting a\u2026",
            "published_at": "2023-07-05T09:32:27Z",
            "slug": "Twitter-Spaces-AMA-RocketX-MANTRA-Following-OMs-integration-onto-RocketXexchange-well-be-hosting-a",
            "currencies": [
                {
                    "code": "OM",
                    "title": "MANTRA",
                    "slug": "mantra-dao",
                    "url": "https:\/\/cryptopanic.com\/news\/mantra-dao\/"
                }
            ],
            "id": 18725133,
            "url": "https:\/\/cryptopanic.com\/news\/18725133\/Twitter-Spaces-AMA-RocketX-MANTRA-Following-OMs-integration-onto-RocketXexchange-well-be-hosting-a",
            "created_at": "2023-07-05T09:32:27Z",
            "votes": {
                "negative": 0,
                "positive": 0,
                "important": 0,
                "liked": 0,
                "disliked": 0,
                "lol": 0,
                "toxic": 0,
                "saved": 0,
                "comments": 0
            }
        }
    ]
}
