{
    "count": 200,
    "next": "https:\/\/cryptopanic.com\/api\/v1\/posts\/?auth_token=01c356e89ffc1b8eba2127c81fc8c66ee0eace75&kind=news&currencies=TVK&page=2",
    "previous": null,
    "results": [
        {
            "kind": "news",
            "domain": "@VirtuaMetaverse",
            "source": {
                "title": "The Virtua Kolect Twitter",
                "region": "en",
                "domain": "twitter.com",
                "path": "@virtuametaverse"
            },
            "title": "What a thrilling test match! A true display of sporting excellence that keeps England in the series! \n\nOur partner\u2026",
            "published_at": "2023-07-11T16:13:04Z",
            "slug": "What-a-thrilling-test-match-A-true-display-of-sporting-excellence-that-keeps-England-in-the-series-Our-partner",
            "currencies": [
                {
                    "code": "TVK",
                    "title": "The Virtua Kolect",
                    "slug": "the-virtua-kolect",
                    "url": "https:\/\/cryptopanic.com\/news\/the-virtua-kolect\/"
                }
            ],
            "id": 18767639,
            "url": "https:\/\/cryptopanic.com\/news\/18767639\/What-a-thrilling-test-match-A-true-display-of-sporting-excellence-that-keeps-England-in-the-series-Our-partner",
            "created_at": "2023-07-11T16:13:04Z",
            "votes": {
                "negative": 0,
                "positive": 0,
                "important": 0,
                "liked": 0,
                "disliked": 0,
                "lol": 0,
                "toxic": 0,
                "saved": 0,
                "comments": 0
            }
        },
        {
            "kind": "news",
            "domain": "@VirtuaMetaverse",
            "source": {
                "title": "The Virtua Kolect Twitter",
                "region": "en",
                "domain": "twitter.com",
                "path": "@virtuametaverse"
            },
            "title": "RT @discosolaris: We\u2019re LIVE!\n\nThe mint is now open: \n\nGood luck everyone!",
            "published_at": "2023-07-10T23:27:34Z",
            "slug": "RT-discosolaris-Were-LIVE-The-mint-is-now-open-Good-luck-everyone",
            "currencies": [
                {
                    "code": "TVK",
                    "title": "The Virtua Kolect",
                    "slug": "the-virtua-kolect",
                    "url": "https:\/\/cryptopanic.com\/news\/the-virtua-kolect\/"
                }
            ],
            "id": 18759351,
            "url": "https:\/\/cryptopanic.com\/news\/18759351\/RT-discosolaris-Were-LIVE-The-mint-is-now-open-Good-luck-everyone",
            "created_at": "2023-07-10T23:27:34Z",
            "votes": {
                "negative": 0,
                "positive": 0,
                "important": 0,
                "liked": 0,
                "disliked": 0,
                "lol": 0,
                "toxic": 0,
                "saved": 0,
                "comments": 0
            }
        },
        {
            "kind": "news",
            "domain": "@VirtuaMetaverse",
            "source": {
                "title": "The Virtua Kolect Twitter",
                "region": "en",
                "domain": "twitter.com",
                "path": "@virtuametaverse"
            },
            "title": "Join Red Sonja in Adventures of Red Sonja Vol. 3! This remastered NFT comic, featuring Frank Thorne and Roy Thomas\u2026",
            "published_at": "2023-07-10T15:00:05Z",
            "slug": "Join-Red-Sonja-in-Adventures-of-Red-Sonja-Vol-3-This-remastered-NFT-comic-featuring-Frank-Thorne-and-Roy-Thomas",
            "currencies": [
                {
                    "code": "TVK",
                    "title": "The Virtua Kolect",
                    "slug": "the-virtua-kolect",
                    "url": "https:\/\/cryptopanic.com\/news\/the-virtua-kolect\/"
                }
            ],
            "id": 18759352,
            "url": "https:\/\/cryptopanic.com\/news\/18759352\/Join-Red-Sonja-in-Adventures-of-Red-Sonja-Vol-3-This-remastered-NFT-comic-featuring-Frank-Thorne-and-Roy-Thomas",
            "created_at": "2023-07-10T15:00:05Z",
            "votes": {
                "negative": 0,
                "positive": 0,
                "important": 0,
                "liked": 0,
                "disliked": 0,
                "lol": 0,
                "toxic": 0,
                "saved": 0,
                "comments": 0
            }
        },
        {
            "kind": "news",
            "domain": "@VirtuaMetaverse",
            "source": {
                "title": "The Virtua Kolect Twitter",
                "region": "en",
                "domain": "twitter.com",
                "path": "@virtuametaverse"
            },
            "title": "Riding the winds of winter from the north, comes Elvie, apprentice to the ancient one. Holding every pure wish in h\u2026",
            "published_at": "2023-07-08T15:00:00Z",
            "slug": "Riding-the-winds-of-winter-from-the-north-comes-Elvie-apprentice-to-the-ancient-one-Holding-every-pure-wish-in-h",
            "currencies": [
                {
                    "code": "TVK",
                    "title": "The Virtua Kolect",
                    "slug": "the-virtua-kolect",
                    "url": "https:\/\/cryptopanic.com\/news\/the-virtua-kolect\/"
                }
            ],
            "id": 18747142,
            "url": "https:\/\/cryptopanic.com\/news\/18747142\/Riding-the-winds-of-winter-from-the-north-comes-Elvie-apprentice-to-the-ancient-one-Holding-every-pure-wish-in-h",
            "created_at": "2023-07-08T15:00:00Z",
            "votes": {
                "negative": 0,
                "positive": 0,
                "important": 0,
                "liked": 0,
                "disliked": 0,
                "lol": 0,
                "toxic": 0,
                "saved": 0,
                "comments": 0
            }
        },
        {
            "kind": "news",
            "domain": "@VirtuaMetaverse",
            "source": {
                "title": "The Virtua Kolect Twitter",
                "region": "en",
                "domain": "twitter.com",
                "path": "@virtuametaverse"
            },
            "title": "RT @nitroleaguegame: Join our Twitter space this Thursday, 6th of July at 5pm UTC, and let's pit in for a chat with the Nitro League team a\u2026",
            "published_at": "2023-07-06T16:59:24Z",
            "slug": "RT-nitroleaguegame-Join-our-Twitter-space-this-Thursday-6th-of-July-at-5pm-UTC-and-lets-pit-in-for-a-chat-with-the-Nitro-League-team-a",
            "currencies": [
                {
                    "code": "TVK",
                    "title": "The Virtua Kolect",
                    "slug": "the-virtua-kolect",
                    "url": "https:\/\/cryptopanic.com\/news\/the-virtua-kolect\/"
                }
            ],
            "id": 18735786,
            "url": "https:\/\/cryptopanic.com\/news\/18735786\/RT-nitroleaguegame-Join-our-Twitter-space-this-Thursday-6th-of-July-at-5pm-UTC-and-lets-pit-in-for-a-chat-with-the-Nitro-League-team-a",
            "created_at": "2023-07-06T16:59:24Z",
            "votes": {
                "negative": 0,
                "positive": 0,
                "important": 0,
                "liked": 0,
                "disliked": 0,
                "lol": 0,
                "toxic": 0,
                "saved": 0,
                "comments": 0
            }
        },
        {
            "kind": "news",
            "domain": "@VirtuaMetaverse",
            "source": {
                "title": "The Virtua Kolect Twitter",
                "region": "en",
                "domain": "twitter.com",
                "path": "@virtuametaverse"
            },
            "title": "Get ready for an electrifying spectacle! Coffee with NLD and Glenn presents Jetpack Hyperleague Battle Royale Edit\u2026",
            "published_at": "2023-07-05T18:31:34Z",
            "slug": "Get-ready-for-an-electrifying-spectacle-Coffee-with-NLD-and-Glenn-presents-Jetpack-Hyperleague-Battle-Royale-Edit",
            "currencies": [
                {
                    "code": "TVK",
                    "title": "The Virtua Kolect",
                    "slug": "the-virtua-kolect",
                    "url": "https:\/\/cryptopanic.com\/news\/the-virtua-kolect\/"
                }
            ],
            "id": 18727207,
            "url": "https:\/\/cryptopanic.com\/news\/18727207\/Get-ready-for-an-electrifying-spectacle-Coffee-with-NLD-and-Glenn-presents-Jetpack-Hyperleague-Battle-Royale-Edit",
            "created_at": "2023-07-05T18:31:34Z",
            "votes": {
                "negative": 0,
                "positive": 0,
                "important": 0,
                "liked": 0,
                "disliked": 0,
                "lol": 0,
                "toxic": 0,
                "saved": 0,
                "comments": 0
            }
        },
        {
            "kind": "news",
            "domain": "@VirtuaMetaverse",
            "source": {
                "title": "The Virtua Kolect Twitter",
                "region": "en",
                "domain": "twitter.com",
                "path": "@virtuametaverse"
            },
            "title": "Cardano Island Cribs &amp; Condos Update 1.8: Small room expanded!\n\nNow enjoy a bigger space to unleash your creativity\u2026",
            "published_at": "2023-07-05T16:00:03Z",
            "slug": "Cardano-Island-Cribs-amp-Condos-Update-18-Small-room-expanded-Now-enjoy-a-bigger-space-to-unleash-your-creativity",
            "currencies": [
                {
                    "code": "TVK",
                    "title": "The Virtua Kolect",
                    "slug": "the-virtua-kolect",
                    "url": "https:\/\/cryptopanic.com\/news\/the-virtua-kolect\/"
                },
                {
                    "code": "ADA",
                    "title": "Cardano",
                    "slug": "cardano",
                    "url": "https:\/\/cryptopanic.com\/news\/cardano\/"
                }
            ],
            "id": 18727208,
            "url": "https:\/\/cryptopanic.com\/news\/18727208\/Cardano-Island-Cribs-amp-Condos-Update-18-Small-room-expanded-Now-enjoy-a-bigger-space-to-unleash-your-creativity",
            "created_at": "2023-07-05T16:00:03Z",
            "votes": {
                "negative": 0,
                "positive": 0,
                "important": 0,
                "liked": 0,
                "disliked": 0,
                "lol": 0,
                "toxic": 0,
                "saved": 0,
                "comments": 0
            }
        },
        {
            "kind": "news",
            "domain": "@VirtuaMetaverse",
            "source": {
                "title": "The Virtua Kolect Twitter",
                "region": "en",
                "domain": "twitter.com",
                "path": "@virtuametaverse"
            },
            "title": "Here's to a day of joyful moments, and a sky painted with bursts of color. Have an amazing fourth of July! \ud83c\uddfa\ud83c\uddf8\u2026",
            "published_at": "2023-07-04T20:00:01Z",
            "slug": "Heres-to-a-day-of-joyful-moments-and-a-sky-painted-with-bursts-of-color-Have-an-amazing-fourth-of-July",
            "currencies": [
                {
                    "code": "TVK",
                    "title": "The Virtua Kolect",
                    "slug": "the-virtua-kolect",
                    "url": "https:\/\/cryptopanic.com\/news\/the-virtua-kolect\/"
                }
            ],
            "id": 18719180,
            "url": "https:\/\/cryptopanic.com\/news\/18719180\/Heres-to-a-day-of-joyful-moments-and-a-sky-painted-with-bursts-of-color-Have-an-amazing-fourth-of-July",
            "created_at": "2023-07-04T20:00:01Z",
            "votes": {
                "negative": 0,
                "positive": 0,
                "important": 0,
                "liked": 0,
                "disliked": 0,
                "lol": 0,
                "toxic": 0,
                "saved": 0,
                "comments": 0
            }
        },
        {
            "kind": "news",
            "domain": "@VirtuaMetaverse",
            "source": {
                "title": "The Virtua Kolect Twitter",
                "region": "en",
                "domain": "twitter.com",
                "path": "@virtuametaverse"
            },
            "title": " Calling all thrill-seekers! \n\nHold tight, fellow explorers! The latest Quests have just landed on the Virtua Da\u2026",
            "published_at": "2023-07-04T16:01:53Z",
            "slug": "Calling-all-thrill-seekers-Hold-tight-fellow-explorers-The-latest-Quests-have-just-landed-on-the-Virtua-Da",
            "currencies": [
                {
                    "code": "TVK",
                    "title": "The Virtua Kolect",
                    "slug": "the-virtua-kolect",
                    "url": "https:\/\/cryptopanic.com\/news\/the-virtua-kolect\/"
                }
            ],
            "id": 18719181,
            "url": "https:\/\/cryptopanic.com\/news\/18719181\/Calling-all-thrill-seekers-Hold-tight-fellow-explorers-The-latest-Quests-have-just-landed-on-the-Virtua-Da",
            "created_at": "2023-07-04T16:01:53Z",
            "votes": {
                "negative": 0,
                "positive": 0,
                "important": 0,
                "liked": 0,
                "disliked": 0,
                "lol": 0,
                "toxic": 0,
                "saved": 0,
                "comments": 0
            }
        },
        {
            "kind": "news",
            "domain": "@VirtuaMetaverse",
            "source": {
                "title": "The Virtua Kolect Twitter",
                "region": "en",
                "domain": "twitter.com",
                "path": "@virtuametaverse"
            },
            "title": "RT @JCRYPTO_YT: While Web 2 platforms are looking more and more like ready player one \u201cioi\u201d types\u2026 a few Web 3 METAVERSE projects have show\u2026",
            "published_at": "2023-07-02T05:27:03Z",
            "slug": "RT-JCRYPTO_YT-While-Web-2-platforms-are-looking-more-and-more-like-ready-player-one-ioi-types-a-few-Web-3-METAVERSE-projects-have-show",
            "currencies": [
                {
                    "code": "TVK",
                    "title": "The Virtua Kolect",
                    "slug": "the-virtua-kolect",
                    "url": "https:\/\/cryptopanic.com\/news\/the-virtua-kolect\/"
                }
            ],
            "id": 18700297,
            "url": "https:\/\/cryptopanic.com\/news\/18700297\/RT-JCRYPTO_YT-While-Web-2-platforms-are-looking-more-and-more-like-ready-player-one-ioi-types-a-few-Web-3-METAVERSE-projects-have-show",
            "created_at": "2023-07-02T05:27:03Z",
            "votes": {
                "negative": 0,
                "positive": 0,
                "important": 0,
                "liked": 0,
                "disliked": 0,
                "lol": 0,
                "toxic": 0,
                "saved": 0,
                "comments": 0
            }
        },
        {
            "kind": "news",
            "domain": "@VirtuaMetaverse",
            "source": {
                "title": "The Virtua Kolect Twitter",
                "region": "en",
                "domain": "twitter.com",
                "path": "@virtuametaverse"
            },
            "title": "Join us for vFriday happening right now!\n\nCommunity, games, prizes, and fun await! \ud83e\udd73\n\ufe0f",
            "published_at": "2023-06-30T20:05:00Z",
            "slug": "Join-us-for-vFriday-happening-right-now-Community-games-prizes-and-fun-await",
            "currencies": [
                {
                    "code": "TVK",
                    "title": "The Virtua Kolect",
                    "slug": "the-virtua-kolect",
                    "url": "https:\/\/cryptopanic.com\/news\/the-virtua-kolect\/"
                }
            ],
            "id": 18696091,
            "url": "https:\/\/cryptopanic.com\/news\/18696091\/Join-us-for-vFriday-happening-right-now-Community-games-prizes-and-fun-await",
            "created_at": "2023-06-30T20:05:00Z",
            "votes": {
                "negative": 0,
                "positive": 0,
                "important": 0,
                "liked": 0,
                "disliked": 0,
                "lol": 0,
                "toxic": 0,
                "saved": 0,
                "comments": 0
            }
        },
        {
            "kind": "news",
            "domain": "@VirtuaMetaverse",
            "source": {
                "title": "The Virtua Kolect Twitter",
                "region": "en",
                "domain": "twitter.com",
                "path": "@virtuametaverse"
            },
            "title": "Can you solve this riddle?\n\n#NFT #bitcoin #Ethererum #crypto #cardano",
            "published_at": "2023-06-29T17:33:46Z",
            "slug": "Can-you-solve-this-riddle-NFT-bitcoin-Ethererum-crypto-cardano",
            "currencies": [
                {
                    "code": "TVK",
                    "title": "The Virtua Kolect",
                    "slug": "the-virtua-kolect",
                    "url": "https:\/\/cryptopanic.com\/news\/the-virtua-kolect\/"
                }
            ],
            "id": 18688792,
            "url": "https:\/\/cryptopanic.com\/news\/18688792\/Can-you-solve-this-riddle-NFT-bitcoin-Ethererum-crypto-cardano",
            "created_at": "2023-06-29T17:33:46Z",
            "votes": {
                "negative": 0,
                "positive": 0,
                "important": 0,
                "liked": 0,
                "disliked": 0,
                "lol": 0,
                "toxic": 0,
                "saved": 0,
                "comments": 0
            }
        },
        {
            "kind": "news",
            "domain": "@VirtuaMetaverse",
            "source": {
                "title": "The Virtua Kolect Twitter",
                "region": "en",
                "domain": "twitter.com",
                "path": "@virtuametaverse"
            },
            "title": "May the blessings of Eid fill your life with happiness and peace. Eid Mubarak to you and your loved ones!\n\n#Eid2023",
            "published_at": "2023-06-29T08:00:00Z",
            "slug": "May-the-blessings-of-Eid-fill-your-life-with-happiness-and-peace-Eid-Mubarak-to-you-and-your-loved-ones-Eid2023",
            "currencies": [
                {
                    "code": "TVK",
                    "title": "The Virtua Kolect",
                    "slug": "the-virtua-kolect",
                    "url": "https:\/\/cryptopanic.com\/news\/the-virtua-kolect\/"
                }
            ],
            "id": 18680865,
            "url": "https:\/\/cryptopanic.com\/news\/18680865\/May-the-blessings-of-Eid-fill-your-life-with-happiness-and-peace-Eid-Mubarak-to-you-and-your-loved-ones-Eid2023",
            "created_at": "2023-06-29T08:00:00Z",
            "votes": {
                "negative": 0,
                "positive": 0,
                "important": 0,
                "liked": 0,
                "disliked": 0,
                "lol": 0,
                "toxic": 0,
                "saved": 0,
                "comments": 0
            }
        },
        {
            "kind": "news",
            "domain": "@VirtuaMetaverse",
            "source": {
                "title": "The Virtua Kolect Twitter",
                "region": "en",
                "domain": "twitter.com",
                "path": "@virtuametaverse"
            },
            "title": "RT @cardanosphere: Jetpack Hyperleague \ufe0f\n\n\n\n@VirtuaMetaverse @virtua_official\n\n#Jetpackhyperleague #game #CryptoGam\u2026",
            "published_at": "2023-06-29T06:58:31Z",
            "slug": "RT-cardanosphere-Jetpack-Hyperleague-VirtuaMetaverse-virtua_official-Jetpackhyperleague-game-CryptoGam",
            "currencies": [
                {
                    "code": "TVK",
                    "title": "The Virtua Kolect",
                    "slug": "the-virtua-kolect",
                    "url": "https:\/\/cryptopanic.com\/news\/the-virtua-kolect\/"
                }
            ],
            "id": 18680866,
            "url": "https:\/\/cryptopanic.com\/news\/18680866\/RT-cardanosphere-Jetpack-Hyperleague-VirtuaMetaverse-virtua_official-Jetpackhyperleague-game-CryptoGam",
            "created_at": "2023-06-29T06:58:31Z",
            "votes": {
                "negative": 0,
                "positive": 0,
                "important": 0,
                "liked": 0,
                "disliked": 0,
                "lol": 0,
                "toxic": 0,
                "saved": 0,
                "comments": 0
            }
        },
        {
            "kind": "news",
            "domain": "@VirtuaMetaverse",
            "source": {
                "title": "The Virtua Kolect Twitter",
                "region": "en",
                "domain": "twitter.com",
                "path": "@virtuametaverse"
            },
            "title": "Tomorrow....\n\nDon't miss out on the Virtua Jetpack trait w\/ @discosolaris, it looks GREAT!\n\n$TVK #NFT",
            "published_at": "2023-06-28T20:33:14Z",
            "slug": "Tomorrow-Dont-miss-out-on-the-Virtua-Jetpack-trait-w-discosolaris-it-looks-GREAT-TVK-NFT",
            "currencies": [
                {
                    "code": "TVK",
                    "title": "The Virtua Kolect",
                    "slug": "the-virtua-kolect",
                    "url": "https:\/\/cryptopanic.com\/news\/the-virtua-kolect\/"
                }
            ],
            "id": 18680867,
            "url": "https:\/\/cryptopanic.com\/news\/18680867\/Tomorrow-Dont-miss-out-on-the-Virtua-Jetpack-trait-w-discosolaris-it-looks-GREAT-TVK-NFT",
            "created_at": "2023-06-28T20:33:14Z",
            "votes": {
                "negative": 0,
                "positive": 0,
                "important": 0,
                "liked": 0,
                "disliked": 0,
                "lol": 0,
                "toxic": 0,
                "saved": 0,
                "comments": 0
            }
        },
        {
            "kind": "news",
            "domain": "@VirtuaMetaverse",
            "source": {
                "title": "The Virtua Kolect Twitter",
                "region": "en",
                "domain": "twitter.com",
                "path": "@virtuametaverse"
            },
            "title": "New day, new riddle to solve, new item to find!\n\n#NFTs #NFT #ETH #crypto #web3",
            "published_at": "2023-06-27T17:13:32Z",
            "slug": "New-day-new-riddle-to-solve-new-item-to-find-NFTs-NFT-ETH-crypto-web3",
            "currencies": [
                {
                    "code": "TVK",
                    "title": "The Virtua Kolect",
                    "slug": "the-virtua-kolect",
                    "url": "https:\/\/cryptopanic.com\/news\/the-virtua-kolect\/"
                }
            ],
            "id": 18672687,
            "url": "https:\/\/cryptopanic.com\/news\/18672687\/New-day-new-riddle-to-solve-new-item-to-find-NFTs-NFT-ETH-crypto-web3",
            "created_at": "2023-06-27T17:13:32Z",
            "votes": {
                "negative": 0,
                "positive": 0,
                "important": 0,
                "liked": 0,
                "disliked": 0,
                "lol": 0,
                "toxic": 0,
                "saved": 0,
                "comments": 0
            }
        },
        {
            "kind": "news",
            "domain": "@VirtuaMetaverse",
            "source": {
                "title": "The Virtua Kolect Twitter",
                "region": "en",
                "domain": "twitter.com",
                "path": "@virtuametaverse"
            },
            "title": "Here's a recording of our Weekly Dev Update Episode 20, with our hosts Nabeel (@Bigimmersive CEO) and Anis (Virtua\u2026",
            "published_at": "2023-06-26T18:00:02Z",
            "slug": "Heres-a-recording-of-our-Weekly-Dev-Update-Episode-20-with-our-hosts-Nabeel-Bigimmersive-CEO-and-Anis-Virtua",
            "currencies": [
                {
                    "code": "TVK",
                    "title": "The Virtua Kolect",
                    "slug": "the-virtua-kolect",
                    "url": "https:\/\/cryptopanic.com\/news\/the-virtua-kolect\/"
                }
            ],
            "id": 18664414,
            "url": "https:\/\/cryptopanic.com\/news\/18664414\/Heres-a-recording-of-our-Weekly-Dev-Update-Episode-20-with-our-hosts-Nabeel-Bigimmersive-CEO-and-Anis-Virtua",
            "created_at": "2023-06-26T18:00:02Z",
            "votes": {
                "negative": 0,
                "positive": 0,
                "important": 0,
                "liked": 0,
                "disliked": 0,
                "lol": 0,
                "toxic": 0,
                "saved": 0,
                "comments": 0
            }
        },
        {
            "kind": "news",
            "domain": "@VirtuaMetaverse",
            "source": {
                "title": "The Virtua Kolect Twitter",
                "region": "en",
                "domain": "twitter.com",
                "path": "@virtuametaverse"
            },
            "title": "RT @guardiansvirtua: What is life, if not just strains of endless code? \nHelp us decipher the code and pave your way further into the journ\u2026",
            "published_at": "2023-06-26T17:05:21Z",
            "slug": "RT-guardiansvirtua-What-is-life-if-not-just-strains-of-endless-code-Help-us-decipher-the-code-and-pave-your-way-further-into-the-journ",
            "currencies": [
                {
                    "code": "TVK",
                    "title": "The Virtua Kolect",
                    "slug": "the-virtua-kolect",
                    "url": "https:\/\/cryptopanic.com\/news\/the-virtua-kolect\/"
                }
            ],
            "id": 18664415,
            "url": "https:\/\/cryptopanic.com\/news\/18664415\/RT-guardiansvirtua-What-is-life-if-not-just-strains-of-endless-code-Help-us-decipher-the-code-and-pave-your-way-further-into-the-journ",
            "created_at": "2023-06-26T17:05:21Z",
            "votes": {
                "negative": 0,
                "positive": 0,
                "important": 0,
                "liked": 0,
                "disliked": 0,
                "lol": 0,
                "toxic": 0,
                "saved": 0,
                "comments": 0
            }
        },
        {
            "kind": "news",
            "domain": "@VirtuaMetaverse",
            "source": {
                "title": "The Virtua Kolect Twitter",
                "region": "en",
                "domain": "twitter.com",
                "path": "@virtuametaverse"
            },
            "title": "Calling all Virtuans!  \n\nDon't miss out on our upcoming Townhall, happening on Wednesday, June 28, 2023, at 3:00\u2026",
            "published_at": "2023-06-26T14:16:14Z",
            "slug": "Calling-all-Virtuans-Dont-miss-out-on-our-upcoming-Townhall-happening-on-Wednesday-June-28-2023-at-300",
            "currencies": [
                {
                    "code": "TVK",
                    "title": "The Virtua Kolect",
                    "slug": "the-virtua-kolect",
                    "url": "https:\/\/cryptopanic.com\/news\/the-virtua-kolect\/"
                }
            ],
            "id": 18664416,
            "url": "https:\/\/cryptopanic.com\/news\/18664416\/Calling-all-Virtuans-Dont-miss-out-on-our-upcoming-Townhall-happening-on-Wednesday-June-28-2023-at-300",
            "created_at": "2023-06-26T14:16:14Z",
            "votes": {
                "negative": 0,
                "positive": 0,
                "important": 0,
                "liked": 0,
                "disliked": 0,
                "lol": 0,
                "toxic": 0,
                "saved": 0,
                "comments": 0
            }
        },
        {
            "kind": "news",
            "domain": "@VirtuaMetaverse",
            "source": {
                "title": "The Virtua Kolect Twitter",
                "region": "en",
                "domain": "twitter.com",
                "path": "@virtuametaverse"
            },
            "title": "RT @splashtokenclub: We just listed @VirtuaMetaverse on our Arcade Portal! \n\nPlay the thrilling Jetpack Hyperleague!\n\nStrap on your jetpa\u2026",
            "published_at": "2023-06-24T15:59:06Z",
            "slug": "RT-splashtokenclub-We-just-listed-VirtuaMetaverse-on-our-Arcade-Portal-Play-the-thrilling-Jetpack-Hyperleague-Strap-on-your-jetpa",
            "currencies": [
                {
                    "code": "TVK",
                    "title": "The Virtua Kolect",
                    "slug": "the-virtua-kolect",
                    "url": "https:\/\/cryptopanic.com\/news\/the-virtua-kolect\/"
                }
            ],
            "id": 18651829,
            "url": "https:\/\/cryptopanic.com\/news\/18651829\/RT-splashtokenclub-We-just-listed-VirtuaMetaverse-on-our-Arcade-Portal-Play-the-thrilling-Jetpack-Hyperleague-Strap-on-your-jetpa",
            "created_at": "2023-06-24T15:59:06Z",
            "votes": {
                "negative": 0,
                "positive": 0,
                "important": 0,
                "liked": 0,
                "disliked": 0,
                "lol": 0,
                "toxic": 0,
                "saved": 0,
                "comments": 0
            }
        }
    ]
}
