{
    "count": 200,
    "next": "https:\/\/cryptopanic.com\/api\/v1\/posts\/?auth_token=01c356e89ffc1b8eba2127c81fc8c66ee0eace75&kind=news&currencies=QKC&page=2",
    "previous": null,
    "results": [
        {
            "kind": "news",
            "domain": "@Quark_Chain",
            "source": {
                "title": "QuarkChain Twitter",
                "region": "en",
                "domain": "twitter.com",
                "path": "@quark_chain"
            },
            "title": "RT @QuarkChainFC: Great news from #Quarkchain $QKC miners\n\n@iPolloMiner now supports @Quark_Chain \n\nLearn more ",
            "published_at": "2023-06-12T14:44:44Z",
            "slug": "RT-QuarkChainFC-Great-news-from-Quarkchain-QKC-miners-iPolloMiner-now-supports-Quark_Chain-Learn-more",
            "currencies": [
                {
                    "code": "QKC",
                    "title": "QuarkChain",
                    "slug": "quark-chain",
                    "url": "https:\/\/cryptopanic.com\/news\/quark-chain\/"
                }
            ],
            "id": 18564895,
            "url": "https:\/\/cryptopanic.com\/news\/18564895\/RT-QuarkChainFC-Great-news-from-Quarkchain-QKC-miners-iPolloMiner-now-supports-Quark_Chain-Learn-more",
            "created_at": "2023-06-12T14:44:44Z",
            "votes": {
                "negative": 0,
                "positive": 0,
                "important": 0,
                "liked": 0,
                "disliked": 0,
                "lol": 0,
                "toxic": 0,
                "saved": 0,
                "comments": 0
            }
        },
        {
            "kind": "news",
            "domain": "@Quark_Chain",
            "source": {
                "title": "QuarkChain Twitter",
                "region": "en",
                "domain": "twitter.com",
                "path": "@quark_chain"
            },
            "title": " QuarkChain Monthly Report Apr &amp; May \nCheck out the highlights of the past two months as we made strides in our j\u2026",
            "published_at": "2023-05-31T01:47:48Z",
            "slug": "QuarkChain-Monthly-Report-Apr-amp-May-Check-out-the-highlights-of-the-past-two-months-as-we-made-strides-in-our-j",
            "currencies": [
                {
                    "code": "QKC",
                    "title": "QuarkChain",
                    "slug": "quark-chain",
                    "url": "https:\/\/cryptopanic.com\/news\/quark-chain\/"
                }
            ],
            "id": 18469622,
            "url": "https:\/\/cryptopanic.com\/news\/18469622\/QuarkChain-Monthly-Report-Apr-amp-May-Check-out-the-highlights-of-the-past-two-months-as-we-made-strides-in-our-j",
            "created_at": "2023-05-31T01:47:48Z",
            "votes": {
                "negative": 0,
                "positive": 0,
                "important": 0,
                "liked": 0,
                "disliked": 0,
                "lol": 0,
                "toxic": 0,
                "saved": 0,
                "comments": 0
            }
        },
        {
            "kind": "news",
            "domain": "@Quark_Chain",
            "source": {
                "title": "QuarkChain Twitter",
                "region": "en",
                "domain": "twitter.com",
                "path": "@quark_chain"
            },
            "title": "Check #QKC Mining Tutorial @iPolloMiner \ufe0f",
            "published_at": "2023-05-15T02:27:51Z",
            "slug": "Check-QKC-Mining-Tutorial-iPolloMiner",
            "currencies": [
                {
                    "code": "QKC",
                    "title": "QuarkChain",
                    "slug": "quark-chain",
                    "url": "https:\/\/cryptopanic.com\/news\/quark-chain\/"
                }
            ],
            "id": 18343687,
            "url": "https:\/\/cryptopanic.com\/news\/18343687\/Check-QKC-Mining-Tutorial-iPolloMiner",
            "created_at": "2023-05-15T02:27:51Z",
            "votes": {
                "negative": 0,
                "positive": 0,
                "important": 0,
                "liked": 0,
                "disliked": 0,
                "lol": 0,
                "toxic": 0,
                "saved": 0,
                "comments": 0
            }
        },
        {
            "kind": "news",
            "domain": "@Quark_Chain",
            "source": {
                "title": "QuarkChain Twitter",
                "region": "en",
                "domain": "twitter.com",
                "path": "@quark_chain"
            },
            "title": "To celebrate and win free #QKC!",
            "published_at": "2023-04-27T05:28:07Z",
            "slug": "To-celebrate-and-win-free-QKC",
            "currencies": [
                {
                    "code": "QKC",
                    "title": "QuarkChain",
                    "slug": "quark-chain",
                    "url": "https:\/\/cryptopanic.com\/news\/quark-chain\/"
                }
            ],
            "id": 18207856,
            "url": "https:\/\/cryptopanic.com\/news\/18207856\/To-celebrate-and-win-free-QKC",
            "created_at": "2023-04-27T05:28:07Z",
            "votes": {
                "negative": 0,
                "positive": 0,
                "important": 0,
                "liked": 0,
                "disliked": 0,
                "lol": 0,
                "toxic": 0,
                "saved": 0,
                "comments": 0
            }
        },
        {
            "kind": "news",
            "domain": "@Quark_Chain",
            "source": {
                "title": "QuarkChain Twitter",
                "region": "en",
                "domain": "twitter.com",
                "path": "@quark_chain"
            },
            "title": "Excited to announce our strategic partnership with @iPolloMiner ",
            "published_at": "2023-04-27T05:25:53Z",
            "slug": "Excited-to-announce-our-strategic-partnership-with-iPolloMiner",
            "currencies": [
                {
                    "code": "QKC",
                    "title": "QuarkChain",
                    "slug": "quark-chain",
                    "url": "https:\/\/cryptopanic.com\/news\/quark-chain\/"
                }
            ],
            "id": 18207857,
            "url": "https:\/\/cryptopanic.com\/news\/18207857\/Excited-to-announce-our-strategic-partnership-with-iPolloMiner",
            "created_at": "2023-04-27T05:25:53Z",
            "votes": {
                "negative": 0,
                "positive": 0,
                "important": 0,
                "liked": 0,
                "disliked": 0,
                "lol": 0,
                "toxic": 0,
                "saved": 0,
                "comments": 0
            }
        },
        {
            "kind": "news",
            "domain": "@Quark_Chain",
            "source": {
                "title": "QuarkChain Twitter",
                "region": "en",
                "domain": "twitter.com",
                "path": "@quark_chain"
            },
            "title": "QuarkChain's Progress Report (March 2023)\n\n\u25b6\ufe0f ERC-4804, The 1st Web Protocol Standard for ETH proposed by QuarkChai\u2026",
            "published_at": "2023-04-01T10:27:57Z",
            "slug": "QuarkChains-Progress-Report-March-2023-ERC-4804-The-1st-Web-Protocol-Standard-for-ETH-proposed-by-QuarkChai",
            "currencies": [
                {
                    "code": "QKC",
                    "title": "QuarkChain",
                    "slug": "quark-chain",
                    "url": "https:\/\/cryptopanic.com\/news\/quark-chain\/"
                }
            ],
            "id": 18020538,
            "url": "https:\/\/cryptopanic.com\/news\/18020538\/QuarkChains-Progress-Report-March-2023-ERC-4804-The-1st-Web-Protocol-Standard-for-ETH-proposed-by-QuarkChai",
            "created_at": "2023-04-01T10:27:57Z",
            "votes": {
                "negative": 0,
                "positive": 0,
                "important": 0,
                "liked": 0,
                "disliked": 0,
                "lol": 0,
                "toxic": 0,
                "saved": 0,
                "comments": 0
            }
        },
        {
            "kind": "news",
            "domain": "@Quark_Chain",
            "source": {
                "title": "QuarkChain Twitter",
                "region": "en",
                "domain": "twitter.com",
                "path": "@quark_chain"
            },
            "title": "QuarkChain team (@Jamie_Jung_) gave a talk about QuarkChain and the web3 industry at @womeninweb3_kor's 2nd network\u2026",
            "published_at": "2023-03-27T16:10:16Z",
            "slug": "QuarkChain-team-Jamie_Jung_-gave-a-talk-about-QuarkChain-and-the-web3-industry-at-womeninweb3_kors-2nd-network",
            "currencies": [
                {
                    "code": "QKC",
                    "title": "QuarkChain",
                    "slug": "quark-chain",
                    "url": "https:\/\/cryptopanic.com\/news\/quark-chain\/"
                }
            ],
            "id": 17980590,
            "url": "https:\/\/cryptopanic.com\/news\/17980590\/QuarkChain-team-Jamie_Jung_-gave-a-talk-about-QuarkChain-and-the-web3-industry-at-womeninweb3_kors-2nd-network",
            "created_at": "2023-03-27T16:10:16Z",
            "votes": {
                "negative": 0,
                "positive": 0,
                "important": 0,
                "liked": 0,
                "disliked": 0,
                "lol": 0,
                "toxic": 0,
                "saved": 0,
                "comments": 0
            }
        },
        {
            "kind": "news",
            "domain": "@Quark_Chain",
            "source": {
                "title": "QuarkChain Twitter",
                "region": "en",
                "domain": "twitter.com",
                "path": "@quark_chain"
            },
            "title": "Qkc\/usdt trading pair has been added in @binance ",
            "published_at": "2023-03-16T03:43:24Z",
            "slug": "Qkcusdt-trading-pair-has-been-added-in-binance",
            "currencies": [
                {
                    "code": "QKC",
                    "title": "QuarkChain",
                    "slug": "quark-chain",
                    "url": "https:\/\/cryptopanic.com\/news\/quark-chain\/"
                }
            ],
            "id": 17892393,
            "url": "https:\/\/cryptopanic.com\/news\/17892393\/Qkcusdt-trading-pair-has-been-added-in-binance",
            "created_at": "2023-03-16T03:43:24Z",
            "votes": {
                "negative": 0,
                "positive": 0,
                "important": 0,
                "liked": 0,
                "disliked": 0,
                "lol": 0,
                "toxic": 0,
                "saved": 0,
                "comments": 0
            }
        },
        {
            "kind": "news",
            "domain": "@Quark_Chain",
            "source": {
                "title": "QuarkChain Twitter",
                "region": "en",
                "domain": "twitter.com",
                "path": "@quark_chain"
            },
            "title": "QuarkChain's Progress Report (Jan &amp; Feb, 2023)\n\n# Qi Zhou contributed as the co-author of EIP6150 \n# QuarkChain bec\u2026",
            "published_at": "2023-03-05T14:33:39Z",
            "slug": "QuarkChains-Progress-Report-Jan-amp-Feb-2023-Qi-Zhou-contributed-as-the-co-author-of-EIP6150-QuarkChain-bec",
            "currencies": [
                {
                    "code": "QKC",
                    "title": "QuarkChain",
                    "slug": "quark-chain",
                    "url": "https:\/\/cryptopanic.com\/news\/quark-chain\/"
                }
            ],
            "id": 17803545,
            "url": "https:\/\/cryptopanic.com\/news\/17803545\/QuarkChains-Progress-Report-Jan-amp-Feb-2023-Qi-Zhou-contributed-as-the-co-author-of-EIP6150-QuarkChain-bec",
            "created_at": "2023-03-05T14:33:39Z",
            "votes": {
                "negative": 0,
                "positive": 0,
                "important": 0,
                "liked": 0,
                "disliked": 0,
                "lol": 0,
                "toxic": 0,
                "saved": 0,
                "comments": 0
            }
        },
        {
            "kind": "news",
            "domain": "@Quark_Chain",
            "source": {
                "title": "QuarkChain Twitter",
                "region": "en",
                "domain": "twitter.com",
                "path": "@quark_chain"
            },
            "title": ".@Quark_Chain became a partner of @womeninweb3_kor (WiW3K). If you plan to touch Korea market sometime, follow the\u2026",
            "published_at": "2023-03-03T15:49:06Z",
            "slug": "Quark_Chain-became-a-partner-of-womeninweb3_kor-WiW3K-If-you-plan-to-touch-Korea-market-sometime-follow-the",
            "currencies": [
                {
                    "code": "QKC",
                    "title": "QuarkChain",
                    "slug": "quark-chain",
                    "url": "https:\/\/cryptopanic.com\/news\/quark-chain\/"
                }
            ],
            "id": 17791770,
            "url": "https:\/\/cryptopanic.com\/news\/17791770\/Quark_Chain-became-a-partner-of-womeninweb3_kor-WiW3K-If-you-plan-to-touch-Korea-market-sometime-follow-the",
            "created_at": "2023-03-03T15:49:06Z",
            "votes": {
                "negative": 0,
                "positive": 0,
                "important": 0,
                "liked": 0,
                "disliked": 0,
                "lol": 0,
                "toxic": 0,
                "saved": 0,
                "comments": 0
            }
        },
        {
            "kind": "news",
            "domain": "@Quark_Chain",
            "source": {
                "title": "QuarkChain Twitter",
                "region": "en",
                "domain": "twitter.com",
                "path": "@quark_chain"
            },
            "title": "QuarkChain Founder @qc_qizhou will attend Web3.0 Summit in Bay Area on Saturday, Jan 28th. \n\nMore info:\u2026",
            "published_at": "2023-01-28T02:17:24Z",
            "slug": "QuarkChain-Founder-qc_qizhou-will-attend-Web30-Summit-in-Bay-Area-on-Saturday-Jan-28th-More-info",
            "currencies": [
                {
                    "code": "QKC",
                    "title": "QuarkChain",
                    "slug": "quark-chain",
                    "url": "https:\/\/cryptopanic.com\/news\/quark-chain\/"
                }
            ],
            "id": 17492983,
            "url": "https:\/\/cryptopanic.com\/news\/17492983\/QuarkChain-Founder-qc_qizhou-will-attend-Web30-Summit-in-Bay-Area-on-Saturday-Jan-28th-More-info",
            "created_at": "2023-01-28T02:17:24Z",
            "votes": {
                "negative": 0,
                "positive": 0,
                "important": 0,
                "liked": 0,
                "disliked": 0,
                "lol": 0,
                "toxic": 0,
                "saved": 0,
                "comments": 0
            }
        },
        {
            "kind": "news",
            "domain": "@Quark_Chain",
            "source": {
                "title": "QuarkChain Twitter",
                "region": "en",
                "domain": "twitter.com",
                "path": "@quark_chain"
            },
            "title": ".@qc_qizhou, the founder of QuarkChain, is the co-author of EIP6150 which is getting much attention! Find out more\u2026",
            "published_at": "2023-01-19T22:35:27Z",
            "slug": "qc_qizhou-the-founder-of-QuarkChain-is-the-co-author-of-EIP6150-which-is-getting-much-attention-Find-out-more",
            "currencies": [
                {
                    "code": "QKC",
                    "title": "QuarkChain",
                    "slug": "quark-chain",
                    "url": "https:\/\/cryptopanic.com\/news\/quark-chain\/"
                }
            ],
            "id": 17428391,
            "url": "https:\/\/cryptopanic.com\/news\/17428391\/qc_qizhou-the-founder-of-QuarkChain-is-the-co-author-of-EIP6150-which-is-getting-much-attention-Find-out-more",
            "created_at": "2023-01-19T22:35:27Z",
            "votes": {
                "negative": 0,
                "positive": 0,
                "important": 0,
                "liked": 0,
                "disliked": 0,
                "lol": 0,
                "toxic": 0,
                "saved": 0,
                "comments": 0
            }
        },
        {
            "kind": "news",
            "domain": "@Quark_Chain",
            "source": {
                "title": "QuarkChain Twitter",
                "region": "en",
                "domain": "twitter.com",
                "path": "@quark_chain"
            },
            "title": "Happy New Year!",
            "published_at": "2023-01-01T08:01:51Z",
            "slug": "Happy-New-Year",
            "currencies": [
                {
                    "code": "QKC",
                    "title": "QuarkChain",
                    "slug": "quark-chain",
                    "url": "https:\/\/cryptopanic.com\/news\/quark-chain\/"
                }
            ],
            "id": 17281156,
            "url": "https:\/\/cryptopanic.com\/news\/17281156\/Happy-New-Year",
            "created_at": "2023-01-01T08:01:51Z",
            "votes": {
                "negative": 0,
                "positive": 0,
                "important": 0,
                "liked": 0,
                "disliked": 0,
                "lol": 0,
                "toxic": 0,
                "saved": 0,
                "comments": 0
            }
        },
        {
            "kind": "news",
            "domain": "@Quark_Chain",
            "source": {
                "title": "QuarkChain Twitter",
                "region": "en",
                "domain": "twitter.com",
                "path": "@quark_chain"
            },
            "title": "As 2022 comes to an end, it's important to reflect on this year's progress. We've gathered important ecosystem, dev\u2026",
            "published_at": "2022-12-31T03:23:19Z",
            "slug": "As-2022-comes-to-an-end-its-important-to-reflect-on-this-years-progress-Weve-gathered-important-ecosystem-dev",
            "currencies": [
                {
                    "code": "QKC",
                    "title": "QuarkChain",
                    "slug": "quark-chain",
                    "url": "https:\/\/cryptopanic.com\/news\/quark-chain\/"
                }
            ],
            "id": 17275131,
            "url": "https:\/\/cryptopanic.com\/news\/17275131\/As-2022-comes-to-an-end-its-important-to-reflect-on-this-years-progress-Weve-gathered-important-ecosystem-dev",
            "created_at": "2022-12-31T03:23:19Z",
            "votes": {
                "negative": 0,
                "positive": 0,
                "important": 0,
                "liked": 0,
                "disliked": 0,
                "lol": 0,
                "toxic": 0,
                "saved": 0,
                "comments": 0
            }
        },
        {
            "kind": "news",
            "domain": "@Quark_Chain",
            "source": {
                "title": "QuarkChain Twitter",
                "region": "en",
                "domain": "twitter.com",
                "path": "@quark_chain"
            },
            "title": "QuarkChain's December Report \n\n# @binance added QKC to its token-to-fiat listings. Users can purchase QKC using cr\u2026",
            "published_at": "2022-12-28T02:40:56Z",
            "slug": "QuarkChains-December-Report-binance-added-QKC-to-its-token-to-fiat-listings-Users-can-purchase-QKC-using-cr",
            "currencies": [
                {
                    "code": "QKC",
                    "title": "QuarkChain",
                    "slug": "quark-chain",
                    "url": "https:\/\/cryptopanic.com\/news\/quark-chain\/"
                }
            ],
            "id": 17253727,
            "url": "https:\/\/cryptopanic.com\/news\/17253727\/QuarkChains-December-Report-binance-added-QKC-to-its-token-to-fiat-listings-Users-can-purchase-QKC-using-cr",
            "created_at": "2022-12-28T02:40:56Z",
            "votes": {
                "negative": 0,
                "positive": 0,
                "important": 0,
                "liked": 0,
                "disliked": 0,
                "lol": 0,
                "toxic": 0,
                "saved": 0,
                "comments": 0
            }
        },
        {
            "kind": "news",
            "domain": "@Quark_Chain",
            "source": {
                "title": "QuarkChain Twitter",
                "region": "en",
                "domain": "twitter.com",
                "path": "@quark_chain"
            },
            "title": "Happy Holidays from us to you!\n\nLike, retweet, and share an image of how you are celebrating the holidays using\u2026",
            "published_at": "2022-12-25T10:39:25Z",
            "slug": "Happy-Holidays-from-us-to-you-Like-retweet-and-share-an-image-of-how-you-are-celebrating-the-holidays-using",
            "currencies": [
                {
                    "code": "QKC",
                    "title": "QuarkChain",
                    "slug": "quark-chain",
                    "url": "https:\/\/cryptopanic.com\/news\/quark-chain\/"
                }
            ],
            "id": 17241218,
            "url": "https:\/\/cryptopanic.com\/news\/17241218\/Happy-Holidays-from-us-to-you-Like-retweet-and-share-an-image-of-how-you-are-celebrating-the-holidays-using",
            "created_at": "2022-12-25T10:39:25Z",
            "votes": {
                "negative": 0,
                "positive": 0,
                "important": 0,
                "liked": 0,
                "disliked": 0,
                "lol": 0,
                "toxic": 0,
                "saved": 0,
                "comments": 0
            }
        },
        {
            "kind": "news",
            "domain": "@Quark_Chain",
            "source": {
                "title": "QuarkChain Twitter",
                "region": "en",
                "domain": "twitter.com",
                "path": "@quark_chain"
            },
            "title": "RT @qc_qizhou: @Quark_Chain x web3:\/\/ powered by @EthStorage is available at !\n\nYou can now browse web content on Qu\u2026",
            "published_at": "2022-12-08T15:32:26Z",
            "slug": "RT-qc_qizhou-Quark_Chain-x-web3-powered-by-EthStorage-is-available-at-You-can-now-browse-web-content-on-Qu",
            "currencies": [
                {
                    "code": "QKC",
                    "title": "QuarkChain",
                    "slug": "quark-chain",
                    "url": "https:\/\/cryptopanic.com\/news\/quark-chain\/"
                }
            ],
            "id": 17109722,
            "url": "https:\/\/cryptopanic.com\/news\/17109722\/RT-qc_qizhou-Quark_Chain-x-web3-powered-by-EthStorage-is-available-at-You-can-now-browse-web-content-on-Qu",
            "created_at": "2022-12-08T15:32:26Z",
            "votes": {
                "negative": 0,
                "positive": 0,
                "important": 0,
                "liked": 0,
                "disliked": 0,
                "lol": 0,
                "toxic": 0,
                "saved": 0,
                "comments": 0
            }
        },
        {
            "kind": "news",
            "domain": "@Quark_Chain",
            "source": {
                "title": "QuarkChain Twitter",
                "region": "en",
                "domain": "twitter.com",
                "path": "@quark_chain"
            },
            "title": "QuarkChain x web3:\/\/, powered by \n@EthStorage is available at !! \n\nYou can now browse web co\u2026",
            "published_at": "2022-12-08T08:42:51Z",
            "slug": "QuarkChain-x-web3-powered-by-EthStorage-is-available-at-You-can-now-browse-web-co",
            "currencies": [
                {
                    "code": "QKC",
                    "title": "QuarkChain",
                    "slug": "quark-chain",
                    "url": "https:\/\/cryptopanic.com\/news\/quark-chain\/"
                }
            ],
            "id": 17100540,
            "url": "https:\/\/cryptopanic.com\/news\/17100540\/QuarkChain-x-web3-powered-by-EthStorage-is-available-at-You-can-now-browse-web-co",
            "created_at": "2022-12-08T08:42:51Z",
            "votes": {
                "negative": 0,
                "positive": 0,
                "important": 0,
                "liked": 0,
                "disliked": 0,
                "lol": 0,
                "toxic": 0,
                "saved": 0,
                "comments": 0
            }
        },
        {
            "kind": "news",
            "domain": "@Quark_Chain",
            "source": {
                "title": "QuarkChain Twitter",
                "region": "en",
                "domain": "twitter.com",
                "path": "@quark_chain"
            },
            "title": "Users can now purchase $QKC with major fiat currencies using credit card and debit cards. #binance #QuarkChain #QKC",
            "published_at": "2022-12-05T04:04:15Z",
            "slug": "Users-can-now-purchase-QKC-with-major-fiat-currencies-using-credit-card-and-debit-cards-binance-QuarkChain-QKC",
            "currencies": [
                {
                    "code": "QKC",
                    "title": "QuarkChain",
                    "slug": "quark-chain",
                    "url": "https:\/\/cryptopanic.com\/news\/quark-chain\/"
                }
            ],
            "id": 17072286,
            "url": "https:\/\/cryptopanic.com\/news\/17072286\/Users-can-now-purchase-QKC-with-major-fiat-currencies-using-credit-card-and-debit-cards-binance-QuarkChain-QKC",
            "created_at": "2022-12-05T04:04:15Z",
            "votes": {
                "negative": 0,
                "positive": 0,
                "important": 0,
                "liked": 0,
                "disliked": 0,
                "lol": 0,
                "toxic": 0,
                "saved": 0,
                "comments": 0
            }
        },
        {
            "kind": "news",
            "domain": "@Quark_Chain",
            "source": {
                "title": "QuarkChain Twitter",
                "region": "en",
                "domain": "twitter.com",
                "path": "@quark_chain"
            },
            "title": "QuarkChain's Monthly Report: November 2022\n# Received grant from @EF_ESP (EF Ecosystem Support Program)\n#\u2026",
            "published_at": "2022-12-04T04:56:14Z",
            "slug": "QuarkChains-Monthly-Report-November-2022-Received-grant-from-EF_ESP-EF-Ecosystem-Support-Program",
            "currencies": [
                {
                    "code": "QKC",
                    "title": "QuarkChain",
                    "slug": "quark-chain",
                    "url": "https:\/\/cryptopanic.com\/news\/quark-chain\/"
                }
            ],
            "id": 17066663,
            "url": "https:\/\/cryptopanic.com\/news\/17066663\/QuarkChains-Monthly-Report-November-2022-Received-grant-from-EF_ESP-EF-Ecosystem-Support-Program",
            "created_at": "2022-12-04T04:56:14Z",
            "votes": {
                "negative": 0,
                "positive": 0,
                "important": 0,
                "liked": 0,
                "disliked": 0,
                "lol": 0,
                "toxic": 0,
                "saved": 0,
                "comments": 0
            }
        }
    ]
}
