{
    "count": 200,
    "next": "https:\/\/cryptopanic.com\/api\/v1\/posts\/?auth_token=01c356e89ffc1b8eba2127c81fc8c66ee0eace75&kind=news&currencies=YFII&page=2",
    "previous": null,
    "results": [
        {
            "kind": "news",
            "domain": "@DfiMoney",
            "source": {
                "title": "DFI.money Twitter",
                "region": "en",
                "domain": "twitter.com",
                "path": "@dfimoney"
            },
            "title": "Meme TuesdayONBD \n\nONBD SuperRare Space\uff1a\nThe Burnout Society\n\nLive video on Jun.14st",
            "published_at": "2022-06-16T03:50:01Z",
            "slug": "Meme-TuesdayONBD-ONBD-SuperRare-Space-The-Burnout-Society-Live-video-on-Jun14st",
            "currencies": [
                {
                    "code": "YFII",
                    "title": "DFI.money",
                    "slug": "yfii-finance",
                    "url": "https:\/\/cryptopanic.com\/news\/yfii-finance\/"
                }
            ],
            "id": 15510917,
            "url": "https:\/\/cryptopanic.com\/news\/15510917\/Meme-TuesdayONBD-ONBD-SuperRare-Space-The-Burnout-Society-Live-video-on-Jun14st",
            "created_at": "2022-06-16T03:50:01Z",
            "votes": {
                "negative": 0,
                "positive": 0,
                "important": 0,
                "liked": 0,
                "disliked": 0,
                "lol": 0,
                "toxic": 0,
                "saved": 0,
                "comments": 0
            }
        },
        {
            "kind": "news",
            "domain": "@DfiMoney",
            "source": {
                "title": "DFI.money Twitter",
                "region": "en",
                "domain": "twitter.com",
                "path": "@dfimoney"
            },
            "title": "Meme TuesdayONBD \n\nONBD\u7684SuperRare Space\uff1a\nThe Burnout Society\n\nTime: 9:00 pm Jun.14st(UTC+8)\n\nBilibili \uff1a\u2026",
            "published_at": "2022-06-14T11:50:02Z",
            "slug": "Meme-TuesdayONBD-ONBDSuperRare-Space-The-Burnout-Society-Time-900-pm-Jun14stUTC8-Bilibili",
            "currencies": [
                {
                    "code": "YFII",
                    "title": "DFI.money",
                    "slug": "yfii-finance",
                    "url": "https:\/\/cryptopanic.com\/news\/yfii-finance\/"
                }
            ],
            "id": 15499664,
            "url": "https:\/\/cryptopanic.com\/news\/15499664\/Meme-TuesdayONBD-ONBDSuperRare-Space-The-Burnout-Society-Time-900-pm-Jun14stUTC8-Bilibili",
            "created_at": "2022-06-14T11:50:02Z",
            "votes": {
                "negative": 0,
                "positive": 0,
                "important": 0,
                "liked": 0,
                "disliked": 0,
                "lol": 0,
                "toxic": 0,
                "saved": 0,
                "comments": 0
            }
        },
        {
            "kind": "news",
            "domain": "@DfiMoney",
            "source": {
                "title": "DFI.money Twitter",
                "region": "en",
                "domain": "twitter.com",
                "path": "@dfimoney"
            },
            "title": "Metaverse Data Analysis\n\nTime: 8:00 pm Jun.12st(UTC+8)\n\nVooV Meeting\uff1a\n\nBilibili \uff1a\u2026",
            "published_at": "2022-06-12T08:27:25Z",
            "slug": "Metaverse-Data-Analysis-Time-800-pm-Jun12stUTC8-VooV-Meeting-Bilibili",
            "currencies": [
                {
                    "code": "YFII",
                    "title": "DFI.money",
                    "slug": "yfii-finance",
                    "url": "https:\/\/cryptopanic.com\/news\/yfii-finance\/"
                }
            ],
            "id": 15480560,
            "url": "https:\/\/cryptopanic.com\/news\/15480560\/Metaverse-Data-Analysis-Time-800-pm-Jun12stUTC8-VooV-Meeting-Bilibili",
            "created_at": "2022-06-12T08:27:25Z",
            "votes": {
                "negative": 0,
                "positive": 0,
                "important": 0,
                "liked": 0,
                "disliked": 0,
                "lol": 0,
                "toxic": 0,
                "saved": 0,
                "comments": 0
            }
        },
        {
            "kind": "news",
            "domain": "@DfiMoney",
            "source": {
                "title": "DFI.money Twitter",
                "region": "en",
                "domain": "twitter.com",
                "path": "@dfimoney"
            },
            "title": "MEME TUESDAY\n\nCelestial Burial \uff0cat Art Basel\n\nLive video on Jun.9st",
            "published_at": "2022-06-11T07:33:46Z",
            "slug": "MEME-TUESDAY-Celestial-Burial-at-Art-Basel-Live-video-on-Jun9st",
            "currencies": [
                {
                    "code": "YFII",
                    "title": "DFI.money",
                    "slug": "yfii-finance",
                    "url": "https:\/\/cryptopanic.com\/news\/yfii-finance\/"
                }
            ],
            "id": 15473840,
            "url": "https:\/\/cryptopanic.com\/news\/15473840\/MEME-TUESDAY-Celestial-Burial-at-Art-Basel-Live-video-on-Jun9st",
            "created_at": "2022-06-11T07:33:46Z",
            "votes": {
                "negative": 0,
                "positive": 0,
                "important": 0,
                "liked": 0,
                "disliked": 0,
                "lol": 0,
                "toxic": 0,
                "saved": 0,
                "comments": 0
            }
        },
        {
            "kind": "news",
            "domain": "@DfiMoney",
            "source": {
                "title": "DFI.money Twitter",
                "region": "en",
                "domain": "twitter.com",
                "path": "@dfimoney"
            },
            "title": "MEME TUESDAY\n\nCelestial Burial \uff0cat Art Basel\n\nTime: 9:00 pm Jun.9st(UTC+8)\n\nBilibili \uff1a",
            "published_at": "2022-06-09T11:02:17Z",
            "slug": "MEME-TUESDAY-Celestial-Burial-at-Art-Basel-Time-900-pm-Jun9stUTC8-Bilibili",
            "currencies": [
                {
                    "code": "YFII",
                    "title": "DFI.money",
                    "slug": "yfii-finance",
                    "url": "https:\/\/cryptopanic.com\/news\/yfii-finance\/"
                }
            ],
            "id": 15455356,
            "url": "https:\/\/cryptopanic.com\/news\/15455356\/MEME-TUESDAY-Celestial-Burial-at-Art-Basel-Time-900-pm-Jun9stUTC8-Bilibili",
            "created_at": "2022-06-09T11:02:17Z",
            "votes": {
                "negative": 0,
                "positive": 0,
                "important": 0,
                "liked": 0,
                "disliked": 0,
                "lol": 0,
                "toxic": 0,
                "saved": 0,
                "comments": 0
            }
        },
        {
            "kind": "news",
            "domain": "@DfiMoney",
            "source": {
                "title": "DFI.money Twitter",
                "region": "en",
                "domain": "twitter.com",
                "path": "@dfimoney"
            },
            "title": "MEME TUESDAY\n\nArt Basel HK and NFT\n\nLive video on Jun.1st",
            "published_at": "2022-06-03T12:16:44Z",
            "slug": "MEME-TUESDAY-Art-Basel-HK-and-NFT-Live-video-on-Jun1st",
            "currencies": [
                {
                    "code": "YFII",
                    "title": "DFI.money",
                    "slug": "yfii-finance",
                    "url": "https:\/\/cryptopanic.com\/news\/yfii-finance\/"
                }
            ],
            "id": 15400855,
            "url": "https:\/\/cryptopanic.com\/news\/15400855\/MEME-TUESDAY-Art-Basel-HK-and-NFT-Live-video-on-Jun1st",
            "created_at": "2022-06-03T12:16:44Z",
            "votes": {
                "negative": 0,
                "positive": 0,
                "important": 0,
                "liked": 0,
                "disliked": 0,
                "lol": 0,
                "toxic": 0,
                "saved": 0,
                "comments": 0
            }
        },
        {
            "kind": "news",
            "domain": "@DfiMoney",
            "source": {
                "title": "DFI.money Twitter",
                "region": "en",
                "domain": "twitter.com",
                "path": "@dfimoney"
            },
            "title": "MEME TUESDAY\n\nArt Basel HK and NFT\n\nTime: 9:00 pm Jun.1st(UTC+8)\n\nBilibili \uff1a\n\n@CaoArmand\u2026",
            "published_at": "2022-06-01T08:04:39Z",
            "slug": "MEME-TUESDAY-Art-Basel-HK-and-NFT-Time-900-pm-Jun1stUTC8-Bilibili-CaoArmand",
            "currencies": [
                {
                    "code": "YFII",
                    "title": "DFI.money",
                    "slug": "yfii-finance",
                    "url": "https:\/\/cryptopanic.com\/news\/yfii-finance\/"
                }
            ],
            "id": 15380059,
            "url": "https:\/\/cryptopanic.com\/news\/15380059\/MEME-TUESDAY-Art-Basel-HK-and-NFT-Time-900-pm-Jun1stUTC8-Bilibili-CaoArmand",
            "created_at": "2022-06-01T08:04:39Z",
            "votes": {
                "negative": 0,
                "positive": 0,
                "important": 0,
                "liked": 0,
                "disliked": 0,
                "lol": 0,
                "toxic": 0,
                "saved": 0,
                "comments": 0
            }
        },
        {
            "kind": "news",
            "domain": "@DfiMoney",
            "source": {
                "title": "DFI.money Twitter",
                "region": "en",
                "domain": "twitter.com",
                "path": "@dfimoney"
            },
            "title": "It's a fake account\nDon't trust him",
            "published_at": "2022-05-28T04:46:40Z",
            "slug": "Its-a-fake-account-Dont-trust-him",
            "currencies": [
                {
                    "code": "YFII",
                    "title": "DFI.money",
                    "slug": "yfii-finance",
                    "url": "https:\/\/cryptopanic.com\/news\/yfii-finance\/"
                }
            ],
            "id": 15337639,
            "url": "https:\/\/cryptopanic.com\/news\/15337639\/Its-a-fake-account-Dont-trust-him",
            "created_at": "2022-05-28T04:46:40Z",
            "votes": {
                "negative": 0,
                "positive": 0,
                "important": 0,
                "liked": 0,
                "disliked": 0,
                "lol": 0,
                "toxic": 0,
                "saved": 0,
                "comments": 0
            }
        },
        {
            "kind": "news",
            "domain": "@DfiMoney",
            "source": {
                "title": "DFI.money Twitter",
                "region": "en",
                "domain": "twitter.com",
                "path": "@dfimoney"
            },
            "title": "MEME TUESDAY\n\nAnnual Metaverse Art Exhibition\uff1aOne Ton Project - ALL REALMS CIVILIZATION\n\nTime: 9:00 pm May.26st(UTC\u2026",
            "published_at": "2022-05-26T10:54:57Z",
            "slug": "MEME-TUESDAY-Annual-Metaverse-Art-ExhibitionOne-Ton-Project-ALL-REALMS-CIVILIZATION-Time-900-pm-May26stUTC",
            "currencies": [
                {
                    "code": "YFII",
                    "title": "DFI.money",
                    "slug": "yfii-finance",
                    "url": "https:\/\/cryptopanic.com\/news\/yfii-finance\/"
                }
            ],
            "id": 15327318,
            "url": "https:\/\/cryptopanic.com\/news\/15327318\/MEME-TUESDAY-Annual-Metaverse-Art-ExhibitionOne-Ton-Project-ALL-REALMS-CIVILIZATION-Time-900-pm-May26stUTC",
            "created_at": "2022-05-26T10:54:57Z",
            "votes": {
                "negative": 0,
                "positive": 0,
                "important": 0,
                "liked": 0,
                "disliked": 0,
                "lol": 0,
                "toxic": 0,
                "saved": 0,
                "comments": 0
            }
        },
        {
            "kind": "news",
            "domain": "@DfiMoney",
            "source": {
                "title": "DFI.money Twitter",
                "region": "en",
                "domain": "twitter.com",
                "path": "@dfimoney"
            },
            "title": "Official Message from YFII Core Developer posted on Chinese Weibo and YFII Official Wechat Group (translated from C\u2026",
            "published_at": "2022-05-26T01:34:55Z",
            "slug": "Official-Message-from-YFII-Core-Developer-posted-on-Chinese-Weibo-and-YFII-Official-Wechat-Group-translated-from-C",
            "currencies": [
                {
                    "code": "YFII",
                    "title": "DFI.money",
                    "slug": "yfii-finance",
                    "url": "https:\/\/cryptopanic.com\/news\/yfii-finance\/"
                }
            ],
            "id": 15316489,
            "url": "https:\/\/cryptopanic.com\/news\/15316489\/Official-Message-from-YFII-Core-Developer-posted-on-Chinese-Weibo-and-YFII-Official-Wechat-Group-translated-from-C",
            "created_at": "2022-05-26T01:34:55Z",
            "votes": {
                "negative": 0,
                "positive": 0,
                "important": 0,
                "liked": 0,
                "disliked": 0,
                "lol": 0,
                "toxic": 0,
                "saved": 0,
                "comments": 0
            }
        },
        {
            "kind": "news",
            "domain": "@DfiMoney",
            "source": {
                "title": "DFI.money Twitter",
                "region": "en",
                "domain": "twitter.com",
                "path": "@dfimoney"
            },
            "title": "MEME TUESDAY\n\nCai Guo-Qiang\u2019s Daytime Fireworks\uff1aBlossom Surprise\n\nLive video on May.17st",
            "published_at": "2022-05-21T01:22:46Z",
            "slug": "MEME-TUESDAY-Cai-Guo-Qiangs-Daytime-FireworksBlossom-Surprise-Live-video-on-May17st",
            "currencies": [
                {
                    "code": "YFII",
                    "title": "DFI.money",
                    "slug": "yfii-finance",
                    "url": "https:\/\/cryptopanic.com\/news\/yfii-finance\/"
                }
            ],
            "id": 15271472,
            "url": "https:\/\/cryptopanic.com\/news\/15271472\/MEME-TUESDAY-Cai-Guo-Qiangs-Daytime-FireworksBlossom-Surprise-Live-video-on-May17st",
            "created_at": "2022-05-21T01:22:46Z",
            "votes": {
                "negative": 0,
                "positive": 0,
                "important": 0,
                "liked": 0,
                "disliked": 0,
                "lol": 0,
                "toxic": 0,
                "saved": 0,
                "comments": 0
            }
        },
        {
            "kind": "news",
            "domain": "@DfiMoney",
            "source": {
                "title": "DFI.money Twitter",
                "region": "en",
                "domain": "twitter.com",
                "path": "@dfimoney"
            },
            "title": "MEME TUESDAY\n\nCai Guo-Qiang\u2019s Daytime Fireworks\uff1aBlossom Surprise\n\nTime: 9:00 pm May.17st(UTC+8)\n\nBilibili \uff1a\u2026",
            "published_at": "2022-05-17T07:35:06Z",
            "slug": "MEME-TUESDAY-Cai-Guo-Qiangs-Daytime-FireworksBlossom-Surprise-Time-900-pm-May17stUTC8-Bilibili",
            "currencies": [
                {
                    "code": "YFII",
                    "title": "DFI.money",
                    "slug": "yfii-finance",
                    "url": "https:\/\/cryptopanic.com\/news\/yfii-finance\/"
                }
            ],
            "id": 15239258,
            "url": "https:\/\/cryptopanic.com\/news\/15239258\/MEME-TUESDAY-Cai-Guo-Qiangs-Daytime-FireworksBlossom-Surprise-Time-900-pm-May17stUTC8-Bilibili",
            "created_at": "2022-05-17T07:35:06Z",
            "votes": {
                "negative": 0,
                "positive": 0,
                "important": 0,
                "liked": 0,
                "disliked": 0,
                "lol": 0,
                "toxic": 0,
                "saved": 0,
                "comments": 0
            }
        },
        {
            "kind": "news",
            "domain": "@DfiMoney",
            "source": {
                "title": "DFI.money Twitter",
                "region": "en",
                "domain": "twitter.com",
                "path": "@dfimoney"
            },
            "title": "MEME TUESDAY\n\nCosmoChamber!Annual Metaverse Art Exhibition\n\nLive video on May.10st",
            "published_at": "2022-05-12T08:20:19Z",
            "slug": "MEME-TUESDAY-CosmoChamberAnnual-Metaverse-Art-Exhibition-Live-video-on-May10st",
            "currencies": [
                {
                    "code": "YFII",
                    "title": "DFI.money",
                    "slug": "yfii-finance",
                    "url": "https:\/\/cryptopanic.com\/news\/yfii-finance\/"
                }
            ],
            "id": 15194331,
            "url": "https:\/\/cryptopanic.com\/news\/15194331\/MEME-TUESDAY-CosmoChamberAnnual-Metaverse-Art-Exhibition-Live-video-on-May10st",
            "created_at": "2022-05-12T08:20:19Z",
            "votes": {
                "negative": 0,
                "positive": 0,
                "important": 0,
                "liked": 0,
                "disliked": 0,
                "lol": 0,
                "toxic": 0,
                "saved": 0,
                "comments": 0
            }
        },
        {
            "kind": "news",
            "domain": "@DfiMoney",
            "source": {
                "title": "DFI.money Twitter",
                "region": "en",
                "domain": "twitter.com",
                "path": "@dfimoney"
            },
            "title": "MEME TUESDAY\n\nCosmoChamber!Annual Metaverse Art Exhibition\n\nTime: 9:00 pm May.10st(UTC+8)\n\nBilibili \uff1a\u2026",
            "published_at": "2022-05-10T10:11:27Z",
            "slug": "MEME-TUESDAY-CosmoChamberAnnual-Metaverse-Art-Exhibition-Time-900-pm-May10stUTC8-Bilibili",
            "currencies": [
                {
                    "code": "YFII",
                    "title": "DFI.money",
                    "slug": "yfii-finance",
                    "url": "https:\/\/cryptopanic.com\/news\/yfii-finance\/"
                }
            ],
            "id": 15171112,
            "url": "https:\/\/cryptopanic.com\/news\/15171112\/MEME-TUESDAY-CosmoChamberAnnual-Metaverse-Art-Exhibition-Time-900-pm-May10stUTC8-Bilibili",
            "created_at": "2022-05-10T10:11:27Z",
            "votes": {
                "negative": 0,
                "positive": 0,
                "important": 0,
                "liked": 0,
                "disliked": 0,
                "lol": 0,
                "toxic": 0,
                "saved": 0,
                "comments": 0
            }
        },
        {
            "kind": "news",
            "domain": "@DfiMoney",
            "source": {
                "title": "DFI.money Twitter",
                "region": "en",
                "domain": "twitter.com",
                "path": "@dfimoney"
            },
            "title": "MEME TUESDAY\n\nGenki! Annual Metaverse Art Exhibition\n\nLive video on May.3st",
            "published_at": "2022-05-05T14:08:55Z",
            "slug": "MEME-TUESDAY-Genki-Annual-Metaverse-Art-Exhibition-Live-video-on-May3st",
            "currencies": [
                {
                    "code": "YFII",
                    "title": "DFI.money",
                    "slug": "yfii-finance",
                    "url": "https:\/\/cryptopanic.com\/news\/yfii-finance\/"
                }
            ],
            "id": 15124791,
            "url": "https:\/\/cryptopanic.com\/news\/15124791\/MEME-TUESDAY-Genki-Annual-Metaverse-Art-Exhibition-Live-video-on-May3st",
            "created_at": "2022-05-05T14:08:55Z",
            "votes": {
                "negative": 0,
                "positive": 0,
                "important": 0,
                "liked": 0,
                "disliked": 0,
                "lol": 0,
                "toxic": 0,
                "saved": 0,
                "comments": 0
            }
        },
        {
            "kind": "news",
            "domain": "@DfiMoney",
            "source": {
                "title": "DFI.money Twitter",
                "region": "en",
                "domain": "twitter.com",
                "path": "@dfimoney"
            },
            "title": "MEME TUESDAY\n\nGenki! Annual Metaverse Art Exhibition\n\nTime: 9:00 pm May.3st(UTC+8)\n\nBilibili \uff1a\u2026",
            "published_at": "2022-05-03T11:50:10Z",
            "slug": "MEME-TUESDAY-Genki-Annual-Metaverse-Art-Exhibition-Time-900-pm-May3stUTC8-Bilibili",
            "currencies": [
                {
                    "code": "YFII",
                    "title": "DFI.money",
                    "slug": "yfii-finance",
                    "url": "https:\/\/cryptopanic.com\/news\/yfii-finance\/"
                }
            ],
            "id": 15102142,
            "url": "https:\/\/cryptopanic.com\/news\/15102142\/MEME-TUESDAY-Genki-Annual-Metaverse-Art-Exhibition-Time-900-pm-May3stUTC8-Bilibili",
            "created_at": "2022-05-03T11:50:10Z",
            "votes": {
                "negative": 0,
                "positive": 0,
                "important": 0,
                "liked": 0,
                "disliked": 0,
                "lol": 0,
                "toxic": 0,
                "saved": 0,
                "comments": 0
            }
        },
        {
            "kind": "news",
            "domain": "@DfiMoney",
            "source": {
                "title": "DFI.money Twitter",
                "region": "en",
                "domain": "twitter.com",
                "path": "@dfimoney"
            },
            "title": "MEME TUESDAY\n\nThe Web3.0 Ecology in Europe's Post-Pandemic Era\n\nTime: 9:00 pm Apr.27st(UTC+8)\n\nLive video on Apr.27\u2026",
            "published_at": "2022-04-29T06:16:52Z",
            "slug": "MEME-TUESDAY-The-Web30-Ecology-in-Europes-Post-Pandemic-Era-Time-900-pm-Apr27stUTC8-Live-video-on-Apr27",
            "currencies": [
                {
                    "code": "YFII",
                    "title": "DFI.money",
                    "slug": "yfii-finance",
                    "url": "https:\/\/cryptopanic.com\/news\/yfii-finance\/"
                }
            ],
            "id": 15054573,
            "url": "https:\/\/cryptopanic.com\/news\/15054573\/MEME-TUESDAY-The-Web30-Ecology-in-Europes-Post-Pandemic-Era-Time-900-pm-Apr27stUTC8-Live-video-on-Apr27",
            "created_at": "2022-04-29T06:16:52Z",
            "votes": {
                "negative": 0,
                "positive": 0,
                "important": 0,
                "liked": 0,
                "disliked": 0,
                "lol": 0,
                "toxic": 0,
                "saved": 0,
                "comments": 0
            }
        },
        {
            "kind": "news",
            "domain": "@DfiMoney",
            "source": {
                "title": "DFI.money Twitter",
                "region": "en",
                "domain": "twitter.com",
                "path": "@dfimoney"
            },
            "title": "MEME TUESDAY\n\nThe Web3.0 Ecology in Europe's Post-Pandemic Era\n\nTime: 9:00 pm Apr.27st(UTC+8)\n\nBilibili \uff1a\u2026",
            "published_at": "2022-04-27T03:25:00Z",
            "slug": "MEME-TUESDAY-The-Web30-Ecology-in-Europes-Post-Pandemic-Era-Time-900-pm-Apr27stUTC8-Bilibili",
            "currencies": [
                {
                    "code": "YFII",
                    "title": "DFI.money",
                    "slug": "yfii-finance",
                    "url": "https:\/\/cryptopanic.com\/news\/yfii-finance\/"
                }
            ],
            "id": 15029962,
            "url": "https:\/\/cryptopanic.com\/news\/15029962\/MEME-TUESDAY-The-Web30-Ecology-in-Europes-Post-Pandemic-Era-Time-900-pm-Apr27stUTC8-Bilibili",
            "created_at": "2022-04-27T03:25:00Z",
            "votes": {
                "negative": 0,
                "positive": 0,
                "important": 0,
                "liked": 0,
                "disliked": 0,
                "lol": 0,
                "toxic": 0,
                "saved": 0,
                "comments": 0
            }
        },
        {
            "kind": "news",
            "domain": "@DfiMoney",
            "source": {
                "title": "DFI.money Twitter",
                "region": "en",
                "domain": "twitter.com",
                "path": "@dfimoney"
            },
            "title": "MEME TUESDAY\n\nCai Guo-Qiang\u2019s Daytime Fireworks\n\nTime: 9:00 pm Apr.19st(UTC+8)\n\nLive video on Apr.19st:\u2026",
            "published_at": "2022-04-22T07:29:43Z",
            "slug": "MEME-TUESDAY-Cai-Guo-Qiangs-Daytime-Fireworks-Time-900-pm-Apr19stUTC8-Live-video-on-Apr19st",
            "currencies": [
                {
                    "code": "YFII",
                    "title": "DFI.money",
                    "slug": "yfii-finance",
                    "url": "https:\/\/cryptopanic.com\/news\/yfii-finance\/"
                }
            ],
            "id": 14991012,
            "url": "https:\/\/cryptopanic.com\/news\/14991012\/MEME-TUESDAY-Cai-Guo-Qiangs-Daytime-Fireworks-Time-900-pm-Apr19stUTC8-Live-video-on-Apr19st",
            "created_at": "2022-04-22T07:29:43Z",
            "votes": {
                "negative": 0,
                "positive": 0,
                "important": 0,
                "liked": 0,
                "disliked": 0,
                "lol": 0,
                "toxic": 0,
                "saved": 0,
                "comments": 0
            }
        },
        {
            "kind": "news",
            "domain": "@DfiMoney",
            "source": {
                "title": "DFI.money Twitter",
                "region": "en",
                "domain": "twitter.com",
                "path": "@dfimoney"
            },
            "title": "MEME TUESDAY\n\nCai Guo-Qiang\u2019s Daytime Fireworks\n\nTime: 9:00 pm Apr.19st(UTC+8)\n\nBilibili \uff1a",
            "published_at": "2022-04-19T04:36:54Z",
            "slug": "MEME-TUESDAY-Cai-Guo-Qiangs-Daytime-Fireworks-Time-900-pm-Apr19stUTC8-Bilibili",
            "currencies": [
                {
                    "code": "YFII",
                    "title": "DFI.money",
                    "slug": "yfii-finance",
                    "url": "https:\/\/cryptopanic.com\/news\/yfii-finance\/"
                }
            ],
            "id": 14942971,
            "url": "https:\/\/cryptopanic.com\/news\/14942971\/MEME-TUESDAY-Cai-Guo-Qiangs-Daytime-Fireworks-Time-900-pm-Apr19stUTC8-Bilibili",
            "created_at": "2022-04-19T04:36:54Z",
            "votes": {
                "negative": 0,
                "positive": 0,
                "important": 0,
                "liked": 0,
                "disliked": 0,
                "lol": 0,
                "toxic": 0,
                "saved": 0,
                "comments": 0
            }
        }
    ]
}
