{
    "count": 200,
    "next": "https:\/\/cryptopanic.com\/api\/v1\/posts\/?auth_token=01c356e89ffc1b8eba2127c81fc8c66ee0eace75&kind=news&currencies=IDRT&page=2",
    "previous": null,
    "results": [
        {
            "kind": "news",
            "domain": "@RupiahTokenIDRT",
            "source": {
                "title": "Rupiah Token Twitter",
                "region": "en",
                "domain": "twitter.com",
                "path": "@rupiahtokenidrt"
            },
            "title": "RT @KrystalDefi: Join our AMA with RupiahToken\n\n$150 for 5 live AMA Winners\n$150 for 5 Twitter Winners\n\nTo win:\n1. Follow @KrystalDefi a\u2026",
            "published_at": "2021-06-22T05:16:36Z",
            "slug": "RT-KrystalDefi-Join-our-AMA-with-RupiahToken-150-for-5-live-AMA-Winners-150-for-5-Twitter-Winners-To-win-1-Follow-KrystalDefi-a",
            "currencies": [
                {
                    "code": "IDRT",
                    "title": "Rupiah Token",
                    "slug": "rupiah-token",
                    "url": "https:\/\/cryptopanic.com\/news\/rupiah-token\/"
                }
            ],
            "id": 12176242,
            "url": "https:\/\/cryptopanic.com\/news\/12176242\/RT-KrystalDefi-Join-our-AMA-with-RupiahToken-150-for-5-live-AMA-Winners-150-for-5-Twitter-Winners-To-win-1-Follow-KrystalDefi-a",
            "created_at": "2021-06-22T05:16:36Z",
            "votes": {
                "negative": 0,
                "positive": 0,
                "important": 0,
                "liked": 0,
                "disliked": 0,
                "lol": 0,
                "toxic": 0,
                "saved": 0,
                "comments": 0
            }
        },
        {
            "kind": "news",
            "domain": "@RupiahTokenIDRT",
            "source": {
                "title": "Rupiah Token Twitter",
                "region": "en",
                "domain": "twitter.com",
                "path": "@rupiahtokenidrt"
            },
            "title": "Hi IDRTers,\n\nTo celebrate our partnership with @KrystalDefi we'll give $300 in USDC to 10 lucky winners. \n\nTo win:\u2026",
            "published_at": "2021-06-07T10:21:14Z",
            "slug": "Hi-IDRTers-To-celebrate-our-partnership-with-KrystalDefi-well-give-300-in-USDC-to-10-lucky-winners-To-win",
            "currencies": [
                {
                    "code": "IDRT",
                    "title": "Rupiah Token",
                    "slug": "rupiah-token",
                    "url": "https:\/\/cryptopanic.com\/news\/rupiah-token\/"
                }
            ],
            "id": 12077662,
            "url": "https:\/\/cryptopanic.com\/news\/12077662\/Hi-IDRTers-To-celebrate-our-partnership-with-KrystalDefi-well-give-300-in-USDC-to-10-lucky-winners-To-win",
            "created_at": "2021-06-07T10:21:14Z",
            "votes": {
                "negative": 0,
                "positive": 0,
                "important": 0,
                "liked": 0,
                "disliked": 0,
                "lol": 0,
                "toxic": 0,
                "saved": 0,
                "comments": 0
            }
        },
        {
            "kind": "news",
            "domain": "@RupiahTokenIDRT",
            "source": {
                "title": "Rupiah Token Twitter",
                "region": "en",
                "domain": "twitter.com",
                "path": "@rupiahtokenidrt"
            },
            "title": " Rupiah Token (IDRT) now is available on @KrystalDefi \n\nKrystal currently supports Ethereum and Binance Smart Chai\u2026",
            "published_at": "2021-06-04T09:09:58Z",
            "slug": "Rupiah-Token-IDRT-now-is-available-on-KrystalDefi-Krystal-currently-supports-Ethereum-and-Binance-Smart-Chai",
            "currencies": [
                {
                    "code": "IDRT",
                    "title": "Rupiah Token",
                    "slug": "rupiah-token",
                    "url": "https:\/\/cryptopanic.com\/news\/rupiah-token\/"
                }
            ],
            "id": 12059848,
            "url": "https:\/\/cryptopanic.com\/news\/12059848\/Rupiah-Token-IDRT-now-is-available-on-KrystalDefi-Krystal-currently-supports-Ethereum-and-Binance-Smart-Chai",
            "created_at": "2021-06-04T09:09:58Z",
            "votes": {
                "negative": 0,
                "positive": 0,
                "important": 0,
                "liked": 0,
                "disliked": 0,
                "lol": 0,
                "toxic": 0,
                "saved": 0,
                "comments": 0
            }
        },
        {
            "kind": "news",
            "domain": "@RupiahTokenIDRT",
            "source": {
                "title": "Rupiah Token Twitter",
                "region": "en",
                "domain": "twitter.com",
                "path": "@rupiahtokenidrt"
            },
            "title": "Good news! IDRT just improved the liquidity on Uniswap. Now you can swap IDRT to any ERC20 token with less slippage\u2026",
            "published_at": "2021-04-21T08:24:08Z",
            "slug": "Good-news-IDRT-just-improved-the-liquidity-on-Uniswap-Now-you-can-swap-IDRT-to-any-ERC20-token-with-less-slippage",
            "currencies": [
                {
                    "code": "IDRT",
                    "title": "Rupiah Token",
                    "slug": "rupiah-token",
                    "url": "https:\/\/cryptopanic.com\/news\/rupiah-token\/"
                }
            ],
            "id": 11806379,
            "url": "https:\/\/cryptopanic.com\/news\/11806379\/Good-news-IDRT-just-improved-the-liquidity-on-Uniswap-Now-you-can-swap-IDRT-to-any-ERC20-token-with-less-slippage",
            "created_at": "2021-04-21T08:24:08Z",
            "votes": {
                "negative": 0,
                "positive": 0,
                "important": 0,
                "liked": 0,
                "disliked": 0,
                "lol": 0,
                "toxic": 0,
                "saved": 0,
                "comments": 0
            }
        },
        {
            "kind": "news",
            "domain": "@RupiahTokenIDRT",
            "source": {
                "title": "Rupiah Token Twitter",
                "region": "en",
                "domain": "twitter.com",
                "path": "@rupiahtokenidrt"
            },
            "title": "Good News! Rupiah token is finally listed on @SushiSwap. Now you can start swapping IDRT to any ERC20 tokens in Sus\u2026",
            "published_at": "2021-04-21T03:59:51Z",
            "slug": "Good-News-Rupiah-token-is-finally-listed-on-SushiSwap-Now-you-can-start-swapping-IDRT-to-any-ERC20-tokens-in-Sus",
            "currencies": [
                {
                    "code": "IDRT",
                    "title": "Rupiah Token",
                    "slug": "rupiah-token",
                    "url": "https:\/\/cryptopanic.com\/news\/rupiah-token\/"
                }
            ],
            "id": 11800221,
            "url": "https:\/\/cryptopanic.com\/news\/11800221\/Good-News-Rupiah-token-is-finally-listed-on-SushiSwap-Now-you-can-start-swapping-IDRT-to-any-ERC20-tokens-in-Sus",
            "created_at": "2021-04-21T03:59:51Z",
            "votes": {
                "negative": 0,
                "positive": 0,
                "important": 0,
                "liked": 0,
                "disliked": 0,
                "lol": 0,
                "toxic": 0,
                "saved": 0,
                "comments": 0
            }
        },
        {
            "kind": "news",
            "domain": "@RupiahTokenIDRT",
            "source": {
                "title": "Rupiah Token Twitter",
                "region": "en",
                "domain": "twitter.com",
                "path": "@rupiahtokenidrt"
            },
            "title": "RT @KrystalDefi:  Say hello to Krystal! \n\n\n\n1\/ Today, we\u2019re excited to present Krystal to the world! One platform,\u2026",
            "published_at": "2021-04-21T03:55:22Z",
            "slug": "RT-KrystalDefi-Say-hello-to-Krystal-1-Today-were-excited-to-present-Krystal-to-the-world-One-platform",
            "currencies": [
                {
                    "code": "IDRT",
                    "title": "Rupiah Token",
                    "slug": "rupiah-token",
                    "url": "https:\/\/cryptopanic.com\/news\/rupiah-token\/"
                }
            ],
            "id": 11800222,
            "url": "https:\/\/cryptopanic.com\/news\/11800222\/RT-KrystalDefi-Say-hello-to-Krystal-1-Today-were-excited-to-present-Krystal-to-the-world-One-platform",
            "created_at": "2021-04-21T03:55:22Z",
            "votes": {
                "negative": 0,
                "positive": 0,
                "important": 0,
                "liked": 0,
                "disliked": 0,
                "lol": 0,
                "toxic": 0,
                "saved": 0,
                "comments": 0
            }
        },
        {
            "kind": "news",
            "domain": "@RupiahTokenIDRT",
            "source": {
                "title": "Rupiah Token Twitter",
                "region": "en",
                "domain": "twitter.com",
                "path": "@rupiahtokenidrt"
            },
            "title": "Hi IDRTers! We are pleased to announce that Rupiah Token is available on @moonlet_wallet. Moonlet is a non-custodia\u2026",
            "published_at": "2021-03-29T08:17:28Z",
            "slug": "Hi-IDRTers-We-are-pleased-to-announce-that-Rupiah-Token-is-available-on-moonlet_wallet-Moonlet-is-a-non-custodia",
            "currencies": [
                {
                    "code": "IDRT",
                    "title": "Rupiah Token",
                    "slug": "rupiah-token",
                    "url": "https:\/\/cryptopanic.com\/news\/rupiah-token\/"
                }
            ],
            "id": 11695047,
            "url": "https:\/\/cryptopanic.com\/news\/11695047\/Hi-IDRTers-We-are-pleased-to-announce-that-Rupiah-Token-is-available-on-moonlet_wallet-Moonlet-is-a-non-custodia",
            "created_at": "2021-03-29T08:17:28Z",
            "votes": {
                "negative": 0,
                "positive": 0,
                "important": 0,
                "liked": 0,
                "disliked": 0,
                "lol": 0,
                "toxic": 0,
                "saved": 0,
                "comments": 0
            }
        },
        {
            "kind": "news",
            "domain": "@RupiahTokenIDRT",
            "source": {
                "title": "Rupiah Token Twitter",
                "region": "en",
                "domain": "twitter.com",
                "path": "@rupiahtokenidrt"
            },
            "title": "Good news! We are pleased to announce that Rupiah Token is available on @paxful for P2P trading purposes between yo\u2026",
            "published_at": "2021-03-25T07:56:46Z",
            "slug": "Good-news-We-are-pleased-to-announce-that-Rupiah-Token-is-available-on-paxful-for-P2P-trading-purposes-between-yo",
            "currencies": [
                {
                    "code": "IDRT",
                    "title": "Rupiah Token",
                    "slug": "rupiah-token",
                    "url": "https:\/\/cryptopanic.com\/news\/rupiah-token\/"
                }
            ],
            "id": 11678506,
            "url": "https:\/\/cryptopanic.com\/news\/11678506\/Good-news-We-are-pleased-to-announce-that-Rupiah-Token-is-available-on-paxful-for-P2P-trading-purposes-between-yo",
            "created_at": "2021-03-25T07:56:46Z",
            "votes": {
                "negative": 0,
                "positive": 0,
                "important": 0,
                "liked": 0,
                "disliked": 0,
                "lol": 0,
                "toxic": 0,
                "saved": 0,
                "comments": 0
            }
        },
        {
            "kind": "news",
            "domain": "@RupiahTokenIDRT",
            "source": {
                "title": "Rupiah Token Twitter",
                "region": "en",
                "domain": "twitter.com",
                "path": "@rupiahtokenidrt"
            },
            "title": "Good news! We are please to announce that now Rupiah Token is available on @paxful for trade purpose between you an\u2026",
            "published_at": "2021-03-25T06:53:32Z",
            "slug": "Good-news-We-are-please-to-announce-that-now-Rupiah-Token-is-available-on-paxful-for-trade-purpose-between-you-an",
            "currencies": [
                {
                    "code": "IDRT",
                    "title": "Rupiah Token",
                    "slug": "rupiah-token",
                    "url": "https:\/\/cryptopanic.com\/news\/rupiah-token\/"
                }
            ],
            "id": 11673199,
            "url": "https:\/\/cryptopanic.com\/news\/11673199\/Good-news-We-are-please-to-announce-that-now-Rupiah-Token-is-available-on-paxful-for-trade-purpose-between-you-an",
            "created_at": "2021-03-25T06:53:32Z",
            "votes": {
                "negative": 0,
                "positive": 0,
                "important": 0,
                "liked": 0,
                "disliked": 0,
                "lol": 0,
                "toxic": 0,
                "saved": 0,
                "comments": 0
            }
        },
        {
            "kind": "news",
            "domain": "@RupiahTokenIDRT",
            "source": {
                "title": "Rupiah Token Twitter",
                "region": "en",
                "domain": "twitter.com",
                "path": "@rupiahtokenidrt"
            },
            "title": "(Thread)\n\nAVOID LOSING YOUR ASSET\n\nRecently, we learned that some users reported the existence of IDRT tokens other\u2026",
            "published_at": "2021-03-09T04:33:15Z",
            "slug": "Thread-AVOID-LOSING-YOUR-ASSET-Recently-we-learned-that-some-users-reported-the-existence-of-IDRT-tokens-other",
            "currencies": [
                {
                    "code": "IDRT",
                    "title": "Rupiah",
                    "slug": "rupiah-token",
                    "url": "https:\/\/cryptopanic.com\/news\/rupiah-token\/"
                }
            ],
            "id": 11593433,
            "url": "https:\/\/cryptopanic.com\/news\/11593433\/Thread-AVOID-LOSING-YOUR-ASSET-Recently-we-learned-that-some-users-reported-the-existence-of-IDRT-tokens-other",
            "created_at": "2021-03-09T04:33:15Z",
            "votes": {
                "negative": 0,
                "positive": 0,
                "important": 0,
                "liked": 0,
                "disliked": 0,
                "lol": 0,
                "toxic": 0,
                "saved": 0,
                "comments": 0
            }
        },
        {
            "kind": "news",
            "domain": "@RupiahTokenIDRT",
            "source": {
                "title": "Rupiah Token Twitter",
                "region": "en",
                "domain": "twitter.com",
                "path": "@rupiahtokenidrt"
            },
            "title": "Hi IDRTers! We are happy to announce that Rupiah Token (IDRT) will be available on the Vexanium blockchain on Thurs\u2026",
            "published_at": "2021-02-24T08:53:48Z",
            "slug": "Hi-IDRTers-We-are-happy-to-announce-that-Rupiah-Token-IDRT-will-be-available-on-the-Vexanium-blockchain-on-Thurs",
            "currencies": [
                {
                    "code": "IDRT",
                    "title": "Rupiah",
                    "slug": "rupiah-token",
                    "url": "https:\/\/cryptopanic.com\/news\/rupiah-token\/"
                }
            ],
            "id": 11539266,
            "url": "https:\/\/cryptopanic.com\/news\/11539266\/Hi-IDRTers-We-are-happy-to-announce-that-Rupiah-Token-IDRT-will-be-available-on-the-Vexanium-blockchain-on-Thurs",
            "created_at": "2021-02-24T08:53:48Z",
            "votes": {
                "negative": 0,
                "positive": 0,
                "important": 0,
                "liked": 0,
                "disliked": 0,
                "lol": 0,
                "toxic": 0,
                "saved": 0,
                "comments": 0
            }
        },
        {
            "kind": "news",
            "domain": "@RupiahTokenIDRT",
            "source": {
                "title": "Rupiah Token Twitter",
                "region": "en",
                "domain": "twitter.com",
                "path": "@rupiahtokenidrt"
            },
            "title": "Good news! As of today, you can trade BTC\/IDRT at a much lower rate on Liquid starting from 0.0001 BTC (~ Rp 31.000\u2026",
            "published_at": "2020-12-17T12:33:34Z",
            "slug": "Good-news-As-of-today-you-can-trade-BTCIDRT-at-a-much-lower-rate-on-Liquid-starting-from-00001-BTC-Rp-31000",
            "currencies": [
                {
                    "code": "IDRT",
                    "title": "Rupiah Token",
                    "slug": "rupiah-token",
                    "url": "https:\/\/cryptopanic.com\/news\/rupiah-token\/"
                }
            ],
            "id": 10844534,
            "url": "https:\/\/cryptopanic.com\/news\/10844534\/Good-news-As-of-today-you-can-trade-BTCIDRT-at-a-much-lower-rate-on-Liquid-starting-from-00001-BTC-Rp-31000",
            "created_at": "2020-12-17T12:33:34Z",
            "votes": {
                "negative": 0,
                "positive": 0,
                "important": 0,
                "liked": 0,
                "disliked": 0,
                "lol": 0,
                "toxic": 0,
                "saved": 0,
                "comments": 0
            }
        },
        {
            "kind": "news",
            "domain": "@RupiahTokenIDRT",
            "source": {
                "title": "Rupiah Token Twitter",
                "region": "en",
                "domain": "twitter.com",
                "path": "@rupiahtokenidrt"
            },
            "title": "Good news! As of today, you can trade BTC\/IDRT at a much lower rate on Liquid starting from 0.0001 BTC (~ Rp 31.000\u2026",
            "published_at": "2020-12-17T12:33:08Z",
            "slug": "Good-news-As-of-today-you-can-trade-BTCIDRT-at-a-much-lower-rate-on-Liquid-starting-from-00001-BTC-Rp-31000",
            "currencies": [
                {
                    "code": "IDRT",
                    "title": "Rupiah Token",
                    "slug": "rupiah-token",
                    "url": "https:\/\/cryptopanic.com\/news\/rupiah-token\/"
                }
            ],
            "id": 10844527,
            "url": "https:\/\/cryptopanic.com\/news\/10844527\/Good-news-As-of-today-you-can-trade-BTCIDRT-at-a-much-lower-rate-on-Liquid-starting-from-00001-BTC-Rp-31000",
            "created_at": "2020-12-17T12:33:08Z",
            "votes": {
                "negative": 0,
                "positive": 0,
                "important": 0,
                "liked": 0,
                "disliked": 0,
                "lol": 0,
                "toxic": 0,
                "saved": 0,
                "comments": 0
            }
        },
        {
            "kind": "news",
            "domain": "@RupiahTokenIDRT",
            "source": {
                "title": "Rupiah Token Twitter",
                "region": "en",
                "domain": "twitter.com",
                "path": "@rupiahtokenidrt"
            },
            "title": "Find Rupiah Token at the Singapore Blockchain Village at Singapore Fintech Festival SFFxSwitch2020!\n\nRSVP\u2026",
            "published_at": "2020-12-02T03:36:26Z",
            "slug": "Find-Rupiah-Token-at-the-Singapore-Blockchain-Village-at-Singapore-Fintech-Festival-SFFxSwitch2020-RSVP",
            "currencies": [
                {
                    "code": "IDRT",
                    "title": "Rupiah Token",
                    "slug": "rupiah-token",
                    "url": "https:\/\/cryptopanic.com\/news\/rupiah-token\/"
                }
            ],
            "id": 10701083,
            "url": "https:\/\/cryptopanic.com\/news\/10701083\/Find-Rupiah-Token-at-the-Singapore-Blockchain-Village-at-Singapore-Fintech-Festival-SFFxSwitch2020-RSVP",
            "created_at": "2020-12-02T03:36:26Z",
            "votes": {
                "negative": 0,
                "positive": 0,
                "important": 0,
                "liked": 0,
                "disliked": 0,
                "lol": 0,
                "toxic": 0,
                "saved": 0,
                "comments": 0
            }
        },
        {
            "kind": "news",
            "domain": "@RupiahTokenIDRT",
            "source": {
                "title": "Rupiah Token Twitter",
                "region": "en",
                "domain": "twitter.com",
                "path": "@rupiahtokenidrt"
            },
            "title": "RT @PintuID: COMING SOON! Ada FITUR BARU yang akan SEGERA RILIS di aplikasi Pintu!\n\nPsstt\u2026sedikit bocoran, fitur ini adalah fitur yang suda\u2026",
            "published_at": "2020-11-11T11:34:18Z",
            "slug": "RT-PintuID-COMING-SOON-Ada-FITUR-BARU-yang-akan-SEGERA-RILIS-di-aplikasi-Pintu-Pssttsedikit-bocoran-fitur-ini-adalah-fitur-yang-suda",
            "currencies": [
                {
                    "code": "IDRT",
                    "title": "Rupiah Token",
                    "slug": "rupiah-token",
                    "url": "https:\/\/cryptopanic.com\/news\/rupiah-token\/"
                }
            ],
            "id": 10505524,
            "url": "https:\/\/cryptopanic.com\/news\/10505524\/RT-PintuID-COMING-SOON-Ada-FITUR-BARU-yang-akan-SEGERA-RILIS-di-aplikasi-Pintu-Pssttsedikit-bocoran-fitur-ini-adalah-fitur-yang-suda",
            "created_at": "2020-11-11T11:34:18Z",
            "votes": {
                "negative": 0,
                "positive": 0,
                "important": 0,
                "liked": 0,
                "disliked": 0,
                "lol": 0,
                "toxic": 0,
                "saved": 0,
                "comments": 0
            }
        },
        {
            "kind": "news",
            "domain": "@RupiahTokenIDRT",
            "source": {
                "title": "Rupiah Token Twitter",
                "region": "en",
                "domain": "twitter.com",
                "path": "@rupiahtokenidrt"
            },
            "title": "Hi IDRTers! We are proud to announce that Rupiah Token, BiLira, BRZ, EURS (@EURSbot), and Stablecorp (@stablecorp)\u2026",
            "published_at": "2020-11-04T04:45:56Z",
            "slug": "Hi-IDRTers-We-are-proud-to-announce-that-Rupiah-Token-BiLira-BRZ-EURS-EURSbot-and-Stablecorp-stablecorp",
            "currencies": [
                {
                    "code": "IDRT",
                    "title": "Rupiah Token",
                    "slug": "rupiah-token",
                    "url": "https:\/\/cryptopanic.com\/news\/rupiah-token\/"
                }
            ],
            "id": 10435721,
            "url": "https:\/\/cryptopanic.com\/news\/10435721\/Hi-IDRTers-We-are-proud-to-announce-that-Rupiah-Token-BiLira-BRZ-EURS-EURSbot-and-Stablecorp-stablecorp",
            "created_at": "2020-11-04T04:45:56Z",
            "votes": {
                "negative": 0,
                "positive": 0,
                "important": 0,
                "liked": 0,
                "disliked": 0,
                "lol": 0,
                "toxic": 0,
                "saved": 0,
                "comments": 0
            }
        },
        {
            "kind": "news",
            "domain": "@RupiahTokenIDRT",
            "source": {
                "title": "Rupiah Token Twitter",
                "region": "en",
                "domain": "twitter.com",
                "path": "@rupiahtokenidrt"
            },
            "title": "We are excited to announce our collaboration with \n@dashphp. From now on, Indonesian users can easily convert their\u2026",
            "published_at": "2020-10-22T14:37:09Z",
            "slug": "We-are-excited-to-announce-our-collaboration-with-dashphp-From-now-on-Indonesian-users-can-easily-convert-their",
            "currencies": [
                {
                    "code": "IDRT",
                    "title": "Rupiah Token",
                    "slug": "rupiah-token",
                    "url": "https:\/\/cryptopanic.com\/news\/rupiah-token\/"
                }
            ],
            "id": 10324727,
            "url": "https:\/\/cryptopanic.com\/news\/10324727\/We-are-excited-to-announce-our-collaboration-with-dashphp-From-now-on-Indonesian-users-can-easily-convert-their",
            "created_at": "2020-10-22T14:37:09Z",
            "votes": {
                "negative": 0,
                "positive": 0,
                "important": 0,
                "liked": 0,
                "disliked": 0,
                "lol": 0,
                "toxic": 0,
                "saved": 0,
                "comments": 0
            }
        },
        {
            "kind": "news",
            "domain": "@RupiahTokenIDRT",
            "source": {
                "title": "Rupiah Token Twitter",
                "region": "en",
                "domain": "twitter.com",
                "path": "@rupiahtokenidrt"
            },
            "title": "We are excited to announce our collaboration with \n@dashphp\n\nFrom now on, Indonesian users can easily convert their\u2026",
            "published_at": "2020-10-22T14:33:08Z",
            "slug": "We-are-excited-to-announce-our-collaboration-with-dashphp-From-now-on-Indonesian-users-can-easily-convert-their",
            "currencies": [
                {
                    "code": "IDRT",
                    "title": "Rupiah Token",
                    "slug": "rupiah-token",
                    "url": "https:\/\/cryptopanic.com\/news\/rupiah-token\/"
                }
            ],
            "id": 10324687,
            "url": "https:\/\/cryptopanic.com\/news\/10324687\/We-are-excited-to-announce-our-collaboration-with-dashphp-From-now-on-Indonesian-users-can-easily-convert-their",
            "created_at": "2020-10-22T14:33:08Z",
            "votes": {
                "negative": 0,
                "positive": 0,
                "important": 0,
                "liked": 0,
                "disliked": 0,
                "lol": 0,
                "toxic": 0,
                "saved": 0,
                "comments": 0
            }
        },
        {
            "kind": "news",
            "domain": "@RupiahTokenIDRT",
            "source": {
                "title": "Rupiah Token Twitter",
                "region": "en",
                "domain": "twitter.com",
                "path": "@rupiahtokenidrt"
            },
            "title": "RT @dashphp: Dash Next is excited to announce our next step In Indonesia partnering with Rupiah Token. We are excited to inform that from n\u2026",
            "published_at": "2020-10-22T14:31:05Z",
            "slug": "RT-dashphp-Dash-Next-is-excited-to-announce-our-next-step-In-Indonesia-partnering-with-Rupiah-Token-We-are-excited-to-inform-that-from-n",
            "currencies": [
                {
                    "code": "IDRT",
                    "title": "Rupiah Token",
                    "slug": "rupiah-token",
                    "url": "https:\/\/cryptopanic.com\/news\/rupiah-token\/"
                },
                {
                    "code": "DASH",
                    "title": "Dash",
                    "slug": "dash",
                    "url": "https:\/\/cryptopanic.com\/news\/dash\/"
                }
            ],
            "id": 10324661,
            "url": "https:\/\/cryptopanic.com\/news\/10324661\/RT-dashphp-Dash-Next-is-excited-to-announce-our-next-step-In-Indonesia-partnering-with-Rupiah-Token-We-are-excited-to-inform-that-from-n",
            "created_at": "2020-10-22T14:31:05Z",
            "votes": {
                "negative": 0,
                "positive": 0,
                "important": 0,
                "liked": 0,
                "disliked": 0,
                "lol": 0,
                "toxic": 0,
                "saved": 0,
                "comments": 0
            }
        },
        {
            "kind": "news",
            "domain": "@RupiahTokenIDRT",
            "source": {
                "title": "Rupiah Token Twitter",
                "region": "en",
                "domain": "twitter.com",
                "path": "@rupiahtokenidrt"
            },
            "title": "Hi IDRTers!\n\nRupiah Token @Liquid_Global is pleased to announce that we are going to held IDRT Lucky Trading in Oct\u2026",
            "published_at": "2020-09-28T10:13:55Z",
            "slug": "Hi-IDRTers-Rupiah-Token-Liquid_Global-is-pleased-to-announce-that-we-are-going-to-held-IDRT-Lucky-Trading-in-Oct",
            "currencies": [
                {
                    "code": "IDRT",
                    "title": "Rupiah Token",
                    "slug": "rupiah-token",
                    "url": "https:\/\/cryptopanic.com\/news\/rupiah-token\/"
                }
            ],
            "id": 10100696,
            "url": "https:\/\/cryptopanic.com\/news\/10100696\/Hi-IDRTers-Rupiah-Token-Liquid_Global-is-pleased-to-announce-that-we-are-going-to-held-IDRT-Lucky-Trading-in-Oct",
            "created_at": "2020-09-28T10:13:55Z",
            "votes": {
                "negative": 0,
                "positive": 0,
                "important": 0,
                "liked": 0,
                "disliked": 0,
                "lol": 0,
                "toxic": 0,
                "saved": 0,
                "comments": 0
            }
        }
    ]
}
