{
    "count": 200,
    "next": "https:\/\/cryptopanic.com\/api\/v1\/posts\/?auth_token=01c356e89ffc1b8eba2127c81fc8c66ee0eace75&kind=news&currencies=BICO&page=2",
    "previous": null,
    "results": [
        {
            "kind": "news",
            "domain": "@biconomy",
            "source": {
                "title": "Biconomy Twitter",
                "region": "en",
                "domain": "twitter.com",
                "path": "@biconomy"
            },
            "title": "See you there @trentmc0  #InfraCon @EthCC \ud83c\uddeb\ud83c\uddf7",
            "published_at": "2023-07-12T04:53:41Z",
            "slug": "See-you-there-trentmc0-InfraCon-EthCC",
            "currencies": [
                {
                    "code": "BICO",
                    "title": "Biconomy",
                    "slug": "biconomy",
                    "url": "https:\/\/cryptopanic.com\/news\/biconomy\/"
                }
            ],
            "id": 18762914,
            "url": "https:\/\/cryptopanic.com\/news\/18762914\/See-you-there-trentmc0-InfraCon-EthCC",
            "created_at": "2023-07-12T04:53:41Z",
            "votes": {
                "negative": 0,
                "positive": 0,
                "important": 0,
                "liked": 0,
                "disliked": 0,
                "lol": 0,
                "toxic": 0,
                "saved": 0,
                "comments": 0
            }
        },
        {
            "kind": "news",
            "domain": "@biconomy",
            "source": {
                "title": "Biconomy Twitter",
                "region": "en",
                "domain": "twitter.com",
                "path": "@biconomy"
            },
            "title": "RT @schin_tomar: Modular Smart Accounts is the future \ud83e\udd18\n\nWith custom validation logic, you can control your wallet the way you want to. Wit\u2026",
            "published_at": "2023-07-11T17:54:27Z",
            "slug": "RT-schin_tomar-Modular-Smart-Accounts-is-the-future-With-custom-validation-logic-you-can-control-your-wallet-the-way-you-want-to-Wit",
            "currencies": [
                {
                    "code": "BICO",
                    "title": "Biconomy",
                    "slug": "biconomy",
                    "url": "https:\/\/cryptopanic.com\/news\/biconomy\/"
                }
            ],
            "id": 18762915,
            "url": "https:\/\/cryptopanic.com\/news\/18762915\/RT-schin_tomar-Modular-Smart-Accounts-is-the-future-With-custom-validation-logic-you-can-control-your-wallet-the-way-you-want-to-Wit",
            "created_at": "2023-07-11T17:54:27Z",
            "votes": {
                "negative": 0,
                "positive": 0,
                "important": 0,
                "liked": 0,
                "disliked": 0,
                "lol": 0,
                "toxic": 0,
                "saved": 0,
                "comments": 0
            }
        },
        {
            "kind": "news",
            "domain": "@biconomy",
            "source": {
                "title": "Biconomy Twitter",
                "region": "en",
                "domain": "twitter.com",
                "path": "@biconomy"
            },
            "title": "Biconomy Smart Accounts are becoming modular!\n\nWith this upcoming release, devs can build or leverage 'modules' to\u2026",
            "published_at": "2023-07-11T14:48:28Z",
            "slug": "Biconomy-Smart-Accounts-are-becoming-modular-With-this-upcoming-release-devs-can-build-or-leverage-modules-to",
            "currencies": [
                {
                    "code": "BICO",
                    "title": "Biconomy",
                    "slug": "biconomy",
                    "url": "https:\/\/cryptopanic.com\/news\/biconomy\/"
                }
            ],
            "id": 18762916,
            "url": "https:\/\/cryptopanic.com\/news\/18762916\/Biconomy-Smart-Accounts-are-becoming-modular-With-this-upcoming-release-devs-can-build-or-leverage-modules-to",
            "created_at": "2023-07-11T14:48:28Z",
            "votes": {
                "negative": 0,
                "positive": 0,
                "important": 0,
                "liked": 0,
                "disliked": 0,
                "lol": 0,
                "toxic": 0,
                "saved": 0,
                "comments": 0
            }
        },
        {
            "kind": "news",
            "domain": "@biconomy",
            "source": {
                "title": "Biconomy Twitter",
                "region": "en",
                "domain": "twitter.com",
                "path": "@biconomy"
            },
            "title": "More 1-click experiences with account abstraction!",
            "published_at": "2023-07-11T11:59:58Z",
            "slug": "More-1-click-experiences-with-account-abstraction",
            "currencies": [
                {
                    "code": "BICO",
                    "title": "Biconomy",
                    "slug": "biconomy",
                    "url": "https:\/\/cryptopanic.com\/news\/biconomy\/"
                }
            ],
            "id": 18762917,
            "url": "https:\/\/cryptopanic.com\/news\/18762917\/More-1-click-experiences-with-account-abstraction",
            "created_at": "2023-07-11T11:59:58Z",
            "votes": {
                "negative": 0,
                "positive": 0,
                "important": 0,
                "liked": 0,
                "disliked": 0,
                "lol": 0,
                "toxic": 0,
                "saved": 0,
                "comments": 0
            }
        },
        {
            "kind": "news",
            "domain": "@biconomy",
            "source": {
                "title": "Biconomy Twitter",
                "region": "en",
                "domain": "twitter.com",
                "path": "@biconomy"
            },
            "title": "Looking forward to this! @ETHCC \ud83c\uddeb\ud83c\uddf7",
            "published_at": "2023-07-11T07:48:06Z",
            "slug": "Looking-forward-to-this-ETHCC",
            "currencies": [
                {
                    "code": "BICO",
                    "title": "Biconomy",
                    "slug": "biconomy",
                    "url": "https:\/\/cryptopanic.com\/news\/biconomy\/"
                }
            ],
            "id": 18762918,
            "url": "https:\/\/cryptopanic.com\/news\/18762918\/Looking-forward-to-this-ETHCC",
            "created_at": "2023-07-11T07:48:06Z",
            "votes": {
                "negative": 0,
                "positive": 0,
                "important": 0,
                "liked": 0,
                "disliked": 0,
                "lol": 0,
                "toxic": 0,
                "saved": 0,
                "comments": 0
            }
        },
        {
            "kind": "news",
            "domain": "@biconomy",
            "source": {
                "title": "Biconomy Twitter",
                "region": "en",
                "domain": "twitter.com",
                "path": "@biconomy"
            },
            "title": "Glad you could join our party with @ParticleNtwrk and @Transak ser ",
            "published_at": "2023-07-10T18:14:12Z",
            "slug": "Glad-you-could-join-our-party-with-ParticleNtwrk-and-Transak-ser",
            "currencies": [
                {
                    "code": "BICO",
                    "title": "Biconomy",
                    "slug": "biconomy",
                    "url": "https:\/\/cryptopanic.com\/news\/biconomy\/"
                }
            ],
            "id": 18754724,
            "url": "https:\/\/cryptopanic.com\/news\/18754724\/Glad-you-could-join-our-party-with-ParticleNtwrk-and-Transak-ser",
            "created_at": "2023-07-10T18:14:12Z",
            "votes": {
                "negative": 0,
                "positive": 0,
                "important": 0,
                "liked": 0,
                "disliked": 0,
                "lol": 0,
                "toxic": 0,
                "saved": 0,
                "comments": 0
            }
        },
        {
            "kind": "news",
            "domain": "@biconomy",
            "source": {
                "title": "Biconomy Twitter",
                "region": "en",
                "domain": "twitter.com",
                "path": "@biconomy"
            },
            "title": "An epic ensemble of Account Abstraction builders! \n\nJoin us with @ParticleNtwrk + @Transak to host these legends f\u2026",
            "published_at": "2023-07-10T16:41:44Z",
            "slug": "An-epic-ensemble-of-Account-Abstraction-builders-Join-us-with-ParticleNtwrk-Transak-to-host-these-legends-f",
            "currencies": [
                {
                    "code": "BICO",
                    "title": "Biconomy",
                    "slug": "biconomy",
                    "url": "https:\/\/cryptopanic.com\/news\/biconomy\/"
                }
            ],
            "id": 18754726,
            "url": "https:\/\/cryptopanic.com\/news\/18754726\/An-epic-ensemble-of-Account-Abstraction-builders-Join-us-with-ParticleNtwrk-Transak-to-host-these-legends-f",
            "created_at": "2023-07-10T16:41:44Z",
            "votes": {
                "negative": 0,
                "positive": 0,
                "important": 0,
                "liked": 0,
                "disliked": 0,
                "lol": 0,
                "toxic": 0,
                "saved": 0,
                "comments": 0
            }
        },
        {
            "kind": "news",
            "domain": "@biconomy",
            "source": {
                "title": "Biconomy Twitter",
                "region": "en",
                "domain": "twitter.com",
                "path": "@biconomy"
            },
            "title": "We are super excited to have these cool cats on the @developer_dao panel at InfraCon @ETHCC in Paris \ud83c\uddeb\ud83c\uddf7\n\n Jul 18 \u23f0\u2026",
            "published_at": "2023-07-10T15:41:12Z",
            "slug": "We-are-super-excited-to-have-these-cool-cats-on-the-developer_dao-panel-at-InfraCon-ETHCC-in-Paris-Jul-18",
            "currencies": [
                {
                    "code": "BICO",
                    "title": "Biconomy",
                    "slug": "biconomy",
                    "url": "https:\/\/cryptopanic.com\/news\/biconomy\/"
                }
            ],
            "id": 18754727,
            "url": "https:\/\/cryptopanic.com\/news\/18754727\/We-are-super-excited-to-have-these-cool-cats-on-the-developer_dao-panel-at-InfraCon-ETHCC-in-Paris-Jul-18",
            "created_at": "2023-07-10T15:41:12Z",
            "votes": {
                "negative": 0,
                "positive": 0,
                "important": 0,
                "liked": 0,
                "disliked": 0,
                "lol": 0,
                "toxic": 0,
                "saved": 0,
                "comments": 0
            }
        },
        {
            "kind": "news",
            "domain": "@biconomy",
            "source": {
                "title": "Biconomy Twitter",
                "region": "en",
                "domain": "twitter.com",
                "path": "@biconomy"
            },
            "title": "RT @oleg_fem: Paris, here I come! \n\nPop in to #InfraCon @EthCC \"SocialFi: Balancing User-Centric Design with Decentralization and Security\"\u2026",
            "published_at": "2023-07-10T14:50:20Z",
            "slug": "RT-oleg_fem-Paris-here-I-come-Pop-in-to-InfraCon-EthCC-SocialFi-Balancing-User-Centric-Design-with-Decentralization-and-Security",
            "currencies": [
                {
                    "code": "BICO",
                    "title": "Biconomy",
                    "slug": "biconomy",
                    "url": "https:\/\/cryptopanic.com\/news\/biconomy\/"
                }
            ],
            "id": 18754728,
            "url": "https:\/\/cryptopanic.com\/news\/18754728\/RT-oleg_fem-Paris-here-I-come-Pop-in-to-InfraCon-EthCC-SocialFi-Balancing-User-Centric-Design-with-Decentralization-and-Security",
            "created_at": "2023-07-10T14:50:20Z",
            "votes": {
                "negative": 0,
                "positive": 0,
                "important": 0,
                "liked": 0,
                "disliked": 0,
                "lol": 0,
                "toxic": 0,
                "saved": 0,
                "comments": 0
            }
        },
        {
            "kind": "news",
            "domain": "@biconomy",
            "source": {
                "title": "Biconomy Twitter",
                "region": "en",
                "domain": "twitter.com",
                "path": "@biconomy"
            },
            "title": "Q2 was a great quarter for account abstraction! \n\nWe went from going live on mainnet to now almost 80% marketshare!\u2026",
            "published_at": "2023-07-10T13:30:22Z",
            "slug": "Q2-was-a-great-quarter-for-account-abstraction-We-went-from-going-live-on-mainnet-to-now-almost-80-marketshare",
            "currencies": [
                {
                    "code": "BICO",
                    "title": "Biconomy",
                    "slug": "biconomy",
                    "url": "https:\/\/cryptopanic.com\/news\/biconomy\/"
                }
            ],
            "id": 18754729,
            "url": "https:\/\/cryptopanic.com\/news\/18754729\/Q2-was-a-great-quarter-for-account-abstraction-We-went-from-going-live-on-mainnet-to-now-almost-80-marketshare",
            "created_at": "2023-07-10T13:30:22Z",
            "votes": {
                "negative": 0,
                "positive": 0,
                "important": 0,
                "liked": 0,
                "disliked": 0,
                "lol": 0,
                "toxic": 0,
                "saved": 0,
                "comments": 0
            }
        },
        {
            "kind": "news",
            "domain": "@biconomy",
            "source": {
                "title": "Biconomy Twitter",
                "region": "en",
                "domain": "twitter.com",
                "path": "@biconomy"
            },
            "title": "We are delighted to announce that @Transak will join us \n as co-host for InfraCon@ETHCC \ud83c\uddeb\ud83c\uddf7\n\n&gt;40 speakers, 4 panels\u2026",
            "published_at": "2023-07-08T06:04:51Z",
            "slug": "We-are-delighted-to-announce-that-Transak-will-join-us-as-co-host-for-InfraConETHCC-gt40-speakers-4-panels",
            "currencies": [
                {
                    "code": "BICO",
                    "title": "Biconomy",
                    "slug": "biconomy",
                    "url": "https:\/\/cryptopanic.com\/news\/biconomy\/"
                }
            ],
            "id": 18744778,
            "url": "https:\/\/cryptopanic.com\/news\/18744778\/We-are-delighted-to-announce-that-Transak-will-join-us-as-co-host-for-InfraConETHCC-gt40-speakers-4-panels",
            "created_at": "2023-07-08T06:04:51Z",
            "votes": {
                "negative": 0,
                "positive": 0,
                "important": 0,
                "liked": 0,
                "disliked": 0,
                "lol": 0,
                "toxic": 0,
                "saved": 0,
                "comments": 0
            }
        },
        {
            "kind": "news",
            "domain": "@biconomy",
            "source": {
                "title": "Biconomy Twitter",
                "region": "en",
                "domain": "twitter.com",
                "path": "@biconomy"
            },
            "title": "RT @tonyolendo: Paris get ready. We're showcasing the power of AA-enabled dApps on @0xPolygon zkEVM at InfraCon @ETHCC!\n\n Thrilled to tag-t\u2026",
            "published_at": "2023-07-06T19:13:45Z",
            "slug": "RT-tonyolendo-Paris-get-ready-Were-showcasing-the-power-of-AA-enabled-dApps-on-0xPolygon-zkEVM-at-InfraCon-ETHCC-Thrilled-to-tag-t",
            "currencies": [
                {
                    "code": "BICO",
                    "title": "Biconomy",
                    "slug": "biconomy",
                    "url": "https:\/\/cryptopanic.com\/news\/biconomy\/"
                }
            ],
            "id": 18731104,
            "url": "https:\/\/cryptopanic.com\/news\/18731104\/RT-tonyolendo-Paris-get-ready-Were-showcasing-the-power-of-AA-enabled-dApps-on-0xPolygon-zkEVM-at-InfraCon-ETHCC-Thrilled-to-tag-t",
            "created_at": "2023-07-06T19:13:45Z",
            "votes": {
                "negative": 0,
                "positive": 0,
                "important": 0,
                "liked": 0,
                "disliked": 0,
                "lol": 0,
                "toxic": 0,
                "saved": 0,
                "comments": 0
            }
        },
        {
            "kind": "news",
            "domain": "@biconomy",
            "source": {
                "title": "Biconomy Twitter",
                "region": "en",
                "domain": "twitter.com",
                "path": "@biconomy"
            },
            "title": "RT @CapxFi: 6\/ ERC-4337 on Capx App\n\nCapx has implemented ERC-4337 Smart Accounts to issue IOU Tokens on @0xPolygon using @biconomy SDK\n\nP\u2026",
            "published_at": "2023-07-06T10:24:30Z",
            "slug": "RT-CapxFi-6-ERC-4337-on-Capx-App-Capx-has-implemented-ERC-4337-Smart-Accounts-to-issue-IOU-Tokens-on-0xPolygon-using-biconomy-SDK-P",
            "currencies": [
                {
                    "code": "BICO",
                    "title": "Biconomy",
                    "slug": "biconomy",
                    "url": "https:\/\/cryptopanic.com\/news\/biconomy\/"
                }
            ],
            "id": 18731105,
            "url": "https:\/\/cryptopanic.com\/news\/18731105\/RT-CapxFi-6-ERC-4337-on-Capx-App-Capx-has-implemented-ERC-4337-Smart-Accounts-to-issue-IOU-Tokens-on-0xPolygon-using-biconomy-SDK-P",
            "created_at": "2023-07-06T10:24:30Z",
            "votes": {
                "negative": 0,
                "positive": 0,
                "important": 0,
                "liked": 0,
                "disliked": 0,
                "lol": 0,
                "toxic": 0,
                "saved": 0,
                "comments": 0
            }
        },
        {
            "kind": "news",
            "domain": "@biconomy",
            "source": {
                "title": "Biconomy Twitter",
                "region": "en",
                "domain": "twitter.com",
                "path": "@biconomy"
            },
            "title": "Join the Road to InfraCon@ETHCC SocialFi panel today, starting in just a few hours @ETHCC",
            "published_at": "2023-07-06T09:47:59Z",
            "slug": "Join-the-Road-to-InfraConETHCC-SocialFi-panel-today-starting-in-just-a-few-hours-ETHCC",
            "currencies": [
                {
                    "code": "BICO",
                    "title": "Biconomy",
                    "slug": "biconomy",
                    "url": "https:\/\/cryptopanic.com\/news\/biconomy\/"
                }
            ],
            "id": 18731106,
            "url": "https:\/\/cryptopanic.com\/news\/18731106\/Join-the-Road-to-InfraConETHCC-SocialFi-panel-today-starting-in-just-a-few-hours-ETHCC",
            "created_at": "2023-07-06T09:47:59Z",
            "votes": {
                "negative": 0,
                "positive": 0,
                "important": 0,
                "liked": 0,
                "disliked": 0,
                "lol": 0,
                "toxic": 0,
                "saved": 0,
                "comments": 0
            }
        },
        {
            "kind": "news",
            "domain": "@biconomy",
            "source": {
                "title": "Biconomy Twitter",
                "region": "en",
                "domain": "twitter.com",
                "path": "@biconomy"
            },
            "title": "RT @LineaBuild: Who's ready for another dev workshop?\n\nJoin @_emjlin + @Rahatcodes to learn how account abstraction is gonna power seamless\u2026",
            "published_at": "2023-07-05T16:14:30Z",
            "slug": "RT-LineaBuild-Whos-ready-for-another-dev-workshop-Join-_emjlin-Rahatcodes-to-learn-how-account-abstraction-is-gonna-power-seamless",
            "currencies": [
                {
                    "code": "BICO",
                    "title": "Biconomy",
                    "slug": "biconomy",
                    "url": "https:\/\/cryptopanic.com\/news\/biconomy\/"
                }
            ],
            "id": 18722535,
            "url": "https:\/\/cryptopanic.com\/news\/18722535\/RT-LineaBuild-Whos-ready-for-another-dev-workshop-Join-_emjlin-Rahatcodes-to-learn-how-account-abstraction-is-gonna-power-seamless",
            "created_at": "2023-07-05T16:14:30Z",
            "votes": {
                "negative": 0,
                "positive": 0,
                "important": 0,
                "liked": 0,
                "disliked": 0,
                "lol": 0,
                "toxic": 0,
                "saved": 0,
                "comments": 0
            }
        },
        {
            "kind": "news",
            "domain": "@biconomy",
            "source": {
                "title": "Biconomy Twitter",
                "region": "en",
                "domain": "twitter.com",
                "path": "@biconomy"
            },
            "title": "This will be a good one! #rip #gasfees\n\nSign up for InfraCon@ETHCC, organised by Biconomy and @ParticleNtwrk, here:\u2026",
            "published_at": "2023-07-05T14:15:54Z",
            "slug": "This-will-be-a-good-one-rip-gasfees-Sign-up-for-InfraConETHCC-organised-by-Biconomy-and-ParticleNtwrk-here",
            "currencies": [
                {
                    "code": "BICO",
                    "title": "Biconomy",
                    "slug": "biconomy",
                    "url": "https:\/\/cryptopanic.com\/news\/biconomy\/"
                }
            ],
            "id": 18722536,
            "url": "https:\/\/cryptopanic.com\/news\/18722536\/This-will-be-a-good-one-rip-gasfees-Sign-up-for-InfraConETHCC-organised-by-Biconomy-and-ParticleNtwrk-here",
            "created_at": "2023-07-05T14:15:54Z",
            "votes": {
                "negative": 0,
                "positive": 0,
                "important": 0,
                "liked": 0,
                "disliked": 0,
                "lol": 0,
                "toxic": 0,
                "saved": 0,
                "comments": 0
            }
        },
        {
            "kind": "news",
            "domain": "@biconomy",
            "source": {
                "title": "Biconomy Twitter",
                "region": "en",
                "domain": "twitter.com",
                "path": "@biconomy"
            },
            "title": "See you in Paris, Ben \ud83c\uddeb\ud83c\uddf7 @TheSandboxGame \n\nRegister to join us at InfraCon@ETHCC",
            "published_at": "2023-07-05T09:46:15Z",
            "slug": "See-you-in-Paris-Ben-TheSandboxGame-Register-to-join-us-at-InfraConETHCC",
            "currencies": [
                {
                    "code": "BICO",
                    "title": "Biconomy",
                    "slug": "biconomy",
                    "url": "https:\/\/cryptopanic.com\/news\/biconomy\/"
                }
            ],
            "id": 18722537,
            "url": "https:\/\/cryptopanic.com\/news\/18722537\/See-you-in-Paris-Ben-TheSandboxGame-Register-to-join-us-at-InfraConETHCC",
            "created_at": "2023-07-05T09:46:15Z",
            "votes": {
                "negative": 0,
                "positive": 0,
                "important": 0,
                "liked": 0,
                "disliked": 0,
                "lol": 0,
                "toxic": 0,
                "saved": 0,
                "comments": 0
            }
        },
        {
            "kind": "news",
            "domain": "@biconomy",
            "source": {
                "title": "Biconomy Twitter",
                "region": "en",
                "domain": "twitter.com",
                "path": "@biconomy"
            },
            "title": "Claim your Apex Bulls! \n\nMinting made Gasless with Biconomy ",
            "published_at": "2023-07-04T16:18:10Z",
            "slug": "Claim-your-Apex-Bulls-Minting-made-Gasless-with-Biconomy",
            "currencies": [
                {
                    "code": "BICO",
                    "title": "Biconomy",
                    "slug": "biconomy",
                    "url": "https:\/\/cryptopanic.com\/news\/biconomy\/"
                }
            ],
            "id": 18714962,
            "url": "https:\/\/cryptopanic.com\/news\/18714962\/Claim-your-Apex-Bulls-Minting-made-Gasless-with-Biconomy",
            "created_at": "2023-07-04T16:18:10Z",
            "votes": {
                "negative": 0,
                "positive": 0,
                "important": 0,
                "liked": 0,
                "disliked": 0,
                "lol": 0,
                "toxic": 0,
                "saved": 0,
                "comments": 0
            }
        },
        {
            "kind": "news",
            "domain": "@biconomy",
            "source": {
                "title": "Biconomy Twitter",
                "region": "en",
                "domain": "twitter.com",
                "path": "@biconomy"
            },
            "title": "RT @0xmercle: 5\/5  What are you waiting for?\nLog onto Mercle's App Now and claim your free APEX Bull. (LINK IN BIO)\n\nAnd Thanks to @Bicono\u2026",
            "published_at": "2023-07-04T16:16:49Z",
            "slug": "RT-0xmercle-55-What-are-you-waiting-for-Log-onto-Mercles-App-Now-and-claim-your-free-APEX-Bull-LINK-IN-BIO-And-Thanks-to-Bicono",
            "currencies": [
                {
                    "code": "BICO",
                    "title": "Biconomy",
                    "slug": "biconomy",
                    "url": "https:\/\/cryptopanic.com\/news\/biconomy\/"
                }
            ],
            "id": 18714963,
            "url": "https:\/\/cryptopanic.com\/news\/18714963\/RT-0xmercle-55-What-are-you-waiting-for-Log-onto-Mercles-App-Now-and-claim-your-free-APEX-Bull-LINK-IN-BIO-And-Thanks-to-Bicono",
            "created_at": "2023-07-04T16:16:49Z",
            "votes": {
                "negative": 0,
                "positive": 0,
                "important": 0,
                "liked": 0,
                "disliked": 0,
                "lol": 0,
                "toxic": 0,
                "saved": 0,
                "comments": 0
            }
        },
        {
            "kind": "news",
            "domain": "@biconomy",
            "source": {
                "title": "Biconomy Twitter",
                "region": "en",
                "domain": "twitter.com",
                "path": "@biconomy"
            },
            "title": "Join us with friends @ratedw3b , @ObolNetwork and @liquid_col for a summer's Parisian picnic like no other! \ud83c\uddeb\ud83c\uddf7 \ud83e\uddfa \ud83e\udd50\u2026",
            "published_at": "2023-07-04T13:32:39Z",
            "slug": "Join-us-with-friends-ratedw3b-ObolNetwork-and-liquid_col-for-a-summers-Parisian-picnic-like-no-other",
            "currencies": [
                {
                    "code": "BICO",
                    "title": "Biconomy",
                    "slug": "biconomy",
                    "url": "https:\/\/cryptopanic.com\/news\/biconomy\/"
                }
            ],
            "id": 18714964,
            "url": "https:\/\/cryptopanic.com\/news\/18714964\/Join-us-with-friends-ratedw3b-ObolNetwork-and-liquid_col-for-a-summers-Parisian-picnic-like-no-other",
            "created_at": "2023-07-04T13:32:39Z",
            "votes": {
                "negative": 0,
                "positive": 0,
                "important": 0,
                "liked": 0,
                "disliked": 0,
                "lol": 0,
                "toxic": 0,
                "saved": 0,
                "comments": 0
            }
        }
    ]
}
