{
    "count": 200,
    "next": "https:\/\/cryptopanic.com\/api\/v1\/posts\/?auth_token=01c356e89ffc1b8eba2127c81fc8c66ee0eace75&kind=news&currencies=OAX&page=2",
    "previous": null,
    "results": [
        {
            "kind": "news",
            "domain": "@OAX_Foundation",
            "source": {
                "title": "OAX Twitter",
                "region": "en",
                "domain": "twitter.com",
                "path": "@oax_foundation"
            },
            "title": "RT @Notifs_app: ... For us, it's #NotifsApp all the way \n\n#meme #cryptomeme #cryptotracker #cryptoalert #cryptomarket #digitalassets #blo\u2026",
            "published_at": "2023-07-12T08:15:06Z",
            "slug": "RT-Notifs_app-For-us-its-NotifsApp-all-the-way-meme-cryptomeme-cryptotracker-cryptoalert-cryptomarket-digitalassets-blo",
            "currencies": [
                {
                    "code": "OAX",
                    "title": "OAX",
                    "slug": "openanx",
                    "url": "https:\/\/cryptopanic.com\/news\/openanx\/"
                }
            ],
            "id": 18766059,
            "url": "https:\/\/cryptopanic.com\/news\/18766059\/RT-Notifs_app-For-us-its-NotifsApp-all-the-way-meme-cryptomeme-cryptotracker-cryptoalert-cryptomarket-digitalassets-blo",
            "created_at": "2023-07-12T08:15:06Z",
            "votes": {
                "negative": 0,
                "positive": 0,
                "important": 0,
                "liked": 0,
                "disliked": 0,
                "lol": 0,
                "toxic": 0,
                "saved": 0,
                "comments": 0
            }
        },
        {
            "kind": "news",
            "domain": "@OAX_Foundation",
            "source": {
                "title": "OAX Twitter",
                "region": "en",
                "domain": "twitter.com",
                "path": "@oax_foundation"
            },
            "title": "The #digitalassets space has been full of movements recently, but one thing to highlight is the increase of institu\u2026",
            "published_at": "2023-07-11T10:03:06Z",
            "slug": "The-digitalassets-space-has-been-full-of-movements-recently-but-one-thing-to-highlight-is-the-increase-of-institu",
            "currencies": [
                {
                    "code": "OAX",
                    "title": "OAX",
                    "slug": "openanx",
                    "url": "https:\/\/cryptopanic.com\/news\/openanx\/"
                }
            ],
            "id": 18766061,
            "url": "https:\/\/cryptopanic.com\/news\/18766061\/The-digitalassets-space-has-been-full-of-movements-recently-but-one-thing-to-highlight-is-the-increase-of-institu",
            "created_at": "2023-07-11T10:03:06Z",
            "votes": {
                "negative": 0,
                "positive": 0,
                "important": 0,
                "liked": 0,
                "disliked": 0,
                "lol": 0,
                "toxic": 0,
                "saved": 0,
                "comments": 0
            }
        },
        {
            "kind": "news",
            "domain": "@OAX_Foundation",
            "source": {
                "title": "OAX Twitter",
                "region": "en",
                "domain": "twitter.com",
                "path": "@oax_foundation"
            },
            "title": "RT @decryptmedia: Does this mean AI can cure cancer? Not yet\u2014but it's one step in the right direction.",
            "published_at": "2023-07-11T02:37:35Z",
            "slug": "RT-decryptmedia-Does-this-mean-AI-can-cure-cancer-Not-yetbut-its-one-step-in-the-right-direction",
            "currencies": [
                {
                    "code": "OAX",
                    "title": "OAX",
                    "slug": "openanx",
                    "url": "https:\/\/cryptopanic.com\/news\/openanx\/"
                }
            ],
            "id": 18757922,
            "url": "https:\/\/cryptopanic.com\/news\/18757922\/RT-decryptmedia-Does-this-mean-AI-can-cure-cancer-Not-yetbut-its-one-step-in-the-right-direction",
            "created_at": "2023-07-11T02:37:35Z",
            "votes": {
                "negative": 0,
                "positive": 0,
                "important": 0,
                "liked": 0,
                "disliked": 0,
                "lol": 0,
                "toxic": 0,
                "saved": 0,
                "comments": 0
            }
        },
        {
            "kind": "news",
            "domain": "@OAX_Foundation",
            "source": {
                "title": "OAX Twitter",
                "region": "en",
                "domain": "twitter.com",
                "path": "@oax_foundation"
            },
            "title": "Join our poll, leave a comment and stand a chance to win from a prize pool of 100 $USDT \ud83e\udd73\n\n#digitalassets\u2026",
            "published_at": "2023-07-10T13:07:51Z",
            "slug": "Join-our-poll-leave-a-comment-and-stand-a-chance-to-win-from-a-prize-pool-of-100-USDT-digitalassets",
            "currencies": [
                {
                    "code": "OAX",
                    "title": "OAX",
                    "slug": "openanx",
                    "url": "https:\/\/cryptopanic.com\/news\/openanx\/"
                }
            ],
            "id": 18757923,
            "url": "https:\/\/cryptopanic.com\/news\/18757923\/Join-our-poll-leave-a-comment-and-stand-a-chance-to-win-from-a-prize-pool-of-100-USDT-digitalassets",
            "created_at": "2023-07-10T13:07:51Z",
            "votes": {
                "negative": 0,
                "positive": 0,
                "important": 0,
                "liked": 0,
                "disliked": 0,
                "lol": 0,
                "toxic": 0,
                "saved": 0,
                "comments": 0
            }
        },
        {
            "kind": "news",
            "domain": "@OAX_Foundation",
            "source": {
                "title": "OAX Twitter",
                "region": "en",
                "domain": "twitter.com",
                "path": "@oax_foundation"
            },
            "title": "Join our #poll for #NotifsApp, tell us 'Why' and WIN from a Prize Pool of $100! \n\nHey guys, we're planning out\u2026",
            "published_at": "2023-07-10T05:29:00Z",
            "slug": "Join-our-poll-for-NotifsApp-tell-us-Why-and-WIN-from-a-Prize-Pool-of-100-Hey-guys-were-planning-out",
            "currencies": [
                {
                    "code": "OAX",
                    "title": "OAX",
                    "slug": "openanx",
                    "url": "https:\/\/cryptopanic.com\/news\/openanx\/"
                }
            ],
            "id": 18750745,
            "url": "https:\/\/cryptopanic.com\/news\/18750745\/Join-our-poll-for-NotifsApp-tell-us-Why-and-WIN-from-a-Prize-Pool-of-100-Hey-guys-were-planning-out",
            "created_at": "2023-07-10T05:29:00Z",
            "votes": {
                "negative": 0,
                "positive": 0,
                "important": 0,
                "liked": 0,
                "disliked": 0,
                "lol": 0,
                "toxic": 0,
                "saved": 0,
                "comments": 0
            }
        },
        {
            "kind": "news",
            "domain": "@OAX_Foundation",
            "source": {
                "title": "OAX Twitter",
                "region": "en",
                "domain": "twitter.com",
                "path": "@oax_foundation"
            },
            "title": "Great news for @Notifs_app! \n\n#digitalassets #OAX #cryptoalerts #crypto #defi #web3 #cryptocurrency",
            "published_at": "2023-07-09T17:05:32Z",
            "slug": "Great-news-for-Notifs_app-digitalassets-OAX-cryptoalerts-crypto-defi-web3-cryptocurrency",
            "currencies": [
                {
                    "code": "OAX",
                    "title": "OAX",
                    "slug": "openanx",
                    "url": "https:\/\/cryptopanic.com\/news\/openanx\/"
                }
            ],
            "id": 18750746,
            "url": "https:\/\/cryptopanic.com\/news\/18750746\/Great-news-for-Notifs_app-digitalassets-OAX-cryptoalerts-crypto-defi-web3-cryptocurrency",
            "created_at": "2023-07-09T17:05:32Z",
            "votes": {
                "negative": 0,
                "positive": 0,
                "important": 0,
                "liked": 0,
                "disliked": 0,
                "lol": 0,
                "toxic": 0,
                "saved": 0,
                "comments": 0
            }
        },
        {
            "kind": "news",
            "domain": "@OAX_Foundation",
            "source": {
                "title": "OAX Twitter",
                "region": "en",
                "domain": "twitter.com",
                "path": "@oax_foundation"
            },
            "title": "RT @coingecko: NEWS: Larry Fink, the CEO of BlackRock, calls Bitcoin an \u2018International Asset,\u2019 emphasizing that investors can utilize it as\u2026",
            "published_at": "2023-07-09T08:45:42Z",
            "slug": "RT-coingecko-NEWS-Larry-Fink-the-CEO-of-BlackRock-calls-Bitcoin-an-International-Asset-emphasizing-that-investors-can-utilize-it-as",
            "currencies": [
                {
                    "code": "OAX",
                    "title": "OAX",
                    "slug": "openanx",
                    "url": "https:\/\/cryptopanic.com\/news\/openanx\/"
                }
            ],
            "id": 18750747,
            "url": "https:\/\/cryptopanic.com\/news\/18750747\/RT-coingecko-NEWS-Larry-Fink-the-CEO-of-BlackRock-calls-Bitcoin-an-International-Asset-emphasizing-that-investors-can-utilize-it-as",
            "created_at": "2023-07-09T08:45:42Z",
            "votes": {
                "negative": 0,
                "positive": 0,
                "important": 0,
                "liked": 0,
                "disliked": 0,
                "lol": 0,
                "toxic": 0,
                "saved": 0,
                "comments": 0
            }
        },
        {
            "kind": "news",
            "domain": "@OAX_Foundation",
            "source": {
                "title": "OAX Twitter",
                "region": "en",
                "domain": "twitter.com",
                "path": "@oax_foundation"
            },
            "title": "A big 'hello' from #Vietnam blockchain week! \ud83c\uddfb\ud83c\uddf3 @gmvn_official\n\nWe're thrilled to be able to attend the event, netw\u2026",
            "published_at": "2023-07-07T12:53:56Z",
            "slug": "A-big-hello-from-Vietnam-blockchain-week-gmvn_official-Were-thrilled-to-be-able-to-attend-the-event-netw",
            "currencies": [
                {
                    "code": "OAX",
                    "title": "OAX",
                    "slug": "openanx",
                    "url": "https:\/\/cryptopanic.com\/news\/openanx\/"
                }
            ],
            "id": 18741637,
            "url": "https:\/\/cryptopanic.com\/news\/18741637\/A-big-hello-from-Vietnam-blockchain-week-gmvn_official-Were-thrilled-to-be-able-to-attend-the-event-netw",
            "created_at": "2023-07-07T12:53:56Z",
            "votes": {
                "negative": 0,
                "positive": 0,
                "important": 0,
                "liked": 0,
                "disliked": 0,
                "lol": 0,
                "toxic": 0,
                "saved": 0,
                "comments": 0
            }
        },
        {
            "kind": "news",
            "domain": "@OAX_Foundation",
            "source": {
                "title": "OAX Twitter",
                "region": "en",
                "domain": "twitter.com",
                "path": "@oax_foundation"
            },
            "title": "RT @coingecko: 1\/ Which Southeast Asia countries are the most interested in #crypto?\n\nOur study shows that #Singapore \ud83c\uddf8\ud83c\uddec is the country mos\u2026",
            "published_at": "2023-07-06T08:47:19Z",
            "slug": "RT-coingecko-1-Which-Southeast-Asia-countries-are-the-most-interested-in-crypto-Our-study-shows-that-Singapore-is-the-country-mos",
            "currencies": [
                {
                    "code": "OAX",
                    "title": "OAX",
                    "slug": "openanx",
                    "url": "https:\/\/cryptopanic.com\/news\/openanx\/"
                }
            ],
            "id": 18734169,
            "url": "https:\/\/cryptopanic.com\/news\/18734169\/RT-coingecko-1-Which-Southeast-Asia-countries-are-the-most-interested-in-crypto-Our-study-shows-that-Singapore-is-the-country-mos",
            "created_at": "2023-07-06T08:47:19Z",
            "votes": {
                "negative": 0,
                "positive": 0,
                "important": 0,
                "liked": 0,
                "disliked": 0,
                "lol": 0,
                "toxic": 0,
                "saved": 0,
                "comments": 0
            }
        },
        {
            "kind": "news",
            "domain": "@OAX_Foundation",
            "source": {
                "title": "OAX Twitter",
                "region": "en",
                "domain": "twitter.com",
                "path": "@oax_foundation"
            },
            "title": "RT @coingecko: Southeast Asia Countries Most Interested in Crypto\n\n1. Singapore \ud83c\uddf8\ud83c\uddec\n2. Philippines \ud83c\uddf5\ud83c\udded\n3. Malaysia \ud83c\uddf2\ud83c\uddfe\n4. Thailand \ud83c\uddf9\ud83c\udded\n5. Vietn\u2026",
            "published_at": "2023-07-06T03:08:54Z",
            "slug": "RT-coingecko-Southeast-Asia-Countries-Most-Interested-in-Crypto-1-Singapore-2-Philippines-3-Malaysia-4-Thailand-5-Vietn",
            "currencies": [
                {
                    "code": "OAX",
                    "title": "OAX",
                    "slug": "openanx",
                    "url": "https:\/\/cryptopanic.com\/news\/openanx\/"
                }
            ],
            "id": 18725711,
            "url": "https:\/\/cryptopanic.com\/news\/18725711\/RT-coingecko-Southeast-Asia-Countries-Most-Interested-in-Crypto-1-Singapore-2-Philippines-3-Malaysia-4-Thailand-5-Vietn",
            "created_at": "2023-07-06T03:08:54Z",
            "votes": {
                "negative": 0,
                "positive": 0,
                "important": 0,
                "liked": 0,
                "disliked": 0,
                "lol": 0,
                "toxic": 0,
                "saved": 0,
                "comments": 0
            }
        },
        {
            "kind": "news",
            "domain": "@OAX_Foundation",
            "source": {
                "title": "OAX Twitter",
                "region": "en",
                "domain": "twitter.com",
                "path": "@oax_foundation"
            },
            "title": "You can now paste your #Ethereum wallet address in Notifs - an even easier way to track your portfolio! \ud83e\udd73 \nThis is\u2026",
            "published_at": "2023-07-05T17:24:02Z",
            "slug": "You-can-now-paste-your-Ethereum-wallet-address-in-Notifs-an-even-easier-way-to-track-your-portfolio-This-is",
            "currencies": [
                {
                    "code": "OAX",
                    "title": "OAX",
                    "slug": "openanx",
                    "url": "https:\/\/cryptopanic.com\/news\/openanx\/"
                }
            ],
            "id": 18725712,
            "url": "https:\/\/cryptopanic.com\/news\/18725712\/You-can-now-paste-your-Ethereum-wallet-address-in-Notifs-an-even-easier-way-to-track-your-portfolio-This-is",
            "created_at": "2023-07-05T17:24:02Z",
            "votes": {
                "negative": 0,
                "positive": 0,
                "important": 0,
                "liked": 0,
                "disliked": 0,
                "lol": 0,
                "toxic": 0,
                "saved": 0,
                "comments": 0
            }
        },
        {
            "kind": "news",
            "domain": "@OAX_Foundation",
            "source": {
                "title": "OAX Twitter",
                "region": "en",
                "domain": "twitter.com",
                "path": "@oax_foundation"
            },
            "title": "Get up-to-date on crypto prices with @Notifs_app! \ud83e\udd73\ud83e\udd73\n\n#btc #eth #OAX #cryptoalerts #digitalassets #blockchain",
            "published_at": "2023-07-04T13:41:11Z",
            "slug": "Get-up-to-date-on-crypto-prices-with-Notifs_app-btc-eth-OAX-cryptoalerts-digitalassets-blockchain",
            "currencies": [
                {
                    "code": "OAX",
                    "title": "OAX",
                    "slug": "openanx",
                    "url": "https:\/\/cryptopanic.com\/news\/openanx\/"
                }
            ],
            "id": 18717800,
            "url": "https:\/\/cryptopanic.com\/news\/18717800\/Get-up-to-date-on-crypto-prices-with-Notifs_app-btc-eth-OAX-cryptoalerts-digitalassets-blockchain",
            "created_at": "2023-07-04T13:41:11Z",
            "votes": {
                "negative": 0,
                "positive": 0,
                "important": 0,
                "liked": 0,
                "disliked": 0,
                "lol": 0,
                "toxic": 0,
                "saved": 0,
                "comments": 0
            }
        },
        {
            "kind": "news",
            "domain": "@OAX_Foundation",
            "source": {
                "title": "OAX Twitter",
                "region": "en",
                "domain": "twitter.com",
                "path": "@oax_foundation"
            },
            "title": "RT @Cointelegraph: Hong Kong crypto ETFs grew 80% over the past six months, Binance co-founder Yi He warns degens of the dangers of apeing\u2026",
            "published_at": "2023-07-04T09:26:51Z",
            "slug": "RT-Cointelegraph-Hong-Kong-crypto-ETFs-grew-80-over-the-past-six-months-Binance-co-founder-Yi-He-warns-degens-of-the-dangers-of-apeing",
            "currencies": [
                {
                    "code": "OAX",
                    "title": "OAX",
                    "slug": "openanx",
                    "url": "https:\/\/cryptopanic.com\/news\/openanx\/"
                }
            ],
            "id": 18717801,
            "url": "https:\/\/cryptopanic.com\/news\/18717801\/RT-Cointelegraph-Hong-Kong-crypto-ETFs-grew-80-over-the-past-six-months-Binance-co-founder-Yi-He-warns-degens-of-the-dangers-of-apeing",
            "created_at": "2023-07-04T09:26:51Z",
            "votes": {
                "negative": 0,
                "positive": 0,
                "important": 0,
                "liked": 0,
                "disliked": 0,
                "lol": 0,
                "toxic": 0,
                "saved": 0,
                "comments": 0
            }
        },
        {
            "kind": "news",
            "domain": "@OAX_Foundation",
            "source": {
                "title": "OAX Twitter",
                "region": "en",
                "domain": "twitter.com",
                "path": "@oax_foundation"
            },
            "title": "RT @Cointelegraph:  Singapore\u2019s central bank is working to require crypto service providers to hold customer assets in a statutory trust b\u2026",
            "published_at": "2023-07-04T06:11:32Z",
            "slug": "RT-Cointelegraph-Singapores-central-bank-is-working-to-require-crypto-service-providers-to-hold-customer-assets-in-a-statutory-trust-b",
            "currencies": [
                {
                    "code": "OAX",
                    "title": "OAX",
                    "slug": "openanx",
                    "url": "https:\/\/cryptopanic.com\/news\/openanx\/"
                }
            ],
            "id": 18710683,
            "url": "https:\/\/cryptopanic.com\/news\/18710683\/RT-Cointelegraph-Singapores-central-bank-is-working-to-require-crypto-service-providers-to-hold-customer-assets-in-a-statutory-trust-b",
            "created_at": "2023-07-04T06:11:32Z",
            "votes": {
                "negative": 0,
                "positive": 0,
                "important": 0,
                "liked": 0,
                "disliked": 0,
                "lol": 0,
                "toxic": 0,
                "saved": 0,
                "comments": 0
            }
        },
        {
            "kind": "news",
            "domain": "@OAX_Foundation",
            "source": {
                "title": "OAX Twitter",
                "region": "en",
                "domain": "twitter.com",
                "path": "@oax_foundation"
            },
            "title": "RT @coingecko: JUST IN: #Bitcoin back above $31K",
            "published_at": "2023-07-03T17:47:53Z",
            "slug": "RT-coingecko-JUST-IN-Bitcoin-back-above-31K",
            "currencies": [
                {
                    "code": "OAX",
                    "title": "OAX",
                    "slug": "openanx",
                    "url": "https:\/\/cryptopanic.com\/news\/openanx\/"
                }
            ],
            "id": 18710684,
            "url": "https:\/\/cryptopanic.com\/news\/18710684\/RT-coingecko-JUST-IN-Bitcoin-back-above-31K",
            "created_at": "2023-07-03T17:47:53Z",
            "votes": {
                "negative": 0,
                "positive": 0,
                "important": 0,
                "liked": 0,
                "disliked": 0,
                "lol": 0,
                "toxic": 0,
                "saved": 0,
                "comments": 0
            }
        },
        {
            "kind": "news",
            "domain": "@OAX_Foundation",
            "source": {
                "title": "OAX Twitter",
                "region": "en",
                "domain": "twitter.com",
                "path": "@oax_foundation"
            },
            "title": "RT @crypto: The SEC's crackdown on crypto has seen Asia emerge as a haven for traders",
            "published_at": "2023-07-03T04:37:36Z",
            "slug": "RT-crypto-The-SECs-crackdown-on-crypto-has-seen-Asia-emerge-as-a-haven-for-traders",
            "currencies": [
                {
                    "code": "OAX",
                    "title": "OAX",
                    "slug": "openanx",
                    "url": "https:\/\/cryptopanic.com\/news\/openanx\/"
                }
            ],
            "id": 18703844,
            "url": "https:\/\/cryptopanic.com\/news\/18703844\/RT-crypto-The-SECs-crackdown-on-crypto-has-seen-Asia-emerge-as-a-haven-for-traders",
            "created_at": "2023-07-03T04:37:36Z",
            "votes": {
                "negative": 0,
                "positive": 0,
                "important": 0,
                "liked": 0,
                "disliked": 0,
                "lol": 0,
                "toxic": 0,
                "saved": 0,
                "comments": 0
            }
        },
        {
            "kind": "news",
            "domain": "@OAX_Foundation",
            "source": {
                "title": "OAX Twitter",
                "region": "en",
                "domain": "twitter.com",
                "path": "@oax_foundation"
            },
            "title": "RT @decryptmedia: This Week on Crypto Twitter: Brian Armstrong and Jack Dorsey Blast Apple\u2019s App Store Crypto Clampdown\n\u25ba",
            "published_at": "2023-07-02T17:32:34Z",
            "slug": "RT-decryptmedia-This-Week-on-Crypto-Twitter-Brian-Armstrong-and-Jack-Dorsey-Blast-Apples-App-Store-Crypto-Clampdown",
            "currencies": [
                {
                    "code": "OAX",
                    "title": "OAX",
                    "slug": "openanx",
                    "url": "https:\/\/cryptopanic.com\/news\/openanx\/"
                }
            ],
            "id": 18703845,
            "url": "https:\/\/cryptopanic.com\/news\/18703845\/RT-decryptmedia-This-Week-on-Crypto-Twitter-Brian-Armstrong-and-Jack-Dorsey-Blast-Apples-App-Store-Crypto-Clampdown",
            "created_at": "2023-07-02T17:32:34Z",
            "votes": {
                "negative": 0,
                "positive": 0,
                "important": 0,
                "liked": 0,
                "disliked": 0,
                "lol": 0,
                "toxic": 0,
                "saved": 0,
                "comments": 0
            }
        },
        {
            "kind": "news",
            "domain": "@OAX_Foundation",
            "source": {
                "title": "OAX Twitter",
                "region": "en",
                "domain": "twitter.com",
                "path": "@oax_foundation"
            },
            "title": "RT @Notifs_app: A huge shoutout to every single one of you who joined our #Token2049 #Referral campaign! \ud83e\udd73\n\nThank you for the immense suppo\u2026",
            "published_at": "2023-07-02T09:09:31Z",
            "slug": "RT-Notifs_app-A-huge-shoutout-to-every-single-one-of-you-who-joined-our-Token2049-Referral-campaign-Thank-you-for-the-immense-suppo",
            "currencies": [
                {
                    "code": "OAX",
                    "title": "OAX",
                    "slug": "openanx",
                    "url": "https:\/\/cryptopanic.com\/news\/openanx\/"
                }
            ],
            "id": 18703846,
            "url": "https:\/\/cryptopanic.com\/news\/18703846\/RT-Notifs_app-A-huge-shoutout-to-every-single-one-of-you-who-joined-our-Token2049-Referral-campaign-Thank-you-for-the-immense-suppo",
            "created_at": "2023-07-02T09:09:31Z",
            "votes": {
                "negative": 0,
                "positive": 0,
                "important": 0,
                "liked": 0,
                "disliked": 0,
                "lol": 0,
                "toxic": 0,
                "saved": 0,
                "comments": 0
            }
        },
        {
            "kind": "news",
            "domain": "@OAX_Foundation",
            "source": {
                "title": "OAX Twitter",
                "region": "en",
                "domain": "twitter.com",
                "path": "@oax_foundation"
            },
            "title": "RT @BitcoinMagazine: JUST IN: $4.5 trillion Fidelity officially refiles its spot #Bitcoin ETF with the SEC",
            "published_at": "2023-07-01T09:37:54Z",
            "slug": "RT-BitcoinMagazine-JUST-IN-45-trillion-Fidelity-officially-refiles-its-spot-Bitcoin-ETF-with-the-SEC",
            "currencies": [
                {
                    "code": "OAX",
                    "title": "OAX",
                    "slug": "openanx",
                    "url": "https:\/\/cryptopanic.com\/news\/openanx\/"
                }
            ],
            "id": 18699563,
            "url": "https:\/\/cryptopanic.com\/news\/18699563\/RT-BitcoinMagazine-JUST-IN-45-trillion-Fidelity-officially-refiles-its-spot-Bitcoin-ETF-with-the-SEC",
            "created_at": "2023-07-01T09:37:54Z",
            "votes": {
                "negative": 0,
                "positive": 0,
                "important": 0,
                "liked": 0,
                "disliked": 0,
                "lol": 0,
                "toxic": 0,
                "saved": 0,
                "comments": 0
            }
        },
        {
            "kind": "news",
            "domain": "@OAX_Foundation",
            "source": {
                "title": "OAX Twitter",
                "region": "en",
                "domain": "twitter.com",
                "path": "@oax_foundation"
            },
            "title": "RT @BitcoinMagazine: JUST IN: \ud83c\uddec\ud83c\udde7 UK passes bill into law recognizing #Bitcoin and crypto as regulated financial activity.",
            "published_at": "2023-06-30T04:49:33Z",
            "slug": "RT-BitcoinMagazine-JUST-IN-UK-passes-bill-into-law-recognizing-Bitcoin-and-crypto-as-regulated-financial-activity",
            "currencies": [
                {
                    "code": "OAX",
                    "title": "OAX",
                    "slug": "openanx",
                    "url": "https:\/\/cryptopanic.com\/news\/openanx\/"
                }
            ],
            "id": 18687282,
            "url": "https:\/\/cryptopanic.com\/news\/18687282\/RT-BitcoinMagazine-JUST-IN-UK-passes-bill-into-law-recognizing-Bitcoin-and-crypto-as-regulated-financial-activity",
            "created_at": "2023-06-30T04:49:33Z",
            "votes": {
                "negative": 0,
                "positive": 0,
                "important": 0,
                "liked": 0,
                "disliked": 0,
                "lol": 0,
                "toxic": 0,
                "saved": 0,
                "comments": 0
            }
        }
    ]
}
