{
    "count": 200,
    "next": "https:\/\/cryptopanic.com\/api\/v1\/posts\/?auth_token=01c356e89ffc1b8eba2127c81fc8c66ee0eace75&kind=news&currencies=HARD&page=2",
    "previous": null,
    "results": [
        {
            "kind": "news",
            "domain": "@hard_protocol",
            "source": {
                "title": "HARD Protocol Twitter",
                "region": "en",
                "domain": "twitter.com",
                "path": "@hard_protocol"
            },
            "title": "RT @kava_platform: Kava 9 is coming with #IBC support and a $150K testnet competition.\n\nTo celebrate, Kava is giving away 100 prizes of $10\u2026",
            "published_at": "2021-12-01T00:41:01Z",
            "slug": "RT-kava_platform-Kava-9-is-coming-with-IBC-support-and-a-150K-testnet-competition-To-celebrate-Kava-is-giving-away-100-prizes-of-10",
            "currencies": [
                {
                    "code": "HARD",
                    "title": "Kava Lend",
                    "slug": "kava-lend",
                    "url": "https:\/\/cryptopanic.com\/news\/kava-lend\/"
                }
            ],
            "id": 13520612,
            "url": "https:\/\/cryptopanic.com\/news\/13520612\/RT-kava_platform-Kava-9-is-coming-with-IBC-support-and-a-150K-testnet-competition-To-celebrate-Kava-is-giving-away-100-prizes-of-10",
            "created_at": "2021-12-01T00:41:01Z",
            "votes": {
                "negative": 0,
                "positive": 0,
                "important": 0,
                "liked": 0,
                "disliked": 0,
                "lol": 0,
                "toxic": 0,
                "saved": 0,
                "comments": 0
            }
        },
        {
            "kind": "news",
            "domain": "@hard_protocol",
            "source": {
                "title": "HARD Protocol Twitter",
                "region": "en",
                "domain": "twitter.com",
                "path": "@hard_protocol"
            },
            "title": "$HARD is listing on @KuCoincom!\n\nTrading goes live Dec 1 at 10:00 UTC",
            "published_at": "2021-11-30T10:00:14Z",
            "slug": "HARD-is-listing-on-KuCoincom-Trading-goes-live-Dec-1-at-1000-UTC",
            "currencies": [
                {
                    "code": "HARD",
                    "title": "Kava Lend",
                    "slug": "kava-lend",
                    "url": "https:\/\/cryptopanic.com\/news\/kava-lend\/"
                }
            ],
            "id": 13520613,
            "url": "https:\/\/cryptopanic.com\/news\/13520613\/HARD-is-listing-on-KuCoincom-Trading-goes-live-Dec-1-at-1000-UTC",
            "created_at": "2021-11-30T10:00:14Z",
            "votes": {
                "negative": 0,
                "positive": 0,
                "important": 0,
                "liked": 0,
                "disliked": 0,
                "lol": 0,
                "toxic": 0,
                "saved": 0,
                "comments": 0
            }
        },
        {
            "kind": "news",
            "domain": "@hard_protocol",
            "source": {
                "title": "HARD Protocol Twitter",
                "region": "en",
                "domain": "twitter.com",
                "path": "@hard_protocol"
            },
            "title": "Lever up your earning #crypto earning power with Kava Lend! \n\nLearn More: \nEarn Now:\u2026",
            "published_at": "2021-11-29T20:00:00Z",
            "slug": "Lever-up-your-earning-crypto-earning-power-with-Kava-Lend-Learn-More-Earn-Now",
            "currencies": [
                {
                    "code": "HARD",
                    "title": "Kava Lend",
                    "slug": "kava-lend",
                    "url": "https:\/\/cryptopanic.com\/news\/kava-lend\/"
                }
            ],
            "id": 13507452,
            "url": "https:\/\/cryptopanic.com\/news\/13507452\/Lever-up-your-earning-crypto-earning-power-with-Kava-Lend-Learn-More-Earn-Now",
            "created_at": "2021-11-29T20:00:00Z",
            "votes": {
                "negative": 0,
                "positive": 0,
                "important": 0,
                "liked": 0,
                "disliked": 0,
                "lol": 0,
                "toxic": 0,
                "saved": 0,
                "comments": 0
            }
        },
        {
            "kind": "news",
            "domain": "@hard_protocol",
            "source": {
                "title": "HARD Protocol Twitter",
                "region": "en",
                "domain": "twitter.com",
                "path": "@hard_protocol"
            },
            "title": "Supply USDX to the Kava Lend money market and earn 60%+ APY\n\nEarn now",
            "published_at": "2021-11-28T16:00:00Z",
            "slug": "Supply-USDX-to-the-Kava-Lend-money-market-and-earn-60-APY-Earn-now",
            "currencies": [
                {
                    "code": "HARD",
                    "title": "Kava Lend",
                    "slug": "kava-lend",
                    "url": "https:\/\/cryptopanic.com\/news\/kava-lend\/"
                }
            ],
            "id": 13496427,
            "url": "https:\/\/cryptopanic.com\/news\/13496427\/Supply-USDX-to-the-Kava-Lend-money-market-and-earn-60-APY-Earn-now",
            "created_at": "2021-11-28T16:00:00Z",
            "votes": {
                "negative": 0,
                "positive": 0,
                "important": 0,
                "liked": 0,
                "disliked": 0,
                "lol": 0,
                "toxic": 0,
                "saved": 0,
                "comments": 0
            }
        },
        {
            "kind": "news",
            "domain": "@hard_protocol",
            "source": {
                "title": "HARD Protocol Twitter",
                "region": "en",
                "domain": "twitter.com",
                "path": "@hard_protocol"
            },
            "title": "Make sure you take the right steps to manage your positions on Lend by understanding how liquidation works.\n\nLearn\u2026",
            "published_at": "2021-11-27T17:00:01Z",
            "slug": "Make-sure-you-take-the-right-steps-to-manage-your-positions-on-Lend-by-understanding-how-liquidation-works-Learn",
            "currencies": [
                {
                    "code": "HARD",
                    "title": "Kava Lend",
                    "slug": "kava-lend",
                    "url": "https:\/\/cryptopanic.com\/news\/kava-lend\/"
                }
            ],
            "id": 13488403,
            "url": "https:\/\/cryptopanic.com\/news\/13488403\/Make-sure-you-take-the-right-steps-to-manage-your-positions-on-Lend-by-understanding-how-liquidation-works-Learn",
            "created_at": "2021-11-27T17:00:01Z",
            "votes": {
                "negative": 0,
                "positive": 0,
                "important": 0,
                "liked": 0,
                "disliked": 0,
                "lol": 0,
                "toxic": 0,
                "saved": 0,
                "comments": 0
            }
        },
        {
            "kind": "news",
            "domain": "@hard_protocol",
            "source": {
                "title": "HARD Protocol Twitter",
                "region": "en",
                "domain": "twitter.com",
                "path": "@hard_protocol"
            },
            "title": "Learn how to eliminate liquidation risk when borrowing on Lend \ud83e\uddf5",
            "published_at": "2021-11-27T01:00:28Z",
            "slug": "Learn-how-to-eliminate-liquidation-risk-when-borrowing-on-Lend",
            "currencies": [
                {
                    "code": "HARD",
                    "title": "Kava Lend",
                    "slug": "kava-lend",
                    "url": "https:\/\/cryptopanic.com\/news\/kava-lend\/"
                }
            ],
            "id": 13478598,
            "url": "https:\/\/cryptopanic.com\/news\/13478598\/Learn-how-to-eliminate-liquidation-risk-when-borrowing-on-Lend",
            "created_at": "2021-11-27T01:00:28Z",
            "votes": {
                "negative": 0,
                "positive": 0,
                "important": 0,
                "liked": 0,
                "disliked": 0,
                "lol": 0,
                "toxic": 0,
                "saved": 0,
                "comments": 0
            }
        },
        {
            "kind": "news",
            "domain": "@hard_protocol",
            "source": {
                "title": "HARD Protocol Twitter",
                "region": "en",
                "domain": "twitter.com",
                "path": "@hard_protocol"
            },
            "title": "$HARD total supply is capped at 200M.\n\nLearn More: \nEarn Now",
            "published_at": "2021-11-25T17:01:00Z",
            "slug": "HARD-total-supply-is-capped-at-200M-Learn-More-Earn-Now",
            "currencies": [
                {
                    "code": "HARD",
                    "title": "Kava Lend",
                    "slug": "kava-lend",
                    "url": "https:\/\/cryptopanic.com\/news\/kava-lend\/"
                }
            ],
            "id": 13467280,
            "url": "https:\/\/cryptopanic.com\/news\/13467280\/HARD-total-supply-is-capped-at-200M-Learn-More-Earn-Now",
            "created_at": "2021-11-25T17:01:00Z",
            "votes": {
                "negative": 0,
                "positive": 0,
                "important": 0,
                "liked": 0,
                "disliked": 0,
                "lol": 0,
                "toxic": 0,
                "saved": 0,
                "comments": 0
            }
        },
        {
            "kind": "news",
            "domain": "@hard_protocol",
            "source": {
                "title": "HARD Protocol Twitter",
                "region": "en",
                "domain": "twitter.com",
                "path": "@hard_protocol"
            },
            "title": "RT @Kava_Swap: Swap Szn is here! \ufe0f \ufe0f \n\nWin your share of $90K in $KAVA prizes and earn huge $SWP reward APYs!\n\nJust trade and provide liq\u2026",
            "published_at": "2021-11-23T02:20:41Z",
            "slug": "RT-Kava_Swap-Swap-Szn-is-here-Win-your-share-of-90K-in-KAVA-prizes-and-earn-huge-SWP-reward-APYs-Just-trade-and-provide-liq",
            "currencies": [
                {
                    "code": "HARD",
                    "title": "Kava Lend",
                    "slug": "kava-lend",
                    "url": "https:\/\/cryptopanic.com\/news\/kava-lend\/"
                }
            ],
            "id": 13429251,
            "url": "https:\/\/cryptopanic.com\/news\/13429251\/RT-Kava_Swap-Swap-Szn-is-here-Win-your-share-of-90K-in-KAVA-prizes-and-earn-huge-SWP-reward-APYs-Just-trade-and-provide-liq",
            "created_at": "2021-11-23T02:20:41Z",
            "votes": {
                "negative": 0,
                "positive": 0,
                "important": 0,
                "liked": 0,
                "disliked": 0,
                "lol": 0,
                "toxic": 0,
                "saved": 0,
                "comments": 0
            }
        },
        {
            "kind": "news",
            "domain": "@hard_protocol",
            "source": {
                "title": "HARD Protocol Twitter",
                "region": "en",
                "domain": "twitter.com",
                "path": "@hard_protocol"
            },
            "title": "RT @kava_platform: Kava is excited to announce @CelerNetwork and Kava Labs are partnering to integrate cBridge with Kava.\n\ncBridge will ena\u2026",
            "published_at": "2021-11-22T17:14:12Z",
            "slug": "RT-kava_platform-Kava-is-excited-to-announce-CelerNetwork-and-Kava-Labs-are-partnering-to-integrate-cBridge-with-Kava-cBridge-will-ena",
            "currencies": [
                {
                    "code": "HARD",
                    "title": "Kava Lend",
                    "slug": "kava-lend",
                    "url": "https:\/\/cryptopanic.com\/news\/kava-lend\/"
                }
            ],
            "id": 13429252,
            "url": "https:\/\/cryptopanic.com\/news\/13429252\/RT-kava_platform-Kava-is-excited-to-announce-CelerNetwork-and-Kava-Labs-are-partnering-to-integrate-cBridge-with-Kava-cBridge-will-ena",
            "created_at": "2021-11-22T17:14:12Z",
            "votes": {
                "negative": 0,
                "positive": 0,
                "important": 0,
                "liked": 0,
                "disliked": 0,
                "lol": 0,
                "toxic": 0,
                "saved": 0,
                "comments": 0
            }
        },
        {
            "kind": "news",
            "domain": "@hard_protocol",
            "source": {
                "title": "HARD Protocol Twitter",
                "region": "en",
                "domain": "twitter.com",
                "path": "@hard_protocol"
            },
            "title": "RT @kava_platform: There are only 5 days left in the $50,000 @Kava_Swap x @kucoincom Trading Competition\n\nCompetition Period: Nov 18th at 1\u2026",
            "published_at": "2021-11-22T14:52:49Z",
            "slug": "RT-kava_platform-There-are-only-5-days-left-in-the-50000-Kava_Swap-x-kucoincom-Trading-Competition-Competition-Period-Nov-18th-at-1",
            "currencies": [
                {
                    "code": "HARD",
                    "title": "Kava Lend",
                    "slug": "kava-lend",
                    "url": "https:\/\/cryptopanic.com\/news\/kava-lend\/"
                }
            ],
            "id": 13429253,
            "url": "https:\/\/cryptopanic.com\/news\/13429253\/RT-kava_platform-There-are-only-5-days-left-in-the-50000-Kava_Swap-x-kucoincom-Trading-Competition-Competition-Period-Nov-18th-at-1",
            "created_at": "2021-11-22T14:52:49Z",
            "votes": {
                "negative": 0,
                "positive": 0,
                "important": 0,
                "liked": 0,
                "disliked": 0,
                "lol": 0,
                "toxic": 0,
                "saved": 0,
                "comments": 0
            }
        },
        {
            "kind": "news",
            "domain": "@hard_protocol",
            "source": {
                "title": "HARD Protocol Twitter",
                "region": "en",
                "domain": "twitter.com",
                "path": "@hard_protocol"
            },
            "title": "RT @Kava_Swap: Earn a high yield on your XRPB on Swap now",
            "published_at": "2021-11-22T08:09:52Z",
            "slug": "RT-Kava_Swap-Earn-a-high-yield-on-your-XRPB-on-Swap-now",
            "currencies": [
                {
                    "code": "HARD",
                    "title": "Kava Lend",
                    "slug": "kava-lend",
                    "url": "https:\/\/cryptopanic.com\/news\/kava-lend\/"
                }
            ],
            "id": 13429254,
            "url": "https:\/\/cryptopanic.com\/news\/13429254\/RT-Kava_Swap-Earn-a-high-yield-on-your-XRPB-on-Swap-now",
            "created_at": "2021-11-22T08:09:52Z",
            "votes": {
                "negative": 0,
                "positive": 0,
                "important": 0,
                "liked": 0,
                "disliked": 0,
                "lol": 0,
                "toxic": 0,
                "saved": 0,
                "comments": 0
            }
        },
        {
            "kind": "news",
            "domain": "@hard_protocol",
            "source": {
                "title": "HARD Protocol Twitter",
                "region": "en",
                "domain": "twitter.com",
                "path": "@hard_protocol"
            },
            "title": "RT @hard_protocol: Make sure you take the right steps to manage your positions properly on Lend by understanding how liquidation work.\n\nLea\u2026",
            "published_at": "2021-11-22T07:50:30Z",
            "slug": "RT-hard_protocol-Make-sure-you-take-the-right-steps-to-manage-your-positions-properly-on-Lend-by-understanding-how-liquidation-work-Lea",
            "currencies": [
                {
                    "code": "HARD",
                    "title": "Kava Lend",
                    "slug": "kava-lend",
                    "url": "https:\/\/cryptopanic.com\/news\/kava-lend\/"
                }
            ],
            "id": 13429255,
            "url": "https:\/\/cryptopanic.com\/news\/13429255\/RT-hard_protocol-Make-sure-you-take-the-right-steps-to-manage-your-positions-properly-on-Lend-by-understanding-how-liquidation-work-Lea",
            "created_at": "2021-11-22T07:50:30Z",
            "votes": {
                "negative": 0,
                "positive": 0,
                "important": 0,
                "liked": 0,
                "disliked": 0,
                "lol": 0,
                "toxic": 0,
                "saved": 0,
                "comments": 0
            }
        },
        {
            "kind": "news",
            "domain": "@hard_protocol",
            "source": {
                "title": "HARD Protocol Twitter",
                "region": "en",
                "domain": "twitter.com",
                "path": "@hard_protocol"
            },
            "title": "RT @kava_platform: The Loan Wars draw near! \n\nThe citizens of Kava have decided to extend the event to 2 full weeks. \n\nIt will now run from\u2026",
            "published_at": "2021-11-21T20:03:36Z",
            "slug": "RT-kava_platform-The-Loan-Wars-draw-near-The-citizens-of-Kava-have-decided-to-extend-the-event-to-2-full-weeks-It-will-now-run-from",
            "currencies": [
                {
                    "code": "HARD",
                    "title": "Kava Lend",
                    "slug": "kava-lend",
                    "url": "https:\/\/cryptopanic.com\/news\/kava-lend\/"
                }
            ],
            "id": 13418926,
            "url": "https:\/\/cryptopanic.com\/news\/13418926\/RT-kava_platform-The-Loan-Wars-draw-near-The-citizens-of-Kava-have-decided-to-extend-the-event-to-2-full-weeks-It-will-now-run-from",
            "created_at": "2021-11-21T20:03:36Z",
            "votes": {
                "negative": 0,
                "positive": 0,
                "important": 0,
                "liked": 0,
                "disliked": 0,
                "lol": 0,
                "toxic": 0,
                "saved": 0,
                "comments": 0
            }
        },
        {
            "kind": "news",
            "domain": "@hard_protocol",
            "source": {
                "title": "HARD Protocol Twitter",
                "region": "en",
                "domain": "twitter.com",
                "path": "@hard_protocol"
            },
            "title": "Make sure you take the right steps to manage your positions properly on Lend by understanding how liquidation work.\u2026",
            "published_at": "2021-11-21T17:04:35Z",
            "slug": "Make-sure-you-take-the-right-steps-to-manage-your-positions-properly-on-Lend-by-understanding-how-liquidation-work",
            "currencies": [
                {
                    "code": "HARD",
                    "title": "Kava Lend",
                    "slug": "kava-lend",
                    "url": "https:\/\/cryptopanic.com\/news\/kava-lend\/"
                }
            ],
            "id": 13418927,
            "url": "https:\/\/cryptopanic.com\/news\/13418927\/Make-sure-you-take-the-right-steps-to-manage-your-positions-properly-on-Lend-by-understanding-how-liquidation-work",
            "created_at": "2021-11-21T17:04:35Z",
            "votes": {
                "negative": 0,
                "positive": 0,
                "important": 0,
                "liked": 0,
                "disliked": 0,
                "lol": 0,
                "toxic": 0,
                "saved": 0,
                "comments": 0
            }
        },
        {
            "kind": "news",
            "domain": "@hard_protocol",
            "source": {
                "title": "HARD Protocol Twitter",
                "region": "en",
                "domain": "twitter.com",
                "path": "@hard_protocol"
            },
            "title": "RT @Kava_Swap: Learn more about impermanent loss \ud83e\uddf5\u2b07\ufe0f",
            "published_at": "2021-11-21T15:06:22Z",
            "slug": "RT-Kava_Swap-Learn-more-about-impermanent-loss",
            "currencies": [
                {
                    "code": "HARD",
                    "title": "Kava Lend",
                    "slug": "kava-lend",
                    "url": "https:\/\/cryptopanic.com\/news\/kava-lend\/"
                }
            ],
            "id": 13418928,
            "url": "https:\/\/cryptopanic.com\/news\/13418928\/RT-Kava_Swap-Learn-more-about-impermanent-loss",
            "created_at": "2021-11-21T15:06:22Z",
            "votes": {
                "negative": 0,
                "positive": 0,
                "important": 0,
                "liked": 0,
                "disliked": 0,
                "lol": 0,
                "toxic": 0,
                "saved": 0,
                "comments": 0
            }
        },
        {
            "kind": "news",
            "domain": "@hard_protocol",
            "source": {
                "title": "HARD Protocol Twitter",
                "region": "en",
                "domain": "twitter.com",
                "path": "@hard_protocol"
            },
            "title": "Use your assets as collateral to borrow other assets on Lend Money Market!\n\nLearn More: \nEa\u2026",
            "published_at": "2021-11-21T02:07:56Z",
            "slug": "Use-your-assets-as-collateral-to-borrow-other-assets-on-Lend-Money-Market-Learn-More-Ea",
            "currencies": [
                {
                    "code": "HARD",
                    "title": "Kava Lend",
                    "slug": "kava-lend",
                    "url": "https:\/\/cryptopanic.com\/news\/kava-lend\/"
                }
            ],
            "id": 13409679,
            "url": "https:\/\/cryptopanic.com\/news\/13409679\/Use-your-assets-as-collateral-to-borrow-other-assets-on-Lend-Money-Market-Learn-More-Ea",
            "created_at": "2021-11-21T02:07:56Z",
            "votes": {
                "negative": 0,
                "positive": 0,
                "important": 0,
                "liked": 0,
                "disliked": 0,
                "lol": 0,
                "toxic": 0,
                "saved": 0,
                "comments": 0
            }
        },
        {
            "kind": "news",
            "domain": "@hard_protocol",
            "source": {
                "title": "HARD Protocol Twitter",
                "region": "en",
                "domain": "twitter.com",
                "path": "@hard_protocol"
            },
            "title": "RT @kava_platform: Dark Mode is live on the Kava App!\n\nDo you prefer to use Dark Mode in the day or at night?\n\n http\u2026",
            "published_at": "2021-11-21T00:05:34Z",
            "slug": "RT-kava_platform-Dark-Mode-is-live-on-the-Kava-App-Do-you-prefer-to-use-Dark-Mode-in-the-day-or-at-night-http",
            "currencies": [
                {
                    "code": "HARD",
                    "title": "Kava Lend",
                    "slug": "kava-lend",
                    "url": "https:\/\/cryptopanic.com\/news\/kava-lend\/"
                }
            ],
            "id": 13409680,
            "url": "https:\/\/cryptopanic.com\/news\/13409680\/RT-kava_platform-Dark-Mode-is-live-on-the-Kava-App-Do-you-prefer-to-use-Dark-Mode-in-the-day-or-at-night-http",
            "created_at": "2021-11-21T00:05:34Z",
            "votes": {
                "negative": 0,
                "positive": 0,
                "important": 0,
                "liked": 0,
                "disliked": 0,
                "lol": 0,
                "toxic": 0,
                "saved": 0,
                "comments": 0
            }
        },
        {
            "kind": "news",
            "domain": "@hard_protocol",
            "source": {
                "title": "HARD Protocol Twitter",
                "region": "en",
                "domain": "twitter.com",
                "path": "@hard_protocol"
            },
            "title": "RT @kava_platform: The Loan Wars draw near! \n\nThe citizens of Kava have decided to extend the event to 2 full weeks. \n\nIt will now run from\u2026",
            "published_at": "2021-11-20T20:12:06Z",
            "slug": "RT-kava_platform-The-Loan-Wars-draw-near-The-citizens-of-Kava-have-decided-to-extend-the-event-to-2-full-weeks-It-will-now-run-from",
            "currencies": [
                {
                    "code": "HARD",
                    "title": "Kava Lend",
                    "slug": "kava-lend",
                    "url": "https:\/\/cryptopanic.com\/news\/kava-lend\/"
                }
            ],
            "id": 13409681,
            "url": "https:\/\/cryptopanic.com\/news\/13409681\/RT-kava_platform-The-Loan-Wars-draw-near-The-citizens-of-Kava-have-decided-to-extend-the-event-to-2-full-weeks-It-will-now-run-from",
            "created_at": "2021-11-20T20:12:06Z",
            "votes": {
                "negative": 0,
                "positive": 0,
                "important": 0,
                "liked": 0,
                "disliked": 0,
                "lol": 0,
                "toxic": 0,
                "saved": 0,
                "comments": 0
            }
        },
        {
            "kind": "news",
            "domain": "@hard_protocol",
            "source": {
                "title": "HARD Protocol Twitter",
                "region": "en",
                "domain": "twitter.com",
                "path": "@hard_protocol"
            },
            "title": "RT @Kava_Swap: Learn how to swap between your favorite assets: \n\nTrade now",
            "published_at": "2021-11-20T19:06:00Z",
            "slug": "RT-Kava_Swap-Learn-how-to-swap-between-your-favorite-assets-Trade-now",
            "currencies": [
                {
                    "code": "HARD",
                    "title": "Kava Lend",
                    "slug": "kava-lend",
                    "url": "https:\/\/cryptopanic.com\/news\/kava-lend\/"
                }
            ],
            "id": 13409682,
            "url": "https:\/\/cryptopanic.com\/news\/13409682\/RT-Kava_Swap-Learn-how-to-swap-between-your-favorite-assets-Trade-now",
            "created_at": "2021-11-20T19:06:00Z",
            "votes": {
                "negative": 0,
                "positive": 0,
                "important": 0,
                "liked": 0,
                "disliked": 0,
                "lol": 0,
                "toxic": 0,
                "saved": 0,
                "comments": 0
            }
        },
        {
            "kind": "news",
            "domain": "@hard_protocol",
            "source": {
                "title": "HARD Protocol Twitter",
                "region": "en",
                "domain": "twitter.com",
                "path": "@hard_protocol"
            },
            "title": "RT @kava_platform: There are only 5 days left in the $50,000 @Kava_Swap x @kucoincom Trading Competition\n\nCompetition Period: Nov 18th at 1\u2026",
            "published_at": "2021-11-20T16:02:16Z",
            "slug": "RT-kava_platform-There-are-only-5-days-left-in-the-50000-Kava_Swap-x-kucoincom-Trading-Competition-Competition-Period-Nov-18th-at-1",
            "currencies": [
                {
                    "code": "HARD",
                    "title": "Kava Lend",
                    "slug": "kava-lend",
                    "url": "https:\/\/cryptopanic.com\/news\/kava-lend\/"
                }
            ],
            "id": 13409683,
            "url": "https:\/\/cryptopanic.com\/news\/13409683\/RT-kava_platform-There-are-only-5-days-left-in-the-50000-Kava_Swap-x-kucoincom-Trading-Competition-Competition-Period-Nov-18th-at-1",
            "created_at": "2021-11-20T16:02:16Z",
            "votes": {
                "negative": 0,
                "positive": 0,
                "important": 0,
                "liked": 0,
                "disliked": 0,
                "lol": 0,
                "toxic": 0,
                "saved": 0,
                "comments": 0
            }
        }
    ]
}
