{
    "count": 200,
    "next": "https:\/\/cryptopanic.com\/api\/v1\/posts\/?auth_token=01c356e89ffc1b8eba2127c81fc8c66ee0eace75&kind=news&currencies=ADX&page=2",
    "previous": null,
    "results": [
        {
            "kind": "news",
            "domain": "@Cardanomics_org",
            "source": {
                "title": "Cardanomics Twitter",
                "region": "en",
                "domain": "twitter.com",
                "path": "@cardanomics_org"
            },
            "title": "$Cardanomics Rebase + ADA Rewards\n\n Listed On #Coingecko \n\ufe0fNew Poocoin ads started \n\nBest Time To APE IN\n\n\u2026",
            "published_at": "2021-11-05T16:47:10Z",
            "slug": "Cardanomics-Rebase-ADA-Rewards-Listed-On-Coingecko-New-Poocoin-ads-started-Best-Time-To-APE-IN",
            "currencies": [
                {
                    "code": "ADX",
                    "title": "Cardanomics",
                    "slug": null,
                    "url": "https:\/\/cryptopanic.com\/news\/None\/"
                },
                {
                    "code": "ADA",
                    "title": "Cardano",
                    "slug": "cardano",
                    "url": "https:\/\/cryptopanic.com\/news\/cardano\/"
                },
                {
                    "code": "APE",
                    "title": "ApeCoin",
                    "slug": "apecoin",
                    "url": "https:\/\/cryptopanic.com\/news\/apecoin\/"
                }
            ],
            "id": 13237128,
            "url": "https:\/\/cryptopanic.com\/news\/13237128\/Cardanomics-Rebase-ADA-Rewards-Listed-On-Coingecko-New-Poocoin-ads-started-Best-Time-To-APE-IN",
            "created_at": "2021-11-05T16:47:10Z",
            "votes": {
                "negative": 0,
                "positive": 0,
                "important": 0,
                "liked": 0,
                "disliked": 0,
                "lol": 0,
                "toxic": 0,
                "saved": 0,
                "comments": 0
            }
        },
        {
            "kind": "news",
            "domain": "@Cardanomics_org",
            "source": {
                "title": "Cardanomics Twitter",
                "region": "en",
                "domain": "twitter.com",
                "path": "@cardanomics_org"
            },
            "title": "$Cardanomics Rebase + ADA Rewards\n\nMarketing is on \nPoocoin ads Running for 24\/7\n\ud83e\udd29CMS Trending\n\nFill your Bags\u2026",
            "published_at": "2021-11-01T06:33:30Z",
            "slug": "Cardanomics-Rebase-ADA-Rewards-Marketing-is-on-Poocoin-ads-Running-for-247-CMS-Trending-Fill-your-Bags",
            "currencies": [
                {
                    "code": "ADX",
                    "title": "Cardanomics",
                    "slug": null,
                    "url": "https:\/\/cryptopanic.com\/news\/None\/"
                },
                {
                    "code": "ADA",
                    "title": "Cardano",
                    "slug": "cardano",
                    "url": "https:\/\/cryptopanic.com\/news\/cardano\/"
                }
            ],
            "id": 13237129,
            "url": "https:\/\/cryptopanic.com\/news\/13237129\/Cardanomics-Rebase-ADA-Rewards-Marketing-is-on-Poocoin-ads-Running-for-247-CMS-Trending-Fill-your-Bags",
            "created_at": "2021-11-01T06:33:30Z",
            "votes": {
                "negative": 0,
                "positive": 0,
                "important": 0,
                "liked": 0,
                "disliked": 0,
                "lol": 0,
                "toxic": 0,
                "saved": 0,
                "comments": 0
            }
        },
        {
            "kind": "news",
            "domain": "@Cardanomics_org",
            "source": {
                "title": "Cardanomics Twitter",
                "region": "en",
                "domain": "twitter.com",
                "path": "@cardanomics_org"
            },
            "title": "$Cardanomics\n\n\ufe0f This is a Reminder call\ufe0f\n\nPresale In Few Hours Thursday at 5pm UTC\n\nSoftCap: 175 BNB \nHardCap:\u2026",
            "published_at": "2021-10-28T13:38:26Z",
            "slug": "Cardanomics-This-is-a-Reminder-call-Presale-In-Few-Hours-Thursday-at-5pm-UTC-SoftCap-175-BNB-HardCap",
            "currencies": [
                {
                    "code": "ADX",
                    "title": "Cardanomics",
                    "slug": null,
                    "url": "https:\/\/cryptopanic.com\/news\/None\/"
                }
            ],
            "id": 13237130,
            "url": "https:\/\/cryptopanic.com\/news\/13237130\/Cardanomics-This-is-a-Reminder-call-Presale-In-Few-Hours-Thursday-at-5pm-UTC-SoftCap-175-BNB-HardCap",
            "created_at": "2021-10-28T13:38:26Z",
            "votes": {
                "negative": 0,
                "positive": 0,
                "important": 0,
                "liked": 0,
                "disliked": 0,
                "lol": 0,
                "toxic": 0,
                "saved": 0,
                "comments": 0
            }
        },
        {
            "kind": "news",
            "domain": "@Cardanomics_org",
            "source": {
                "title": "Cardanomics Twitter",
                "region": "en",
                "domain": "twitter.com",
                "path": "@cardanomics_org"
            },
            "title": "$Cardanomics\n\n\ufe0fPresale Tomorrow 5pm UTC on Thursday\n\n\ufe0fGet Yourself Whitelist Spot\n\n\nSoft\u2026",
            "published_at": "2021-10-27T08:16:49Z",
            "slug": "Cardanomics-Presale-Tomorrow-5pm-UTC-on-Thursday-Get-Yourself-Whitelist-Spot-Soft",
            "currencies": [
                {
                    "code": "ADX",
                    "title": "Cardanomics",
                    "slug": null,
                    "url": "https:\/\/cryptopanic.com\/news\/None\/"
                }
            ],
            "id": 13237131,
            "url": "https:\/\/cryptopanic.com\/news\/13237131\/Cardanomics-Presale-Tomorrow-5pm-UTC-on-Thursday-Get-Yourself-Whitelist-Spot-Soft",
            "created_at": "2021-10-27T08:16:49Z",
            "votes": {
                "negative": 0,
                "positive": 0,
                "important": 0,
                "liked": 0,
                "disliked": 0,
                "lol": 0,
                "toxic": 0,
                "saved": 0,
                "comments": 0
            }
        },
        {
            "kind": "news",
            "domain": "@Cardanomics_org",
            "source": {
                "title": "Cardanomics Twitter",
                "region": "en",
                "domain": "twitter.com",
                "path": "@cardanomics_org"
            },
            "title": "\ud83e\udd29$Cardanomics\n\n Our whitelisted presale will be hosted on #pinksale, and start at 5pm UTC on Thursday October the\u2026",
            "published_at": "2021-10-26T12:41:32Z",
            "slug": "Cardanomics-Our-whitelisted-presale-will-be-hosted-on-pinksale-and-start-at-5pm-UTC-on-Thursday-October-the",
            "currencies": [
                {
                    "code": "ADX",
                    "title": "Cardanomics",
                    "slug": null,
                    "url": "https:\/\/cryptopanic.com\/news\/None\/"
                }
            ],
            "id": 13237132,
            "url": "https:\/\/cryptopanic.com\/news\/13237132\/Cardanomics-Our-whitelisted-presale-will-be-hosted-on-pinksale-and-start-at-5pm-UTC-on-Thursday-October-the",
            "created_at": "2021-10-26T12:41:32Z",
            "votes": {
                "negative": 0,
                "positive": 0,
                "important": 0,
                "liked": 0,
                "disliked": 0,
                "lol": 0,
                "toxic": 0,
                "saved": 0,
                "comments": 0
            }
        },
        {
            "kind": "news",
            "domain": "@Cardanomics_org",
            "source": {
                "title": "Cardanomics Twitter",
                "region": "en",
                "domain": "twitter.com",
                "path": "@cardanomics_org"
            },
            "title": "\ud83e\udd29$cardanomics \n\ufe0f 3hrs Left For Private Sale \n\n\ufe0f50 BNB Hardcap\n 10% Discount so don't miss out\n\n Don't Regret La\u2026",
            "published_at": "2021-10-25T14:13:19Z",
            "slug": "cardanomics-3hrs-Left-For-Private-Sale-50-BNB-Hardcap-10-Discount-so-dont-miss-out-Dont-Regret-La",
            "currencies": [
                {
                    "code": "ADX",
                    "title": "Cardanomics",
                    "slug": null,
                    "url": "https:\/\/cryptopanic.com\/news\/None\/"
                }
            ],
            "id": 13237133,
            "url": "https:\/\/cryptopanic.com\/news\/13237133\/cardanomics-3hrs-Left-For-Private-Sale-50-BNB-Hardcap-10-Discount-so-dont-miss-out-Dont-Regret-La",
            "created_at": "2021-10-25T14:13:19Z",
            "votes": {
                "negative": 0,
                "positive": 0,
                "important": 0,
                "liked": 0,
                "disliked": 0,
                "lol": 0,
                "toxic": 0,
                "saved": 0,
                "comments": 0
            }
        },
        {
            "kind": "news",
            "domain": "@Cardanomics_org",
            "source": {
                "title": "Cardanomics Twitter",
                "region": "en",
                "domain": "twitter.com",
                "path": "@cardanomics_org"
            },
            "title": "\ud83e\udd29$cardanomics has a very small 50 BNB private sale today (10% discount on presale price). \n\nToday on the\u2026",
            "published_at": "2021-10-25T07:23:51Z",
            "slug": "cardanomics-has-a-very-small-50-BNB-private-sale-today-10-discount-on-presale-price-Today-on-the",
            "currencies": [
                {
                    "code": "ADX",
                    "title": "Cardanomics",
                    "slug": null,
                    "url": "https:\/\/cryptopanic.com\/news\/None\/"
                }
            ],
            "id": 13237134,
            "url": "https:\/\/cryptopanic.com\/news\/13237134\/cardanomics-has-a-very-small-50-BNB-private-sale-today-10-discount-on-presale-price-Today-on-the",
            "created_at": "2021-10-25T07:23:51Z",
            "votes": {
                "negative": 0,
                "positive": 0,
                "important": 0,
                "liked": 0,
                "disliked": 0,
                "lol": 0,
                "toxic": 0,
                "saved": 0,
                "comments": 0
            }
        },
        {
            "kind": "news",
            "domain": "@Cardanomics_org",
            "source": {
                "title": "Cardanomics Twitter",
                "region": "en",
                "domain": "twitter.com",
                "path": "@cardanomics_org"
            },
            "title": " Cardanomics \n\ud83e\udd29Rebase + ADA rewards\nBuyBack token on the smart Chain! \n\nWith our revolutionary tokenomics, we're\u2026",
            "published_at": "2021-10-23T07:14:03Z",
            "slug": "Cardanomics-Rebase-ADA-rewards-BuyBack-token-on-the-smart-Chain-With-our-revolutionary-tokenomics-were",
            "currencies": [
                {
                    "code": "ADX",
                    "title": "Cardanomics",
                    "slug": null,
                    "url": "https:\/\/cryptopanic.com\/news\/None\/"
                },
                {
                    "code": "ADA",
                    "title": "Cardano",
                    "slug": "cardano",
                    "url": "https:\/\/cryptopanic.com\/news\/cardano\/"
                }
            ],
            "id": 13237135,
            "url": "https:\/\/cryptopanic.com\/news\/13237135\/Cardanomics-Rebase-ADA-rewards-BuyBack-token-on-the-smart-Chain-With-our-revolutionary-tokenomics-were",
            "created_at": "2021-10-23T07:14:03Z",
            "votes": {
                "negative": 0,
                "positive": 0,
                "important": 0,
                "liked": 0,
                "disliked": 0,
                "lol": 0,
                "toxic": 0,
                "saved": 0,
                "comments": 0
            }
        },
        {
            "kind": "news",
            "domain": "@AmbireAdEx",
            "source": {
                "title": "AdEx Twitter",
                "region": "en",
                "domain": "twitter.com",
                "path": "@adex_network"
            },
            "title": " We are rebranding to Ambire!\n\n With the natural evolution of our company, and of the technologies we use, we fo\u2026",
            "published_at": "2021-10-13T16:07:16Z",
            "slug": "We-are-rebranding-to-Ambire-With-the-natural-evolution-of-our-company-and-of-the-technologies-we-use-we-fo",
            "currencies": [
                {
                    "code": "ADX",
                    "title": "AdEx",
                    "slug": "adex",
                    "url": "https:\/\/cryptopanic.com\/news\/adex\/"
                }
            ],
            "id": 13006909,
            "url": "https:\/\/cryptopanic.com\/news\/13006909\/We-are-rebranding-to-Ambire-With-the-natural-evolution-of-our-company-and-of-the-technologies-we-use-we-fo",
            "created_at": "2021-10-13T16:07:16Z",
            "votes": {
                "negative": 0,
                "positive": 0,
                "important": 0,
                "liked": 0,
                "disliked": 0,
                "lol": 0,
                "toxic": 0,
                "saved": 0,
                "comments": 0
            }
        },
        {
            "kind": "news",
            "domain": "@AdEx_Network",
            "source": {
                "title": "AdEx Twitter",
                "region": "en",
                "domain": "twitter.com",
                "path": "@adex_network"
            },
            "title": "Read everything you need to know about $ADX Staking, the $ADX token and AdEx Governance on one place",
            "published_at": "2021-10-10T08:59:00Z",
            "slug": "Read-everything-you-need-to-know-about-ADX-Staking-the-ADX-token-and-AdEx-Governance-on-one-place",
            "currencies": [
                {
                    "code": "ADX",
                    "title": "AdEx",
                    "slug": "adex",
                    "url": "https:\/\/cryptopanic.com\/news\/adex\/"
                }
            ],
            "id": 12981313,
            "url": "https:\/\/cryptopanic.com\/news\/12981313\/Read-everything-you-need-to-know-about-ADX-Staking-the-ADX-token-and-AdEx-Governance-on-one-place",
            "created_at": "2021-10-10T08:59:00Z",
            "votes": {
                "negative": 0,
                "positive": 0,
                "important": 0,
                "liked": 0,
                "disliked": 0,
                "lol": 0,
                "toxic": 0,
                "saved": 0,
                "comments": 0
            }
        },
        {
            "kind": "news",
            "domain": "@AdEx_Network",
            "source": {
                "title": "AdEx Twitter",
                "region": "en",
                "domain": "twitter.com",
                "path": "@adex_network"
            },
            "title": "Did you know that up to $ 19 Billion is lost in ad fraud annually \n\nDiscover the most common types of ad fraud tha\u2026",
            "published_at": "2021-10-09T07:42:00Z",
            "slug": "Did-you-know-that-up-to-19-Billion-is-lost-in-ad-fraud-annually-Discover-the-most-common-types-of-ad-fraud-tha",
            "currencies": [
                {
                    "code": "ADX",
                    "title": "AdEx",
                    "slug": "adex",
                    "url": "https:\/\/cryptopanic.com\/news\/adex\/"
                }
            ],
            "id": 12973685,
            "url": "https:\/\/cryptopanic.com\/news\/12973685\/Did-you-know-that-up-to-19-Billion-is-lost-in-ad-fraud-annually-Discover-the-most-common-types-of-ad-fraud-tha",
            "created_at": "2021-10-09T07:42:00Z",
            "votes": {
                "negative": 0,
                "positive": 0,
                "important": 0,
                "liked": 0,
                "disliked": 0,
                "lol": 0,
                "toxic": 0,
                "saved": 0,
                "comments": 0
            }
        },
        {
            "kind": "news",
            "domain": "@AdEx_Network",
            "source": {
                "title": "AdEx Twitter",
                "region": "en",
                "domain": "twitter.com",
                "path": "@adex_network"
            },
            "title": "RT @Cryptolaxy: TOKEN SUPPLY ANALYSIS OF THE PJTs WITH MARKET CAP FROM $60M TO $70M\n\nThe infographic provides information about the distrib\u2026",
            "published_at": "2021-10-08T11:25:29Z",
            "slug": "RT-Cryptolaxy-TOKEN-SUPPLY-ANALYSIS-OF-THE-PJTs-WITH-MARKET-CAP-FROM-60M-TO-70M-The-infographic-provides-information-about-the-distrib",
            "currencies": [
                {
                    "code": "ADX",
                    "title": "AdEx",
                    "slug": "adex",
                    "url": "https:\/\/cryptopanic.com\/news\/adex\/"
                }
            ],
            "id": 12967287,
            "url": "https:\/\/cryptopanic.com\/news\/12967287\/RT-Cryptolaxy-TOKEN-SUPPLY-ANALYSIS-OF-THE-PJTs-WITH-MARKET-CAP-FROM-60M-TO-70M-The-infographic-provides-information-about-the-distrib",
            "created_at": "2021-10-08T11:25:29Z",
            "votes": {
                "negative": 0,
                "positive": 0,
                "important": 0,
                "liked": 0,
                "disliked": 0,
                "lol": 0,
                "toxic": 0,
                "saved": 0,
                "comments": 0
            }
        },
        {
            "kind": "news",
            "domain": "@AdEx_Network",
            "source": {
                "title": "AdEx Twitter",
                "region": "en",
                "domain": "twitter.com",
                "path": "@adex_network"
            },
            "title": "Would you like to trade $ADX futures on @binance? (It's not available yet)",
            "published_at": "2021-10-08T10:08:37Z",
            "slug": "Would-you-like-to-trade-ADX-futures-on-binance-Its-not-available-yet",
            "currencies": [
                {
                    "code": "ADX",
                    "title": "AdEx",
                    "slug": "adex",
                    "url": "https:\/\/cryptopanic.com\/news\/adex\/"
                }
            ],
            "id": 12967131,
            "url": "https:\/\/cryptopanic.com\/news\/12967131\/Would-you-like-to-trade-ADX-futures-on-binance-Its-not-available-yet",
            "created_at": "2021-10-08T10:08:37Z",
            "votes": {
                "negative": 0,
                "positive": 0,
                "important": 0,
                "liked": 0,
                "disliked": 0,
                "lol": 0,
                "toxic": 0,
                "saved": 0,
                "comments": 0
            }
        },
        {
            "kind": "news",
            "domain": "@AdEx_Network",
            "source": {
                "title": "AdEx Twitter",
                "region": "en",
                "domain": "twitter.com",
                "path": "@adex_network"
            },
            "title": "\ud83e\udd2f You want to run ads but you don't know how to design banners?\n\n We've got you covered with a long post on our bl\u2026",
            "published_at": "2021-10-05T13:45:11Z",
            "slug": "You-want-to-run-ads-but-you-dont-know-how-to-design-banners-Weve-got-you-covered-with-a-long-post-on-our-bl",
            "currencies": [
                {
                    "code": "ADX",
                    "title": "AdEx",
                    "slug": "adex",
                    "url": "https:\/\/cryptopanic.com\/news\/adex\/"
                }
            ],
            "id": 12940163,
            "url": "https:\/\/cryptopanic.com\/news\/12940163\/You-want-to-run-ads-but-you-dont-know-how-to-design-banners-Weve-got-you-covered-with-a-long-post-on-our-bl",
            "created_at": "2021-10-05T13:45:11Z",
            "votes": {
                "negative": 0,
                "positive": 0,
                "important": 0,
                "liked": 0,
                "disliked": 0,
                "lol": 0,
                "toxic": 0,
                "saved": 0,
                "comments": 0
            }
        },
        {
            "kind": "news",
            "domain": "@AdEx_Network",
            "source": {
                "title": "AdEx Twitter",
                "region": "en",
                "domain": "twitter.com",
                "path": "@adex_network"
            },
            "title": "RT @AdExWallet: How do you feel today? \n\n\ufe0f Conservative\n Degen\n Risky",
            "published_at": "2021-10-05T13:16:07Z",
            "slug": "RT-AdExWallet-How-do-you-feel-today-Conservative-Degen-Risky",
            "currencies": [
                {
                    "code": "ADX",
                    "title": "AdEx",
                    "slug": "adex",
                    "url": "https:\/\/cryptopanic.com\/news\/adex\/"
                }
            ],
            "id": 12940069,
            "url": "https:\/\/cryptopanic.com\/news\/12940069\/RT-AdExWallet-How-do-you-feel-today-Conservative-Degen-Risky",
            "created_at": "2021-10-05T13:16:07Z",
            "votes": {
                "negative": 0,
                "positive": 0,
                "important": 0,
                "liked": 0,
                "disliked": 0,
                "lol": 0,
                "toxic": 0,
                "saved": 0,
                "comments": 0
            }
        },
        {
            "kind": "news",
            "domain": "@AdEx_Network",
            "source": {
                "title": "AdEx Twitter",
                "region": "en",
                "domain": "twitter.com",
                "path": "@adex_network"
            },
            "title": "Good morning, $ADX volume on @binance today is absolutely amazing given $ADX's market cap \ud83e\udd2f\ud83e\udd2f\ud83e\udd2f\n\n $ADX pairs are \u0430ll\u2026",
            "published_at": "2021-10-04T09:57:12Z",
            "slug": "Good-morning-ADX-volume-on-binance-today-is-absolutely-amazing-given-ADXs-market-cap-ADX-pairs-are-ll",
            "currencies": [
                {
                    "code": "ADX",
                    "title": "AdEx",
                    "slug": "adex",
                    "url": "https:\/\/cryptopanic.com\/news\/adex\/"
                }
            ],
            "id": 12930723,
            "url": "https:\/\/cryptopanic.com\/news\/12930723\/Good-morning-ADX-volume-on-binance-today-is-absolutely-amazing-given-ADXs-market-cap-ADX-pairs-are-ll",
            "created_at": "2021-10-04T09:57:12Z",
            "votes": {
                "negative": 0,
                "positive": 0,
                "important": 0,
                "liked": 0,
                "disliked": 0,
                "lol": 0,
                "toxic": 0,
                "saved": 0,
                "comments": 0
            }
        },
        {
            "kind": "news",
            "domain": "@AdEx_Network",
            "source": {
                "title": "AdEx Twitter",
                "region": "en",
                "domain": "twitter.com",
                "path": "@adex_network"
            },
            "title": "\ud83d\udfe2 User growth of the AdEx Platform has been in a positive uptrend for the last 12 months with 16,253 users reached\u2026",
            "published_at": "2021-10-02T07:28:00Z",
            "slug": "User-growth-of-the-AdEx-Platform-has-been-in-a-positive-uptrend-for-the-last-12-months-with-16253-users-reached",
            "currencies": [
                {
                    "code": "ADX",
                    "title": "AdEx",
                    "slug": "adex",
                    "url": "https:\/\/cryptopanic.com\/news\/adex\/"
                }
            ],
            "id": 12917484,
            "url": "https:\/\/cryptopanic.com\/news\/12917484\/User-growth-of-the-AdEx-Platform-has-been-in-a-positive-uptrend-for-the-last-12-months-with-16253-users-reached",
            "created_at": "2021-10-02T07:28:00Z",
            "votes": {
                "negative": 0,
                "positive": 0,
                "important": 0,
                "liked": 0,
                "disliked": 0,
                "lol": 0,
                "toxic": 0,
                "saved": 0,
                "comments": 0
            }
        },
        {
            "kind": "news",
            "domain": "@AdEx_Network",
            "source": {
                "title": "AdEx Twitter",
                "region": "en",
                "domain": "twitter.com",
                "path": "@adex_network"
            },
            "title": "1\ufe0f\u20e36\ufe0f\u20e3,2\ufe0f\u20e35\ufe0f\u20e33\ufe0f\u20e3 USERS\n5\ufe0f\u20e37\ufe0f\u20e3,0\ufe0f\u20e30\ufe0f\u20e30\ufe0f\u20e3,0\ufe0f\u20e30\ufe0f\u20e30\ufe0f\u20e3 IMPRESSIONS\n1\ufe0f\u20e33\ufe0f\u20e3,5\ufe0f\u20e38\ufe0f\u20e38\ufe0f\u20e3 $ADX HOLDERS\n REASONS TO JOIN THEM\u2026",
            "published_at": "2021-10-01T11:59:17Z",
            "slug": "16253-USERS-57000000-IMPRESSIONS-13588-ADX-HOLDERS-REASONS-TO-JOIN-THEM",
            "currencies": [
                {
                    "code": "ADX",
                    "title": "AdEx",
                    "slug": "adex",
                    "url": "https:\/\/cryptopanic.com\/news\/adex\/"
                }
            ],
            "id": 12911719,
            "url": "https:\/\/cryptopanic.com\/news\/12911719\/16253-USERS-57000000-IMPRESSIONS-13588-ADX-HOLDERS-REASONS-TO-JOIN-THEM",
            "created_at": "2021-10-01T11:59:17Z",
            "votes": {
                "negative": 0,
                "positive": 0,
                "important": 0,
                "liked": 0,
                "disliked": 0,
                "lol": 0,
                "toxic": 0,
                "saved": 0,
                "comments": 0
            }
        },
        {
            "kind": "news",
            "domain": "@AdEx_Network",
            "source": {
                "title": "AdEx Twitter",
                "region": "en",
                "domain": "twitter.com",
                "path": "@adex_network"
            },
            "title": "RT @SmartCryptoNew1:  @TaxaNetwork On @Gate_io Startup Free Offering\n\n @Bcmhunt Whitelist Form Wwnt Live\n\n @AdEx_Network and @Luxfioffic\u2026",
            "published_at": "2021-10-01T11:52:32Z",
            "slug": "RT-SmartCryptoNew1-TaxaNetwork-On-Gate_io-Startup-Free-Offering-Bcmhunt-Whitelist-Form-Wwnt-Live-AdEx_Network-and-Luxfioffic",
            "currencies": [
                {
                    "code": "ADX",
                    "title": "AdEx",
                    "slug": "adex",
                    "url": "https:\/\/cryptopanic.com\/news\/adex\/"
                }
            ],
            "id": 12911713,
            "url": "https:\/\/cryptopanic.com\/news\/12911713\/RT-SmartCryptoNew1-TaxaNetwork-On-Gate_io-Startup-Free-Offering-Bcmhunt-Whitelist-Form-Wwnt-Live-AdEx_Network-and-Luxfioffic",
            "created_at": "2021-10-01T11:52:32Z",
            "votes": {
                "negative": 0,
                "positive": 0,
                "important": 0,
                "liked": 0,
                "disliked": 0,
                "lol": 0,
                "toxic": 0,
                "saved": 0,
                "comments": 0
            }
        },
        {
            "kind": "news",
            "domain": "@AdEx_Network",
            "source": {
                "title": "AdEx Twitter",
                "region": "en",
                "domain": "twitter.com",
                "path": "@adex_network"
            },
            "title": "Subscribe now, don't regret later ",
            "published_at": "2021-10-01T10:05:43Z",
            "slug": "Subscribe-now-dont-regret-later",
            "currencies": [
                {
                    "code": "ADX",
                    "title": "AdEx",
                    "slug": "adex",
                    "url": "https:\/\/cryptopanic.com\/news\/adex\/"
                }
            ],
            "id": 12911444,
            "url": "https:\/\/cryptopanic.com\/news\/12911444\/Subscribe-now-dont-regret-later",
            "created_at": "2021-10-01T10:05:43Z",
            "votes": {
                "negative": 0,
                "positive": 0,
                "important": 0,
                "liked": 0,
                "disliked": 0,
                "lol": 0,
                "toxic": 0,
                "saved": 0,
                "comments": 0
            }
        }
    ]
}
