{
    "count": 200,
    "next": "https:\/\/cryptopanic.com\/api\/v1\/posts\/?auth_token=01c356e89ffc1b8eba2127c81fc8c66ee0eace75&kind=news&currencies=LSK&page=2",
    "previous": null,
    "results": [
        {
            "kind": "news",
            "domain": "@LiskHQ",
            "source": {
                "title": "Lisk Twitter",
                "region": "en",
                "domain": "twitter.com",
                "path": "@liskhq"
            },
            "title": "The #Lisk Financial Update for June 2023 is out \u2b07\ufe0f",
            "published_at": "2023-07-11T12:13:47Z",
            "slug": "The-Lisk-Financial-Update-for-June-2023-is-out",
            "currencies": [
                {
                    "code": "LSK",
                    "title": "Lisk",
                    "slug": "lisk",
                    "url": "https:\/\/cryptopanic.com\/news\/lisk\/"
                }
            ],
            "id": 18765415,
            "url": "https:\/\/cryptopanic.com\/news\/18765415\/The-Lisk-Financial-Update-for-June-2023-is-out",
            "created_at": "2023-07-11T12:13:47Z",
            "votes": {
                "negative": 0,
                "positive": 0,
                "important": 0,
                "liked": 0,
                "disliked": 0,
                "lol": 0,
                "toxic": 0,
                "saved": 0,
                "comments": 0
            }
        },
        {
            "kind": "news",
            "domain": "@LiskHQ",
            "source": {
                "title": "Lisk Twitter",
                "region": "en",
                "domain": "twitter.com",
                "path": "@liskhq"
            },
            "title": "RT @its_mojeezy: Tech Fest by @thepitafrica &amp; @psn_ypg was a great time. Really nice to see Pharmacists excited about blockchain: We had l\u2026",
            "published_at": "2023-07-10T12:16:41Z",
            "slug": "RT-its_mojeezy-Tech-Fest-by-thepitafrica-amp-psn_ypg-was-a-great-time-Really-nice-to-see-Pharmacists-excited-about-blockchain-We-had-l",
            "currencies": [
                {
                    "code": "LSK",
                    "title": "Lisk",
                    "slug": "lisk",
                    "url": "https:\/\/cryptopanic.com\/news\/lisk\/"
                }
            ],
            "id": 18757270,
            "url": "https:\/\/cryptopanic.com\/news\/18757270\/RT-its_mojeezy-Tech-Fest-by-thepitafrica-amp-psn_ypg-was-a-great-time-Really-nice-to-see-Pharmacists-excited-about-blockchain-We-had-l",
            "created_at": "2023-07-10T12:16:41Z",
            "votes": {
                "negative": 0,
                "positive": 0,
                "important": 0,
                "liked": 0,
                "disliked": 0,
                "lol": 0,
                "toxic": 0,
                "saved": 0,
                "comments": 0
            }
        },
        {
            "kind": "news",
            "domain": "@LiskHQ",
            "source": {
                "title": "Lisk Twitter",
                "region": "en",
                "domain": "twitter.com",
                "path": "@liskhq"
            },
            "title": "RT @iota: 3\/ Last week's #IOTA Community Regulation Call welcomed \n@LiskHQ's Legal Counsel Iwona Strzepka to talk about reverse solicitatio\u2026",
            "published_at": "2023-07-10T12:05:48Z",
            "slug": "RT-iota-3-Last-weeks-IOTA-Community-Regulation-Call-welcomed-LiskHQs-Legal-Counsel-Iwona-Strzepka-to-talk-about-reverse-solicitatio",
            "currencies": [
                {
                    "code": "LSK",
                    "title": "Lisk",
                    "slug": "lisk",
                    "url": "https:\/\/cryptopanic.com\/news\/lisk\/"
                }
            ],
            "id": 18757271,
            "url": "https:\/\/cryptopanic.com\/news\/18757271\/RT-iota-3-Last-weeks-IOTA-Community-Regulation-Call-welcomed-LiskHQs-Legal-Counsel-Iwona-Strzepka-to-talk-about-reverse-solicitatio",
            "created_at": "2023-07-10T12:05:48Z",
            "votes": {
                "negative": 0,
                "positive": 0,
                "important": 0,
                "liked": 0,
                "disliked": 0,
                "lol": 0,
                "toxic": 0,
                "saved": 0,
                "comments": 0
            }
        },
        {
            "kind": "news",
            "domain": "@LiskHQ",
            "source": {
                "title": "Lisk Twitter",
                "region": "en",
                "domain": "twitter.com",
                "path": "@liskhq"
            },
            "title": "RT @CryptoGirlsClub: Our hearts are FULL \ufe0f\n\nOver 10 outstanding projects pitched on #ReFi.",
            "published_at": "2023-07-10T06:44:44Z",
            "slug": "RT-CryptoGirlsClub-Our-hearts-are-FULL-Over-10-outstanding-projects-pitched-on-ReFi",
            "currencies": [
                {
                    "code": "LSK",
                    "title": "Lisk",
                    "slug": "lisk",
                    "url": "https:\/\/cryptopanic.com\/news\/lisk\/"
                }
            ],
            "id": 18750316,
            "url": "https:\/\/cryptopanic.com\/news\/18750316\/RT-CryptoGirlsClub-Our-hearts-are-FULL-Over-10-outstanding-projects-pitched-on-ReFi",
            "created_at": "2023-07-10T06:44:44Z",
            "votes": {
                "negative": 0,
                "positive": 0,
                "important": 0,
                "liked": 0,
                "disliked": 0,
                "lol": 0,
                "toxic": 0,
                "saved": 0,
                "comments": 0
            }
        },
        {
            "kind": "news",
            "domain": "@LiskHQ",
            "source": {
                "title": "Lisk Twitter",
                "region": "en",
                "domain": "twitter.com",
                "path": "@liskhq"
            },
            "title": "The #ReFi Mini Hack at the @LiskHQ Center  Loving the buzz!",
            "published_at": "2023-07-08T14:31:21Z",
            "slug": "The-ReFi-Mini-Hack-at-the-LiskHQ-Center-Loving-the-buzz",
            "currencies": [
                {
                    "code": "LSK",
                    "title": "Lisk",
                    "slug": "lisk",
                    "url": "https:\/\/cryptopanic.com\/news\/lisk\/"
                }
            ],
            "id": 18746059,
            "url": "https:\/\/cryptopanic.com\/news\/18746059\/The-ReFi-Mini-Hack-at-the-LiskHQ-Center-Loving-the-buzz",
            "created_at": "2023-07-08T14:31:21Z",
            "votes": {
                "negative": 0,
                "positive": 0,
                "important": 0,
                "liked": 0,
                "disliked": 0,
                "lol": 0,
                "toxic": 0,
                "saved": 0,
                "comments": 0
            }
        },
        {
            "kind": "news",
            "domain": "@LiskHQ",
            "source": {
                "title": "Lisk Twitter",
                "region": "en",
                "domain": "twitter.com",
                "path": "@liskhq"
            },
            "title": "Calling all Berliners!  If you're interested in #ReFi and #Web3, don't miss out on the We Are All Builders #Hack t\u2026",
            "published_at": "2023-07-07T11:11:34Z",
            "slug": "Calling-all-Berliners-If-youre-interested-in-ReFi-and-Web3-dont-miss-out-on-the-We-Are-All-Builders-Hack-t",
            "currencies": [
                {
                    "code": "LSK",
                    "title": "Lisk",
                    "slug": "lisk",
                    "url": "https:\/\/cryptopanic.com\/news\/lisk\/"
                }
            ],
            "id": 18741053,
            "url": "https:\/\/cryptopanic.com\/news\/18741053\/Calling-all-Berliners-If-youre-interested-in-ReFi-and-Web3-dont-miss-out-on-the-We-Are-All-Builders-Hack-t",
            "created_at": "2023-07-07T11:11:34Z",
            "votes": {
                "negative": 0,
                "positive": 0,
                "important": 0,
                "liked": 0,
                "disliked": 0,
                "lol": 0,
                "toxic": 0,
                "saved": 0,
                "comments": 0
            }
        },
        {
            "kind": "news",
            "domain": "@LiskHQ",
            "source": {
                "title": "Lisk Twitter",
                "region": "en",
                "domain": "twitter.com",
                "path": "@liskhq"
            },
            "title": "RT @CV_Labs: Insights from Nigeria: Leading Blockchain Adoption in Africa",
            "published_at": "2023-07-06T14:02:18Z",
            "slug": "RT-CV_Labs-Insights-from-Nigeria-Leading-Blockchain-Adoption-in-Africa",
            "currencies": [
                {
                    "code": "LSK",
                    "title": "Lisk",
                    "slug": "lisk",
                    "url": "https:\/\/cryptopanic.com\/news\/lisk\/"
                }
            ],
            "id": 18733517,
            "url": "https:\/\/cryptopanic.com\/news\/18733517\/RT-CV_Labs-Insights-from-Nigeria-Leading-Blockchain-Adoption-in-Africa",
            "created_at": "2023-07-06T14:02:18Z",
            "votes": {
                "negative": 0,
                "positive": 0,
                "important": 0,
                "liked": 0,
                "disliked": 0,
                "lol": 0,
                "toxic": 0,
                "saved": 0,
                "comments": 0
            }
        },
        {
            "kind": "news",
            "domain": "@LiskHQ",
            "source": {
                "title": "Lisk Twitter",
                "region": "en",
                "domain": "twitter.com",
                "path": "@liskhq"
            },
            "title": "RT @its_mojeezy: Let\u2019s do this today by 4pm. Get your access tickets here for the livestream session with @CV_Labs &amp; @LiskHQ ",
            "published_at": "2023-07-06T11:35:01Z",
            "slug": "RT-its_mojeezy-Lets-do-this-today-by-4pm-Get-your-access-tickets-here-for-the-livestream-session-with-CV_Labs-amp-LiskHQ",
            "currencies": [
                {
                    "code": "LSK",
                    "title": "Lisk",
                    "slug": "lisk",
                    "url": "https:\/\/cryptopanic.com\/news\/lisk\/"
                }
            ],
            "id": 18733518,
            "url": "https:\/\/cryptopanic.com\/news\/18733518\/RT-its_mojeezy-Lets-do-this-today-by-4pm-Get-your-access-tickets-here-for-the-livestream-session-with-CV_Labs-amp-LiskHQ",
            "created_at": "2023-07-06T11:35:01Z",
            "votes": {
                "negative": 0,
                "positive": 0,
                "important": 0,
                "liked": 0,
                "disliked": 0,
                "lol": 0,
                "toxic": 0,
                "saved": 0,
                "comments": 0
            }
        },
        {
            "kind": "news",
            "domain": "@LiskHQ",
            "source": {
                "title": "Lisk Twitter",
                "region": "en",
                "domain": "twitter.com",
                "path": "@liskhq"
            },
            "title": "RT @iota: This Wednesday, July 5th at 6PM CEST, join us for a new #IOTA Community Regulation Call with @LiskHQ's Legal Counsel Iwona Strze\u2026",
            "published_at": "2023-07-04T12:18:11Z",
            "slug": "RT-iota-This-Wednesday-July-5th-at-6PM-CEST-join-us-for-a-new-IOTA-Community-Regulation-Call-with-LiskHQs-Legal-Counsel-Iwona-Strze",
            "currencies": [
                {
                    "code": "LSK",
                    "title": "Lisk",
                    "slug": "lisk",
                    "url": "https:\/\/cryptopanic.com\/news\/lisk\/"
                }
            ],
            "id": 18717229,
            "url": "https:\/\/cryptopanic.com\/news\/18717229\/RT-iota-This-Wednesday-July-5th-at-6PM-CEST-join-us-for-a-new-IOTA-Community-Regulation-Call-with-LiskHQs-Legal-Counsel-Iwona-Strze",
            "created_at": "2023-07-04T12:18:11Z",
            "votes": {
                "negative": 0,
                "positive": 0,
                "important": 0,
                "liked": 0,
                "disliked": 0,
                "lol": 0,
                "toxic": 0,
                "saved": 0,
                "comments": 0
            }
        },
        {
            "kind": "news",
            "domain": "@LiskHQ",
            "source": {
                "title": "Lisk Twitter",
                "region": "en",
                "domain": "twitter.com",
                "path": "@liskhq"
            },
            "title": "Introducing \"Builders on the Block\" - @LiskHQ very own magazine!\n\n\ufe0f Discover the potential of blockchain for top i\u2026",
            "published_at": "2023-07-03T09:35:06Z",
            "slug": "Introducing-Builders-on-the-Block-LiskHQ-very-own-magazine-Discover-the-potential-of-blockchain-for-top-i",
            "currencies": [
                {
                    "code": "LSK",
                    "title": "Lisk",
                    "slug": "lisk",
                    "url": "https:\/\/cryptopanic.com\/news\/lisk\/"
                }
            ],
            "id": 18710052,
            "url": "https:\/\/cryptopanic.com\/news\/18710052\/Introducing-Builders-on-the-Block-LiskHQ-very-own-magazine-Discover-the-potential-of-blockchain-for-top-i",
            "created_at": "2023-07-03T09:35:06Z",
            "votes": {
                "negative": 0,
                "positive": 0,
                "important": 0,
                "liked": 0,
                "disliked": 0,
                "lol": 0,
                "toxic": 0,
                "saved": 0,
                "comments": 0
            }
        },
        {
            "kind": "news",
            "domain": "@LiskHQ",
            "source": {
                "title": "Lisk Twitter",
                "region": "en",
                "domain": "twitter.com",
                "path": "@liskhq"
            },
            "title": "We are happy to welcome new project to the #Lisk Accelerator program! Meet Kruuu and its founder and CEO Nino Ferna\u2026",
            "published_at": "2023-06-30T13:39:05Z",
            "slug": "We-are-happy-to-welcome-new-project-to-the-Lisk-Accelerator-program-Meet-Kruuu-and-its-founder-and-CEO-Nino-Ferna",
            "currencies": [
                {
                    "code": "LSK",
                    "title": "Lisk",
                    "slug": "lisk",
                    "url": "https:\/\/cryptopanic.com\/news\/lisk\/"
                }
            ],
            "id": 18694358,
            "url": "https:\/\/cryptopanic.com\/news\/18694358\/We-are-happy-to-welcome-new-project-to-the-Lisk-Accelerator-program-Meet-Kruuu-and-its-founder-and-CEO-Nino-Ferna",
            "created_at": "2023-06-30T13:39:05Z",
            "votes": {
                "negative": 0,
                "positive": 0,
                "important": 0,
                "liked": 0,
                "disliked": 0,
                "lol": 0,
                "toxic": 0,
                "saved": 0,
                "comments": 0
            }
        },
        {
            "kind": "news",
            "domain": "@LiskHQ",
            "source": {
                "title": "Lisk Twitter",
                "region": "en",
                "domain": "twitter.com",
                "path": "@liskhq"
            },
            "title": "Discover the groundbreaking #blockchain revolution in Africa! Join us on July 6 for an enlightening learning experi\u2026",
            "published_at": "2023-06-29T09:33:00Z",
            "slug": "Discover-the-groundbreaking-blockchain-revolution-in-Africa-Join-us-on-July-6-for-an-enlightening-learning-experi",
            "currencies": [
                {
                    "code": "LSK",
                    "title": "Lisk",
                    "slug": "lisk",
                    "url": "https:\/\/cryptopanic.com\/news\/lisk\/"
                }
            ],
            "id": 18686604,
            "url": "https:\/\/cryptopanic.com\/news\/18686604\/Discover-the-groundbreaking-blockchain-revolution-in-Africa-Join-us-on-July-6-for-an-enlightening-learning-experi",
            "created_at": "2023-06-29T09:33:00Z",
            "votes": {
                "negative": 0,
                "positive": 0,
                "important": 0,
                "liked": 0,
                "disliked": 0,
                "lol": 0,
                "toxic": 0,
                "saved": 0,
                "comments": 0
            }
        },
        {
            "kind": "news",
            "domain": "@LiskHQ",
            "source": {
                "title": "Lisk Twitter",
                "region": "en",
                "domain": "twitter.com",
                "path": "@liskhq"
            },
            "title": "New to Lisk and eager to understand how the ecosystem works? Our tutorials are a perfect starting point! Check it o\u2026",
            "published_at": "2023-06-27T07:35:38Z",
            "slug": "New-to-Lisk-and-eager-to-understand-how-the-ecosystem-works-Our-tutorials-are-a-perfect-starting-point-Check-it-o",
            "currencies": [
                {
                    "code": "LSK",
                    "title": "Lisk",
                    "slug": "lisk",
                    "url": "https:\/\/cryptopanic.com\/news\/lisk\/"
                }
            ],
            "id": 18662181,
            "url": "https:\/\/cryptopanic.com\/news\/18662181\/New-to-Lisk-and-eager-to-understand-how-the-ecosystem-works-Our-tutorials-are-a-perfect-starting-point-Check-it-o",
            "created_at": "2023-06-27T07:35:38Z",
            "votes": {
                "negative": 0,
                "positive": 0,
                "important": 0,
                "liked": 0,
                "disliked": 0,
                "lol": 0,
                "toxic": 0,
                "saved": 0,
                "comments": 0
            }
        },
        {
            "kind": "news",
            "domain": "@LiskHQ",
            "source": {
                "title": "Lisk Twitter",
                "region": "en",
                "domain": "twitter.com",
                "path": "@liskhq"
            },
            "title": "RT @CryptoGirlsClub: Co-founder @ZoeCatherineF will be one of the judges for We Are All Builders #Hack, awarding the 2500 #USDC bounty on J\u2026",
            "published_at": "2023-06-26T17:00:37Z",
            "slug": "RT-CryptoGirlsClub-Co-founder-ZoeCatherineF-will-be-one-of-the-judges-for-We-Are-All-Builders-Hack-awarding-the-2500-USDC-bounty-on-J",
            "currencies": [
                {
                    "code": "LSK",
                    "title": "Lisk",
                    "slug": "lisk",
                    "url": "https:\/\/cryptopanic.com\/news\/lisk\/"
                }
            ],
            "id": 18662183,
            "url": "https:\/\/cryptopanic.com\/news\/18662183\/RT-CryptoGirlsClub-Co-founder-ZoeCatherineF-will-be-one-of-the-judges-for-We-Are-All-Builders-Hack-awarding-the-2500-USDC-bounty-on-J",
            "created_at": "2023-06-26T17:00:37Z",
            "votes": {
                "negative": 0,
                "positive": 0,
                "important": 0,
                "liked": 0,
                "disliked": 0,
                "lol": 0,
                "toxic": 0,
                "saved": 0,
                "comments": 0
            }
        },
        {
            "kind": "news",
            "domain": "@LiskHQ",
            "source": {
                "title": "Lisk Twitter",
                "region": "en",
                "domain": "twitter.com",
                "path": "@liskhq"
            },
            "title": "Heads up, builders \ufe0f The deadline for #Lisk Accelerator applications is fast approaching.\n\n Batch 1 applications\u2026",
            "published_at": "2023-06-22T10:16:54Z",
            "slug": "Heads-up-builders-The-deadline-for-Lisk-Accelerator-applications-is-fast-approaching-Batch-1-applications",
            "currencies": [
                {
                    "code": "LSK",
                    "title": "Lisk",
                    "slug": "lisk",
                    "url": "https:\/\/cryptopanic.com\/news\/lisk\/"
                }
            ],
            "id": 18637891,
            "url": "https:\/\/cryptopanic.com\/news\/18637891\/Heads-up-builders-The-deadline-for-Lisk-Accelerator-applications-is-fast-approaching-Batch-1-applications",
            "created_at": "2023-06-22T10:16:54Z",
            "votes": {
                "negative": 0,
                "positive": 0,
                "important": 0,
                "liked": 0,
                "disliked": 0,
                "lol": 0,
                "toxic": 0,
                "saved": 0,
                "comments": 0
            }
        },
        {
            "kind": "news",
            "domain": "@LiskHQ",
            "source": {
                "title": "Lisk Twitter",
                "region": "en",
                "domain": "twitter.com",
                "path": "@liskhq"
            },
            "title": "To all the builders and creators!\n\nJoin @CryptoGirlsClub &amp; partners #hack at @LiskHQ and win a prize for the best\u2026",
            "published_at": "2023-06-19T12:28:43Z",
            "slug": "To-all-the-builders-and-creators-Join-CryptoGirlsClub-amp-partners-hack-at-LiskHQ-and-win-a-prize-for-the-best",
            "currencies": [
                {
                    "code": "LSK",
                    "title": "Lisk",
                    "slug": "lisk",
                    "url": "https:\/\/cryptopanic.com\/news\/lisk\/"
                }
            ],
            "id": 18613236,
            "url": "https:\/\/cryptopanic.com\/news\/18613236\/To-all-the-builders-and-creators-Join-CryptoGirlsClub-amp-partners-hack-at-LiskHQ-and-win-a-prize-for-the-best",
            "created_at": "2023-06-19T12:28:43Z",
            "votes": {
                "negative": 0,
                "positive": 0,
                "important": 0,
                "liked": 0,
                "disliked": 0,
                "lol": 0,
                "toxic": 0,
                "saved": 0,
                "comments": 0
            }
        },
        {
            "kind": "news",
            "domain": "@LiskHQ",
            "source": {
                "title": "Lisk Twitter",
                "region": "en",
                "domain": "twitter.com",
                "path": "@liskhq"
            },
            "title": "RT @DappRadar:  To all Web3 entrepreneurs and devs out there! Want to build your Web3 app with funding up to 250K CHF, ongoing support fro\u2026",
            "published_at": "2023-06-16T09:52:32Z",
            "slug": "RT-DappRadar-To-all-Web3-entrepreneurs-and-devs-out-there-Want-to-build-your-Web3-app-with-funding-up-to-250K-CHF-ongoing-support-fro",
            "currencies": [
                {
                    "code": "LSK",
                    "title": "Lisk",
                    "slug": "lisk",
                    "url": "https:\/\/cryptopanic.com\/news\/lisk\/"
                }
            ],
            "id": 18596846,
            "url": "https:\/\/cryptopanic.com\/news\/18596846\/RT-DappRadar-To-all-Web3-entrepreneurs-and-devs-out-there-Want-to-build-your-Web3-app-with-funding-up-to-250K-CHF-ongoing-support-fro",
            "created_at": "2023-06-16T09:52:32Z",
            "votes": {
                "negative": 0,
                "positive": 0,
                "important": 0,
                "liked": 0,
                "disliked": 0,
                "lol": 0,
                "toxic": 0,
                "saved": 0,
                "comments": 0
            }
        },
        {
            "kind": "news",
            "domain": "@LiskHQ",
            "source": {
                "title": "Lisk Twitter",
                "region": "en",
                "domain": "twitter.com",
                "path": "@liskhq"
            },
            "title": "Feeling INSPIRED \ud83c\uddee\ud83c\udde9\n\nThis week @LiskHQ was honored to host delegates from Indonesia's Ministry of National Develo\u2026",
            "published_at": "2023-06-15T11:11:09Z",
            "slug": "Feeling-INSPIRED-This-week-LiskHQ-was-honored-to-host-delegates-from-Indonesias-Ministry-of-National-Develo",
            "currencies": [
                {
                    "code": "LSK",
                    "title": "Lisk",
                    "slug": "lisk",
                    "url": "https:\/\/cryptopanic.com\/news\/lisk\/"
                }
            ],
            "id": 18588165,
            "url": "https:\/\/cryptopanic.com\/news\/18588165\/Feeling-INSPIRED-This-week-LiskHQ-was-honored-to-host-delegates-from-Indonesias-Ministry-of-National-Develo",
            "created_at": "2023-06-15T11:11:09Z",
            "votes": {
                "negative": 0,
                "positive": 0,
                "important": 0,
                "liked": 0,
                "disliked": 0,
                "lol": 0,
                "toxic": 0,
                "saved": 0,
                "comments": 0
            }
        },
        {
            "kind": "news",
            "domain": "@LiskHQ",
            "source": {
                "title": "Lisk Twitter",
                "region": "en",
                "domain": "twitter.com",
                "path": "@liskhq"
            },
            "title": " Security alert  The official @LiskHQ Discord server was hacked. We restored the service, however avoid clicking\u2026",
            "published_at": "2023-06-14T07:54:49Z",
            "slug": "Security-alert-The-official-LiskHQ-Discord-server-was-hacked-We-restored-the-service-however-avoid-clicking",
            "currencies": [
                {
                    "code": "LSK",
                    "title": "Lisk",
                    "slug": "lisk",
                    "url": "https:\/\/cryptopanic.com\/news\/lisk\/"
                }
            ],
            "id": 18571800,
            "url": "https:\/\/cryptopanic.com\/news\/18571800\/Security-alert-The-official-LiskHQ-Discord-server-was-hacked-We-restored-the-service-however-avoid-clicking",
            "created_at": "2023-06-14T07:54:49Z",
            "votes": {
                "negative": 0,
                "positive": 0,
                "important": 0,
                "liked": 0,
                "disliked": 0,
                "lol": 0,
                "toxic": 0,
                "saved": 0,
                "comments": 0
            }
        },
        {
            "kind": "news",
            "domain": "@LiskHQ",
            "source": {
                "title": "Lisk Twitter",
                "region": "en",
                "domain": "twitter.com",
                "path": "@liskhq"
            },
            "title": "RT @CryptoGirlsClub: Calling all builders, creators and curious! We're hosting another #hack at @LiskHQ in #Berlin on July 8!\n\n\u20ac2500+ in p\u2026",
            "published_at": "2023-06-13T14:08:45Z",
            "slug": "RT-CryptoGirlsClub-Calling-all-builders-creators-and-curious-Were-hosting-another-hack-at-LiskHQ-in-Berlin-on-July-8-2500-in-p",
            "currencies": [
                {
                    "code": "LSK",
                    "title": "Lisk",
                    "slug": "lisk",
                    "url": "https:\/\/cryptopanic.com\/news\/lisk\/"
                }
            ],
            "id": 18571801,
            "url": "https:\/\/cryptopanic.com\/news\/18571801\/RT-CryptoGirlsClub-Calling-all-builders-creators-and-curious-Were-hosting-another-hack-at-LiskHQ-in-Berlin-on-July-8-2500-in-p",
            "created_at": "2023-06-13T14:08:45Z",
            "votes": {
                "negative": 0,
                "positive": 0,
                "important": 0,
                "liked": 0,
                "disliked": 0,
                "lol": 0,
                "toxic": 0,
                "saved": 0,
                "comments": 0
            }
        }
    ]
}
