{
    "count": 200,
    "next": "https:\/\/cryptopanic.com\/api\/v1\/posts\/?auth_token=01c356e89ffc1b8eba2127c81fc8c66ee0eace75&kind=news&currencies=TRB&page=2",
    "previous": null,
    "results": [
        {
            "kind": "news",
            "domain": "@WeAreTellor",
            "source": {
                "title": "Tellor Twitter",
                "region": "en",
                "domain": "twitter.com",
                "path": "@wearetellor"
            },
            "title": "RT @0xSpuddy: BEHOLD TELLIOT-FEEDS RELEASE 0.1.11 ",
            "published_at": "2023-07-10T18:23:15Z",
            "slug": "RT-0xSpuddy-BEHOLD-TELLIOT-FEEDS-RELEASE-0111",
            "currencies": [
                {
                    "code": "TRB",
                    "title": "Tellor Tributes",
                    "slug": "tellor",
                    "url": "https:\/\/cryptopanic.com\/news\/tellor\/"
                }
            ],
            "id": 18759261,
            "url": "https:\/\/cryptopanic.com\/news\/18759261\/RT-0xSpuddy-BEHOLD-TELLIOT-FEEDS-RELEASE-0111",
            "created_at": "2023-07-10T18:23:15Z",
            "votes": {
                "negative": 0,
                "positive": 0,
                "important": 0,
                "liked": 0,
                "disliked": 0,
                "lol": 0,
                "toxic": 0,
                "saved": 0,
                "comments": 0
            }
        },
        {
            "kind": "news",
            "domain": "@WeAreTellor",
            "source": {
                "title": "Tellor Twitter",
                "region": "en",
                "domain": "twitter.com",
                "path": "@wearetellor"
            },
            "title": "\u200d\ufe0f today's tellor dev call is posted!\n watch here",
            "published_at": "2023-07-10T16:04:28Z",
            "slug": "todays-tellor-dev-call-is-posted-watch-here",
            "currencies": [
                {
                    "code": "TRB",
                    "title": "Tellor Tributes",
                    "slug": "tellor",
                    "url": "https:\/\/cryptopanic.com\/news\/tellor\/"
                }
            ],
            "id": 18759262,
            "url": "https:\/\/cryptopanic.com\/news\/18759262\/todays-tellor-dev-call-is-posted-watch-here",
            "created_at": "2023-07-10T16:04:28Z",
            "votes": {
                "negative": 0,
                "positive": 0,
                "important": 0,
                "liked": 0,
                "disliked": 0,
                "lol": 0,
                "toxic": 0,
                "saved": 0,
                "comments": 0
            }
        },
        {
            "kind": "news",
            "domain": "@WeAreTellor",
            "source": {
                "title": "Tellor Twitter",
                "region": "en",
                "domain": "twitter.com",
                "path": "@wearetellor"
            },
            "title": "RT @themandalore9: New deep dive w\/ @alexeiZamyatin from @InterlayHQ . An awesome discussion on how interlay has made a trustless bridge t\u2026",
            "published_at": "2023-07-10T13:09:08Z",
            "slug": "RT-themandalore9-New-deep-dive-w-alexeiZamyatin-from-InterlayHQ-An-awesome-discussion-on-how-interlay-has-made-a-trustless-bridge-t",
            "currencies": [
                {
                    "code": "TRB",
                    "title": "Tellor Tributes",
                    "slug": "tellor",
                    "url": "https:\/\/cryptopanic.com\/news\/tellor\/"
                }
            ],
            "id": 18759263,
            "url": "https:\/\/cryptopanic.com\/news\/18759263\/RT-themandalore9-New-deep-dive-w-alexeiZamyatin-from-InterlayHQ-An-awesome-discussion-on-how-interlay-has-made-a-trustless-bridge-t",
            "created_at": "2023-07-10T13:09:08Z",
            "votes": {
                "negative": 0,
                "positive": 0,
                "important": 0,
                "liked": 0,
                "disliked": 0,
                "lol": 0,
                "toxic": 0,
                "saved": 0,
                "comments": 0
            }
        },
        {
            "kind": "news",
            "domain": "@WeAreTellor",
            "source": {
                "title": "Tellor Twitter",
                "region": "en",
                "domain": "twitter.com",
                "path": "@wearetellor"
            },
            "title": "RT @raft_fi: On Thursday, @mijovi988 and @yarmun1 joined our friends from @WeAreTellor to discuss dual oracle design. \n\nListen to the reco\u2026",
            "published_at": "2023-07-10T12:51:10Z",
            "slug": "RT-raft_fi-On-Thursday-mijovi988-and-yarmun1-joined-our-friends-from-WeAreTellor-to-discuss-dual-oracle-design-Listen-to-the-reco",
            "currencies": [
                {
                    "code": "TRB",
                    "title": "Tellor Tributes",
                    "slug": "tellor",
                    "url": "https:\/\/cryptopanic.com\/news\/tellor\/"
                }
            ],
            "id": 18759264,
            "url": "https:\/\/cryptopanic.com\/news\/18759264\/RT-raft_fi-On-Thursday-mijovi988-and-yarmun1-joined-our-friends-from-WeAreTellor-to-discuss-dual-oracle-design-Listen-to-the-reco",
            "created_at": "2023-07-10T12:51:10Z",
            "votes": {
                "negative": 0,
                "positive": 0,
                "important": 0,
                "liked": 0,
                "disliked": 0,
                "lol": 0,
                "toxic": 0,
                "saved": 0,
                "comments": 0
            }
        },
        {
            "kind": "news",
            "domain": "@WeAreTellor",
            "source": {
                "title": "Tellor Twitter",
                "region": "en",
                "domain": "twitter.com",
                "path": "@wearetellor"
            },
            "title": "\ufe0fAnd we're Live!\n Listen here",
            "published_at": "2023-07-06T15:02:17Z",
            "slug": "And-were-Live-Listen-here",
            "currencies": [
                {
                    "code": "TRB",
                    "title": "Tellor Tributes",
                    "slug": "tellor",
                    "url": "https:\/\/cryptopanic.com\/news\/tellor\/"
                }
            ],
            "id": 18735695,
            "url": "https:\/\/cryptopanic.com\/news\/18735695\/And-were-Live-Listen-here",
            "created_at": "2023-07-06T15:02:17Z",
            "votes": {
                "negative": 0,
                "positive": 0,
                "important": 0,
                "liked": 0,
                "disliked": 0,
                "lol": 0,
                "toxic": 0,
                "saved": 0,
                "comments": 0
            }
        },
        {
            "kind": "news",
            "domain": "@WeAreTellor",
            "source": {
                "title": "Tellor Twitter",
                "region": "en",
                "domain": "twitter.com",
                "path": "@wearetellor"
            },
            "title": "\u23f3We begin in 30 minutes !",
            "published_at": "2023-07-06T14:29:01Z",
            "slug": "We-begin-in-30-minutes",
            "currencies": [
                {
                    "code": "TRB",
                    "title": "Tellor Tributes",
                    "slug": "tellor",
                    "url": "https:\/\/cryptopanic.com\/news\/tellor\/"
                }
            ],
            "id": 18735696,
            "url": "https:\/\/cryptopanic.com\/news\/18735696\/We-begin-in-30-minutes",
            "created_at": "2023-07-06T14:29:01Z",
            "votes": {
                "negative": 0,
                "positive": 0,
                "important": 0,
                "liked": 0,
                "disliked": 0,
                "lol": 0,
                "toxic": 0,
                "saved": 0,
                "comments": 0
            }
        },
        {
            "kind": "news",
            "domain": "@WeAreTellor",
            "source": {
                "title": "Tellor Twitter",
                "region": "en",
                "domain": "twitter.com",
                "path": "@wearetellor"
            },
            "title": "RT @themandalore9: new deep dive! This time with Shubham from @routerprotocol . It was a great time and I learned about their design for\u2026",
            "published_at": "2023-07-06T12:26:37Z",
            "slug": "RT-themandalore9-new-deep-dive-This-time-with-Shubham-from-routerprotocol-It-was-a-great-time-and-I-learned-about-their-design-for",
            "currencies": [
                {
                    "code": "TRB",
                    "title": "Tellor Tributes",
                    "slug": "tellor",
                    "url": "https:\/\/cryptopanic.com\/news\/tellor\/"
                }
            ],
            "id": 18735697,
            "url": "https:\/\/cryptopanic.com\/news\/18735697\/RT-themandalore9-new-deep-dive-This-time-with-Shubham-from-routerprotocol-It-was-a-great-time-and-I-learned-about-their-design-for",
            "created_at": "2023-07-06T12:26:37Z",
            "votes": {
                "negative": 0,
                "positive": 0,
                "important": 0,
                "liked": 0,
                "disliked": 0,
                "lol": 0,
                "toxic": 0,
                "saved": 0,
                "comments": 0
            }
        },
        {
            "kind": "news",
            "domain": "@WeAreTellor",
            "source": {
                "title": "Tellor Twitter",
                "region": "en",
                "domain": "twitter.com",
                "path": "@wearetellor"
            },
            "title": "RT @OracleSummit: What would you do if your oracle fails, or freezes?\n\nHow do you ensure your protocol uses accurate prices despite black s\u2026",
            "published_at": "2023-07-06T11:08:30Z",
            "slug": "RT-OracleSummit-What-would-you-do-if-your-oracle-fails-or-freezes-How-do-you-ensure-your-protocol-uses-accurate-prices-despite-black-s",
            "currencies": [
                {
                    "code": "TRB",
                    "title": "Tellor Tributes",
                    "slug": "tellor",
                    "url": "https:\/\/cryptopanic.com\/news\/tellor\/"
                }
            ],
            "id": 18735698,
            "url": "https:\/\/cryptopanic.com\/news\/18735698\/RT-OracleSummit-What-would-you-do-if-your-oracle-fails-or-freezes-How-do-you-ensure-your-protocol-uses-accurate-prices-despite-black-s",
            "created_at": "2023-07-06T11:08:30Z",
            "votes": {
                "negative": 0,
                "positive": 0,
                "important": 0,
                "liked": 0,
                "disliked": 0,
                "lol": 0,
                "toxic": 0,
                "saved": 0,
                "comments": 0
            }
        },
        {
            "kind": "news",
            "domain": "@WeAreTellor",
            "source": {
                "title": "Tellor Twitter",
                "region": "en",
                "domain": "twitter.com",
                "path": "@wearetellor"
            },
            "title": " if you're a protocol looking into using a dual-oracle design, this will be a great discussion to listen to. \n\n\u2026",
            "published_at": "2023-07-05T18:16:04Z",
            "slug": "if-youre-a-protocol-looking-into-using-a-dual-oracle-design-this-will-be-a-great-discussion-to-listen-to",
            "currencies": [
                {
                    "code": "TRB",
                    "title": "Tellor Tributes",
                    "slug": "tellor",
                    "url": "https:\/\/cryptopanic.com\/news\/tellor\/"
                }
            ],
            "id": 18727107,
            "url": "https:\/\/cryptopanic.com\/news\/18727107\/if-youre-a-protocol-looking-into-using-a-dual-oracle-design-this-will-be-a-great-discussion-to-listen-to",
            "created_at": "2023-07-05T18:16:04Z",
            "votes": {
                "negative": 0,
                "positive": 0,
                "important": 0,
                "liked": 0,
                "disliked": 0,
                "lol": 0,
                "toxic": 0,
                "saved": 0,
                "comments": 0
            }
        },
        {
            "kind": "news",
            "domain": "@WeAreTellor",
            "source": {
                "title": "Tellor Twitter",
                "region": "en",
                "domain": "twitter.com",
                "path": "@wearetellor"
            },
            "title": " Do Not Miss This! ",
            "published_at": "2023-07-04T17:15:41Z",
            "slug": "Do-Not-Miss-This",
            "currencies": [
                {
                    "code": "TRB",
                    "title": "Tellor Tributes",
                    "slug": "tellor",
                    "url": "https:\/\/cryptopanic.com\/news\/tellor\/"
                }
            ],
            "id": 18719086,
            "url": "https:\/\/cryptopanic.com\/news\/18719086\/Do-Not-Miss-This",
            "created_at": "2023-07-04T17:15:41Z",
            "votes": {
                "negative": 0,
                "positive": 0,
                "important": 0,
                "liked": 0,
                "disliked": 0,
                "lol": 0,
                "toxic": 0,
                "saved": 0,
                "comments": 0
            }
        },
        {
            "kind": "news",
            "domain": "@WeAreTellor",
            "source": {
                "title": "Tellor Twitter",
                "region": "en",
                "domain": "twitter.com",
                "path": "@wearetellor"
            },
            "title": " hey tellor community , today's dev call is up! \n watch here",
            "published_at": "2023-07-03T15:07:42Z",
            "slug": "hey-tellor-community-todays-dev-call-is-up-watch-here",
            "currencies": [
                {
                    "code": "TRB",
                    "title": "Tellor Tributes",
                    "slug": "tellor",
                    "url": "https:\/\/cryptopanic.com\/news\/tellor\/"
                }
            ],
            "id": 18712046,
            "url": "https:\/\/cryptopanic.com\/news\/18712046\/hey-tellor-community-todays-dev-call-is-up-watch-here",
            "created_at": "2023-07-03T15:07:42Z",
            "votes": {
                "negative": 0,
                "positive": 0,
                "important": 0,
                "liked": 0,
                "disliked": 0,
                "lol": 0,
                "toxic": 0,
                "saved": 0,
                "comments": 0
            }
        },
        {
            "kind": "news",
            "domain": "@WeAreTellor",
            "source": {
                "title": "Tellor Twitter",
                "region": "en",
                "domain": "twitter.com",
                "path": "@wearetellor"
            },
            "title": "1\/10  New User Spotlight!  We're spotlighting @divaprotocol_io, a smart contract-based system creating bespoke de\u2026",
            "published_at": "2023-06-30T15:38:39Z",
            "slug": "110-New-User-Spotlight-Were-spotlighting-divaprotocol_io-a-smart-contract-based-system-creating-bespoke-de",
            "currencies": [
                {
                    "code": "TRB",
                    "title": "Tellor Tributes",
                    "slug": "tellor",
                    "url": "https:\/\/cryptopanic.com\/news\/tellor\/"
                }
            ],
            "id": 18695989,
            "url": "https:\/\/cryptopanic.com\/news\/18695989\/110-New-User-Spotlight-Were-spotlighting-divaprotocol_io-a-smart-contract-based-system-creating-bespoke-de",
            "created_at": "2023-06-30T15:38:39Z",
            "votes": {
                "negative": 0,
                "positive": 0,
                "important": 0,
                "liked": 0,
                "disliked": 0,
                "lol": 0,
                "toxic": 0,
                "saved": 0,
                "comments": 0
            }
        },
        {
            "kind": "news",
            "domain": "@WeAreTellor",
            "source": {
                "title": "Tellor Twitter",
                "region": "en",
                "domain": "twitter.com",
                "path": "@wearetellor"
            },
            "title": "@justbrendax and @oraclown at #polkadotdecoded giving sneak peaks of the Tellor Architecture on @Polkadot.",
            "published_at": "2023-06-29T17:24:08Z",
            "slug": "justbrendax-and-oraclown-at-polkadotdecoded-giving-sneak-peaks-of-the-Tellor-Architecture-on-Polkadot",
            "currencies": [
                {
                    "code": "TRB",
                    "title": "Tellor Tributes",
                    "slug": "tellor",
                    "url": "https:\/\/cryptopanic.com\/news\/tellor\/"
                }
            ],
            "id": 18688706,
            "url": "https:\/\/cryptopanic.com\/news\/18688706\/justbrendax-and-oraclown-at-polkadotdecoded-giving-sneak-peaks-of-the-Tellor-Architecture-on-Polkadot",
            "created_at": "2023-06-29T17:24:08Z",
            "votes": {
                "negative": 0,
                "positive": 0,
                "important": 0,
                "liked": 0,
                "disliked": 0,
                "lol": 0,
                "toxic": 0,
                "saved": 0,
                "comments": 0
            }
        },
        {
            "kind": "news",
            "domain": "@WeAreTellor",
            "source": {
                "title": "Tellor Twitter",
                "region": "en",
                "domain": "twitter.com",
                "path": "@wearetellor"
            },
            "title": "RT @PolkadotDecoded: 2\/ #PolkadotDecoded, Tech Stage\u2b07\ufe0f\n\nWhat are the challenges of building a decentralized oracle, and why scalability is\u2026",
            "published_at": "2023-06-29T15:31:31Z",
            "slug": "RT-PolkadotDecoded-2-PolkadotDecoded-Tech-Stage-What-are-the-challenges-of-building-a-decentralized-oracle-and-why-scalability-is",
            "currencies": [
                {
                    "code": "TRB",
                    "title": "Tellor Tributes",
                    "slug": "tellor",
                    "url": "https:\/\/cryptopanic.com\/news\/tellor\/"
                }
            ],
            "id": 18688707,
            "url": "https:\/\/cryptopanic.com\/news\/18688707\/RT-PolkadotDecoded-2-PolkadotDecoded-Tech-Stage-What-are-the-challenges-of-building-a-decentralized-oracle-and-why-scalability-is",
            "created_at": "2023-06-29T15:31:31Z",
            "votes": {
                "negative": 0,
                "positive": 0,
                "important": 0,
                "liked": 0,
                "disliked": 0,
                "lol": 0,
                "toxic": 0,
                "saved": 0,
                "comments": 0
            }
        },
        {
            "kind": "news",
            "domain": "@WeAreTellor",
            "source": {
                "title": "Tellor Twitter",
                "region": "en",
                "domain": "twitter.com",
                "path": "@wearetellor"
            },
            "title": "bring. them. on. \ud83e\uddbe",
            "published_at": "2023-06-28T15:24:57Z",
            "slug": "bring-them-on",
            "currencies": [
                {
                    "code": "TRB",
                    "title": "Tellor Tributes",
                    "slug": "tellor",
                    "url": "https:\/\/cryptopanic.com\/news\/tellor\/"
                }
            ],
            "id": 18680766,
            "url": "https:\/\/cryptopanic.com\/news\/18680766\/bring-them-on",
            "created_at": "2023-06-28T15:24:57Z",
            "votes": {
                "negative": 0,
                "positive": 0,
                "important": 0,
                "liked": 0,
                "disliked": 0,
                "lol": 0,
                "toxic": 0,
                "saved": 0,
                "comments": 0
            }
        },
        {
            "kind": "news",
            "domain": "@WeAreTellor",
            "source": {
                "title": "Tellor Twitter",
                "region": "en",
                "domain": "twitter.com",
                "path": "@wearetellor"
            },
            "title": " Save the Date!\n\nJoin us next week for a technical space featuring devs from @raft_fi and @WeAreTellor, discussing\u2026",
            "published_at": "2023-06-28T15:16:45Z",
            "slug": "Save-the-Date-Join-us-next-week-for-a-technical-space-featuring-devs-from-raft_fi-and-WeAreTellor-discussing",
            "currencies": [
                {
                    "code": "TRB",
                    "title": "Tellor Tributes",
                    "slug": "tellor",
                    "url": "https:\/\/cryptopanic.com\/news\/tellor\/"
                }
            ],
            "id": 18680767,
            "url": "https:\/\/cryptopanic.com\/news\/18680767\/Save-the-Date-Join-us-next-week-for-a-technical-space-featuring-devs-from-raft_fi-and-WeAreTellor-discussing",
            "created_at": "2023-06-28T15:16:45Z",
            "votes": {
                "negative": 0,
                "positive": 0,
                "important": 0,
                "liked": 0,
                "disliked": 0,
                "lol": 0,
                "toxic": 0,
                "saved": 0,
                "comments": 0
            }
        },
        {
            "kind": "news",
            "domain": "@WeAreTellor",
            "source": {
                "title": "Tellor Twitter",
                "region": "en",
                "domain": "twitter.com",
                "path": "@wearetellor"
            },
            "title": "RT @0xSpuddy: So easy to submit a custom spot prices to Tellor oracles using Telliot \ud83e\udd0c \n\nHere's spuddy updating MIL\/USD on goerli (milady)\u2026",
            "published_at": "2023-06-28T14:49:03Z",
            "slug": "RT-0xSpuddy-So-easy-to-submit-a-custom-spot-prices-to-Tellor-oracles-using-Telliot-Heres-spuddy-updating-MILUSD-on-goerli-milady",
            "currencies": [
                {
                    "code": "TRB",
                    "title": "Tellor Tributes",
                    "slug": "tellor",
                    "url": "https:\/\/cryptopanic.com\/news\/tellor\/"
                }
            ],
            "id": 18680768,
            "url": "https:\/\/cryptopanic.com\/news\/18680768\/RT-0xSpuddy-So-easy-to-submit-a-custom-spot-prices-to-Tellor-oracles-using-Telliot-Heres-spuddy-updating-MILUSD-on-goerli-milady",
            "created_at": "2023-06-28T14:49:03Z",
            "votes": {
                "negative": 0,
                "positive": 0,
                "important": 0,
                "liked": 0,
                "disliked": 0,
                "lol": 0,
                "toxic": 0,
                "saved": 0,
                "comments": 0
            }
        },
        {
            "kind": "news",
            "domain": "@WeAreTellor",
            "source": {
                "title": "Tellor Twitter",
                "region": "en",
                "domain": "twitter.com",
                "path": "@wearetellor"
            },
            "title": "RT @raft_fi: We also shared our oracle infrastructure update. \n\nWe are utilizing @Chainlink and @WeAreTellor to provide our users with reli\u2026",
            "published_at": "2023-06-26T16:13:00Z",
            "slug": "RT-raft_fi-We-also-shared-our-oracle-infrastructure-update-We-are-utilizing-Chainlink-and-WeAreTellor-to-provide-our-users-with-reli",
            "currencies": [
                {
                    "code": "TRB",
                    "title": "Tellor Tributes",
                    "slug": "tellor",
                    "url": "https:\/\/cryptopanic.com\/news\/tellor\/"
                }
            ],
            "id": 18664313,
            "url": "https:\/\/cryptopanic.com\/news\/18664313\/RT-raft_fi-We-also-shared-our-oracle-infrastructure-update-We-are-utilizing-Chainlink-and-WeAreTellor-to-provide-our-users-with-reli",
            "created_at": "2023-06-26T16:13:00Z",
            "votes": {
                "negative": 0,
                "positive": 0,
                "important": 0,
                "liked": 0,
                "disliked": 0,
                "lol": 0,
                "toxic": 0,
                "saved": 0,
                "comments": 0
            }
        },
        {
            "kind": "news",
            "domain": "@WeAreTellor",
            "source": {
                "title": "Tellor Twitter",
                "region": "en",
                "domain": "twitter.com",
                "path": "@wearetellor"
            },
            "title": " hey tellor community, today's dev call is up!\n\u200d\ufe0f watch here",
            "published_at": "2023-06-26T16:05:02Z",
            "slug": "hey-tellor-community-todays-dev-call-is-up-watch-here",
            "currencies": [
                {
                    "code": "TRB",
                    "title": "Tellor Tributes",
                    "slug": "tellor",
                    "url": "https:\/\/cryptopanic.com\/news\/tellor\/"
                }
            ],
            "id": 18664314,
            "url": "https:\/\/cryptopanic.com\/news\/18664314\/hey-tellor-community-todays-dev-call-is-up-watch-here",
            "created_at": "2023-06-26T16:05:02Z",
            "votes": {
                "negative": 0,
                "positive": 0,
                "important": 0,
                "liked": 0,
                "disliked": 0,
                "lol": 0,
                "toxic": 0,
                "saved": 0,
                "comments": 0
            }
        },
        {
            "kind": "news",
            "domain": "@WeAreTellor",
            "source": {
                "title": "Tellor Twitter",
                "region": "en",
                "domain": "twitter.com",
                "path": "@wearetellor"
            },
            "title": "RT @divaprotocol_io: Additionally, we deployed the first oracle adapter using @WeAreTellor on the same networks, all at the same address: h\u2026",
            "published_at": "2023-06-26T15:30:35Z",
            "slug": "RT-divaprotocol_io-Additionally-we-deployed-the-first-oracle-adapter-using-WeAreTellor-on-the-same-networks-all-at-the-same-address-h",
            "currencies": [
                {
                    "code": "TRB",
                    "title": "Tellor Tributes",
                    "slug": "tellor",
                    "url": "https:\/\/cryptopanic.com\/news\/tellor\/"
                }
            ],
            "id": 18664315,
            "url": "https:\/\/cryptopanic.com\/news\/18664315\/RT-divaprotocol_io-Additionally-we-deployed-the-first-oracle-adapter-using-WeAreTellor-on-the-same-networks-all-at-the-same-address-h",
            "created_at": "2023-06-26T15:30:35Z",
            "votes": {
                "negative": 0,
                "positive": 0,
                "important": 0,
                "liked": 0,
                "disliked": 0,
                "lol": 0,
                "toxic": 0,
                "saved": 0,
                "comments": 0
            }
        }
    ]
}
