{
    "count": 200,
    "next": "https:\/\/cryptopanic.com\/api\/v1\/posts\/?auth_token=01c356e89ffc1b8eba2127c81fc8c66ee0eace75&kind=news&currencies=RIF&page=2",
    "previous": null,
    "results": [
        {
            "kind": "news",
            "domain": "@rif_os",
            "source": {
                "title": "RIF Token Twitter",
                "region": "en",
                "domain": "twitter.com",
                "path": "@rif_os"
            },
            "title": " @VitalikButerin's talking about Bitcoin Layer2 solutions and ZKRollups?!\n\nHe must have heard of #RIFRollups \n\nTh\u2026",
            "published_at": "2023-07-11T20:49:34Z",
            "slug": "VitalikButerins-talking-about-Bitcoin-Layer2-solutions-and-ZKRollups-He-must-have-heard-of-RIFRollups-Th",
            "currencies": [
                {
                    "code": "RIF",
                    "title": "RSK Infrastructure Framework",
                    "slug": "rif-token",
                    "url": "https:\/\/cryptopanic.com\/news\/rif-token\/"
                }
            ],
            "id": 18766691,
            "url": "https:\/\/cryptopanic.com\/news\/18766691\/VitalikButerins-talking-about-Bitcoin-Layer2-solutions-and-ZKRollups-He-must-have-heard-of-RIFRollups-Th",
            "created_at": "2023-07-11T20:49:34Z",
            "votes": {
                "negative": 0,
                "positive": 0,
                "important": 0,
                "liked": 0,
                "disliked": 0,
                "lol": 0,
                "toxic": 0,
                "saved": 0,
                "comments": 0
            }
        },
        {
            "kind": "news",
            "domain": "@rif_os",
            "source": {
                "title": "RIF Token Twitter",
                "region": "en",
                "domain": "twitter.com",
                "path": "@rif_os"
            },
            "title": "RT @rootstock_io: \ufe0f The #Rootstock Fingerroot upgrade goes live on Mainnet on July 13th, 7:50am UTC! \n\nThis highly anticipated upgrade in\u2026",
            "published_at": "2023-07-11T00:06:39Z",
            "slug": "RT-rootstock_io-The-Rootstock-Fingerroot-upgrade-goes-live-on-Mainnet-on-July-13th-750am-UTC-This-highly-anticipated-upgrade-in",
            "currencies": [
                {
                    "code": "RIF",
                    "title": "RSK Infrastructure Framework",
                    "slug": "rif-token",
                    "url": "https:\/\/cryptopanic.com\/news\/rif-token\/"
                }
            ],
            "id": 18758530,
            "url": "https:\/\/cryptopanic.com\/news\/18758530\/RT-rootstock_io-The-Rootstock-Fingerroot-upgrade-goes-live-on-Mainnet-on-July-13th-750am-UTC-This-highly-anticipated-upgrade-in",
            "created_at": "2023-07-11T00:06:39Z",
            "votes": {
                "negative": 0,
                "positive": 0,
                "important": 0,
                "liked": 0,
                "disliked": 0,
                "lol": 0,
                "toxic": 0,
                "saved": 0,
                "comments": 0
            }
        },
        {
            "kind": "news",
            "domain": "@rif_os",
            "source": {
                "title": "RIF Token Twitter",
                "region": "en",
                "domain": "twitter.com",
                "path": "@rif_os"
            },
            "title": "RT @binance: #Binance will support the Rootstock Infrastructure Framework (RIF) network upgrade &amp; hard fork.",
            "published_at": "2023-07-09T07:24:54Z",
            "slug": "RT-binance-Binance-will-support-the-Rootstock-Infrastructure-Framework-RIF-network-upgrade-amp-hard-fork",
            "currencies": [
                {
                    "code": "RIF",
                    "title": "RSK Infrastructure Framework",
                    "slug": "rif-token",
                    "url": "https:\/\/cryptopanic.com\/news\/rif-token\/"
                }
            ],
            "id": 18746707,
            "url": "https:\/\/cryptopanic.com\/news\/18746707\/RT-binance-Binance-will-support-the-Rootstock-Infrastructure-Framework-RIF-network-upgrade-amp-hard-fork",
            "created_at": "2023-07-09T07:24:54Z",
            "votes": {
                "negative": 0,
                "positive": 0,
                "important": 0,
                "liked": 0,
                "disliked": 0,
                "lol": 0,
                "toxic": 0,
                "saved": 0,
                "comments": 0
            }
        },
        {
            "kind": "news",
            "domain": "@rif_os",
            "source": {
                "title": "RIF Token Twitter",
                "region": "en",
                "domain": "twitter.com",
                "path": "@rif_os"
            },
            "title": " Over 286 million people live outside their country of birth!\n\nThe need for efficient remittance services is more\u2026",
            "published_at": "2023-07-07T19:33:38Z",
            "slug": "Over-286-million-people-live-outside-their-country-of-birth-The-need-for-efficient-remittance-services-is-more",
            "currencies": [
                {
                    "code": "RIF",
                    "title": "RSK Infrastructure Framework",
                    "slug": "rif-token",
                    "url": "https:\/\/cryptopanic.com\/news\/rif-token\/"
                }
            ],
            "id": 18742157,
            "url": "https:\/\/cryptopanic.com\/news\/18742157\/Over-286-million-people-live-outside-their-country-of-birth-The-need-for-efficient-remittance-services-is-more",
            "created_at": "2023-07-07T19:33:38Z",
            "votes": {
                "negative": 0,
                "positive": 0,
                "important": 0,
                "liked": 0,
                "disliked": 0,
                "lol": 0,
                "toxic": 0,
                "saved": 0,
                "comments": 0
            }
        },
        {
            "kind": "news",
            "domain": "@rif_os",
            "source": {
                "title": "RIF Token Twitter",
                "region": "en",
                "domain": "twitter.com",
                "path": "@rif_os"
            },
            "title": "The remittance landscape is changing in #LATAM. By leveraging innovative technology, @chivowallet, @paxful_latam\u2026",
            "published_at": "2023-07-06T18:27:14Z",
            "slug": "The-remittance-landscape-is-changing-in-LATAM-By-leveraging-innovative-technology-chivowallet-paxful_latam",
            "currencies": [
                {
                    "code": "RIF",
                    "title": "RSK Infrastructure Framework",
                    "slug": "rif-token",
                    "url": "https:\/\/cryptopanic.com\/news\/rif-token\/"
                }
            ],
            "id": 18734865,
            "url": "https:\/\/cryptopanic.com\/news\/18734865\/The-remittance-landscape-is-changing-in-LATAM-By-leveraging-innovative-technology-chivowallet-paxful_latam",
            "created_at": "2023-07-06T18:27:14Z",
            "votes": {
                "negative": 0,
                "positive": 0,
                "important": 0,
                "liked": 0,
                "disliked": 0,
                "lol": 0,
                "toxic": 0,
                "saved": 0,
                "comments": 0
            }
        },
        {
            "kind": "news",
            "domain": "@rif_os",
            "source": {
                "title": "RIF Token Twitter",
                "region": "en",
                "domain": "twitter.com",
                "path": "@rif_os"
            },
            "title": "RT @ricardojcastro_:  Amazing to represent @rootstock_io and @Rif_OS at @epicweb3 #DeFi Day in Lisbon yesterday alongside with @ankrstakin\u2026",
            "published_at": "2023-07-06T17:27:11Z",
            "slug": "RT-ricardojcastro_-Amazing-to-represent-rootstock_io-and-Rif_OS-at-epicweb3-DeFi-Day-in-Lisbon-yesterday-alongside-with-ankrstakin",
            "currencies": [
                {
                    "code": "RIF",
                    "title": "RSK Infrastructure Framework",
                    "slug": "rif-token",
                    "url": "https:\/\/cryptopanic.com\/news\/rif-token\/"
                }
            ],
            "id": 18734866,
            "url": "https:\/\/cryptopanic.com\/news\/18734866\/RT-ricardojcastro_-Amazing-to-represent-rootstock_io-and-Rif_OS-at-epicweb3-DeFi-Day-in-Lisbon-yesterday-alongside-with-ankrstakin",
            "created_at": "2023-07-06T17:27:11Z",
            "votes": {
                "negative": 0,
                "positive": 0,
                "important": 0,
                "liked": 0,
                "disliked": 0,
                "lol": 0,
                "toxic": 0,
                "saved": 0,
                "comments": 0
            }
        },
        {
            "kind": "news",
            "domain": "@rif_os",
            "source": {
                "title": "RIF Token Twitter",
                "region": "en",
                "domain": "twitter.com",
                "path": "@rif_os"
            },
            "title": "RT @rootstock_io:  A new RSK network upgrade has been approved by the Rootstock Community.\n\nFingerroot 5.0.0 includes a change to consensu\u2026",
            "published_at": "2023-07-05T23:29:45Z",
            "slug": "RT-rootstock_io-A-new-RSK-network-upgrade-has-been-approved-by-the-Rootstock-Community-Fingerroot-500-includes-a-change-to-consensu",
            "currencies": [
                {
                    "code": "RIF",
                    "title": "RSK Infrastructure Framework",
                    "slug": "rif-token",
                    "url": "https:\/\/cryptopanic.com\/news\/rif-token\/"
                }
            ],
            "id": 18726359,
            "url": "https:\/\/cryptopanic.com\/news\/18726359\/RT-rootstock_io-A-new-RSK-network-upgrade-has-been-approved-by-the-Rootstock-Community-Fingerroot-500-includes-a-change-to-consensu",
            "created_at": "2023-07-05T23:29:45Z",
            "votes": {
                "negative": 0,
                "positive": 0,
                "important": 0,
                "liked": 0,
                "disliked": 0,
                "lol": 0,
                "toxic": 0,
                "saved": 0,
                "comments": 0
            }
        },
        {
            "kind": "news",
            "domain": "@rif_os",
            "source": {
                "title": "RIF Token Twitter",
                "region": "en",
                "domain": "twitter.com",
                "path": "@rif_os"
            },
            "title": "Are you attending the Epic DeFi day in Lisbon? RIF collaborators will be there! If you're around don't hesitate to\u2026",
            "published_at": "2023-07-05T17:54:09Z",
            "slug": "Are-you-attending-the-Epic-DeFi-day-in-Lisbon-RIF-collaborators-will-be-there-If-youre-around-dont-hesitate-to",
            "currencies": [
                {
                    "code": "RIF",
                    "title": "RSK Infrastructure Framework",
                    "slug": "rif-token",
                    "url": "https:\/\/cryptopanic.com\/news\/rif-token\/"
                }
            ],
            "id": 18726360,
            "url": "https:\/\/cryptopanic.com\/news\/18726360\/Are-you-attending-the-Epic-DeFi-day-in-Lisbon-RIF-collaborators-will-be-there-If-youre-around-dont-hesitate-to",
            "created_at": "2023-07-05T17:54:09Z",
            "votes": {
                "negative": 0,
                "positive": 0,
                "important": 0,
                "liked": 0,
                "disliked": 0,
                "lol": 0,
                "toxic": 0,
                "saved": 0,
                "comments": 0
            }
        },
        {
            "kind": "news",
            "domain": "@rif_os",
            "source": {
                "title": "RIF Token Twitter",
                "region": "en",
                "domain": "twitter.com",
                "path": "@rif_os"
            },
            "title": "Decentralized finance has the potential to make financial services fairer and more inclusive.\n\nSo what's holding ba\u2026",
            "published_at": "2023-07-05T01:41:05Z",
            "slug": "Decentralized-finance-has-the-potential-to-make-financial-services-fairer-and-more-inclusive-So-whats-holding-ba",
            "currencies": [
                {
                    "code": "RIF",
                    "title": "RSK Infrastructure Framework",
                    "slug": "rif-token",
                    "url": "https:\/\/cryptopanic.com\/news\/rif-token\/"
                }
            ],
            "id": 18718418,
            "url": "https:\/\/cryptopanic.com\/news\/18718418\/Decentralized-finance-has-the-potential-to-make-financial-services-fairer-and-more-inclusive-So-whats-holding-ba",
            "created_at": "2023-07-05T01:41:05Z",
            "votes": {
                "negative": 0,
                "positive": 0,
                "important": 0,
                "liked": 0,
                "disliked": 0,
                "lol": 0,
                "toxic": 0,
                "saved": 0,
                "comments": 0
            }
        },
        {
            "kind": "news",
            "domain": "@rif_os",
            "source": {
                "title": "RIF Token Twitter",
                "region": "en",
                "domain": "twitter.com",
                "path": "@rif_os"
            },
            "title": "RT @rootstock_io: Yesterday @wallby_app went live in beta \n\nOne app for the whole #Bitcoin ecosystem.\n\n\u00a0Seamlessly swap between $BTC &amp; $r\u2026",
            "published_at": "2023-07-04T14:36:47Z",
            "slug": "RT-rootstock_io-Yesterday-wallby_app-went-live-in-beta-One-app-for-the-whole-Bitcoin-ecosystem-Seamlessly-swap-between-BTC-amp-r",
            "currencies": [
                {
                    "code": "RIF",
                    "title": "RSK Infrastructure Framework",
                    "slug": "rif-token",
                    "url": "https:\/\/cryptopanic.com\/news\/rif-token\/"
                }
            ],
            "id": 18718419,
            "url": "https:\/\/cryptopanic.com\/news\/18718419\/RT-rootstock_io-Yesterday-wallby_app-went-live-in-beta-One-app-for-the-whole-Bitcoin-ecosystem-Seamlessly-swap-between-BTC-amp-r",
            "created_at": "2023-07-04T14:36:47Z",
            "votes": {
                "negative": 0,
                "positive": 0,
                "important": 0,
                "liked": 0,
                "disliked": 0,
                "lol": 0,
                "toxic": 0,
                "saved": 0,
                "comments": 0
            }
        },
        {
            "kind": "news",
            "domain": "@rif_os",
            "source": {
                "title": "RIF Token Twitter",
                "region": "en",
                "domain": "twitter.com",
                "path": "@rif_os"
            },
            "title": "\ufe0f  Regulatory uncertainty is one of the key obstacles towards DeFi mass adoption. \n\n\u2b07\ufe0f Download this data-driven\u2026",
            "published_at": "2023-06-30T16:41:34Z",
            "slug": "Regulatory-uncertainty-is-one-of-the-key-obstacles-towards-DeFi-mass-adoption-Download-this-data-driven",
            "currencies": [
                {
                    "code": "RIF",
                    "title": "RSK Infrastructure Framework",
                    "slug": "rif-token",
                    "url": "https:\/\/cryptopanic.com\/news\/rif-token\/"
                }
            ],
            "id": 18695408,
            "url": "https:\/\/cryptopanic.com\/news\/18695408\/Regulatory-uncertainty-is-one-of-the-key-obstacles-towards-DeFi-mass-adoption-Download-this-data-driven",
            "created_at": "2023-06-30T16:41:34Z",
            "votes": {
                "negative": 0,
                "positive": 0,
                "important": 0,
                "liked": 0,
                "disliked": 0,
                "lol": 0,
                "toxic": 0,
                "saved": 0,
                "comments": 0
            }
        },
        {
            "kind": "news",
            "domain": "@rif_os",
            "source": {
                "title": "RIF Token Twitter",
                "region": "en",
                "domain": "twitter.com",
                "path": "@rif_os"
            },
            "title": "Buy Now, Pay Later?\nHow about Buy Now, Pay Later with #Crypto?\n\nFind out how blockchain-based technology can make s\u2026",
            "published_at": "2023-06-28T17:17:10Z",
            "slug": "Buy-Now-Pay-Later-How-about-Buy-Now-Pay-Later-with-Crypto-Find-out-how-blockchain-based-technology-can-make-s",
            "currencies": [
                {
                    "code": "RIF",
                    "title": "RSK Infrastructure Framework",
                    "slug": "rif-token",
                    "url": "https:\/\/cryptopanic.com\/news\/rif-token\/"
                }
            ],
            "id": 18679972,
            "url": "https:\/\/cryptopanic.com\/news\/18679972\/Buy-Now-Pay-Later-How-about-Buy-Now-Pay-Later-with-Crypto-Find-out-how-blockchain-based-technology-can-make-s",
            "created_at": "2023-06-28T17:17:10Z",
            "votes": {
                "negative": 0,
                "positive": 0,
                "important": 0,
                "liked": 0,
                "disliked": 0,
                "lol": 0,
                "toxic": 0,
                "saved": 0,
                "comments": 0
            }
        },
        {
            "kind": "news",
            "domain": "@rif_os",
            "source": {
                "title": "RIF Token Twitter",
                "region": "en",
                "domain": "twitter.com",
                "path": "@rif_os"
            },
            "title": " In the latest #Fint3chFrontrunners, @ahn_going of @quidliprotocol shares his vision on transforming the concept\u2026",
            "published_at": "2023-06-22T19:17:29Z",
            "slug": "In-the-latest-Fint3chFrontrunners-ahn_going-of-quidliprotocol-shares-his-vision-on-transforming-the-concept",
            "currencies": [
                {
                    "code": "RIF",
                    "title": "RSK Infrastructure Framework",
                    "slug": "rif-token",
                    "url": "https:\/\/cryptopanic.com\/news\/rif-token\/"
                }
            ],
            "id": 18639299,
            "url": "https:\/\/cryptopanic.com\/news\/18639299\/In-the-latest-Fint3chFrontrunners-ahn_going-of-quidliprotocol-shares-his-vision-on-transforming-the-concept",
            "created_at": "2023-06-22T19:17:29Z",
            "votes": {
                "negative": 0,
                "positive": 0,
                "important": 0,
                "liked": 0,
                "disliked": 0,
                "lol": 0,
                "toxic": 0,
                "saved": 0,
                "comments": 0
            }
        },
        {
            "kind": "news",
            "domain": "@rif_os",
            "source": {
                "title": "RIF Token Twitter",
                "region": "en",
                "domain": "twitter.com",
                "path": "@rif_os"
            },
            "title": "RT @rootstock_io: \u23f0LAST CALL! This week is the last week to submit your #RootstockHackathon ideas to the \"Ideathon\".\n\n Share your innovati\u2026",
            "published_at": "2023-06-19T19:45:47Z",
            "slug": "RT-rootstock_io-LAST-CALL-This-week-is-the-last-week-to-submit-your-RootstockHackathon-ideas-to-the-Ideathon-Share-your-innovati",
            "currencies": [
                {
                    "code": "RIF",
                    "title": "RSK Infrastructure Framework",
                    "slug": "rif-token",
                    "url": "https:\/\/cryptopanic.com\/news\/rif-token\/"
                }
            ],
            "id": 18614645,
            "url": "https:\/\/cryptopanic.com\/news\/18614645\/RT-rootstock_io-LAST-CALL-This-week-is-the-last-week-to-submit-your-RootstockHackathon-ideas-to-the-Ideathon-Share-your-innovati",
            "created_at": "2023-06-19T19:45:47Z",
            "votes": {
                "negative": 0,
                "positive": 0,
                "important": 0,
                "liked": 0,
                "disliked": 0,
                "lol": 0,
                "toxic": 0,
                "saved": 0,
                "comments": 0
            }
        },
        {
            "kind": "news",
            "domain": "@rif_os",
            "source": {
                "title": "RIF Token Twitter",
                "region": "en",
                "domain": "twitter.com",
                "path": "@rif_os"
            },
            "title": "Flexible terms on loans can dramatically improve user acquisition \n\nHow to increase flexibility without losing con\u2026",
            "published_at": "2023-06-19T17:39:01Z",
            "slug": "Flexible-terms-on-loans-can-dramatically-improve-user-acquisition-How-to-increase-flexibility-without-losing-con",
            "currencies": [
                {
                    "code": "RIF",
                    "title": "RSK Infrastructure Framework",
                    "slug": "rif-token",
                    "url": "https:\/\/cryptopanic.com\/news\/rif-token\/"
                }
            ],
            "id": 18614646,
            "url": "https:\/\/cryptopanic.com\/news\/18614646\/Flexible-terms-on-loans-can-dramatically-improve-user-acquisition-How-to-increase-flexibility-without-losing-con",
            "created_at": "2023-06-19T17:39:01Z",
            "votes": {
                "negative": 0,
                "positive": 0,
                "important": 0,
                "liked": 0,
                "disliked": 0,
                "lol": 0,
                "toxic": 0,
                "saved": 0,
                "comments": 0
            }
        },
        {
            "kind": "news",
            "domain": "@rif_os",
            "source": {
                "title": "RIF Token Twitter",
                "region": "en",
                "domain": "twitter.com",
                "path": "@rif_os"
            },
            "title": "RT @FrontierDotXYZ: The main difference between Bitcoin and Ethereum is \u2013 Bitcoin is not programmable and Ethereum is.\n\nRight? Right?\n\n Wr\u2026",
            "published_at": "2023-06-15T13:45:36Z",
            "slug": "RT-FrontierDotXYZ-The-main-difference-between-Bitcoin-and-Ethereum-is-Bitcoin-is-not-programmable-and-Ethereum-is-Right-Right-Wr",
            "currencies": [
                {
                    "code": "RIF",
                    "title": "RSK Infrastructure Framework",
                    "slug": "rif-token",
                    "url": "https:\/\/cryptopanic.com\/news\/rif-token\/"
                }
            ],
            "id": 18589561,
            "url": "https:\/\/cryptopanic.com\/news\/18589561\/RT-FrontierDotXYZ-The-main-difference-between-Bitcoin-and-Ethereum-is-Bitcoin-is-not-programmable-and-Ethereum-is-Right-Right-Wr",
            "created_at": "2023-06-15T13:45:36Z",
            "votes": {
                "negative": 0,
                "positive": 0,
                "important": 0,
                "liked": 0,
                "disliked": 0,
                "lol": 0,
                "toxic": 0,
                "saved": 0,
                "comments": 0
            }
        },
        {
            "kind": "news",
            "domain": "@rif_os",
            "source": {
                "title": "RIF Token Twitter",
                "region": "en",
                "domain": "twitter.com",
                "path": "@rif_os"
            },
            "title": " From lending protocols that incentivize social projects to tokens representing stakes in green energy initiative\u2026",
            "published_at": "2023-06-14T20:44:28Z",
            "slug": "From-lending-protocols-that-incentivize-social-projects-to-tokens-representing-stakes-in-green-energy-initiative",
            "currencies": [
                {
                    "code": "RIF",
                    "title": "RSK Infrastructure Framework",
                    "slug": "rif-token",
                    "url": "https:\/\/cryptopanic.com\/news\/rif-token\/"
                }
            ],
            "id": 18581686,
            "url": "https:\/\/cryptopanic.com\/news\/18581686\/From-lending-protocols-that-incentivize-social-projects-to-tokens-representing-stakes-in-green-energy-initiative",
            "created_at": "2023-06-14T20:44:28Z",
            "votes": {
                "negative": 0,
                "positive": 0,
                "important": 0,
                "liked": 0,
                "disliked": 0,
                "lol": 0,
                "toxic": 0,
                "saved": 0,
                "comments": 0
            }
        },
        {
            "kind": "news",
            "domain": "@rif_os",
            "source": {
                "title": "RIF Token Twitter",
                "region": "en",
                "domain": "twitter.com",
                "path": "@rif_os"
            },
            "title": "Why are 77% of the #LATAM population losing trust in traditional banking? High debt and rising interest rates are\u2026",
            "published_at": "2023-06-14T15:22:51Z",
            "slug": "Why-are-77-of-the-LATAM-population-losing-trust-in-traditional-banking-High-debt-and-rising-interest-rates-are",
            "currencies": [
                {
                    "code": "RIF",
                    "title": "RSK Infrastructure Framework",
                    "slug": "rif-token",
                    "url": "https:\/\/cryptopanic.com\/news\/rif-token\/"
                }
            ],
            "id": 18581687,
            "url": "https:\/\/cryptopanic.com\/news\/18581687\/Why-are-77-of-the-LATAM-population-losing-trust-in-traditional-banking-High-debt-and-rising-interest-rates-are",
            "created_at": "2023-06-14T15:22:51Z",
            "votes": {
                "negative": 0,
                "positive": 0,
                "important": 0,
                "liked": 0,
                "disliked": 0,
                "lol": 0,
                "toxic": 0,
                "saved": 0,
                "comments": 0
            }
        },
        {
            "kind": "news",
            "domain": "@rif_os",
            "source": {
                "title": "RIF Token Twitter",
                "region": "en",
                "domain": "twitter.com",
                "path": "@rif_os"
            },
            "title": "RT @Poloniex: \ud83c\udd95 Listing: #RIF @rif_os \n\n$RIF wallets will open on June 13 at 06:00 UTC and full trading will be enabled on June 13 at 07:\u2026",
            "published_at": "2023-06-13T20:06:45Z",
            "slug": "RT-Poloniex-Listing-RIF-rif_os-RIF-wallets-will-open-on-June-13-at-0600-UTC-and-full-trading-will-be-enabled-on-June-13-at-07",
            "currencies": [
                {
                    "code": "RIF",
                    "title": "RSK Infrastructure Framework",
                    "slug": "rif-token",
                    "url": "https:\/\/cryptopanic.com\/news\/rif-token\/"
                }
            ],
            "id": 18573163,
            "url": "https:\/\/cryptopanic.com\/news\/18573163\/RT-Poloniex-Listing-RIF-rif_os-RIF-wallets-will-open-on-June-13-at-0600-UTC-and-full-trading-will-be-enabled-on-June-13-at-07",
            "created_at": "2023-06-13T20:06:45Z",
            "votes": {
                "negative": 0,
                "positive": 0,
                "important": 0,
                "liked": 0,
                "disliked": 0,
                "lol": 0,
                "toxic": 0,
                "saved": 0,
                "comments": 0
            }
        },
        {
            "kind": "news",
            "domain": "@rif_os",
            "source": {
                "title": "RIF Token Twitter",
                "region": "en",
                "domain": "twitter.com",
                "path": "@rif_os"
            },
            "title": " Unlike traditional bank loans, Crypto loans bring flexibility to the table - they allow variable return periods,\u2026",
            "published_at": "2023-06-13T19:02:18Z",
            "slug": "Unlike-traditional-bank-loans-Crypto-loans-bring-flexibility-to-the-table-they-allow-variable-return-periods",
            "currencies": [
                {
                    "code": "RIF",
                    "title": "RSK Infrastructure Framework",
                    "slug": "rif-token",
                    "url": "https:\/\/cryptopanic.com\/news\/rif-token\/"
                }
            ],
            "id": 18573165,
            "url": "https:\/\/cryptopanic.com\/news\/18573165\/Unlike-traditional-bank-loans-Crypto-loans-bring-flexibility-to-the-table-they-allow-variable-return-periods",
            "created_at": "2023-06-13T19:02:18Z",
            "votes": {
                "negative": 0,
                "positive": 0,
                "important": 0,
                "liked": 0,
                "disliked": 0,
                "lol": 0,
                "toxic": 0,
                "saved": 0,
                "comments": 0
            }
        }
    ]
}
