{
    "count": 200,
    "next": "https:\/\/cryptopanic.com\/api\/v1\/posts\/?auth_token=01c356e89ffc1b8eba2127c81fc8c66ee0eace75&kind=news&currencies=STMX&page=2",
    "previous": null,
    "results": [
        {
            "kind": "news",
            "domain": "@stormxio",
            "source": {
                "title": "StormX Twitter",
                "region": "en",
                "domain": "twitter.com",
                "path": "@stormxio"
            },
            "title": "RT this to remind others they can earn DOUBLE cashback this holiday season ",
            "published_at": "2021-12-15T01:00:03Z",
            "slug": "RT-this-to-remind-others-they-can-earn-DOUBLE-cashback-this-holiday-season",
            "currencies": [
                {
                    "code": "STMX",
                    "title": "StormX",
                    "slug": "storm",
                    "url": "https:\/\/cryptopanic.com\/news\/storm\/"
                }
            ],
            "id": 13675859,
            "url": "https:\/\/cryptopanic.com\/news\/13675859\/RT-this-to-remind-others-they-can-earn-DOUBLE-cashback-this-holiday-season",
            "created_at": "2021-12-15T01:00:03Z",
            "votes": {
                "negative": 0,
                "positive": 0,
                "important": 0,
                "liked": 0,
                "disliked": 0,
                "lol": 0,
                "toxic": 0,
                "saved": 0,
                "comments": 0
            }
        },
        {
            "kind": "news",
            "domain": "@stormxio",
            "source": {
                "title": "StormX Twitter",
                "region": "en",
                "domain": "twitter.com",
                "path": "@stormxio"
            },
            "title": "This holiday season, gift your loved ones a gift that keeps on giving. \n\nBecome a Rewards Member today and earn up\u2026",
            "published_at": "2021-12-14T23:00:14Z",
            "slug": "This-holiday-season-gift-your-loved-ones-a-gift-that-keeps-on-giving-Become-a-Rewards-Member-today-and-earn-up",
            "currencies": [
                {
                    "code": "STMX",
                    "title": "StormX",
                    "slug": "storm",
                    "url": "https:\/\/cryptopanic.com\/news\/storm\/"
                }
            ],
            "id": 13675860,
            "url": "https:\/\/cryptopanic.com\/news\/13675860\/This-holiday-season-gift-your-loved-ones-a-gift-that-keeps-on-giving-Become-a-Rewards-Member-today-and-earn-up",
            "created_at": "2021-12-14T23:00:14Z",
            "votes": {
                "negative": 0,
                "positive": 0,
                "important": 0,
                "liked": 0,
                "disliked": 0,
                "lol": 0,
                "toxic": 0,
                "saved": 0,
                "comments": 0
            }
        },
        {
            "kind": "news",
            "domain": "@stormxio",
            "source": {
                "title": "StormX Twitter",
                "region": "en",
                "domain": "twitter.com",
                "path": "@stormxio"
            },
            "title": "Sports fanatic on your Christmas list?  Earn up to 8% on all official merch from NFL, NBA, MLB, and more when you\u2026",
            "published_at": "2021-12-14T20:00:14Z",
            "slug": "Sports-fanatic-on-your-Christmas-list-Earn-up-to-8-on-all-official-merch-from-NFL-NBA-MLB-and-more-when-you",
            "currencies": [
                {
                    "code": "STMX",
                    "title": "StormX",
                    "slug": "storm",
                    "url": "https:\/\/cryptopanic.com\/news\/storm\/"
                }
            ],
            "id": 13675861,
            "url": "https:\/\/cryptopanic.com\/news\/13675861\/Sports-fanatic-on-your-Christmas-list-Earn-up-to-8-on-all-official-merch-from-NFL-NBA-MLB-and-more-when-you",
            "created_at": "2021-12-14T20:00:14Z",
            "votes": {
                "negative": 0,
                "positive": 0,
                "important": 0,
                "liked": 0,
                "disliked": 0,
                "lol": 0,
                "toxic": 0,
                "saved": 0,
                "comments": 0
            }
        },
        {
            "kind": "news",
            "domain": "@stormxio",
            "source": {
                "title": "StormX Twitter",
                "region": "en",
                "domain": "twitter.com",
                "path": "@stormxio"
            },
            "title": "Check on your friends who don't shop and earn. They are not okay.",
            "published_at": "2021-12-14T17:00:15Z",
            "slug": "Check-on-your-friends-who-dont-shop-and-earn-They-are-not-okay",
            "currencies": [
                {
                    "code": "STMX",
                    "title": "StormX",
                    "slug": "storm",
                    "url": "https:\/\/cryptopanic.com\/news\/storm\/"
                }
            ],
            "id": 13675862,
            "url": "https:\/\/cryptopanic.com\/news\/13675862\/Check-on-your-friends-who-dont-shop-and-earn-They-are-not-okay",
            "created_at": "2021-12-14T17:00:15Z",
            "votes": {
                "negative": 0,
                "positive": 0,
                "important": 0,
                "liked": 0,
                "disliked": 0,
                "lol": 0,
                "toxic": 0,
                "saved": 0,
                "comments": 0
            }
        },
        {
            "kind": "news",
            "domain": "@stormxio",
            "source": {
                "title": "StormX Twitter",
                "region": "en",
                "domain": "twitter.com",
                "path": "@stormxio"
            },
            "title": "what do you get a person that has everything?",
            "published_at": "2021-12-13T22:43:11Z",
            "slug": "what-do-you-get-a-person-that-has-everything",
            "currencies": [
                {
                    "code": "STMX",
                    "title": "StormX",
                    "slug": "storm",
                    "url": "https:\/\/cryptopanic.com\/news\/storm\/"
                }
            ],
            "id": 13663782,
            "url": "https:\/\/cryptopanic.com\/news\/13663782\/what-do-you-get-a-person-that-has-everything",
            "created_at": "2021-12-13T22:43:11Z",
            "votes": {
                "negative": 0,
                "positive": 0,
                "important": 0,
                "liked": 0,
                "disliked": 0,
                "lol": 0,
                "toxic": 0,
                "saved": 0,
                "comments": 0
            }
        },
        {
            "kind": "news",
            "domain": "@stormxio",
            "source": {
                "title": "StormX Twitter",
                "region": "en",
                "domain": "twitter.com",
                "path": "@stormxio"
            },
            "title": "For those of you who are on top of your emails, the next shop is no surprise  Double cashback at @eBay is back!\n\nS\u2026",
            "published_at": "2021-12-13T20:00:06Z",
            "slug": "For-those-of-you-who-are-on-top-of-your-emails-the-next-shop-is-no-surprise-Double-cashback-at-eBay-is-back-S",
            "currencies": [
                {
                    "code": "STMX",
                    "title": "StormX",
                    "slug": "storm",
                    "url": "https:\/\/cryptopanic.com\/news\/storm\/"
                }
            ],
            "id": 13663783,
            "url": "https:\/\/cryptopanic.com\/news\/13663783\/For-those-of-you-who-are-on-top-of-your-emails-the-next-shop-is-no-surprise-Double-cashback-at-eBay-is-back-S",
            "created_at": "2021-12-13T20:00:06Z",
            "votes": {
                "negative": 0,
                "positive": 0,
                "important": 0,
                "liked": 0,
                "disliked": 0,
                "lol": 0,
                "toxic": 0,
                "saved": 0,
                "comments": 0
            }
        },
        {
            "kind": "news",
            "domain": "@stormxio",
            "source": {
                "title": "StormX Twitter",
                "region": "en",
                "domain": "twitter.com",
                "path": "@stormxio"
            },
            "title": "Who wants to share their #CashbackSupercharged directly from their app? ",
            "published_at": "2021-12-13T17:23:35Z",
            "slug": "Who-wants-to-share-their-CashbackSupercharged-directly-from-their-app",
            "currencies": [
                {
                    "code": "STMX",
                    "title": "StormX",
                    "slug": "storm",
                    "url": "https:\/\/cryptopanic.com\/news\/storm\/"
                }
            ],
            "id": 13663784,
            "url": "https:\/\/cryptopanic.com\/news\/13663784\/Who-wants-to-share-their-CashbackSupercharged-directly-from-their-app",
            "created_at": "2021-12-13T17:23:35Z",
            "votes": {
                "negative": 0,
                "positive": 0,
                "important": 0,
                "liked": 0,
                "disliked": 0,
                "lol": 0,
                "toxic": 0,
                "saved": 0,
                "comments": 0
            }
        },
        {
            "kind": "news",
            "domain": "@stormxio",
            "source": {
                "title": "StormX Twitter",
                "region": "en",
                "domain": "twitter.com",
                "path": "@stormxio"
            },
            "title": "Don't be shy, which savvy shopper are you?",
            "published_at": "2021-12-13T16:20:02Z",
            "slug": "Dont-be-shy-which-savvy-shopper-are-you",
            "currencies": [
                {
                    "code": "STMX",
                    "title": "StormX",
                    "slug": "storm",
                    "url": "https:\/\/cryptopanic.com\/news\/storm\/"
                }
            ],
            "id": 13663785,
            "url": "https:\/\/cryptopanic.com\/news\/13663785\/Dont-be-shy-which-savvy-shopper-are-you",
            "created_at": "2021-12-13T16:20:02Z",
            "votes": {
                "negative": 0,
                "positive": 0,
                "important": 0,
                "liked": 0,
                "disliked": 0,
                "lol": 0,
                "toxic": 0,
                "saved": 0,
                "comments": 0
            }
        },
        {
            "kind": "news",
            "domain": "@stormxio",
            "source": {
                "title": "StormX Twitter",
                "region": "en",
                "domain": "twitter.com",
                "path": "@stormxio"
            },
            "title": "Going for a run? \u200d\ufe0f Shop all activewear at @UnderArmour and earn up to 10% Crypto Cashback! \n\nShop now \u2026",
            "published_at": "2021-12-12T20:00:08Z",
            "slug": "Going-for-a-run-Shop-all-activewear-at-UnderArmour-and-earn-up-to-10-Crypto-Cashback-Shop-now",
            "currencies": [
                {
                    "code": "STMX",
                    "title": "StormX",
                    "slug": "storm",
                    "url": "https:\/\/cryptopanic.com\/news\/storm\/"
                }
            ],
            "id": 13652731,
            "url": "https:\/\/cryptopanic.com\/news\/13652731\/Going-for-a-run-Shop-all-activewear-at-UnderArmour-and-earn-up-to-10-Crypto-Cashback-Shop-now",
            "created_at": "2021-12-12T20:00:08Z",
            "votes": {
                "negative": 0,
                "positive": 0,
                "important": 0,
                "liked": 0,
                "disliked": 0,
                "lol": 0,
                "toxic": 0,
                "saved": 0,
                "comments": 0
            }
        },
        {
            "kind": "news",
            "domain": "@stormxio",
            "source": {
                "title": "StormX Twitter",
                "region": "en",
                "domain": "twitter.com",
                "path": "@stormxio"
            },
            "title": "my meal plan? crypto for breakfast, lunch, and dinner.",
            "published_at": "2021-12-12T15:01:30Z",
            "slug": "my-meal-plan-crypto-for-breakfast-lunch-and-dinner",
            "currencies": [
                {
                    "code": "STMX",
                    "title": "StormX",
                    "slug": "storm",
                    "url": "https:\/\/cryptopanic.com\/news\/storm\/"
                }
            ],
            "id": 13652732,
            "url": "https:\/\/cryptopanic.com\/news\/13652732\/my-meal-plan-crypto-for-breakfast-lunch-and-dinner",
            "created_at": "2021-12-12T15:01:30Z",
            "votes": {
                "negative": 0,
                "positive": 0,
                "important": 0,
                "liked": 0,
                "disliked": 0,
                "lol": 0,
                "toxic": 0,
                "saved": 0,
                "comments": 0
            }
        },
        {
            "kind": "news",
            "domain": "@stormxio",
            "source": {
                "title": "StormX Twitter",
                "region": "en",
                "domain": "twitter.com",
                "path": "@stormxio"
            },
            "title": "Can this holiday season get any better? Yes, it can. \nShop at @SamsClub and earn not 15% but up to 30% Crypto Cashb\u2026",
            "published_at": "2021-12-11T20:00:10Z",
            "slug": "Can-this-holiday-season-get-any-better-Yes-it-can-Shop-at-SamsClub-and-earn-not-15-but-up-to-30-Crypto-Cashb",
            "currencies": [
                {
                    "code": "STMX",
                    "title": "StormX",
                    "slug": "storm",
                    "url": "https:\/\/cryptopanic.com\/news\/storm\/"
                }
            ],
            "id": 13643931,
            "url": "https:\/\/cryptopanic.com\/news\/13643931\/Can-this-holiday-season-get-any-better-Yes-it-can-Shop-at-SamsClub-and-earn-not-15-but-up-to-30-Crypto-Cashb",
            "created_at": "2021-12-11T20:00:10Z",
            "votes": {
                "negative": 0,
                "positive": 0,
                "important": 0,
                "liked": 0,
                "disliked": 0,
                "lol": 0,
                "toxic": 0,
                "saved": 0,
                "comments": 0
            }
        },
        {
            "kind": "news",
            "domain": "@stormxio",
            "source": {
                "title": "StormX Twitter",
                "region": "en",
                "domain": "twitter.com",
                "path": "@stormxio"
            },
            "title": "RT @DLaudermilch: Level up! Gotta have that metal debit card @stormxio #StormX $STMX #CryptoCashback",
            "published_at": "2021-12-11T01:42:55Z",
            "slug": "RT-DLaudermilch-Level-up-Gotta-have-that-metal-debit-card-stormxio-StormX-STMX-CryptoCashback",
            "currencies": [
                {
                    "code": "STMX",
                    "title": "StormX",
                    "slug": "storm",
                    "url": "https:\/\/cryptopanic.com\/news\/storm\/"
                }
            ],
            "id": 13635534,
            "url": "https:\/\/cryptopanic.com\/news\/13635534\/RT-DLaudermilch-Level-up-Gotta-have-that-metal-debit-card-stormxio-StormX-STMX-CryptoCashback",
            "created_at": "2021-12-11T01:42:55Z",
            "votes": {
                "negative": 0,
                "positive": 0,
                "important": 0,
                "liked": 0,
                "disliked": 0,
                "lol": 0,
                "toxic": 0,
                "saved": 0,
                "comments": 0
            }
        },
        {
            "kind": "news",
            "domain": "@stormxio",
            "source": {
                "title": "StormX Twitter",
                "region": "en",
                "domain": "twitter.com",
                "path": "@stormxio"
            },
            "title": "Deleting dating apps because I want to find someone the old-fashioned way - seeing them pull out the StormX debit c\u2026",
            "published_at": "2021-12-11T00:40:00Z",
            "slug": "Deleting-dating-apps-because-I-want-to-find-someone-the-old-fashioned-way-seeing-them-pull-out-the-StormX-debit-c",
            "currencies": [
                {
                    "code": "STMX",
                    "title": "StormX",
                    "slug": "storm",
                    "url": "https:\/\/cryptopanic.com\/news\/storm\/"
                }
            ],
            "id": 13635535,
            "url": "https:\/\/cryptopanic.com\/news\/13635535\/Deleting-dating-apps-because-I-want-to-find-someone-the-old-fashioned-way-seeing-them-pull-out-the-StormX-debit-c",
            "created_at": "2021-12-11T00:40:00Z",
            "votes": {
                "negative": 0,
                "positive": 0,
                "important": 0,
                "liked": 0,
                "disliked": 0,
                "lol": 0,
                "toxic": 0,
                "saved": 0,
                "comments": 0
            }
        },
        {
            "kind": "news",
            "domain": "@stormxio",
            "source": {
                "title": "StormX Twitter",
                "region": "en",
                "domain": "twitter.com",
                "path": "@stormxio"
            },
            "title": "We may not be able to turn water into wine but we certainly can help you turn wine into crypto \n\nThis holiday seas\u2026",
            "published_at": "2021-12-10T20:00:21Z",
            "slug": "We-may-not-be-able-to-turn-water-into-wine-but-we-certainly-can-help-you-turn-wine-into-crypto-This-holiday-seas",
            "currencies": [
                {
                    "code": "STMX",
                    "title": "StormX",
                    "slug": "storm",
                    "url": "https:\/\/cryptopanic.com\/news\/storm\/"
                }
            ],
            "id": 13635536,
            "url": "https:\/\/cryptopanic.com\/news\/13635536\/We-may-not-be-able-to-turn-water-into-wine-but-we-certainly-can-help-you-turn-wine-into-crypto-This-holiday-seas",
            "created_at": "2021-12-10T20:00:21Z",
            "votes": {
                "negative": 0,
                "positive": 0,
                "important": 0,
                "liked": 0,
                "disliked": 0,
                "lol": 0,
                "toxic": 0,
                "saved": 0,
                "comments": 0
            }
        },
        {
            "kind": "news",
            "domain": "@stormxio",
            "source": {
                "title": "StormX Twitter",
                "region": "en",
                "domain": "twitter.com",
                "path": "@stormxio"
            },
            "title": "Join @SimonYuSEA as he talks NFTs #PASSTHEBATON",
            "published_at": "2021-12-10T19:05:57Z",
            "slug": "Join-SimonYuSEA-as-he-talks-NFTs-PASSTHEBATON",
            "currencies": [
                {
                    "code": "STMX",
                    "title": "StormX",
                    "slug": "storm",
                    "url": "https:\/\/cryptopanic.com\/news\/storm\/"
                }
            ],
            "id": 13635537,
            "url": "https:\/\/cryptopanic.com\/news\/13635537\/Join-SimonYuSEA-as-he-talks-NFTs-PASSTHEBATON",
            "created_at": "2021-12-10T19:05:57Z",
            "votes": {
                "negative": 0,
                "positive": 0,
                "important": 0,
                "liked": 0,
                "disliked": 0,
                "lol": 0,
                "toxic": 0,
                "saved": 0,
                "comments": 0
            }
        },
        {
            "kind": "news",
            "domain": "@stormxio",
            "source": {
                "title": "StormX Twitter",
                "region": "en",
                "domain": "twitter.com",
                "path": "@stormxio"
            },
            "title": "We've got some good news for all of our staking users: Users will now see a much more accurate gas fee estimate wit\u2026",
            "published_at": "2021-12-10T17:38:11Z",
            "slug": "Weve-got-some-good-news-for-all-of-our-staking-users-Users-will-now-see-a-much-more-accurate-gas-fee-estimate-wit",
            "currencies": [
                {
                    "code": "STMX",
                    "title": "StormX",
                    "slug": "storm",
                    "url": "https:\/\/cryptopanic.com\/news\/storm\/"
                }
            ],
            "id": 13635538,
            "url": "https:\/\/cryptopanic.com\/news\/13635538\/Weve-got-some-good-news-for-all-of-our-staking-users-Users-will-now-see-a-much-more-accurate-gas-fee-estimate-wit",
            "created_at": "2021-12-10T17:38:11Z",
            "votes": {
                "negative": 0,
                "positive": 0,
                "important": 0,
                "liked": 0,
                "disliked": 0,
                "lol": 0,
                "toxic": 0,
                "saved": 0,
                "comments": 0
            }
        },
        {
            "kind": "news",
            "domain": "@stormxio",
            "source": {
                "title": "StormX Twitter",
                "region": "en",
                "domain": "twitter.com",
                "path": "@stormxio"
            },
            "title": "Fill in the blank: Crypto Cashback &gt;&gt;",
            "published_at": "2021-12-09T23:00:07Z",
            "slug": "Fill-in-the-blank-Crypto-Cashback-gtgt",
            "currencies": [
                {
                    "code": "STMX",
                    "title": "StormX",
                    "slug": "storm",
                    "url": "https:\/\/cryptopanic.com\/news\/storm\/"
                }
            ],
            "id": 13624742,
            "url": "https:\/\/cryptopanic.com\/news\/13624742\/Fill-in-the-blank-Crypto-Cashback-gtgt",
            "created_at": "2021-12-09T23:00:07Z",
            "votes": {
                "negative": 0,
                "positive": 0,
                "important": 0,
                "liked": 0,
                "disliked": 0,
                "lol": 0,
                "toxic": 0,
                "saved": 0,
                "comments": 0
            }
        },
        {
            "kind": "news",
            "domain": "@stormxio",
            "source": {
                "title": "StormX Twitter",
                "region": "en",
                "domain": "twitter.com",
                "path": "@stormxio"
            },
            "title": "Shop for pop culture collectibles and games at @zavvi and earn up to 16% back in crypto! #BTC\n\nThat's 32% for Gold\u2026",
            "published_at": "2021-12-09T20:00:21Z",
            "slug": "Shop-for-pop-culture-collectibles-and-games-at-zavvi-and-earn-up-to-16-back-in-crypto-BTC-Thats-32-for-Gold",
            "currencies": [
                {
                    "code": "STMX",
                    "title": "StormX",
                    "slug": "storm",
                    "url": "https:\/\/cryptopanic.com\/news\/storm\/"
                }
            ],
            "id": 13624743,
            "url": "https:\/\/cryptopanic.com\/news\/13624743\/Shop-for-pop-culture-collectibles-and-games-at-zavvi-and-earn-up-to-16-back-in-crypto-BTC-Thats-32-for-Gold",
            "created_at": "2021-12-09T20:00:21Z",
            "votes": {
                "negative": 0,
                "positive": 0,
                "important": 0,
                "liked": 0,
                "disliked": 0,
                "lol": 0,
                "toxic": 0,
                "saved": 0,
                "comments": 0
            }
        },
        {
            "kind": "news",
            "domain": "@stormxio",
            "source": {
                "title": "StormX Twitter",
                "region": "en",
                "domain": "twitter.com",
                "path": "@stormxio"
            },
            "title": "Dinner $1.99 per serving? Anything is possible when you shop at @Groupon and earn up to 10% Crypto Cashback ",
            "published_at": "2021-12-09T17:42:00Z",
            "slug": "Dinner-199-per-serving-Anything-is-possible-when-you-shop-at-Groupon-and-earn-up-to-10-Crypto-Cashback",
            "currencies": [
                {
                    "code": "STMX",
                    "title": "StormX",
                    "slug": "storm",
                    "url": "https:\/\/cryptopanic.com\/news\/storm\/"
                }
            ],
            "id": 13624744,
            "url": "https:\/\/cryptopanic.com\/news\/13624744\/Dinner-199-per-serving-Anything-is-possible-when-you-shop-at-Groupon-and-earn-up-to-10-Crypto-Cashback",
            "created_at": "2021-12-09T17:42:00Z",
            "votes": {
                "negative": 0,
                "positive": 0,
                "important": 0,
                "liked": 0,
                "disliked": 0,
                "lol": 0,
                "toxic": 0,
                "saved": 0,
                "comments": 0
            }
        },
        {
            "kind": "news",
            "domain": "@stormxio",
            "source": {
                "title": "StormX Twitter",
                "region": "en",
                "domain": "twitter.com",
                "path": "@stormxio"
            },
            "title": "RT @investvoyager: .@LandonCassill will officially drive the No. 10 #Voyager Chevrolet in the @NASCAR Xfinity Series. \ufe0f \n\nHe will be paid\u2026",
            "published_at": "2021-12-09T13:33:16Z",
            "slug": "RT-investvoyager-LandonCassill-will-officially-drive-the-No-10-Voyager-Chevrolet-in-the-NASCAR-Xfinity-Series-He-will-be-paid",
            "currencies": [
                {
                    "code": "STMX",
                    "title": "StormX",
                    "slug": "storm",
                    "url": "https:\/\/cryptopanic.com\/news\/storm\/"
                }
            ],
            "id": 13624745,
            "url": "https:\/\/cryptopanic.com\/news\/13624745\/RT-investvoyager-LandonCassill-will-officially-drive-the-No-10-Voyager-Chevrolet-in-the-NASCAR-Xfinity-Series-He-will-be-paid",
            "created_at": "2021-12-09T13:33:16Z",
            "votes": {
                "negative": 0,
                "positive": 0,
                "important": 0,
                "liked": 0,
                "disliked": 0,
                "lol": 0,
                "toxic": 0,
                "saved": 0,
                "comments": 0
            }
        }
    ]
}
