{
    "count": 200,
    "next": "https:\/\/cryptopanic.com\/api\/v1\/posts\/?auth_token=01c356e89ffc1b8eba2127c81fc8c66ee0eace75&kind=news&currencies=JEX&page=2",
    "previous": null,
    "results": [
        {
            "kind": "news",
            "domain": "@jexchangeP2P",
            "source": {
                "title": "JEXchange Twitter",
                "region": "en",
                "domain": "twitter.com",
                "path": "@jexchangep2p"
            },
            "title": "RT @t_ptlc: @MWalkerWilliams @MultiversX Hey Max! \n\n1) The rebranding is believed to have been due to a copyright \/ trademark issue \n\n2) Th\u2026",
            "published_at": "2023-05-23T05:13:47Z",
            "slug": "RT-t_ptlc-MWalkerWilliams-MultiversX-Hey-Max-1-The-rebranding-is-believed-to-have-been-due-to-a-copyright-trademark-issue-2-Th",
            "currencies": [
                {
                    "code": "JEX",
                    "title": "JEXchange",
                    "slug": null,
                    "url": "https:\/\/cryptopanic.com\/news\/None\/"
                }
            ],
            "id": 18405745,
            "url": "https:\/\/cryptopanic.com\/news\/18405745\/RT-t_ptlc-MWalkerWilliams-MultiversX-Hey-Max-1-The-rebranding-is-believed-to-have-been-due-to-a-copyright-trademark-issue-2-Th",
            "created_at": "2023-05-23T05:13:47Z",
            "votes": {
                "negative": 0,
                "positive": 0,
                "important": 0,
                "liked": 0,
                "disliked": 0,
                "lol": 0,
                "toxic": 0,
                "saved": 0,
                "comments": 0
            }
        },
        {
            "kind": "news",
            "domain": "@jexchangeP2P",
            "source": {
                "title": "JEXchange Twitter",
                "region": "en",
                "domain": "twitter.com",
                "path": "@jexchangep2p"
            },
            "title": "RT @Poobah_Mom: @the_economystic @JavierNFT @MultiversX @jexchangeP2P @jexchangeP2P is the start of most projects on #MultiversX. Who have\u2026",
            "published_at": "2023-05-23T05:13:15Z",
            "slug": "RT-Poobah_Mom-the_economystic-JavierNFT-MultiversX-jexchangeP2P-jexchangeP2P-is-the-start-of-most-projects-on-MultiversX-Who-have",
            "currencies": [
                {
                    "code": "JEX",
                    "title": "JEXchange",
                    "slug": null,
                    "url": "https:\/\/cryptopanic.com\/news\/None\/"
                }
            ],
            "id": 18405746,
            "url": "https:\/\/cryptopanic.com\/news\/18405746\/RT-Poobah_Mom-the_economystic-JavierNFT-MultiversX-jexchangeP2P-jexchangeP2P-is-the-start-of-most-projects-on-MultiversX-Who-have",
            "created_at": "2023-05-23T05:13:15Z",
            "votes": {
                "negative": 0,
                "positive": 0,
                "important": 0,
                "liked": 0,
                "disliked": 0,
                "lol": 0,
                "toxic": 0,
                "saved": 0,
                "comments": 0
            }
        },
        {
            "kind": "news",
            "domain": "@jexchangeP2P",
            "source": {
                "title": "JEXchange Twitter",
                "region": "en",
                "domain": "twitter.com",
                "path": "@jexchangep2p"
            },
            "title": "RT @Poobah_Mom: @gorea98 @jexchangeP2P is my biggest bag so far. Hoping to make it even bigger. \n\n#JEXto1 #cryptocurrency #MultiversX \n#EG\u2026",
            "published_at": "2023-05-22T20:21:03Z",
            "slug": "RT-Poobah_Mom-gorea98-jexchangeP2P-is-my-biggest-bag-so-far-Hoping-to-make-it-even-bigger-JEXto1-cryptocurrency-MultiversX-EG",
            "currencies": [
                {
                    "code": "JEX",
                    "title": "JEXchange",
                    "slug": null,
                    "url": "https:\/\/cryptopanic.com\/news\/None\/"
                }
            ],
            "id": 18405747,
            "url": "https:\/\/cryptopanic.com\/news\/18405747\/RT-Poobah_Mom-gorea98-jexchangeP2P-is-my-biggest-bag-so-far-Hoping-to-make-it-even-bigger-JEXto1-cryptocurrency-MultiversX-EG",
            "created_at": "2023-05-22T20:21:03Z",
            "votes": {
                "negative": 0,
                "positive": 0,
                "important": 0,
                "liked": 0,
                "disliked": 0,
                "lol": 0,
                "toxic": 0,
                "saved": 0,
                "comments": 0
            }
        },
        {
            "kind": "news",
            "domain": "@jexchangeP2P",
            "source": {
                "title": "JEXchange Twitter",
                "region": "en",
                "domain": "twitter.com",
                "path": "@jexchangep2p"
            },
            "title": "RT @MultiversXToday: 3\/\n @itheum shared the @CryptoOasisUAE 2023 Spring Ecosystem Report, where it was featured &amp; announced an AMA for May\u2026",
            "published_at": "2023-05-22T20:20:40Z",
            "slug": "RT-MultiversXToday-3-itheum-shared-the-CryptoOasisUAE-2023-Spring-Ecosystem-Report-where-it-was-featured-amp-announced-an-AMA-for-May",
            "currencies": [
                {
                    "code": "JEX",
                    "title": "JEXchange",
                    "slug": null,
                    "url": "https:\/\/cryptopanic.com\/news\/None\/"
                }
            ],
            "id": 18405748,
            "url": "https:\/\/cryptopanic.com\/news\/18405748\/RT-MultiversXToday-3-itheum-shared-the-CryptoOasisUAE-2023-Spring-Ecosystem-Report-where-it-was-featured-amp-announced-an-AMA-for-May",
            "created_at": "2023-05-22T20:20:40Z",
            "votes": {
                "negative": 0,
                "positive": 0,
                "important": 0,
                "liked": 0,
                "disliked": 0,
                "lol": 0,
                "toxic": 0,
                "saved": 0,
                "comments": 0
            }
        },
        {
            "kind": "news",
            "domain": "@jexchangeP2P",
            "source": {
                "title": "JEXchange Twitter",
                "region": "en",
                "domain": "twitter.com",
                "path": "@jexchangep2p"
            },
            "title": " You can stake $JWLASH here: \n\n\ufe0f \ud83e\udd73\n\n\ud83e\udd84\n#JEXto1 #JEX \ufe0f",
            "published_at": "2023-05-22T17:15:18Z",
            "slug": "You-can-stake-JWLASH-here-JEXto1-JEX",
            "currencies": [
                {
                    "code": "JEX",
                    "title": "JEXchange",
                    "slug": null,
                    "url": "https:\/\/cryptopanic.com\/news\/None\/"
                }
            ],
            "id": 18405749,
            "url": "https:\/\/cryptopanic.com\/news\/18405749\/You-can-stake-JWLASH-here-JEXto1-JEX",
            "created_at": "2023-05-22T17:15:18Z",
            "votes": {
                "negative": 0,
                "positive": 0,
                "important": 0,
                "liked": 0,
                "disliked": 0,
                "lol": 0,
                "toxic": 0,
                "saved": 0,
                "comments": 0
            }
        },
        {
            "kind": "news",
            "domain": "@jexchangeP2P",
            "source": {
                "title": "JEXchange Twitter",
                "region": "en",
                "domain": "twitter.com",
                "path": "@jexchangep2p"
            },
            "title": "RT @kimura668: Absolutely thrilled with this partnership.\ufe0f",
            "published_at": "2023-05-22T17:10:11Z",
            "slug": "RT-kimura668-Absolutely-thrilled-with-this-partnership",
            "currencies": [
                {
                    "code": "JEX",
                    "title": "JEXchange",
                    "slug": null,
                    "url": "https:\/\/cryptopanic.com\/news\/None\/"
                }
            ],
            "id": 18405750,
            "url": "https:\/\/cryptopanic.com\/news\/18405750\/RT-kimura668-Absolutely-thrilled-with-this-partnership",
            "created_at": "2023-05-22T17:10:11Z",
            "votes": {
                "negative": 0,
                "positive": 0,
                "important": 0,
                "liked": 0,
                "disliked": 0,
                "lol": 0,
                "toxic": 0,
                "saved": 0,
                "comments": 0
            }
        },
        {
            "kind": "news",
            "domain": "@jexchangeP2P",
            "source": {
                "title": "JEXchange Twitter",
                "region": "en",
                "domain": "twitter.com",
                "path": "@jexchangep2p"
            },
            "title": "RT @JavierNFT: Convert your $ASH to $JWLASH or trade directly on JEXchange... If ever people are willing to sell them \n\nStake them for a j\u2026",
            "published_at": "2023-05-22T17:06:28Z",
            "slug": "RT-JavierNFT-Convert-your-ASH-to-JWLASH-or-trade-directly-on-JEXchange-If-ever-people-are-willing-to-sell-them-Stake-them-for-a-j",
            "currencies": [
                {
                    "code": "JEX",
                    "title": "JEXchange",
                    "slug": null,
                    "url": "https:\/\/cryptopanic.com\/news\/None\/"
                }
            ],
            "id": 18405751,
            "url": "https:\/\/cryptopanic.com\/news\/18405751\/RT-JavierNFT-Convert-your-ASH-to-JWLASH-or-trade-directly-on-JEXchange-If-ever-people-are-willing-to-sell-them-Stake-them-for-a-j",
            "created_at": "2023-05-22T17:06:28Z",
            "votes": {
                "negative": 0,
                "positive": 0,
                "important": 0,
                "liked": 0,
                "disliked": 0,
                "lol": 0,
                "toxic": 0,
                "saved": 0,
                "comments": 0
            }
        },
        {
            "kind": "news",
            "domain": "@jexchangeP2P",
            "source": {
                "title": "JEXchange Twitter",
                "region": "en",
                "domain": "twitter.com",
                "path": "@jexchangep2p"
            },
            "title": "RT @JewelSwapX: Trade, Earn, Lend, Borrow, Farm\ufe0f\n\nPartnership Announcement with @jexchangeP2P \n\n$JWLASH token listing.\nToken: $JWLASH\u2026",
            "published_at": "2023-05-22T17:06:22Z",
            "slug": "RT-JewelSwapX-Trade-Earn-Lend-Borrow-Farm-Partnership-Announcement-with-jexchangeP2P-JWLASH-token-listing-Token-JWLASH",
            "currencies": [
                {
                    "code": "JEX",
                    "title": "JEXchange",
                    "slug": null,
                    "url": "https:\/\/cryptopanic.com\/news\/None\/"
                }
            ],
            "id": 18405752,
            "url": "https:\/\/cryptopanic.com\/news\/18405752\/RT-JewelSwapX-Trade-Earn-Lend-Borrow-Farm-Partnership-Announcement-with-jexchangeP2P-JWLASH-token-listing-Token-JWLASH",
            "created_at": "2023-05-22T17:06:22Z",
            "votes": {
                "negative": 0,
                "positive": 0,
                "important": 0,
                "liked": 0,
                "disliked": 0,
                "lol": 0,
                "toxic": 0,
                "saved": 0,
                "comments": 0
            }
        },
        {
            "kind": "news",
            "domain": "@jexchangeP2P",
            "source": {
                "title": "JEXchange Twitter",
                "region": "en",
                "domain": "twitter.com",
                "path": "@jexchangep2p"
            },
            "title": "New listing with @JewelSwapX \ud83e\udd73 \n\n\ufe0fToken: $JWLASH \n\ufe0f \n\n#EGLD #MultiversX #listing\u2026",
            "published_at": "2023-05-22T16:37:39Z",
            "slug": "New-listing-with-JewelSwapX-Token-JWLASH-EGLD-MultiversX-listing",
            "currencies": [
                {
                    "code": "JEX",
                    "title": "JEXchange",
                    "slug": null,
                    "url": "https:\/\/cryptopanic.com\/news\/None\/"
                }
            ],
            "id": 18405753,
            "url": "https:\/\/cryptopanic.com\/news\/18405753\/New-listing-with-JewelSwapX-Token-JWLASH-EGLD-MultiversX-listing",
            "created_at": "2023-05-22T16:37:39Z",
            "votes": {
                "negative": 0,
                "positive": 0,
                "important": 0,
                "liked": 0,
                "disliked": 0,
                "lol": 0,
                "toxic": 0,
                "saved": 0,
                "comments": 0
            }
        },
        {
            "kind": "news",
            "domain": "@jexchangeP2P",
            "source": {
                "title": "JEXchange Twitter",
                "region": "en",
                "domain": "twitter.com",
                "path": "@jexchangep2p"
            },
            "title": "RT @Poobah_Mom: @anonymousbaj @jexchangeP2P @KevinRiche99 @ZoidPay @UTRUST @itheum @holoride @CantinaRoyale @OneDex_X I agree,  #Jexto1 ht\u2026",
            "published_at": "2023-05-22T12:09:55Z",
            "slug": "RT-Poobah_Mom-anonymousbaj-jexchangeP2P-KevinRiche99-ZoidPay-UTRUST-itheum-holoride-CantinaRoyale-OneDex_X-I-agree-Jexto1-ht",
            "currencies": [
                {
                    "code": "JEX",
                    "title": "JEXchange",
                    "slug": null,
                    "url": "https:\/\/cryptopanic.com\/news\/None\/"
                }
            ],
            "id": 18405754,
            "url": "https:\/\/cryptopanic.com\/news\/18405754\/RT-Poobah_Mom-anonymousbaj-jexchangeP2P-KevinRiche99-ZoidPay-UTRUST-itheum-holoride-CantinaRoyale-OneDex_X-I-agree-Jexto1-ht",
            "created_at": "2023-05-22T12:09:55Z",
            "votes": {
                "negative": 0,
                "positive": 0,
                "important": 0,
                "liked": 0,
                "disliked": 0,
                "lol": 0,
                "toxic": 0,
                "saved": 0,
                "comments": 0
            }
        },
        {
            "kind": "news",
            "domain": "@jexchangeP2P",
            "source": {
                "title": "JEXchange Twitter",
                "region": "en",
                "domain": "twitter.com",
                "path": "@jexchangep2p"
            },
            "title": "RT @anonymousbaj: It's already day 32, so today dear @MultiversX and @jexchangeP2P community, with 100 $egld you can buy 1.62 mil $jex toke\u2026",
            "published_at": "2023-05-22T09:32:17Z",
            "slug": "RT-anonymousbaj-Its-already-day-32-so-today-dear-MultiversX-and-jexchangeP2P-community-with-100-egld-you-can-buy-162-mil-jex-toke",
            "currencies": [
                {
                    "code": "JEX",
                    "title": "JEXchange",
                    "slug": null,
                    "url": "https:\/\/cryptopanic.com\/news\/None\/"
                }
            ],
            "id": 18405755,
            "url": "https:\/\/cryptopanic.com\/news\/18405755\/RT-anonymousbaj-Its-already-day-32-so-today-dear-MultiversX-and-jexchangeP2P-community-with-100-egld-you-can-buy-162-mil-jex-toke",
            "created_at": "2023-05-22T09:32:17Z",
            "votes": {
                "negative": 0,
                "positive": 0,
                "important": 0,
                "liked": 0,
                "disliked": 0,
                "lol": 0,
                "toxic": 0,
                "saved": 0,
                "comments": 0
            }
        },
        {
            "kind": "news",
            "domain": "@jexchangeP2P",
            "source": {
                "title": "JEXchange Twitter",
                "region": "en",
                "domain": "twitter.com",
                "path": "@jexchangep2p"
            },
            "title": "RT @anonymousbaj: @KevinRiche99 @ZoidPay @UTRUST @itheum @holoride @CantinaRoyale @OneDex_X hey hello, i would suggest looking up @jexchang\u2026",
            "published_at": "2023-05-22T09:32:09Z",
            "slug": "RT-anonymousbaj-KevinRiche99-ZoidPay-UTRUST-itheum-holoride-CantinaRoyale-OneDex_X-hey-hello-i-would-suggest-looking-up-jexchang",
            "currencies": [
                {
                    "code": "JEX",
                    "title": "JEXchange",
                    "slug": null,
                    "url": "https:\/\/cryptopanic.com\/news\/None\/"
                }
            ],
            "id": 18405756,
            "url": "https:\/\/cryptopanic.com\/news\/18405756\/RT-anonymousbaj-KevinRiche99-ZoidPay-UTRUST-itheum-holoride-CantinaRoyale-OneDex_X-hey-hello-i-would-suggest-looking-up-jexchang",
            "created_at": "2023-05-22T09:32:09Z",
            "votes": {
                "negative": 0,
                "positive": 0,
                "important": 0,
                "liked": 0,
                "disliked": 0,
                "lol": 0,
                "toxic": 0,
                "saved": 0,
                "comments": 0
            }
        },
        {
            "kind": "news",
            "domain": "@jexchangeP2P",
            "source": {
                "title": "JEXchange Twitter",
                "region": "en",
                "domain": "twitter.com",
                "path": "@jexchangep2p"
            },
            "title": " The power of #JEX aggregator \n\nDo you want to swap tokens? \ud83e\udd14\nWe take care of everything and we save you some fee\u2026",
            "published_at": "2023-05-22T09:31:55Z",
            "slug": "The-power-of-JEX-aggregator-Do-you-want-to-swap-tokens-We-take-care-of-everything-and-we-save-you-some-fee",
            "currencies": [
                {
                    "code": "JEX",
                    "title": "JEXchange",
                    "slug": null,
                    "url": "https:\/\/cryptopanic.com\/news\/None\/"
                }
            ],
            "id": 18405757,
            "url": "https:\/\/cryptopanic.com\/news\/18405757\/The-power-of-JEX-aggregator-Do-you-want-to-swap-tokens-We-take-care-of-everything-and-we-save-you-some-fee",
            "created_at": "2023-05-22T09:31:55Z",
            "votes": {
                "negative": 0,
                "positive": 0,
                "important": 0,
                "liked": 0,
                "disliked": 0,
                "lol": 0,
                "toxic": 0,
                "saved": 0,
                "comments": 0
            }
        },
        {
            "kind": "news",
            "domain": "@jexchangeP2P",
            "source": {
                "title": "JEXchange Twitter",
                "region": "en",
                "domain": "twitter.com",
                "path": "@jexchangep2p"
            },
            "title": "RT @Poobah_Mom: @razvancapra @jexchangeP2P There is no stopping @jexchangeP2P!\n\n#JEXto1 #MultiversX #Swap #aggregator #LunarCrush #TwitterC\u2026",
            "published_at": "2023-05-22T09:01:55Z",
            "slug": "RT-Poobah_Mom-razvancapra-jexchangeP2P-There-is-no-stopping-jexchangeP2P-JEXto1-MultiversX-Swap-aggregator-LunarCrush-TwitterC",
            "currencies": [
                {
                    "code": "JEX",
                    "title": "JEXchange",
                    "slug": null,
                    "url": "https:\/\/cryptopanic.com\/news\/None\/"
                }
            ],
            "id": 18405758,
            "url": "https:\/\/cryptopanic.com\/news\/18405758\/RT-Poobah_Mom-razvancapra-jexchangeP2P-There-is-no-stopping-jexchangeP2P-JEXto1-MultiversX-Swap-aggregator-LunarCrush-TwitterC",
            "created_at": "2023-05-22T09:01:55Z",
            "votes": {
                "negative": 0,
                "positive": 0,
                "important": 0,
                "liked": 0,
                "disliked": 0,
                "lol": 0,
                "toxic": 0,
                "saved": 0,
                "comments": 0
            }
        },
        {
            "kind": "news",
            "domain": "@jexchangeP2P",
            "source": {
                "title": "JEXchange Twitter",
                "region": "en",
                "domain": "twitter.com",
                "path": "@jexchangep2p"
            },
            "title": "RT @razvancapra: #MultiversX is emerging as an appealing alternative in the market. I take great pride in having supported @jexchangeP2P si\u2026",
            "published_at": "2023-05-22T08:07:51Z",
            "slug": "RT-razvancapra-MultiversX-is-emerging-as-an-appealing-alternative-in-the-market-I-take-great-pride-in-having-supported-jexchangeP2P-si",
            "currencies": [
                {
                    "code": "JEX",
                    "title": "JEXchange",
                    "slug": null,
                    "url": "https:\/\/cryptopanic.com\/news\/None\/"
                }
            ],
            "id": 18405760,
            "url": "https:\/\/cryptopanic.com\/news\/18405760\/RT-razvancapra-MultiversX-is-emerging-as-an-appealing-alternative-in-the-market-I-take-great-pride-in-having-supported-jexchangeP2P-si",
            "created_at": "2023-05-22T08:07:51Z",
            "votes": {
                "negative": 0,
                "positive": 0,
                "important": 0,
                "liked": 0,
                "disliked": 0,
                "lol": 0,
                "toxic": 0,
                "saved": 0,
                "comments": 0
            }
        },
        {
            "kind": "news",
            "domain": "@jexchangeP2P",
            "source": {
                "title": "JEXchange Twitter",
                "region": "en",
                "domain": "twitter.com",
                "path": "@jexchangep2p"
            },
            "title": "RT @ShroomsCrypto: Get ready for the next mint #MultiversX \n\nOnly 50 NFTs \nWL: 1.05 $EGLD \nPublic: 1.25 $EGLD \n\nLast mint sold out in less\u2026",
            "published_at": "2023-05-22T08:07:33Z",
            "slug": "RT-ShroomsCrypto-Get-ready-for-the-next-mint-MultiversX-Only-50-NFTs-WL-105-EGLD-Public-125-EGLD-Last-mint-sold-out-in-less",
            "currencies": [
                {
                    "code": "JEX",
                    "title": "JEXchange",
                    "slug": null,
                    "url": "https:\/\/cryptopanic.com\/news\/None\/"
                },
                {
                    "code": "EGLD",
                    "title": "MultiversX",
                    "slug": "elrond-erd-2",
                    "url": "https:\/\/cryptopanic.com\/news\/elrond-erd-2\/"
                }
            ],
            "id": 18405761,
            "url": "https:\/\/cryptopanic.com\/news\/18405761\/RT-ShroomsCrypto-Get-ready-for-the-next-mint-MultiversX-Only-50-NFTs-WL-105-EGLD-Public-125-EGLD-Last-mint-sold-out-in-less",
            "created_at": "2023-05-22T08:07:33Z",
            "votes": {
                "negative": 0,
                "positive": 0,
                "important": 0,
                "liked": 0,
                "disliked": 0,
                "lol": 0,
                "toxic": 0,
                "saved": 0,
                "comments": 0
            }
        },
        {
            "kind": "news",
            "domain": "@jexchangeP2P",
            "source": {
                "title": "JEXchange Twitter",
                "region": "en",
                "domain": "twitter.com",
                "path": "@jexchangep2p"
            },
            "title": "RT @Poobah_Mom: @Ryoshi_versX @jexchangeP2P @MultiversX @JavierNFT Hey, Don't be shady  I don't hate, $MEX has a chance to make it too\u2026",
            "published_at": "2023-05-22T06:48:28Z",
            "slug": "RT-Poobah_Mom-Ryoshi_versX-jexchangeP2P-MultiversX-JavierNFT-Hey-Dont-be-shady-I-dont-hate-MEX-has-a-chance-to-make-it-too",
            "currencies": [
                {
                    "code": "JEX",
                    "title": "JEXchange",
                    "slug": null,
                    "url": "https:\/\/cryptopanic.com\/news\/None\/"
                }
            ],
            "id": 18397947,
            "url": "https:\/\/cryptopanic.com\/news\/18397947\/RT-Poobah_Mom-Ryoshi_versX-jexchangeP2P-MultiversX-JavierNFT-Hey-Dont-be-shady-I-dont-hate-MEX-has-a-chance-to-make-it-too",
            "created_at": "2023-05-22T06:48:28Z",
            "votes": {
                "negative": 0,
                "positive": 0,
                "important": 0,
                "liked": 0,
                "disliked": 0,
                "lol": 0,
                "toxic": 0,
                "saved": 0,
                "comments": 0
            }
        },
        {
            "kind": "news",
            "domain": "@jexchangeP2P",
            "source": {
                "title": "JEXchange Twitter",
                "region": "en",
                "domain": "twitter.com",
                "path": "@jexchangep2p"
            },
            "title": "RT @Poobah_Mom: As I was strolling through twitter I came across @LunarCrush.\n\nI can see my #twitter engagement and what I mostly post abou\u2026",
            "published_at": "2023-05-22T05:07:31Z",
            "slug": "RT-Poobah_Mom-As-I-was-strolling-through-twitter-I-came-across-LunarCrush-I-can-see-my-twitter-engagement-and-what-I-mostly-post-abou",
            "currencies": [
                {
                    "code": "JEX",
                    "title": "JEXchange",
                    "slug": null,
                    "url": "https:\/\/cryptopanic.com\/news\/None\/"
                }
            ],
            "id": 18397948,
            "url": "https:\/\/cryptopanic.com\/news\/18397948\/RT-Poobah_Mom-As-I-was-strolling-through-twitter-I-came-across-LunarCrush-I-can-see-my-twitter-engagement-and-what-I-mostly-post-abou",
            "created_at": "2023-05-22T05:07:31Z",
            "votes": {
                "negative": 0,
                "positive": 0,
                "important": 0,
                "liked": 0,
                "disliked": 0,
                "lol": 0,
                "toxic": 0,
                "saved": 0,
                "comments": 0
            }
        },
        {
            "kind": "news",
            "domain": "@jexchangeP2P",
            "source": {
                "title": "JEXchange Twitter",
                "region": "en",
                "domain": "twitter.com",
                "path": "@jexchangep2p"
            },
            "title": "RT @Poobah_Mom: There is one token built on @MultiversX that I think has more of an opportunity to reach $1.\n\n\u2b50@jexchangeP2P is one #crypt\u2026",
            "published_at": "2023-05-22T05:06:44Z",
            "slug": "RT-Poobah_Mom-There-is-one-token-built-on-MultiversX-that-I-think-has-more-of-an-opportunity-to-reach-1-jexchangeP2P-is-one-crypt",
            "currencies": [
                {
                    "code": "JEX",
                    "title": "JEXchange",
                    "slug": null,
                    "url": "https:\/\/cryptopanic.com\/news\/None\/"
                }
            ],
            "id": 18397949,
            "url": "https:\/\/cryptopanic.com\/news\/18397949\/RT-Poobah_Mom-There-is-one-token-built-on-MultiversX-that-I-think-has-more-of-an-opportunity-to-reach-1-jexchangeP2P-is-one-crypt",
            "created_at": "2023-05-22T05:06:44Z",
            "votes": {
                "negative": 0,
                "positive": 0,
                "important": 0,
                "liked": 0,
                "disliked": 0,
                "lol": 0,
                "toxic": 0,
                "saved": 0,
                "comments": 0
            }
        },
        {
            "kind": "news",
            "domain": "@jexchangeP2P",
            "source": {
                "title": "JEXchange Twitter",
                "region": "en",
                "domain": "twitter.com",
                "path": "@jexchangep2p"
            },
            "title": "RT @Poobah_Mom: @evcawolfCZ I'm leaning towards two of my favs! \n\n@cyberpunkcity $CYBER and @jexchangeP2P $JEX\n\nTwo quality projects! \n\n#Cr\u2026",
            "published_at": "2023-05-21T20:10:29Z",
            "slug": "RT-Poobah_Mom-evcawolfCZ-Im-leaning-towards-two-of-my-favs-cyberpunkcity-CYBER-and-jexchangeP2P-JEX-Two-quality-projects-Cr",
            "currencies": [
                {
                    "code": "JEX",
                    "title": "JEXchange",
                    "slug": null,
                    "url": "https:\/\/cryptopanic.com\/news\/None\/"
                }
            ],
            "id": 18397950,
            "url": "https:\/\/cryptopanic.com\/news\/18397950\/RT-Poobah_Mom-evcawolfCZ-Im-leaning-towards-two-of-my-favs-cyberpunkcity-CYBER-and-jexchangeP2P-JEX-Two-quality-projects-Cr",
            "created_at": "2023-05-21T20:10:29Z",
            "votes": {
                "negative": 0,
                "positive": 0,
                "important": 0,
                "liked": 0,
                "disliked": 0,
                "lol": 0,
                "toxic": 0,
                "saved": 0,
                "comments": 0
            }
        }
    ]
}
