{
    "count": 200,
    "next": "https:\/\/cryptopanic.com\/api\/v1\/posts\/?auth_token=01c356e89ffc1b8eba2127c81fc8c66ee0eace75&kind=news&currencies=SNT&page=2",
    "previous": null,
    "results": [
        {
            "kind": "news",
            "domain": "@ethstatus",
            "source": {
                "title": "Status Twitter",
                "region": "en",
                "domain": "twitter.com",
                "path": "@ethstatus"
            },
            "title": "RT @Logos_state: 1\/ The Logos Collective will occupy @galerie_joseph to present its tech stack and mission at \"The Birth of a Network State\u2026",
            "published_at": "2023-07-11T17:16:19Z",
            "slug": "RT-Logos_state-1-The-Logos-Collective-will-occupy-galerie_joseph-to-present-its-tech-stack-and-mission-at-The-Birth-of-a-Network-State",
            "currencies": [
                {
                    "code": "SNT",
                    "title": "Status",
                    "slug": "status",
                    "url": "https:\/\/cryptopanic.com\/news\/status\/"
                }
            ],
            "id": 18767330,
            "url": "https:\/\/cryptopanic.com\/news\/18767330\/RT-Logos_state-1-The-Logos-Collective-will-occupy-galerie_joseph-to-present-its-tech-stack-and-mission-at-The-Birth-of-a-Network-State",
            "created_at": "2023-07-11T17:16:19Z",
            "votes": {
                "negative": 0,
                "positive": 0,
                "important": 0,
                "liked": 0,
                "disliked": 0,
                "lol": 0,
                "toxic": 0,
                "saved": 0,
                "comments": 0
            }
        },
        {
            "kind": "news",
            "domain": "@ethstatus",
            "source": {
                "title": "Status Twitter",
                "region": "en",
                "domain": "twitter.com",
                "path": "@ethstatus"
            },
            "title": "Status Weekly Roundup: Desktop Messenger team\n\nHey, Twitter world! Status Desktop Messenger team here. \n\nIf you saw\u2026",
            "published_at": "2023-07-11T16:22:35Z",
            "slug": "Status-Weekly-Roundup-Desktop-Messenger-team-Hey-Twitter-world-Status-Desktop-Messenger-team-here-If-you-saw",
            "currencies": [
                {
                    "code": "SNT",
                    "title": "Status",
                    "slug": "status",
                    "url": "https:\/\/cryptopanic.com\/news\/status\/"
                }
            ],
            "id": 18767331,
            "url": "https:\/\/cryptopanic.com\/news\/18767331\/Status-Weekly-Roundup-Desktop-Messenger-team-Hey-Twitter-world-Status-Desktop-Messenger-team-here-If-you-saw",
            "created_at": "2023-07-11T16:22:35Z",
            "votes": {
                "negative": 0,
                "positive": 0,
                "important": 0,
                "liked": 0,
                "disliked": 0,
                "lol": 0,
                "toxic": 0,
                "saved": 0,
                "comments": 0
            }
        },
        {
            "kind": "news",
            "domain": "@ethstatus",
            "source": {
                "title": "Status Twitter",
                "region": "en",
                "domain": "twitter.com",
                "path": "@ethstatus"
            },
            "title": "RT @thebtcpodcast: We are setting up a recording studio in Paris next week during @EthCC at the @Logos_state side event on July 18th. https\u2026",
            "published_at": "2023-07-11T14:33:52Z",
            "slug": "RT-thebtcpodcast-We-are-setting-up-a-recording-studio-in-Paris-next-week-during-EthCC-at-the-Logos_state-side-event-on-July-18th-https",
            "currencies": [
                {
                    "code": "SNT",
                    "title": "Status",
                    "slug": "status",
                    "url": "https:\/\/cryptopanic.com\/news\/status\/"
                }
            ],
            "id": 18767332,
            "url": "https:\/\/cryptopanic.com\/news\/18767332\/RT-thebtcpodcast-We-are-setting-up-a-recording-studio-in-Paris-next-week-during-EthCC-at-the-Logos_state-side-event-on-July-18th-https",
            "created_at": "2023-07-11T14:33:52Z",
            "votes": {
                "negative": 0,
                "positive": 0,
                "important": 0,
                "liked": 0,
                "disliked": 0,
                "lol": 0,
                "toxic": 0,
                "saved": 0,
                "comments": 0
            }
        },
        {
            "kind": "news",
            "domain": "@ethstatus",
            "source": {
                "title": "Status Twitter",
                "region": "en",
                "domain": "twitter.com",
                "path": "@ethstatus"
            },
            "title": "Status Weekly Roundup: Desktop UI team\n\nHello there \n\nAs we discussed in previous posts, good tools are the basis\u2026",
            "published_at": "2023-07-10T23:17:25Z",
            "slug": "Status-Weekly-Roundup-Desktop-UI-team-Hello-there-As-we-discussed-in-previous-posts-good-tools-are-the-basis",
            "currencies": [
                {
                    "code": "SNT",
                    "title": "Status",
                    "slug": "status",
                    "url": "https:\/\/cryptopanic.com\/news\/status\/"
                }
            ],
            "id": 18759074,
            "url": "https:\/\/cryptopanic.com\/news\/18759074\/Status-Weekly-Roundup-Desktop-UI-team-Hello-there-As-we-discussed-in-previous-posts-good-tools-are-the-basis",
            "created_at": "2023-07-10T23:17:25Z",
            "votes": {
                "negative": 0,
                "positive": 0,
                "important": 0,
                "liked": 0,
                "disliked": 0,
                "lol": 0,
                "toxic": 0,
                "saved": 0,
                "comments": 0
            }
        },
        {
            "kind": "news",
            "domain": "@ethstatus",
            "source": {
                "title": "Status Twitter",
                "region": "en",
                "domain": "twitter.com",
                "path": "@ethstatus"
            },
            "title": "Last week, Status and @Logos_state sponsored @eth_barcelona with representatives taking to the lunar punk-inspired\u2026",
            "published_at": "2023-07-10T15:37:30Z",
            "slug": "Last-week-Status-and-Logos_state-sponsored-eth_barcelona-with-representatives-taking-to-the-lunar-punk-inspired",
            "currencies": [
                {
                    "code": "SNT",
                    "title": "Status",
                    "slug": "status",
                    "url": "https:\/\/cryptopanic.com\/news\/status\/"
                }
            ],
            "id": 18759075,
            "url": "https:\/\/cryptopanic.com\/news\/18759075\/Last-week-Status-and-Logos_state-sponsored-eth_barcelona-with-representatives-taking-to-the-lunar-punk-inspired",
            "created_at": "2023-07-10T15:37:30Z",
            "votes": {
                "negative": 0,
                "positive": 0,
                "important": 0,
                "liked": 0,
                "disliked": 0,
                "lol": 0,
                "toxic": 0,
                "saved": 0,
                "comments": 0
            }
        },
        {
            "kind": "news",
            "domain": "@ethstatus",
            "source": {
                "title": "Status Twitter",
                "region": "en",
                "domain": "twitter.com",
                "path": "@ethstatus"
            },
            "title": "RT @jobsincrypto: .@ethstatus is hiring!\n\nStatus is looking for a Legal Associate - Blockchain to join their talented team and help build t\u2026",
            "published_at": "2023-07-10T09:02:29Z",
            "slug": "RT-jobsincrypto-ethstatus-is-hiring-Status-is-looking-for-a-Legal-Associate-Blockchain-to-join-their-talented-team-and-help-build-t",
            "currencies": [
                {
                    "code": "SNT",
                    "title": "Status",
                    "slug": "status",
                    "url": "https:\/\/cryptopanic.com\/news\/status\/"
                }
            ],
            "id": 18751538,
            "url": "https:\/\/cryptopanic.com\/news\/18751538\/RT-jobsincrypto-ethstatus-is-hiring-Status-is-looking-for-a-Legal-Associate-Blockchain-to-join-their-talented-team-and-help-build-t",
            "created_at": "2023-07-10T09:02:29Z",
            "votes": {
                "negative": 0,
                "positive": 0,
                "important": 0,
                "liked": 0,
                "disliked": 0,
                "lol": 0,
                "toxic": 0,
                "saved": 0,
                "comments": 0
            }
        },
        {
            "kind": "news",
            "domain": "@ethstatus",
            "source": {
                "title": "Status Twitter",
                "region": "en",
                "domain": "twitter.com",
                "path": "@ethstatus"
            },
            "title": "Status Weekly Roundup: Mobile team\n\nMobile Team updates:\n\nWe are preparing for our 1.24 alpha release\u2014still a bit o\u2026",
            "published_at": "2023-07-09T15:43:20Z",
            "slug": "Status-Weekly-Roundup-Mobile-team-Mobile-Team-updates-We-are-preparing-for-our-124-alpha-releasestill-a-bit-o",
            "currencies": [
                {
                    "code": "SNT",
                    "title": "Status",
                    "slug": "status",
                    "url": "https:\/\/cryptopanic.com\/news\/status\/"
                }
            ],
            "id": 18751539,
            "url": "https:\/\/cryptopanic.com\/news\/18751539\/Status-Weekly-Roundup-Mobile-team-Mobile-Team-updates-We-are-preparing-for-our-124-alpha-releasestill-a-bit-o",
            "created_at": "2023-07-09T15:43:20Z",
            "votes": {
                "negative": 0,
                "positive": 0,
                "important": 0,
                "liked": 0,
                "disliked": 0,
                "lol": 0,
                "toxic": 0,
                "saved": 0,
                "comments": 0
            }
        },
        {
            "kind": "news",
            "domain": "@ethstatus",
            "source": {
                "title": "Status Twitter",
                "region": "en",
                "domain": "twitter.com",
                "path": "@ethstatus"
            },
            "title": "Status Weekly Roundup: Design team\n\nHello there! \n\nAs you chat privately with friends and family, or connect with\u2026",
            "published_at": "2023-07-08T15:41:13Z",
            "slug": "Status-Weekly-Roundup-Design-team-Hello-there-As-you-chat-privately-with-friends-and-family-or-connect-with",
            "currencies": [
                {
                    "code": "SNT",
                    "title": "Status",
                    "slug": "status",
                    "url": "https:\/\/cryptopanic.com\/news\/status\/"
                }
            ],
            "id": 18746987,
            "url": "https:\/\/cryptopanic.com\/news\/18746987\/Status-Weekly-Roundup-Design-team-Hello-there-As-you-chat-privately-with-friends-and-family-or-connect-with",
            "created_at": "2023-07-08T15:41:13Z",
            "votes": {
                "negative": 0,
                "positive": 0,
                "important": 0,
                "liked": 0,
                "disliked": 0,
                "lol": 0,
                "toxic": 0,
                "saved": 0,
                "comments": 0
            }
        },
        {
            "kind": "news",
            "domain": "@ethstatus",
            "source": {
                "title": "Status Twitter",
                "region": "en",
                "domain": "twitter.com",
                "path": "@ethstatus"
            },
            "title": "Join the @Logos_state Collective at \u201cOnline: The Birth of a Network State\u201d in Paris on July 18 (during @EthCC).\n\nT\u2026",
            "published_at": "2023-07-07T12:24:06Z",
            "slug": "Join-the-Logos_state-Collective-at-Online-The-Birth-of-a-Network-State-in-Paris-on-July-18-during-EthCC-T",
            "currencies": [
                {
                    "code": "SNT",
                    "title": "Status",
                    "slug": "status",
                    "url": "https:\/\/cryptopanic.com\/news\/status\/"
                }
            ],
            "id": 18742630,
            "url": "https:\/\/cryptopanic.com\/news\/18742630\/Join-the-Logos_state-Collective-at-Online-The-Birth-of-a-Network-State-in-Paris-on-July-18-during-EthCC-T",
            "created_at": "2023-07-07T12:24:06Z",
            "votes": {
                "negative": 0,
                "positive": 0,
                "important": 0,
                "liked": 0,
                "disliked": 0,
                "lol": 0,
                "toxic": 0,
                "saved": 0,
                "comments": 0
            }
        },
        {
            "kind": "news",
            "domain": "@ethstatus",
            "source": {
                "title": "Status Twitter",
                "region": "en",
                "domain": "twitter.com",
                "path": "@ethstatus"
            },
            "title": "Still among the busiest builders in crypto\ufe0f",
            "published_at": "2023-07-07T08:23:33Z",
            "slug": "Still-among-the-busiest-builders-in-crypto",
            "currencies": [
                {
                    "code": "SNT",
                    "title": "Status",
                    "slug": "status",
                    "url": "https:\/\/cryptopanic.com\/news\/status\/"
                }
            ],
            "id": 18735491,
            "url": "https:\/\/cryptopanic.com\/news\/18735491\/Still-among-the-busiest-builders-in-crypto",
            "created_at": "2023-07-07T08:23:33Z",
            "votes": {
                "negative": 0,
                "positive": 0,
                "important": 0,
                "liked": 0,
                "disliked": 0,
                "lol": 0,
                "toxic": 0,
                "saved": 0,
                "comments": 0
            }
        },
        {
            "kind": "news",
            "domain": "@ethstatus",
            "source": {
                "title": "Status Twitter",
                "region": "en",
                "domain": "twitter.com",
                "path": "@ethstatus"
            },
            "title": "Status Weekly Roundup: Keycard team\nWe continue to evaluate which CMOS sensor the new @Keycard_ hardware wallet sho\u2026",
            "published_at": "2023-07-06T15:09:40Z",
            "slug": "Status-Weekly-Roundup-Keycard-team-We-continue-to-evaluate-which-CMOS-sensor-the-new-Keycard_-hardware-wallet-sho",
            "currencies": [
                {
                    "code": "SNT",
                    "title": "Status",
                    "slug": "status",
                    "url": "https:\/\/cryptopanic.com\/news\/status\/"
                }
            ],
            "id": 18735492,
            "url": "https:\/\/cryptopanic.com\/news\/18735492\/Status-Weekly-Roundup-Keycard-team-We-continue-to-evaluate-which-CMOS-sensor-the-new-Keycard_-hardware-wallet-sho",
            "created_at": "2023-07-06T15:09:40Z",
            "votes": {
                "negative": 0,
                "positive": 0,
                "important": 0,
                "liked": 0,
                "disliked": 0,
                "lol": 0,
                "toxic": 0,
                "saved": 0,
                "comments": 0
            }
        },
        {
            "kind": "news",
            "domain": "@ethstatus",
            "source": {
                "title": "Status Twitter",
                "region": "en",
                "domain": "twitter.com",
                "path": "@ethstatus"
            },
            "title": "RT @ethstatus: Join Status and @Logos_state co-founder @jarradhope_ to learn about protecting civil liberties at @eth_barcelona today at 15\u2026",
            "published_at": "2023-07-06T14:01:06Z",
            "slug": "RT-ethstatus-Join-Status-and-Logos_state-co-founder-jarradhope_-to-learn-about-protecting-civil-liberties-at-eth_barcelona-today-at-15",
            "currencies": [
                {
                    "code": "SNT",
                    "title": "Status",
                    "slug": "status",
                    "url": "https:\/\/cryptopanic.com\/news\/status\/"
                }
            ],
            "id": 18735493,
            "url": "https:\/\/cryptopanic.com\/news\/18735493\/RT-ethstatus-Join-Status-and-Logos_state-co-founder-jarradhope_-to-learn-about-protecting-civil-liberties-at-eth_barcelona-today-at-15",
            "created_at": "2023-07-06T14:01:06Z",
            "votes": {
                "negative": 0,
                "positive": 0,
                "important": 0,
                "liked": 0,
                "disliked": 0,
                "lol": 0,
                "toxic": 0,
                "saved": 0,
                "comments": 0
            }
        },
        {
            "kind": "news",
            "domain": "@ethstatus",
            "source": {
                "title": "Status Twitter",
                "region": "en",
                "domain": "twitter.com",
                "path": "@ethstatus"
            },
            "title": "Join Status and @Logos_state co-founder @jarradhope_ to learn about protecting civil liberties at @eth_barcelona to\u2026",
            "published_at": "2023-07-06T12:50:08Z",
            "slug": "Join-Status-and-Logos_state-co-founder-jarradhope_-to-learn-about-protecting-civil-liberties-at-eth_barcelona-to",
            "currencies": [
                {
                    "code": "SNT",
                    "title": "Status",
                    "slug": "status",
                    "url": "https:\/\/cryptopanic.com\/news\/status\/"
                }
            ],
            "id": 18735494,
            "url": "https:\/\/cryptopanic.com\/news\/18735494\/Join-Status-and-Logos_state-co-founder-jarradhope_-to-learn-about-protecting-civil-liberties-at-eth_barcelona-to",
            "created_at": "2023-07-06T12:50:08Z",
            "votes": {
                "negative": 0,
                "positive": 0,
                "important": 0,
                "liked": 0,
                "disliked": 0,
                "lol": 0,
                "toxic": 0,
                "saved": 0,
                "comments": 0
            }
        },
        {
            "kind": "news",
            "domain": "@ethstatus",
            "source": {
                "title": "Status Twitter",
                "region": "en",
                "domain": "twitter.com",
                "path": "@ethstatus"
            },
            "title": "Status Weekly Roundup: Docs team\n\n Greetings from the Status Docs team! Here's a look at how we deliver content e\u2026",
            "published_at": "2023-07-05T16:09:37Z",
            "slug": "Status-Weekly-Roundup-Docs-team-Greetings-from-the-Status-Docs-team-Heres-a-look-at-how-we-deliver-content-e",
            "currencies": [
                {
                    "code": "SNT",
                    "title": "Status",
                    "slug": "status",
                    "url": "https:\/\/cryptopanic.com\/news\/status\/"
                }
            ],
            "id": 18726913,
            "url": "https:\/\/cryptopanic.com\/news\/18726913\/Status-Weekly-Roundup-Docs-team-Greetings-from-the-Status-Docs-team-Heres-a-look-at-how-we-deliver-content-e",
            "created_at": "2023-07-05T16:09:37Z",
            "votes": {
                "negative": 0,
                "positive": 0,
                "important": 0,
                "liked": 0,
                "disliked": 0,
                "lol": 0,
                "toxic": 0,
                "saved": 0,
                "comments": 0
            }
        },
        {
            "kind": "news",
            "domain": "@ethstatus",
            "source": {
                "title": "Status Twitter",
                "region": "en",
                "domain": "twitter.com",
                "path": "@ethstatus"
            },
            "title": "RT @thebtcpodcast: We sat down with @fryorcraken of @Waku_org and @ethstatus to discuss the importance of decentralized communication and t\u2026",
            "published_at": "2023-07-05T14:52:55Z",
            "slug": "RT-thebtcpodcast-We-sat-down-with-fryorcraken-of-Waku_org-and-ethstatus-to-discuss-the-importance-of-decentralized-communication-and-t",
            "currencies": [
                {
                    "code": "SNT",
                    "title": "Status",
                    "slug": "status",
                    "url": "https:\/\/cryptopanic.com\/news\/status\/"
                }
            ],
            "id": 18726914,
            "url": "https:\/\/cryptopanic.com\/news\/18726914\/RT-thebtcpodcast-We-sat-down-with-fryorcraken-of-Waku_org-and-ethstatus-to-discuss-the-importance-of-decentralized-communication-and-t",
            "created_at": "2023-07-05T14:52:55Z",
            "votes": {
                "negative": 0,
                "positive": 0,
                "important": 0,
                "liked": 0,
                "disliked": 0,
                "lol": 0,
                "toxic": 0,
                "saved": 0,
                "comments": 0
            }
        },
        {
            "kind": "news",
            "domain": "@ethstatus",
            "source": {
                "title": "Status Twitter",
                "region": "en",
                "domain": "twitter.com",
                "path": "@ethstatus"
            },
            "title": "RT @Waku_org: Hey, privacy pioneers! It\u2019s time for your weekly #WakuWednesday update:\n\nTeam wide: Many of us with be at @EthCC and \u201cOnlin\u2026",
            "published_at": "2023-07-05T13:06:32Z",
            "slug": "RT-Waku_org-Hey-privacy-pioneers-Its-time-for-your-weekly-WakuWednesday-update-Team-wide-Many-of-us-with-be-at-EthCC-and-Onlin",
            "currencies": [
                {
                    "code": "SNT",
                    "title": "Status",
                    "slug": "status",
                    "url": "https:\/\/cryptopanic.com\/news\/status\/"
                }
            ],
            "id": 18726915,
            "url": "https:\/\/cryptopanic.com\/news\/18726915\/RT-Waku_org-Hey-privacy-pioneers-Its-time-for-your-weekly-WakuWednesday-update-Team-wide-Many-of-us-with-be-at-EthCC-and-Onlin",
            "created_at": "2023-07-05T13:06:32Z",
            "votes": {
                "negative": 0,
                "positive": 0,
                "important": 0,
                "liked": 0,
                "disliked": 0,
                "lol": 0,
                "toxic": 0,
                "saved": 0,
                "comments": 0
            }
        },
        {
            "kind": "news",
            "domain": "@ethstatus",
            "source": {
                "title": "Status Twitter",
                "region": "en",
                "domain": "twitter.com",
                "path": "@ethstatus"
            },
            "title": "Status and @Logos_state co-founder @jarradhope_ will talk about politically neutral networks and how we can use th\u2026",
            "published_at": "2023-07-05T11:28:44Z",
            "slug": "Status-and-Logos_state-co-founder-jarradhope_-will-talk-about-politically-neutral-networks-and-how-we-can-use-th",
            "currencies": [
                {
                    "code": "SNT",
                    "title": "Status",
                    "slug": "status",
                    "url": "https:\/\/cryptopanic.com\/news\/status\/"
                }
            ],
            "id": 18726916,
            "url": "https:\/\/cryptopanic.com\/news\/18726916\/Status-and-Logos_state-co-founder-jarradhope_-will-talk-about-politically-neutral-networks-and-how-we-can-use-th",
            "created_at": "2023-07-05T11:28:44Z",
            "votes": {
                "negative": 0,
                "positive": 0,
                "important": 0,
                "liked": 0,
                "disliked": 0,
                "lol": 0,
                "toxic": 0,
                "saved": 0,
                "comments": 0
            }
        },
        {
            "kind": "news",
            "domain": "@ethstatus",
            "source": {
                "title": "Status Twitter",
                "region": "en",
                "domain": "twitter.com",
                "path": "@ethstatus"
            },
            "title": "Catch Status core contributor @samuel_hawksrob on a panel about decentralized identities, reputation, and trust TOD\u2026",
            "published_at": "2023-07-05T09:15:52Z",
            "slug": "Catch-Status-core-contributor-samuel_hawksrob-on-a-panel-about-decentralized-identities-reputation-and-trust-TOD",
            "currencies": [
                {
                    "code": "SNT",
                    "title": "Status",
                    "slug": "status",
                    "url": "https:\/\/cryptopanic.com\/news\/status\/"
                }
            ],
            "id": 18718879,
            "url": "https:\/\/cryptopanic.com\/news\/18718879\/Catch-Status-core-contributor-samuel_hawksrob-on-a-panel-about-decentralized-identities-reputation-and-trust-TOD",
            "created_at": "2023-07-05T09:15:52Z",
            "votes": {
                "negative": 0,
                "positive": 0,
                "important": 0,
                "liked": 0,
                "disliked": 0,
                "lol": 0,
                "toxic": 0,
                "saved": 0,
                "comments": 0
            }
        },
        {
            "kind": "news",
            "domain": "@ethstatus",
            "source": {
                "title": "Status Twitter",
                "region": "en",
                "domain": "twitter.com",
                "path": "@ethstatus"
            },
            "title": "RT @Logos_state: 1\/ Logos goes online during @EthCC by @Ethereum_France on July 18. \n\nJoin us for a day of dreaming, scheming, networking,\u2026",
            "published_at": "2023-07-04T17:30:00Z",
            "slug": "RT-Logos_state-1-Logos-goes-online-during-EthCC-by-Ethereum_France-on-July-18-Join-us-for-a-day-of-dreaming-scheming-networking",
            "currencies": [
                {
                    "code": "SNT",
                    "title": "Status",
                    "slug": "status",
                    "url": "https:\/\/cryptopanic.com\/news\/status\/"
                }
            ],
            "id": 18718880,
            "url": "https:\/\/cryptopanic.com\/news\/18718880\/RT-Logos_state-1-Logos-goes-online-during-EthCC-by-Ethereum_France-on-July-18-Join-us-for-a-day-of-dreaming-scheming-networking",
            "created_at": "2023-07-04T17:30:00Z",
            "votes": {
                "negative": 0,
                "positive": 0,
                "important": 0,
                "liked": 0,
                "disliked": 0,
                "lol": 0,
                "toxic": 0,
                "saved": 0,
                "comments": 0
            }
        },
        {
            "kind": "news",
            "domain": "@ethstatus",
            "source": {
                "title": "Status Twitter",
                "region": "en",
                "domain": "twitter.com",
                "path": "@ethstatus"
            },
            "title": "Status Weekly Roundup: Wallet team\n\nTwo weeks ago, we introduced the new UI for our 'activity' feature, and since t\u2026",
            "published_at": "2023-07-04T15:57:53Z",
            "slug": "Status-Weekly-Roundup-Wallet-team-Two-weeks-ago-we-introduced-the-new-UI-for-our-activity-feature-and-since-t",
            "currencies": [
                {
                    "code": "SNT",
                    "title": "Status",
                    "slug": "status",
                    "url": "https:\/\/cryptopanic.com\/news\/status\/"
                }
            ],
            "id": 18718881,
            "url": "https:\/\/cryptopanic.com\/news\/18718881\/Status-Weekly-Roundup-Wallet-team-Two-weeks-ago-we-introduced-the-new-UI-for-our-activity-feature-and-since-t",
            "created_at": "2023-07-04T15:57:53Z",
            "votes": {
                "negative": 0,
                "positive": 0,
                "important": 0,
                "liked": 0,
                "disliked": 0,
                "lol": 0,
                "toxic": 0,
                "saved": 0,
                "comments": 0
            }
        }
    ]
}
