{
    "count": 200,
    "next": "https:\/\/cryptopanic.com\/api\/v1\/posts\/?auth_token=01c356e89ffc1b8eba2127c81fc8c66ee0eace75&kind=news&currencies=GTC&page=2",
    "previous": null,
    "results": [
        {
            "kind": "news",
            "domain": "@CoinGastro",
            "source": {
                "title": "GastroCoin Twitter",
                "region": "en",
                "domain": "twitter.com",
                "path": "@coingastro"
            },
            "title": "Gastro Award 2023 goes to Richard Perkins, Ridgedale Farm. A true pioneer within #regenerativeagriculture &amp; #NoDig\u2026",
            "published_at": "2023-04-20T12:27:49Z",
            "slug": "Gastro-Award-2023-goes-to-Richard-Perkins-Ridgedale-Farm-A-true-pioneer-within-regenerativeagriculture-amp-NoDig",
            "currencies": [
                {
                    "code": "GTC",
                    "title": "GastroCoin",
                    "slug": null,
                    "url": "https:\/\/cryptopanic.com\/news\/None\/"
                }
            ],
            "id": 18160585,
            "url": "https:\/\/cryptopanic.com\/news\/18160585\/Gastro-Award-2023-goes-to-Richard-Perkins-Ridgedale-Farm-A-true-pioneer-within-regenerativeagriculture-amp-NoDig",
            "created_at": "2023-04-20T12:27:49Z",
            "votes": {
                "negative": 0,
                "positive": 0,
                "important": 0,
                "liked": 0,
                "disliked": 0,
                "lol": 0,
                "toxic": 0,
                "saved": 0,
                "comments": 0
            }
        },
        {
            "kind": "news",
            "domain": "@CoinGastro",
            "source": {
                "title": "GastroCoin Twitter",
                "region": "en",
                "domain": "twitter.com",
                "path": "@coingastro"
            },
            "title": "RT @bontecoin: Hello everyone \n\nGastrocoin (GTC) @CoinGastro is listed on Noken App in staking and masternode sharing services. \n\nDownloa\u2026",
            "published_at": "2023-04-20T11:41:29Z",
            "slug": "RT-bontecoin-Hello-everyone-Gastrocoin-GTC-CoinGastro-is-listed-on-Noken-App-in-staking-and-masternode-sharing-services-Downloa",
            "currencies": [
                {
                    "code": "GTC",
                    "title": "GastroCoin",
                    "slug": null,
                    "url": "https:\/\/cryptopanic.com\/news\/None\/"
                }
            ],
            "id": 18160586,
            "url": "https:\/\/cryptopanic.com\/news\/18160586\/RT-bontecoin-Hello-everyone-Gastrocoin-GTC-CoinGastro-is-listed-on-Noken-App-in-staking-and-masternode-sharing-services-Downloa",
            "created_at": "2023-04-20T11:41:29Z",
            "votes": {
                "negative": 0,
                "positive": 0,
                "important": 0,
                "liked": 0,
                "disliked": 0,
                "lol": 0,
                "toxic": 0,
                "saved": 0,
                "comments": 0
            }
        },
        {
            "kind": "news",
            "domain": "@CoinGastro",
            "source": {
                "title": "GastroCoin Twitter",
                "region": "en",
                "domain": "twitter.com",
                "path": "@coingastro"
            },
            "title": "OWNER OF A SUSTAINABLE RESTAURANT? Have your own GastroCoin MasterNode. Means you gain GastroCoins everyday which w\u2026",
            "published_at": "2023-03-16T10:19:24Z",
            "slug": "OWNER-OF-A-SUSTAINABLE-RESTAURANT-Have-your-own-GastroCoin-MasterNode-Means-you-gain-GastroCoins-everyday-which-w",
            "currencies": [
                {
                    "code": "GTC",
                    "title": "GastroCoin",
                    "slug": null,
                    "url": "https:\/\/cryptopanic.com\/news\/None\/"
                }
            ],
            "id": 17898959,
            "url": "https:\/\/cryptopanic.com\/news\/17898959\/OWNER-OF-A-SUSTAINABLE-RESTAURANT-Have-your-own-GastroCoin-MasterNode-Means-you-gain-GastroCoins-everyday-which-w",
            "created_at": "2023-03-16T10:19:24Z",
            "votes": {
                "negative": 0,
                "positive": 0,
                "important": 0,
                "liked": 0,
                "disliked": 0,
                "lol": 0,
                "toxic": 0,
                "saved": 0,
                "comments": 0
            }
        },
        {
            "kind": "news",
            "domain": "@CoinGastro",
            "source": {
                "title": "GastroCoin Twitter",
                "region": "en",
                "domain": "twitter.com",
                "path": "@coingastro"
            },
            "title": "New website launched! Welcome to the revolution!\n\n\n#regenerativeagriculture #farming #crypto\u2026",
            "published_at": "2023-03-15T15:37:41Z",
            "slug": "New-website-launched-Welcome-to-the-revolution-regenerativeagriculture-farming-crypto",
            "currencies": [
                {
                    "code": "GTC",
                    "title": "GastroCoin",
                    "slug": null,
                    "url": "https:\/\/cryptopanic.com\/news\/None\/"
                }
            ],
            "id": 17890044,
            "url": "https:\/\/cryptopanic.com\/news\/17890044\/New-website-launched-Welcome-to-the-revolution-regenerativeagriculture-farming-crypto",
            "created_at": "2023-03-15T15:37:41Z",
            "votes": {
                "negative": 0,
                "positive": 0,
                "important": 0,
                "liked": 0,
                "disliked": 0,
                "lol": 0,
                "toxic": 0,
                "saved": 0,
                "comments": 0
            }
        },
        {
            "kind": "news",
            "domain": "@CoinGastro",
            "source": {
                "title": "GastroCoin Twitter",
                "region": "en",
                "domain": "twitter.com",
                "path": "@coingastro"
            },
            "title": "Learn how three farmers in Stanly County, NC, started using multispecies cover crops and how they were able to real\u2026",
            "published_at": "2023-03-01T17:02:34Z",
            "slug": "Learn-how-three-farmers-in-Stanly-County-NC-started-using-multispecies-cover-crops-and-how-they-were-able-to-real",
            "currencies": [
                {
                    "code": "GTC",
                    "title": "GastroCoin",
                    "slug": null,
                    "url": "https:\/\/cryptopanic.com\/news\/None\/"
                }
            ],
            "id": 17770094,
            "url": "https:\/\/cryptopanic.com\/news\/17770094\/Learn-how-three-farmers-in-Stanly-County-NC-started-using-multispecies-cover-crops-and-how-they-were-able-to-real",
            "created_at": "2023-03-01T17:02:34Z",
            "votes": {
                "negative": 0,
                "positive": 0,
                "important": 0,
                "liked": 0,
                "disliked": 0,
                "lol": 0,
                "toxic": 0,
                "saved": 0,
                "comments": 0
            }
        },
        {
            "kind": "news",
            "domain": "@globaltrustcoin",
            "source": {
                "title": "GTIB Twitter",
                "region": "en",
                "domain": "twitter.com",
                "path": "@globaltrustcoin"
            },
            "title": "RT @BTCTN: Federal Reserve Governor Christopher Waller has warned that #crypto prices could fall to zero. #cryptocurrency",
            "published_at": "2023-02-14T14:24:23Z",
            "slug": "RT-BTCTN-Federal-Reserve-Governor-Christopher-Waller-has-warned-that-crypto-prices-could-fall-to-zero-cryptocurrency",
            "currencies": [
                {
                    "code": "GTC",
                    "title": "Global Trust Coin",
                    "slug": null,
                    "url": "https:\/\/cryptopanic.com\/news\/None\/"
                }
            ],
            "id": 17641584,
            "url": "https:\/\/cryptopanic.com\/news\/17641584\/RT-BTCTN-Federal-Reserve-Governor-Christopher-Waller-has-warned-that-crypto-prices-could-fall-to-zero-cryptocurrency",
            "created_at": "2023-02-14T14:24:23Z",
            "votes": {
                "negative": 0,
                "positive": 0,
                "important": 0,
                "liked": 0,
                "disliked": 0,
                "lol": 0,
                "toxic": 0,
                "saved": 0,
                "comments": 0
            }
        },
        {
            "kind": "news",
            "domain": "@CoinGastro",
            "source": {
                "title": "GastroCoin Twitter",
                "region": "en",
                "domain": "twitter.com",
                "path": "@coingastro"
            },
            "title": "GastroCoin goes into regenerative agriculture to get focus on the whole chain \"From Soil to Plate\"!\nDo you know abo\u2026",
            "published_at": "2023-01-27T09:38:44Z",
            "slug": "GastroCoin-goes-into-regenerative-agriculture-to-get-focus-on-the-whole-chain-From-Soil-to-Plate-Do-you-know-abo",
            "currencies": [
                {
                    "code": "GTC",
                    "title": "GastroCoin",
                    "slug": null,
                    "url": "https:\/\/cryptopanic.com\/news\/None\/"
                }
            ],
            "id": 17491193,
            "url": "https:\/\/cryptopanic.com\/news\/17491193\/GastroCoin-goes-into-regenerative-agriculture-to-get-focus-on-the-whole-chain-From-Soil-to-Plate-Do-you-know-abo",
            "created_at": "2023-01-27T09:38:44Z",
            "votes": {
                "negative": 0,
                "positive": 0,
                "important": 0,
                "liked": 0,
                "disliked": 0,
                "lol": 0,
                "toxic": 0,
                "saved": 0,
                "comments": 0
            }
        },
        {
            "kind": "news",
            "domain": "@CoinGastro",
            "source": {
                "title": "GastroCoin Twitter",
                "region": "en",
                "domain": "twitter.com",
                "path": "@coingastro"
            },
            "title": "GastroCoin just got it's new wallet 3.0 released which is a high-tech wallet with many features.\nThe new wallet wil\u2026",
            "published_at": "2023-01-26T09:36:03Z",
            "slug": "GastroCoin-just-got-its-new-wallet-30-released-which-is-a-high-tech-wallet-with-many-features-The-new-wallet-wil",
            "currencies": [
                {
                    "code": "GTC",
                    "title": "GastroCoin",
                    "slug": null,
                    "url": "https:\/\/cryptopanic.com\/news\/None\/"
                }
            ],
            "id": 17482498,
            "url": "https:\/\/cryptopanic.com\/news\/17482498\/GastroCoin-just-got-its-new-wallet-30-released-which-is-a-high-tech-wallet-with-many-features-The-new-wallet-wil",
            "created_at": "2023-01-26T09:36:03Z",
            "votes": {
                "negative": 0,
                "positive": 0,
                "important": 0,
                "liked": 0,
                "disliked": 0,
                "lol": 0,
                "toxic": 0,
                "saved": 0,
                "comments": 0
            }
        },
        {
            "kind": "news",
            "domain": "@CoinGastro",
            "source": {
                "title": "GastroCoin Twitter",
                "region": "en",
                "domain": "twitter.com",
                "path": "@coingastro"
            },
            "title": "2nd listing of the new year! \nVery proud to ann we are part of the Crysh MN Shared Service. @helgosson\u2026",
            "published_at": "2023-01-13T14:47:52Z",
            "slug": "2nd-listing-of-the-new-year-Very-proud-to-ann-we-are-part-of-the-Crysh-MN-Shared-Service-helgosson",
            "currencies": [
                {
                    "code": "GTC",
                    "title": "GastroCoin",
                    "slug": null,
                    "url": "https:\/\/cryptopanic.com\/news\/None\/"
                }
            ],
            "id": 17378355,
            "url": "https:\/\/cryptopanic.com\/news\/17378355\/2nd-listing-of-the-new-year-Very-proud-to-ann-we-are-part-of-the-Crysh-MN-Shared-Service-helgosson",
            "created_at": "2023-01-13T14:47:52Z",
            "votes": {
                "negative": 0,
                "positive": 0,
                "important": 0,
                "liked": 0,
                "disliked": 0,
                "lol": 0,
                "toxic": 0,
                "saved": 0,
                "comments": 0
            }
        },
        {
            "kind": "news",
            "domain": "@CoinGastro",
            "source": {
                "title": "GastroCoin Twitter",
                "region": "en",
                "domain": "twitter.com",
                "path": "@coingastro"
            },
            "title": "RT @xeggex: Gastrocoin (GTC) has been listed on Xeggex exchange in the following markets: GTC\/BTC  GTC\/USDT  \n\n@C\u2026",
            "published_at": "2023-01-12T08:16:28Z",
            "slug": "RT-xeggex-Gastrocoin-GTC-has-been-listed-on-Xeggex-exchange-in-the-following-markets-GTCBTC-GTCUSDT-C",
            "currencies": [
                {
                    "code": "GTC",
                    "title": "GastroCoin",
                    "slug": null,
                    "url": "https:\/\/cryptopanic.com\/news\/None\/"
                }
            ],
            "id": 17369317,
            "url": "https:\/\/cryptopanic.com\/news\/17369317\/RT-xeggex-Gastrocoin-GTC-has-been-listed-on-Xeggex-exchange-in-the-following-markets-GTCBTC-GTCUSDT-C",
            "created_at": "2023-01-12T08:16:28Z",
            "votes": {
                "negative": 0,
                "positive": 0,
                "important": 0,
                "liked": 0,
                "disliked": 0,
                "lol": 0,
                "toxic": 0,
                "saved": 0,
                "comments": 0
            }
        },
        {
            "kind": "news",
            "domain": "@CoinGastro",
            "source": {
                "title": "GastroCoin Twitter",
                "region": "en",
                "domain": "twitter.com",
                "path": "@coingastro"
            },
            "title": "GastroCoin Community starts the new year 2023 with a new exchange listing on XeggeX. Following markets: \n- GTC\/BTC\u2026",
            "published_at": "2023-01-11T08:53:07Z",
            "slug": "GastroCoin-Community-starts-the-new-year-2023-with-a-new-exchange-listing-on-XeggeX-Following-markets-GTCBTC",
            "currencies": [
                {
                    "code": "GTC",
                    "title": "GastroCoin",
                    "slug": null,
                    "url": "https:\/\/cryptopanic.com\/news\/None\/"
                }
            ],
            "id": 17359759,
            "url": "https:\/\/cryptopanic.com\/news\/17359759\/GastroCoin-Community-starts-the-new-year-2023-with-a-new-exchange-listing-on-XeggeX-Following-markets-GTCBTC",
            "created_at": "2023-01-11T08:53:07Z",
            "votes": {
                "negative": 0,
                "positive": 0,
                "important": 0,
                "liked": 0,
                "disliked": 0,
                "lol": 0,
                "toxic": 0,
                "saved": 0,
                "comments": 0
            }
        },
        {
            "kind": "news",
            "domain": "@CoinGastro",
            "source": {
                "title": "GastroCoin Twitter",
                "region": "en",
                "domain": "twitter.com",
                "path": "@coingastro"
            },
            "title": "2023 is going to be a very interesting year for GTC. We recently doubled our team with the best guys in the crypto\u2026",
            "published_at": "2023-01-09T08:50:07Z",
            "slug": "2023-is-going-to-be-a-very-interesting-year-for-GTC-We-recently-doubled-our-team-with-the-best-guys-in-the-crypto",
            "currencies": [
                {
                    "code": "GTC",
                    "title": "GastroCoin",
                    "slug": null,
                    "url": "https:\/\/cryptopanic.com\/news\/None\/"
                }
            ],
            "id": 17341457,
            "url": "https:\/\/cryptopanic.com\/news\/17341457\/2023-is-going-to-be-a-very-interesting-year-for-GTC-We-recently-doubled-our-team-with-the-best-guys-in-the-crypto",
            "created_at": "2023-01-09T08:50:07Z",
            "votes": {
                "negative": 0,
                "positive": 0,
                "important": 0,
                "liked": 0,
                "disliked": 0,
                "lol": 0,
                "toxic": 0,
                "saved": 0,
                "comments": 0
            }
        },
        {
            "kind": "news",
            "domain": "@globaltrustcoin",
            "source": {
                "title": "GTIB Twitter",
                "region": "en",
                "domain": "twitter.com",
                "path": "@globaltrustcoin"
            },
            "title": "RT @elonmusk: Going forward, there will be a vote for major policy changes. My apologies. Won\u2019t happen again.",
            "published_at": "2022-12-19T09:28:23Z",
            "slug": "RT-elonmusk-Going-forward-there-will-be-a-vote-for-major-policy-changes-My-apologies-Wont-happen-again",
            "currencies": [
                {
                    "code": "GTC",
                    "title": "Global Trust Coin",
                    "slug": null,
                    "url": "https:\/\/cryptopanic.com\/news\/None\/"
                }
            ],
            "id": 17193972,
            "url": "https:\/\/cryptopanic.com\/news\/17193972\/RT-elonmusk-Going-forward-there-will-be-a-vote-for-major-policy-changes-My-apologies-Wont-happen-again",
            "created_at": "2022-12-19T09:28:23Z",
            "votes": {
                "negative": 0,
                "positive": 0,
                "important": 0,
                "liked": 0,
                "disliked": 0,
                "lol": 0,
                "toxic": 0,
                "saved": 0,
                "comments": 0
            }
        },
        {
            "kind": "news",
            "domain": "@globaltrustcoin",
            "source": {
                "title": "GTIB Twitter",
                "region": "en",
                "domain": "twitter.com",
                "path": "@globaltrustcoin"
            },
            "title": "RT @business: Where to invest $1 million right now, according to six experts.",
            "published_at": "2022-12-06T22:32:54Z",
            "slug": "RT-business-Where-to-invest-1-million-right-now-according-to-six-experts",
            "currencies": [
                {
                    "code": "GTC",
                    "title": "Global Trust Coin",
                    "slug": null,
                    "url": "https:\/\/cryptopanic.com\/news\/None\/"
                }
            ],
            "id": 17088755,
            "url": "https:\/\/cryptopanic.com\/news\/17088755\/RT-business-Where-to-invest-1-million-right-now-according-to-six-experts",
            "created_at": "2022-12-06T22:32:54Z",
            "votes": {
                "negative": 0,
                "positive": 0,
                "important": 0,
                "liked": 0,
                "disliked": 0,
                "lol": 0,
                "toxic": 0,
                "saved": 0,
                "comments": 0
            }
        },
        {
            "kind": "news",
            "domain": "@globaltrustcoin",
            "source": {
                "title": "GTIB Twitter",
                "region": "en",
                "domain": "twitter.com",
                "path": "@globaltrustcoin"
            },
            "title": "RT @cz_binance: #Binance Acquires JFSA Registered Sakura Exchange BitCoin, Committed to Enter Japan Under Regulatory Compliance",
            "published_at": "2022-11-30T10:43:11Z",
            "slug": "RT-cz_binance-Binance-Acquires-JFSA-Registered-Sakura-Exchange-BitCoin-Committed-to-Enter-Japan-Under-Regulatory-Compliance",
            "currencies": [
                {
                    "code": "GTC",
                    "title": "Global Trust Coin",
                    "slug": null,
                    "url": "https:\/\/cryptopanic.com\/news\/None\/"
                }
            ],
            "id": 17039639,
            "url": "https:\/\/cryptopanic.com\/news\/17039639\/RT-cz_binance-Binance-Acquires-JFSA-Registered-Sakura-Exchange-BitCoin-Committed-to-Enter-Japan-Under-Regulatory-Compliance",
            "created_at": "2022-11-30T10:43:11Z",
            "votes": {
                "negative": 0,
                "positive": 0,
                "important": 0,
                "liked": 0,
                "disliked": 0,
                "lol": 0,
                "toxic": 0,
                "saved": 0,
                "comments": 0
            }
        },
        {
            "kind": "news",
            "domain": "@globaltrustcoin",
            "source": {
                "title": "GTIB Twitter",
                "region": "en",
                "domain": "twitter.com",
                "path": "@globaltrustcoin"
            },
            "title": "RT @ManUtd: Cristiano Ronaldo is to leave Manchester United by mutual agreement, with immediate effect.\n\nThe club thanks him for his immens\u2026",
            "published_at": "2022-11-23T12:46:53Z",
            "slug": "RT-ManUtd-Cristiano-Ronaldo-is-to-leave-Manchester-United-by-mutual-agreement-with-immediate-effect-The-club-thanks-him-for-his-immens",
            "currencies": [
                {
                    "code": "GTC",
                    "title": "Global Trust Coin",
                    "slug": null,
                    "url": "https:\/\/cryptopanic.com\/news\/None\/"
                }
            ],
            "id": 16980351,
            "url": "https:\/\/cryptopanic.com\/news\/16980351\/RT-ManUtd-Cristiano-Ronaldo-is-to-leave-Manchester-United-by-mutual-agreement-with-immediate-effect-The-club-thanks-him-for-his-immens",
            "created_at": "2022-11-23T12:46:53Z",
            "votes": {
                "negative": 0,
                "positive": 0,
                "important": 0,
                "liked": 0,
                "disliked": 0,
                "lol": 0,
                "toxic": 0,
                "saved": 0,
                "comments": 0
            }
        },
        {
            "kind": "news",
            "domain": "@globaltrustcoin",
            "source": {
                "title": "GTIB Twitter",
                "region": "en",
                "domain": "twitter.com",
                "path": "@globaltrustcoin"
            },
            "title": "RT @BTCTN: \"By mid-2023, I\u2019m expecting to see #bitcoin hit $250,000,\" Draper explained at the Web Summit 2022 event this week.",
            "published_at": "2022-11-05T14:23:12Z",
            "slug": "RT-BTCTN-By-mid-2023-Im-expecting-to-see-bitcoin-hit-250000-Draper-explained-at-the-Web-Summit-2022-event-this-week",
            "currencies": [
                {
                    "code": "GTC",
                    "title": "Global Trust Coin",
                    "slug": null,
                    "url": "https:\/\/cryptopanic.com\/news\/None\/"
                }
            ],
            "id": 16813679,
            "url": "https:\/\/cryptopanic.com\/news\/16813679\/RT-BTCTN-By-mid-2023-Im-expecting-to-see-bitcoin-hit-250000-Draper-explained-at-the-Web-Summit-2022-event-this-week",
            "created_at": "2022-11-05T14:23:12Z",
            "votes": {
                "negative": 0,
                "positive": 0,
                "important": 0,
                "liked": 0,
                "disliked": 0,
                "lol": 0,
                "toxic": 0,
                "saved": 0,
                "comments": 0
            }
        },
        {
            "kind": "news",
            "domain": "@CoinGastro",
            "source": {
                "title": "GastroCoin Twitter",
                "region": "en",
                "domain": "twitter.com",
                "path": "@coingastro"
            },
            "title": "Today, the European Parliament, the Council &amp; the Commission celebrate the launch of an annual \u2018EU organic day'. Th\u2026",
            "published_at": "2022-09-23T11:22:21Z",
            "slug": "Today-the-European-Parliament-the-Council-amp-the-Commission-celebrate-the-launch-of-an-annual-EU-organic-day-Th",
            "currencies": [
                {
                    "code": "GTC",
                    "title": "GastroCoin",
                    "slug": null,
                    "url": "https:\/\/cryptopanic.com\/news\/None\/"
                }
            ],
            "id": 16419152,
            "url": "https:\/\/cryptopanic.com\/news\/16419152\/Today-the-European-Parliament-the-Council-amp-the-Commission-celebrate-the-launch-of-an-annual-EU-organic-day-Th",
            "created_at": "2022-09-23T11:22:21Z",
            "votes": {
                "negative": 0,
                "positive": 0,
                "important": 0,
                "liked": 0,
                "disliked": 0,
                "lol": 0,
                "toxic": 0,
                "saved": 0,
                "comments": 0
            }
        },
        {
            "kind": "news",
            "domain": "@globaltrustcoin",
            "source": {
                "title": "GTIB Twitter",
                "region": "en",
                "domain": "twitter.com",
                "path": "@globaltrustcoin"
            },
            "title": "RT @BTCTN: The U.S. Department of the Treasury is seeking public input on \"digital-asset-related illicit finance and national security risk\u2026",
            "published_at": "2022-09-21T11:34:38Z",
            "slug": "RT-BTCTN-The-US-Department-of-the-Treasury-is-seeking-public-input-on-digital-asset-related-illicit-finance-and-national-security-risk",
            "currencies": [
                {
                    "code": "GTC",
                    "title": "Global Trust Coin",
                    "slug": null,
                    "url": "https:\/\/cryptopanic.com\/news\/None\/"
                }
            ],
            "id": 16398897,
            "url": "https:\/\/cryptopanic.com\/news\/16398897\/RT-BTCTN-The-US-Department-of-the-Treasury-is-seeking-public-input-on-digital-asset-related-illicit-finance-and-national-security-risk",
            "created_at": "2022-09-21T11:34:38Z",
            "votes": {
                "negative": 0,
                "positive": 0,
                "important": 0,
                "liked": 0,
                "disliked": 0,
                "lol": 0,
                "toxic": 0,
                "saved": 0,
                "comments": 0
            }
        },
        {
            "kind": "news",
            "domain": "@CoinGastro",
            "source": {
                "title": "GastroCoin Twitter",
                "region": "en",
                "domain": "twitter.com",
                "path": "@coingastro"
            },
            "title": "WARNING! Don't use @XTexchange everyone - 100% scam exchange! \n@Starbucks @Star_Chefs\n@NobuRestaurants\n@TheMoonCarl\u2026",
            "published_at": "2022-09-21T10:28:53Z",
            "slug": "WARNING-Dont-use-XTexchange-everyone-100-scam-exchange-Starbucks-Star_Chefs-NobuRestaurants-TheMoonCarl",
            "currencies": [
                {
                    "code": "GTC",
                    "title": "GastroCoin",
                    "slug": null,
                    "url": "https:\/\/cryptopanic.com\/news\/None\/"
                }
            ],
            "id": 16398987,
            "url": "https:\/\/cryptopanic.com\/news\/16398987\/WARNING-Dont-use-XTexchange-everyone-100-scam-exchange-Starbucks-Star_Chefs-NobuRestaurants-TheMoonCarl",
            "created_at": "2022-09-21T10:28:53Z",
            "votes": {
                "negative": 0,
                "positive": 0,
                "important": 0,
                "liked": 0,
                "disliked": 0,
                "lol": 0,
                "toxic": 0,
                "saved": 0,
                "comments": 0
            }
        }
    ]
}
