{
    "count": 200,
    "next": "https:\/\/cryptopanic.com\/api\/v1\/posts\/?auth_token=01c356e89ffc1b8eba2127c81fc8c66ee0eace75&kind=news&currencies=LUNC&page=2",
    "previous": null,
    "results": [
        {
            "kind": "news",
            "domain": "beincrypto.com",
            "source": {
                "title": "BeInCrypto",
                "region": "en",
                "domain": "beincrypto.com",
                "path": null
            },
            "title": "Class-Action Lawsuit Against Terra and Do Kwon Voluntarily Dismissed",
            "published_at": "2023-10-03T00:32:42Z",
            "slug": "Class-Action-Lawsuit-Against-Terra-and-Do-Kwon-Voluntarily-Dismissed",
            "currencies": [
                {
                    "code": "LUNC",
                    "title": "Terra Luna Classic",
                    "slug": "terra-luna",
                    "url": "https:\/\/cryptopanic.com\/news\/terra-luna\/"
                }
            ],
            "id": 18943389,
            "url": "https:\/\/cryptopanic.com\/news\/18943389\/Class-Action-Lawsuit-Against-Terra-and-Do-Kwon-Voluntarily-Dismissed",
            "created_at": "2023-10-03T00:32:42Z",
            "votes": {
                "negative": 0,
                "positive": 0,
                "important": 0,
                "liked": 0,
                "disliked": 0,
                "lol": 0,
                "toxic": 0,
                "saved": 0,
                "comments": 0
            }
        },
        {
            "kind": "news",
            "domain": "cointelegraph.com",
            "source": {
                "title": "CoinTelegraph",
                "region": "en",
                "domain": "cointelegraph.com",
                "path": null
            },
            "title": "Investors drop class-action lawsuit against Terraform Labs and Do Kwon",
            "published_at": "2023-10-02T21:25:25Z",
            "slug": "Investors-drop-class-action-lawsuit-against-Terraform-Labs-and-Do-Kwon",
            "currencies": [
                {
                    "code": "LUNC",
                    "title": "Terra Luna Classic",
                    "slug": "terra-luna",
                    "url": "https:\/\/cryptopanic.com\/news\/terra-luna\/"
                }
            ],
            "id": 18943170,
            "url": "https:\/\/cryptopanic.com\/news\/18943170\/Investors-drop-class-action-lawsuit-against-Terraform-Labs-and-Do-Kwon",
            "created_at": "2023-10-02T21:25:25Z",
            "votes": {
                "negative": 0,
                "positive": 0,
                "important": 0,
                "liked": 0,
                "disliked": 0,
                "lol": 0,
                "toxic": 0,
                "saved": 0,
                "comments": 0
            }
        },
        {
            "kind": "news",
            "domain": "dailycoin.com",
            "source": {
                "title": "Dailycoin",
                "region": "en",
                "domain": "dailycoin.com",
                "path": null
            },
            "title": "Binance Torches 1B LUNC Amid Key USTC Burn Proposal Approval",
            "published_at": "2023-10-02T16:35:00Z",
            "slug": "Binance-Torches-1B-LUNC-Amid-Key-USTC-Burn-Proposal-Approval",
            "currencies": [
                {
                    "code": "LUNC",
                    "title": "Terra Luna Classic",
                    "slug": "terra-luna",
                    "url": "https:\/\/cryptopanic.com\/news\/terra-luna\/"
                }
            ],
            "id": 18942636,
            "url": "https:\/\/cryptopanic.com\/news\/18942636\/Binance-Torches-1B-LUNC-Amid-Key-USTC-Burn-Proposal-Approval",
            "created_at": "2023-10-02T16:35:00Z",
            "votes": {
                "negative": 0,
                "positive": 0,
                "important": 0,
                "liked": 0,
                "disliked": 0,
                "lol": 0,
                "toxic": 0,
                "saved": 0,
                "comments": 0
            }
        },
        {
            "kind": "news",
            "domain": "coinedition.com",
            "source": {
                "title": "coinedition",
                "region": "en",
                "domain": "coinedition.com",
                "path": null
            },
            "title": "Hexagon Remains Committed to LUNC Despite Proposal Setback",
            "published_at": "2023-10-02T13:22:00Z",
            "slug": "Hexagon-Remains-Committed-to-LUNC-Despite-Proposal-Setback",
            "currencies": [
                {
                    "code": "LUNC",
                    "title": "Terra Luna Classic",
                    "slug": "terra-luna",
                    "url": "https:\/\/cryptopanic.com\/news\/terra-luna\/"
                }
            ],
            "id": 18942102,
            "url": "https:\/\/cryptopanic.com\/news\/18942102\/Hexagon-Remains-Committed-to-LUNC-Despite-Proposal-Setback",
            "created_at": "2023-10-02T13:22:00Z",
            "votes": {
                "negative": 0,
                "positive": 0,
                "important": 0,
                "liked": 0,
                "disliked": 0,
                "lol": 0,
                "toxic": 0,
                "saved": 0,
                "comments": 0
            }
        },
        {
            "kind": "news",
            "domain": "coinedition.com",
            "source": {
                "title": "coinedition",
                "region": "en",
                "domain": "coinedition.com",
                "path": null
            },
            "title": "LUNC Community Rejects Proposal to Pay Terra Rebels $15K Monthly",
            "published_at": "2023-10-01T08:51:00Z",
            "slug": "LUNC-Community-Rejects-Proposal-to-Pay-Terra-Rebels-15K-Monthly",
            "currencies": [
                {
                    "code": "LUNC",
                    "title": "Terra Luna Classic",
                    "slug": "terra-luna",
                    "url": "https:\/\/cryptopanic.com\/news\/terra-luna\/"
                }
            ],
            "id": 18939980,
            "url": "https:\/\/cryptopanic.com\/news\/18939980\/LUNC-Community-Rejects-Proposal-to-Pay-Terra-Rebels-15K-Monthly",
            "created_at": "2023-10-01T08:51:00Z",
            "votes": {
                "negative": 0,
                "positive": 0,
                "important": 0,
                "liked": 0,
                "disliked": 0,
                "lol": 0,
                "toxic": 0,
                "saved": 0,
                "comments": 0
            }
        },
        {
            "kind": "news",
            "domain": "bitcoinist.com",
            "votes": {
                "negative": 1,
                "positive": 0,
                "important": 1,
                "liked": 0,
                "disliked": 1,
                "lol": 0,
                "toxic": 0,
                "saved": 0,
                "comments": 0
            },
            "source": {
                "title": "Bitcoinist",
                "region": "en",
                "domain": "bitcoinist.com",
                "path": null
            },
            "title": "SEC Drops Bombshell: Terra Founder Do Kwon Chat History Leaked",
            "published_at": "2023-09-30T19:00:43Z",
            "slug": "SEC-Drops-Bombshell-Terra-Founder-Do-Kwon-Chat-History-Leaked",
            "currencies": [
                {
                    "code": "LUNC",
                    "title": "Terra Luna Classic",
                    "slug": "terra-luna",
                    "url": "https:\/\/cryptopanic.com\/news\/terra-luna\/"
                }
            ],
            "id": 18939524,
            "url": "https:\/\/cryptopanic.com\/news\/18939524\/SEC-Drops-Bombshell-Terra-Founder-Do-Kwon-Chat-History-Leaked",
            "created_at": "2023-09-30T19:00:43Z"
        },
        {
            "kind": "news",
            "domain": "beincrypto.com",
            "source": {
                "title": "BeInCrypto",
                "region": "en",
                "domain": "beincrypto.com",
                "path": null
            },
            "title": "Terra Classic Rally Continues. Could Inqubeta See 1000% Growth on Dex Launch?",
            "published_at": "2023-09-30T09:00:00Z",
            "slug": "Terra-Classic-Rally-Continues-Could-Inqubeta-See-1000-Growth-on-Dex-Launch",
            "currencies": [
                {
                    "code": "FLOW",
                    "title": "Flow",
                    "slug": "flow",
                    "url": "https:\/\/cryptopanic.com\/news\/flow\/"
                },
                {
                    "code": "LUNC",
                    "title": "Terra Luna Classic",
                    "slug": "terra-luna",
                    "url": "https:\/\/cryptopanic.com\/news\/terra-luna\/"
                }
            ],
            "id": 18938915,
            "url": "https:\/\/cryptopanic.com\/news\/18938915\/Terra-Classic-Rally-Continues-Could-Inqubeta-See-1000-Growth-on-Dex-Launch",
            "created_at": "2023-09-30T09:00:00Z",
            "votes": {
                "negative": 0,
                "positive": 0,
                "important": 0,
                "liked": 0,
                "disliked": 0,
                "lol": 0,
                "toxic": 0,
                "saved": 0,
                "comments": 0
            }
        },
        {
            "kind": "news",
            "domain": "coinedition.com",
            "source": {
                "title": "coinedition",
                "region": "en",
                "domain": "coinedition.com",
                "path": null
            },
            "title": "LUNC Bulls Record a 4-Week High: Will the Rally Continue?",
            "published_at": "2023-09-28T21:41:00Z",
            "slug": "LUNC-Bulls-Record-a-4-Week-High-Will-the-Rally-Continue",
            "currencies": [
                {
                    "code": "LUNC",
                    "title": "Terra Luna Classic",
                    "slug": "terra-luna",
                    "url": "https:\/\/cryptopanic.com\/news\/terra-luna\/"
                }
            ],
            "id": 18935859,
            "url": "https:\/\/cryptopanic.com\/news\/18935859\/LUNC-Bulls-Record-a-4-Week-High-Will-the-Rally-Continue",
            "created_at": "2023-09-28T21:41:00Z",
            "votes": {
                "negative": 0,
                "positive": 0,
                "important": 0,
                "liked": 0,
                "disliked": 0,
                "lol": 0,
                "toxic": 0,
                "saved": 0,
                "comments": 0
            }
        },
        {
            "kind": "news",
            "domain": "cryptopotato.com",
            "source": {
                "title": "Feed - Cryptopotato.Com",
                "region": "en",
                "domain": "cryptopotato.com",
                "path": null
            },
            "title": "Terraform Labs Founder Do Kwon Seeks Dismissal of SEC\u2019s Interrogation Request",
            "published_at": "2023-09-28T13:55:49Z",
            "slug": "Terraform-Labs-Founder-Do-Kwon-Seeks-Dismissal-of-SECs-Interrogation-Request",
            "currencies": [
                {
                    "code": "LUNC",
                    "title": "Terra Luna Classic",
                    "slug": "terra-luna",
                    "url": "https:\/\/cryptopanic.com\/news\/terra-luna\/"
                }
            ],
            "id": 18934749,
            "url": "https:\/\/cryptopanic.com\/news\/18934749\/Terraform-Labs-Founder-Do-Kwon-Seeks-Dismissal-of-SECs-Interrogation-Request",
            "created_at": "2023-09-28T13:55:49Z",
            "votes": {
                "negative": 0,
                "positive": 0,
                "important": 0,
                "liked": 0,
                "disliked": 0,
                "lol": 0,
                "toxic": 0,
                "saved": 0,
                "comments": 0
            }
        },
        {
            "kind": "news",
            "domain": "bitcoinist.com",
            "source": {
                "title": "Bitcoinist",
                "region": "en",
                "domain": "bitcoinist.com",
                "path": null
            },
            "title": "Do Kwon Kicks Against SEC\u2019s Extradition Request \u2013 Details",
            "published_at": "2023-09-28T09:00:26Z",
            "slug": "Do-Kwon-Kicks-Against-SECs-Extradition-Request-Details",
            "currencies": [
                {
                    "code": "LUNC",
                    "title": "Terra Luna Classic",
                    "slug": "terra-luna",
                    "url": "https:\/\/cryptopanic.com\/news\/terra-luna\/"
                }
            ],
            "id": 18933943,
            "url": "https:\/\/cryptopanic.com\/news\/18933943\/Do-Kwon-Kicks-Against-SECs-Extradition-Request-Details",
            "created_at": "2023-09-28T09:00:26Z",
            "votes": {
                "negative": 0,
                "positive": 0,
                "important": 0,
                "liked": 0,
                "disliked": 0,
                "lol": 0,
                "toxic": 0,
                "saved": 0,
                "comments": 0
            }
        },
        {
            "kind": "news",
            "domain": "coingape.com",
            "source": {
                "title": "CoinGape",
                "region": "en",
                "domain": "coingape.com",
                "path": null
            },
            "title": "Will LUNC Price Surpass $0.00007? Bullish Pattern Signals a Green Light",
            "published_at": "2023-09-27T11:53:37Z",
            "slug": "Will-LUNC-Price-Surpass-000007-Bullish-Pattern-Signals-a-Green-Light",
            "currencies": [
                {
                    "code": "LUNC",
                    "title": "Terra Luna Classic",
                    "slug": "terra-luna",
                    "url": "https:\/\/cryptopanic.com\/news\/terra-luna\/"
                }
            ],
            "id": 18931677,
            "url": "https:\/\/cryptopanic.com\/news\/18931677\/Will-LUNC-Price-Surpass-000007-Bullish-Pattern-Signals-a-Green-Light",
            "created_at": "2023-09-27T11:53:37Z",
            "votes": {
                "negative": 0,
                "positive": 0,
                "important": 0,
                "liked": 0,
                "disliked": 0,
                "lol": 0,
                "toxic": 0,
                "saved": 0,
                "comments": 0
            }
        },
        {
            "kind": "news",
            "domain": "bitcoinist.com",
            "votes": {
                "negative": 0,
                "positive": 0,
                "important": 0,
                "liked": 0,
                "disliked": 0,
                "lol": 0,
                "toxic": 0,
                "saved": 0,
                "comments": 1
            },
            "source": {
                "title": "Bitcoinist",
                "region": "en",
                "domain": "bitcoinist.com",
                "path": null
            },
            "title": "Resurrecting The Dead: Can This Terra Classic Proposal Send USTC To $1?",
            "published_at": "2023-09-26T23:00:16Z",
            "slug": "Resurrecting-The-Dead-Can-This-Terra-Classic-Proposal-Send-USTC-To-1",
            "currencies": [
                {
                    "code": "LUNC",
                    "title": "Terra Luna Classic",
                    "slug": "terra-luna",
                    "url": "https:\/\/cryptopanic.com\/news\/terra-luna\/"
                }
            ],
            "id": 18930467,
            "url": "https:\/\/cryptopanic.com\/news\/18930467\/Resurrecting-The-Dead-Can-This-Terra-Classic-Proposal-Send-USTC-To-1",
            "created_at": "2023-09-26T23:00:16Z"
        },
        {
            "kind": "news",
            "domain": "dailycoin.com",
            "source": {
                "title": "Dailycoin",
                "region": "en",
                "domain": "dailycoin.com",
                "path": null
            },
            "title": "Terra Classic Resets LUNC Commission Fee in Expedition Offer",
            "published_at": "2023-09-26T17:05:00Z",
            "slug": "Terra-Classic-Resets-LUNC-Commission-Fee-in-Expedition-Offer",
            "currencies": [
                {
                    "code": "LUNC",
                    "title": "Terra Luna Classic",
                    "slug": "terra-luna",
                    "url": "https:\/\/cryptopanic.com\/news\/terra-luna\/"
                }
            ],
            "id": 18929859,
            "url": "https:\/\/cryptopanic.com\/news\/18929859\/Terra-Classic-Resets-LUNC-Commission-Fee-in-Expedition-Offer",
            "created_at": "2023-09-26T17:05:00Z",
            "votes": {
                "negative": 0,
                "positive": 0,
                "important": 0,
                "liked": 0,
                "disliked": 0,
                "lol": 0,
                "toxic": 0,
                "saved": 0,
                "comments": 0
            }
        },
        {
            "kind": "news",
            "domain": "coingape.com",
            "source": {
                "title": "CoinGape",
                "region": "en",
                "domain": "coingape.com",
                "path": null
            },
            "title": "Terra Luna Classic Community Votes To Reset Validator Commission; LUNC To Rally?",
            "published_at": "2023-09-26T07:32:25Z",
            "slug": "Terra-Luna-Classic-Community-Votes-To-Reset-Validator-Commission-LUNC-To-Rally",
            "currencies": [
                {
                    "code": "LUNC",
                    "title": "Terra Luna Classic",
                    "slug": "terra-luna",
                    "url": "https:\/\/cryptopanic.com\/news\/terra-luna\/"
                }
            ],
            "id": 18928292,
            "url": "https:\/\/cryptopanic.com\/news\/18928292\/Terra-Luna-Classic-Community-Votes-To-Reset-Validator-Commission-LUNC-To-Rally",
            "created_at": "2023-09-26T07:32:25Z",
            "votes": {
                "negative": 0,
                "positive": 0,
                "important": 0,
                "liked": 0,
                "disliked": 0,
                "lol": 0,
                "toxic": 0,
                "saved": 0,
                "comments": 0
            }
        },
        {
            "kind": "news",
            "domain": "coingape.com",
            "source": {
                "title": "CoinGape",
                "region": "en",
                "domain": "coingape.com",
                "path": null
            },
            "title": "Terra Classic Price Prediction As Renewed Recovery Targets $0.00007",
            "published_at": "2023-09-25T21:10:57Z",
            "slug": "Terra-Classic-Price-Prediction-As-Renewed-Recovery-Targets-000007",
            "currencies": [
                {
                    "code": "BTC",
                    "title": "Bitcoin",
                    "slug": "bitcoin",
                    "url": "https:\/\/cryptopanic.com\/news\/bitcoin\/"
                },
                {
                    "code": "LUNC",
                    "title": "Terra Luna Classic",
                    "slug": "terra-luna",
                    "url": "https:\/\/cryptopanic.com\/news\/terra-luna\/"
                }
            ],
            "id": 18927628,
            "url": "https:\/\/cryptopanic.com\/news\/18927628\/Terra-Classic-Price-Prediction-As-Renewed-Recovery-Targets-000007",
            "created_at": "2023-09-25T21:10:57Z",
            "votes": {
                "negative": 0,
                "positive": 0,
                "important": 0,
                "liked": 0,
                "disliked": 0,
                "lol": 0,
                "toxic": 0,
                "saved": 0,
                "comments": 0
            }
        },
        {
            "kind": "news",
            "domain": "coinedition.com",
            "source": {
                "title": "coinedition",
                "region": "en",
                "domain": "coinedition.com",
                "path": null
            },
            "title": "Terra Classic Ceases USTC Minting as SEC Investigates Former CEO Do Kwon",
            "published_at": "2023-09-25T11:59:29Z",
            "slug": "Terra-Classic-Ceases-USTC-Minting-as-SEC-Investigates-Former-CEO-Do-Kwon",
            "currencies": [
                {
                    "code": "LUNC",
                    "title": "Terra Luna Classic",
                    "slug": "terra-luna",
                    "url": "https:\/\/cryptopanic.com\/news\/terra-luna\/"
                }
            ],
            "id": 18926292,
            "url": "https:\/\/cryptopanic.com\/news\/18926292\/Terra-Classic-Ceases-USTC-Minting-as-SEC-Investigates-Former-CEO-Do-Kwon",
            "created_at": "2023-09-25T11:59:29Z",
            "votes": {
                "negative": 0,
                "positive": 0,
                "important": 0,
                "liked": 0,
                "disliked": 0,
                "lol": 0,
                "toxic": 0,
                "saved": 0,
                "comments": 0
            }
        },
        {
            "kind": "news",
            "domain": "newsbtc.com",
            "votes": {
                "negative": 0,
                "positive": 0,
                "important": 0,
                "liked": 0,
                "disliked": 0,
                "lol": 0,
                "toxic": 0,
                "saved": 0,
                "comments": 1
            },
            "source": {
                "title": "NewsBTC",
                "region": "en",
                "domain": "newsbtc.com",
                "path": null
            },
            "title": "Is Terra Classic Planning For USTC To Be Pegged To The Dollar Again?",
            "published_at": "2023-09-25T08:30:50Z",
            "slug": "Is-Terra-Classic-Planning-For-USTC-To-Be-Pegged-To-The-Dollar-Again",
            "currencies": [
                {
                    "code": "XRP",
                    "title": "XRP",
                    "slug": "ripple",
                    "url": "https:\/\/cryptopanic.com\/news\/ripple\/"
                },
                {
                    "code": "IMX",
                    "title": "ImmutableX",
                    "slug": "immutable-x",
                    "url": "https:\/\/cryptopanic.com\/news\/immutable-x\/"
                },
                {
                    "code": "FLOW",
                    "title": "Flow",
                    "slug": "flow",
                    "url": "https:\/\/cryptopanic.com\/news\/flow\/"
                },
                {
                    "code": "LUNC",
                    "title": "Terra Luna Classic",
                    "slug": "terra-luna",
                    "url": "https:\/\/cryptopanic.com\/news\/terra-luna\/"
                }
            ],
            "id": 18925798,
            "url": "https:\/\/cryptopanic.com\/news\/18925798\/Is-Terra-Classic-Planning-For-USTC-To-Be-Pegged-To-The-Dollar-Again",
            "created_at": "2023-09-25T08:30:50Z"
        },
        {
            "kind": "news",
            "domain": "beincrypto.com",
            "source": {
                "title": "BeInCrypto",
                "region": "en",
                "domain": "beincrypto.com",
                "path": null
            },
            "title": "Terra Classic Community Votes to Halt USTC Minting as SEC Moves to Depose Do Kwon",
            "published_at": "2023-09-24T18:50:00Z",
            "slug": "Terra-Classic-Community-Votes-to-Halt-USTC-Minting-as-SEC-Moves-to-Depose-Do-Kwon",
            "currencies": [
                {
                    "code": "QNT",
                    "title": "Quant",
                    "slug": "quant-network",
                    "url": "https:\/\/cryptopanic.com\/news\/quant-network\/"
                },
                {
                    "code": "LUNC",
                    "title": "Terra Luna Classic",
                    "slug": "terra-luna",
                    "url": "https:\/\/cryptopanic.com\/news\/terra-luna\/"
                }
            ],
            "id": 18925061,
            "url": "https:\/\/cryptopanic.com\/news\/18925061\/Terra-Classic-Community-Votes-to-Halt-USTC-Minting-as-SEC-Moves-to-Depose-Do-Kwon",
            "created_at": "2023-09-24T18:50:00Z",
            "votes": {
                "negative": 0,
                "positive": 0,
                "important": 0,
                "liked": 0,
                "disliked": 0,
                "lol": 0,
                "toxic": 0,
                "saved": 0,
                "comments": 0
            }
        },
        {
            "kind": "news",
            "domain": "coingape.com",
            "source": {
                "title": "CoinGape",
                "region": "en",
                "domain": "coingape.com",
                "path": null
            },
            "title": "Terra Classic Price Prediction: What\u2019s Ahead For $LUNC After Reclaiming $0.00006 Mark?",
            "published_at": "2023-09-24T14:01:54Z",
            "slug": "Terra-Classic-Price-Prediction-Whats-Ahead-For-LUNC-After-Reclaiming-000006-Mark",
            "currencies": [
                {
                    "code": "LUNC",
                    "title": "Terra Luna Classic",
                    "slug": "terra-luna",
                    "url": "https:\/\/cryptopanic.com\/news\/terra-luna\/"
                }
            ],
            "id": 18924763,
            "url": "https:\/\/cryptopanic.com\/news\/18924763\/Terra-Classic-Price-Prediction-Whats-Ahead-For-LUNC-After-Reclaiming-000006-Mark",
            "created_at": "2023-09-24T14:01:54Z",
            "votes": {
                "negative": 0,
                "positive": 0,
                "important": 0,
                "liked": 0,
                "disliked": 0,
                "lol": 0,
                "toxic": 0,
                "saved": 0,
                "comments": 0
            }
        },
        {
            "kind": "news",
            "domain": "coingape.com",
            "source": {
                "title": "CoinGape",
                "region": "en",
                "domain": "coingape.com",
                "path": null
            },
            "title": "Terra LUNA Classic Community Passes Proposal to Halt USTC Minting",
            "published_at": "2023-09-24T13:53:13Z",
            "slug": "Terra-LUNA-Classic-Community-Passes-Proposal-to-Halt-USTC-Minting",
            "currencies": [
                {
                    "code": "LUNC",
                    "title": "Terra Luna Classic",
                    "slug": "terra-luna",
                    "url": "https:\/\/cryptopanic.com\/news\/terra-luna\/"
                }
            ],
            "id": 18924736,
            "url": "https:\/\/cryptopanic.com\/news\/18924736\/Terra-LUNA-Classic-Community-Passes-Proposal-to-Halt-USTC-Minting",
            "created_at": "2023-09-24T13:53:13Z",
            "votes": {
                "negative": 0,
                "positive": 0,
                "important": 0,
                "liked": 0,
                "disliked": 0,
                "lol": 0,
                "toxic": 0,
                "saved": 0,
                "comments": 0
            }
        }
    ]
}
