{
    "count": 200,
    "next": "https:\/\/cryptopanic.com\/api\/v1\/posts\/?auth_token=01c356e89ffc1b8eba2127c81fc8c66ee0eace75&kind=news&currencies=BURGER&page=2",
    "previous": null,
    "results": [
        {
            "kind": "news",
            "domain": "@burger_cities",
            "source": {
                "title": "Burger Swap Twitter",
                "region": "en",
                "domain": "twitter.com",
                "path": "@burger_cities"
            },
            "title": "RT @holdwealth: \"$HOLD is coming soon.\" \n\nInitial MC = $59,389\nInitial LP = 10ETH \nLaunch Time: May 26th at 16:00 UTC\n\n#HOLD #Holder htt\u2026",
            "published_at": "2023-05-25T15:51:07Z",
            "slug": "RT-holdwealth-HOLD-is-coming-soon-Initial-MC-59389-Initial-LP-10ETH-Launch-Time-May-26th-at-1600-UTC-HOLD-Holder-htt",
            "currencies": [
                {
                    "code": "BURGER",
                    "title": "BurgerCities",
                    "slug": "burger-swap",
                    "url": "https:\/\/cryptopanic.com\/news\/burger-swap\/"
                }
            ],
            "id": 18431618,
            "url": "https:\/\/cryptopanic.com\/news\/18431618\/RT-holdwealth-HOLD-is-coming-soon-Initial-MC-59389-Initial-LP-10ETH-Launch-Time-May-26th-at-1600-UTC-HOLD-Holder-htt",
            "created_at": "2023-05-25T15:51:07Z",
            "votes": {
                "negative": 0,
                "positive": 0,
                "important": 0,
                "liked": 0,
                "disliked": 0,
                "lol": 0,
                "toxic": 0,
                "saved": 0,
                "comments": 0
            }
        },
        {
            "kind": "news",
            "domain": "@burger_cities",
            "source": {
                "title": "Burger Swap Twitter",
                "region": "en",
                "domain": "twitter.com",
                "path": "@burger_cities"
            },
            "title": "RT @papa_woody21: \"$Squidward Launching today. \n\nAlways DYOR \n\n Tax- 0% Liquidity burnt\n\n LAUNCH: Today at 16:00 UTC in ETH\n\n#ETH #altcoi\u2026",
            "published_at": "2023-05-21T17:41:37Z",
            "slug": "RT-papa_woody21-Squidward-Launching-today-Always-DYOR-Tax-0-Liquidity-burnt-LAUNCH-Today-at-1600-UTC-in-ETH-ETH-altcoi",
            "currencies": [
                {
                    "code": "BURGER",
                    "title": "BurgerCities",
                    "slug": "burger-swap",
                    "url": "https:\/\/cryptopanic.com\/news\/burger-swap\/"
                }
            ],
            "id": 18396572,
            "url": "https:\/\/cryptopanic.com\/news\/18396572\/RT-papa_woody21-Squidward-Launching-today-Always-DYOR-Tax-0-Liquidity-burnt-LAUNCH-Today-at-1600-UTC-in-ETH-ETH-altcoi",
            "created_at": "2023-05-21T17:41:37Z",
            "votes": {
                "negative": 0,
                "positive": 0,
                "important": 0,
                "liked": 0,
                "disliked": 0,
                "lol": 0,
                "toxic": 0,
                "saved": 0,
                "comments": 0
            }
        },
        {
            "kind": "news",
            "domain": "@burger_cities",
            "source": {
                "title": "Burger Swap Twitter",
                "region": "en",
                "domain": "twitter.com",
                "path": "@burger_cities"
            },
            "title": "RT @KekyaETH: \ud83e\udd77\ud83e\udd77Presale success! We have defeated that guy. It's a perfect chapter. All warriors, are you ready to experience more legend\u2026",
            "published_at": "2023-05-18T17:56:40Z",
            "slug": "RT-KekyaETH-Presale-success-We-have-defeated-that-guy-Its-a-perfect-chapter-All-warriors-are-you-ready-to-experience-more-legend",
            "currencies": [
                {
                    "code": "BURGER",
                    "title": "BurgerCities",
                    "slug": "burger-swap",
                    "url": "https:\/\/cryptopanic.com\/news\/burger-swap\/"
                }
            ],
            "id": 18375977,
            "url": "https:\/\/cryptopanic.com\/news\/18375977\/RT-KekyaETH-Presale-success-We-have-defeated-that-guy-Its-a-perfect-chapter-All-warriors-are-you-ready-to-experience-more-legend",
            "created_at": "2023-05-18T17:56:40Z",
            "votes": {
                "negative": 0,
                "positive": 0,
                "important": 0,
                "liked": 0,
                "disliked": 0,
                "lol": 0,
                "toxic": 0,
                "saved": 0,
                "comments": 0
            }
        },
        {
            "kind": "news",
            "domain": "@burger_cities",
            "source": {
                "title": "Burger Swap Twitter",
                "region": "en",
                "domain": "twitter.com",
                "path": "@burger_cities"
            },
            "title": "RT @FomoEthOfficial:  5 early buy\u00a0wl GIVEAWAY  \n\"$FOMO is meme coin\uff0c$FOMO will FOMO\" \nFOMO is a culture, an atmosphere\nNew trend was open\u2026",
            "published_at": "2023-05-12T05:58:03Z",
            "slug": "RT-FomoEthOfficial-5-early-buy-wl-GIVEAWAY-FOMO-is-meme-coinFOMO-will-FOMO-FOMO-is-a-culture-an-atmosphere-New-trend-was-open",
            "currencies": [
                {
                    "code": "BURGER",
                    "title": "BurgerCities",
                    "slug": "burger-swap",
                    "url": "https:\/\/cryptopanic.com\/news\/burger-swap\/"
                }
            ],
            "id": 18320339,
            "url": "https:\/\/cryptopanic.com\/news\/18320339\/RT-FomoEthOfficial-5-early-buy-wl-GIVEAWAY-FOMO-is-meme-coinFOMO-will-FOMO-FOMO-is-a-culture-an-atmosphere-New-trend-was-open",
            "created_at": "2023-05-12T05:58:03Z",
            "votes": {
                "negative": 0,
                "positive": 0,
                "important": 0,
                "liked": 0,
                "disliked": 0,
                "lol": 0,
                "toxic": 0,
                "saved": 0,
                "comments": 0
            }
        },
        {
            "kind": "news",
            "domain": "@burger_cities",
            "source": {
                "title": "Burger Swap Twitter",
                "region": "en",
                "domain": "twitter.com",
                "path": "@burger_cities"
            },
            "title": "RT @binance: Arriving in true #Binance fashion, literally.\n\n @fey__60",
            "published_at": "2023-05-06T17:13:26Z",
            "slug": "RT-binance-Arriving-in-true-Binance-fashion-literally-fey__60",
            "currencies": [
                {
                    "code": "BURGER",
                    "title": "BurgerCities",
                    "slug": "burger-swap",
                    "url": "https:\/\/cryptopanic.com\/news\/burger-swap\/"
                }
            ],
            "id": 18281817,
            "url": "https:\/\/cryptopanic.com\/news\/18281817\/RT-binance-Arriving-in-true-Binance-fashion-literally-fey__60",
            "created_at": "2023-05-06T17:13:26Z",
            "votes": {
                "negative": 0,
                "positive": 0,
                "important": 0,
                "liked": 0,
                "disliked": 0,
                "lol": 0,
                "toxic": 0,
                "saved": 0,
                "comments": 0
            }
        },
        {
            "kind": "news",
            "domain": "@burger_cities",
            "source": {
                "title": "Burger Swap Twitter",
                "region": "en",
                "domain": "twitter.com",
                "path": "@burger_cities"
            },
            "title": "RT @0xApepe: $0xApepe Airdrop Alert! \n\nMissed $PEPE,\nMissed $AIDOGE\nMissed $REKT \nWe will distribute 10% of the total tokens to Twitter\u2026",
            "published_at": "2023-05-06T15:10:47Z",
            "slug": "RT-0xApepe-0xApepe-Airdrop-Alert-Missed-PEPE-Missed-AIDOGE-Missed-REKT-We-will-distribute-10-of-the-total-tokens-to-Twitter",
            "currencies": [
                {
                    "code": "BURGER",
                    "title": "BurgerCities",
                    "slug": "burger-swap",
                    "url": "https:\/\/cryptopanic.com\/news\/burger-swap\/"
                }
            ],
            "id": 18281818,
            "url": "https:\/\/cryptopanic.com\/news\/18281818\/RT-0xApepe-0xApepe-Airdrop-Alert-Missed-PEPE-Missed-AIDOGE-Missed-REKT-We-will-distribute-10-of-the-total-tokens-to-Twitter",
            "created_at": "2023-05-06T15:10:47Z",
            "votes": {
                "negative": 0,
                "positive": 0,
                "important": 0,
                "liked": 0,
                "disliked": 0,
                "lol": 0,
                "toxic": 0,
                "saved": 0,
                "comments": 0
            }
        },
        {
            "kind": "news",
            "domain": "@burger_cities",
            "source": {
                "title": "Burger Swap Twitter",
                "region": "en",
                "domain": "twitter.com",
                "path": "@burger_cities"
            },
            "title": "RT @Patrick_erc: #SPGBB already push $Pat is catching up?\nWe are still a low Macp and no Cex yet\n#memecoin #Patrick #SPGBB #ETH",
            "published_at": "2023-05-03T07:40:39Z",
            "slug": "RT-Patrick_erc-SPGBB-already-push-Pat-is-catching-up-We-are-still-a-low-Macp-and-no-Cex-yet-memecoin-Patrick-SPGBB-ETH",
            "currencies": [
                {
                    "code": "BURGER",
                    "title": "BurgerCities",
                    "slug": "burger-swap",
                    "url": "https:\/\/cryptopanic.com\/news\/burger-swap\/"
                }
            ],
            "id": 18257077,
            "url": "https:\/\/cryptopanic.com\/news\/18257077\/RT-Patrick_erc-SPGBB-already-push-Pat-is-catching-up-We-are-still-a-low-Macp-and-no-Cex-yet-memecoin-Patrick-SPGBB-ETH",
            "created_at": "2023-05-03T07:40:39Z",
            "votes": {
                "negative": 0,
                "positive": 0,
                "important": 0,
                "liked": 0,
                "disliked": 0,
                "lol": 0,
                "toxic": 0,
                "saved": 0,
                "comments": 0
            }
        },
        {
            "kind": "news",
            "domain": "@burger_cities",
            "source": {
                "title": "Burger Swap Twitter",
                "region": "en",
                "domain": "twitter.com",
                "path": "@burger_cities"
            },
            "title": "#BURGER already in Gainers",
            "published_at": "2023-05-02T18:19:57Z",
            "slug": "BURGER-already-in-Gainers",
            "currencies": [
                {
                    "code": "BURGER",
                    "title": "BurgerCities",
                    "slug": "burger-swap",
                    "url": "https:\/\/cryptopanic.com\/news\/burger-swap\/"
                }
            ],
            "id": 18247979,
            "url": "https:\/\/cryptopanic.com\/news\/18247979\/BURGER-already-in-Gainers",
            "created_at": "2023-05-02T18:19:57Z",
            "votes": {
                "negative": 0,
                "positive": 0,
                "important": 0,
                "liked": 0,
                "disliked": 0,
                "lol": 0,
                "toxic": 0,
                "saved": 0,
                "comments": 0
            }
        },
        {
            "kind": "news",
            "domain": "@burger_cities",
            "source": {
                "title": "Burger Swap Twitter",
                "region": "en",
                "domain": "twitter.com",
                "path": "@burger_cities"
            },
            "title": "RT @Patrick_erc: Ohh, huge pump, actually I just wanted to say don't be surprised, give me a moment, this will just look like a straight li\u2026",
            "published_at": "2023-05-02T17:01:47Z",
            "slug": "RT-Patrick_erc-Ohh-huge-pump-actually-I-just-wanted-to-say-dont-be-surprised-give-me-a-moment-this-will-just-look-like-a-straight-li",
            "currencies": [
                {
                    "code": "BURGER",
                    "title": "BurgerCities",
                    "slug": "burger-swap",
                    "url": "https:\/\/cryptopanic.com\/news\/burger-swap\/"
                }
            ],
            "id": 18247980,
            "url": "https:\/\/cryptopanic.com\/news\/18247980\/RT-Patrick_erc-Ohh-huge-pump-actually-I-just-wanted-to-say-dont-be-surprised-give-me-a-moment-this-will-just-look-like-a-straight-li",
            "created_at": "2023-05-02T17:01:47Z",
            "votes": {
                "negative": 0,
                "positive": 0,
                "important": 0,
                "liked": 0,
                "disliked": 0,
                "lol": 0,
                "toxic": 0,
                "saved": 0,
                "comments": 0
            }
        },
        {
            "kind": "news",
            "domain": "@burger_cities",
            "source": {
                "title": "Burger Swap Twitter",
                "region": "en",
                "domain": "twitter.com",
                "path": "@burger_cities"
            },
            "title": "RT @Patrick_erc: \"We are excited to announce that our official launch will take place on May 2st at 16:00 UTC. As we launch, we will be off\u2026",
            "published_at": "2023-05-02T16:47:29Z",
            "slug": "RT-Patrick_erc-We-are-excited-to-announce-that-our-official-launch-will-take-place-on-May-2st-at-1600-UTC-As-we-launch-we-will-be-off",
            "currencies": [
                {
                    "code": "BURGER",
                    "title": "BurgerCities",
                    "slug": "burger-swap",
                    "url": "https:\/\/cryptopanic.com\/news\/burger-swap\/"
                }
            ],
            "id": 18247981,
            "url": "https:\/\/cryptopanic.com\/news\/18247981\/RT-Patrick_erc-We-are-excited-to-announce-that-our-official-launch-will-take-place-on-May-2st-at-1600-UTC-As-we-launch-we-will-be-off",
            "created_at": "2023-05-02T16:47:29Z",
            "votes": {
                "negative": 0,
                "positive": 0,
                "important": 0,
                "liked": 0,
                "disliked": 0,
                "lol": 0,
                "toxic": 0,
                "saved": 0,
                "comments": 0
            }
        },
        {
            "kind": "news",
            "domain": "@burger_cities",
            "source": {
                "title": "Burger Swap Twitter",
                "region": "en",
                "domain": "twitter.com",
                "path": "@burger_cities"
            },
            "title": "RT @binance: #Bitcoin mining difficulty is currently at an all-time-high of 48.71 trillion. \n\nMining difficulty fluctuates to maintain a ti\u2026",
            "published_at": "2023-04-29T23:58:32Z",
            "slug": "RT-binance-Bitcoin-mining-difficulty-is-currently-at-an-all-time-high-of-4871-trillion-Mining-difficulty-fluctuates-to-maintain-a-ti",
            "currencies": [
                {
                    "code": "BURGER",
                    "title": "BurgerCities",
                    "slug": "burger-swap",
                    "url": "https:\/\/cryptopanic.com\/news\/burger-swap\/"
                }
            ],
            "id": 18229049,
            "url": "https:\/\/cryptopanic.com\/news\/18229049\/RT-binance-Bitcoin-mining-difficulty-is-currently-at-an-all-time-high-of-4871-trillion-Mining-difficulty-fluctuates-to-maintain-a-ti",
            "created_at": "2023-04-29T23:58:32Z",
            "votes": {
                "negative": 0,
                "positive": 0,
                "important": 0,
                "liked": 0,
                "disliked": 0,
                "lol": 0,
                "toxic": 0,
                "saved": 0,
                "comments": 0
            }
        },
        {
            "kind": "news",
            "domain": "@burger_cities",
            "source": {
                "title": "Burger Swap Twitter",
                "region": "en",
                "domain": "twitter.com",
                "path": "@burger_cities"
            },
            "title": "RT @spgbb_eth: Already listed CMC @CoinMarketCap \n#Spgbb",
            "published_at": "2023-04-24T16:50:26Z",
            "slug": "RT-spgbb_eth-Already-listed-CMC-CoinMarketCap-Spgbb",
            "currencies": [
                {
                    "code": "BURGER",
                    "title": "BurgerCities",
                    "slug": "burger-swap",
                    "url": "https:\/\/cryptopanic.com\/news\/burger-swap\/"
                }
            ],
            "id": 18185990,
            "url": "https:\/\/cryptopanic.com\/news\/18185990\/RT-spgbb_eth-Already-listed-CMC-CoinMarketCap-Spgbb",
            "created_at": "2023-04-24T16:50:26Z",
            "votes": {
                "negative": 0,
                "positive": 0,
                "important": 0,
                "liked": 0,
                "disliked": 0,
                "lol": 0,
                "toxic": 0,
                "saved": 0,
                "comments": 0
            }
        },
        {
            "kind": "news",
            "domain": "@burger_cities",
            "source": {
                "title": "Burger Swap Twitter",
                "region": "en",
                "domain": "twitter.com",
                "path": "@burger_cities"
            },
            "title": "RT @spgbb_eth: We've launched and SpongeBob will lead us to the moon\nca:0x64551fa4093c2d6c298cf1792740f884084a8f69\nReserve 5% of tokens for\u2026",
            "published_at": "2023-04-23T18:04:34Z",
            "slug": "RT-spgbb_eth-Weve-launched-and-SpongeBob-will-lead-us-to-the-moon-ca0x64551fa4093c2d6c298cf1792740f884084a8f69-Reserve-5-of-tokens-for",
            "currencies": [
                {
                    "code": "BURGER",
                    "title": "BurgerCities",
                    "slug": "burger-swap",
                    "url": "https:\/\/cryptopanic.com\/news\/burger-swap\/"
                }
            ],
            "id": 18179207,
            "url": "https:\/\/cryptopanic.com\/news\/18179207\/RT-spgbb_eth-Weve-launched-and-SpongeBob-will-lead-us-to-the-moon-ca0x64551fa4093c2d6c298cf1792740f884084a8f69-Reserve-5-of-tokens-for",
            "created_at": "2023-04-23T18:04:34Z",
            "votes": {
                "negative": 0,
                "positive": 0,
                "important": 0,
                "liked": 0,
                "disliked": 0,
                "lol": 0,
                "toxic": 0,
                "saved": 0,
                "comments": 0
            }
        },
        {
            "kind": "news",
            "domain": "@burger_cities",
            "source": {
                "title": "Burger Swap Twitter",
                "region": "en",
                "domain": "twitter.com",
                "path": "@burger_cities"
            },
            "title": "RT @cz_binance: @TheBlock__ Never really cared... \ud83e\udd37\u200d\ufe0f\n\nFocus on users and product.",
            "published_at": "2023-04-21T17:52:31Z",
            "slug": "RT-cz_binance-TheBlock__-Never-really-cared-Focus-on-users-and-product",
            "currencies": [
                {
                    "code": "BURGER",
                    "title": "BurgerCities",
                    "slug": "burger-swap",
                    "url": "https:\/\/cryptopanic.com\/news\/burger-swap\/"
                }
            ],
            "id": 18168068,
            "url": "https:\/\/cryptopanic.com\/news\/18168068\/RT-cz_binance-TheBlock__-Never-really-cared-Focus-on-users-and-product",
            "created_at": "2023-04-21T17:52:31Z",
            "votes": {
                "negative": 0,
                "positive": 0,
                "important": 0,
                "liked": 0,
                "disliked": 0,
                "lol": 0,
                "toxic": 0,
                "saved": 0,
                "comments": 0
            }
        },
        {
            "kind": "news",
            "domain": "@burger_cities",
            "source": {
                "title": "Burger Swap Twitter",
                "region": "en",
                "domain": "twitter.com",
                "path": "@burger_cities"
            },
            "title": "RT @cz_binance: I \"randomly\" followed a few people because they replied 4. I won't be able to follow everyone who do that, especially after\u2026",
            "published_at": "2023-04-21T09:08:44Z",
            "slug": "RT-cz_binance-I-randomly-followed-a-few-people-because-they-replied-4-I-wont-be-able-to-follow-everyone-who-do-that-especially-after",
            "currencies": [
                {
                    "code": "BURGER",
                    "title": "BurgerCities",
                    "slug": "burger-swap",
                    "url": "https:\/\/cryptopanic.com\/news\/burger-swap\/"
                }
            ],
            "id": 18168069,
            "url": "https:\/\/cryptopanic.com\/news\/18168069\/RT-cz_binance-I-randomly-followed-a-few-people-because-they-replied-4-I-wont-be-able-to-follow-everyone-who-do-that-especially-after",
            "created_at": "2023-04-21T09:08:44Z",
            "votes": {
                "negative": 0,
                "positive": 0,
                "important": 0,
                "liked": 0,
                "disliked": 0,
                "lol": 0,
                "toxic": 0,
                "saved": 0,
                "comments": 0
            }
        },
        {
            "kind": "news",
            "domain": "@burger_cities",
            "source": {
                "title": "Burger Swap Twitter",
                "region": "en",
                "domain": "twitter.com",
                "path": "@burger_cities"
            },
            "title": "RT @bsc_daily: Most Traded Highlight Projects in #BNBChain Last 24 Hours\n\n\ud83e\udd47 $RACA @RACA_3\n\ud83e\udd48 $CEEK @ceek\n\ud83e\udd49 $SFP @iSafePal\n$SDAO @Singulari\u2026",
            "published_at": "2023-03-14T19:57:40Z",
            "slug": "RT-bsc_daily-Most-Traded-Highlight-Projects-in-BNBChain-Last-24-Hours-RACA-RACA_3-CEEK-ceek-SFP-iSafePal-SDAO-Singulari",
            "currencies": [
                {
                    "code": "BURGER",
                    "title": "BurgerCities",
                    "slug": "burger-swap",
                    "url": "https:\/\/cryptopanic.com\/news\/burger-swap\/"
                }
            ],
            "id": 17879207,
            "url": "https:\/\/cryptopanic.com\/news\/17879207\/RT-bsc_daily-Most-Traded-Highlight-Projects-in-BNBChain-Last-24-Hours-RACA-RACA_3-CEEK-ceek-SFP-iSafePal-SDAO-Singulari",
            "created_at": "2023-03-14T19:57:40Z",
            "votes": {
                "negative": 0,
                "positive": 0,
                "important": 0,
                "liked": 0,
                "disliked": 0,
                "lol": 0,
                "toxic": 0,
                "saved": 0,
                "comments": 0
            }
        },
        {
            "kind": "news",
            "domain": "@burger_cities",
            "source": {
                "title": "Burger Swap Twitter",
                "region": "en",
                "domain": "twitter.com",
                "path": "@burger_cities"
            },
            "title": "Let's see if this experiment goes to ATH? #ETH #BURGERDAO #Experiment #Crypto",
            "published_at": "2023-03-14T18:11:03Z",
            "slug": "Lets-see-if-this-experiment-goes-to-ATH-ETH-BURGERDAO-Experiment-Crypto",
            "currencies": [
                {
                    "code": "BURGER",
                    "title": "BurgerCities",
                    "slug": "burger-swap",
                    "url": "https:\/\/cryptopanic.com\/news\/burger-swap\/"
                }
            ],
            "id": 17879208,
            "url": "https:\/\/cryptopanic.com\/news\/17879208\/Lets-see-if-this-experiment-goes-to-ATH-ETH-BURGERDAO-Experiment-Crypto",
            "created_at": "2023-03-14T18:11:03Z",
            "votes": {
                "negative": 0,
                "positive": 0,
                "important": 0,
                "liked": 0,
                "disliked": 0,
                "lol": 0,
                "toxic": 0,
                "saved": 0,
                "comments": 0
            }
        },
        {
            "kind": "news",
            "domain": "@burger_cities",
            "source": {
                "title": "Burger Swap Twitter",
                "region": "en",
                "domain": "twitter.com",
                "path": "@burger_cities"
            },
            "title": "To prove this is true, we have relinquished ownership",
            "published_at": "2023-03-14T17:23:49Z",
            "slug": "To-prove-this-is-true-we-have-relinquished-ownership",
            "currencies": [
                {
                    "code": "BURGER",
                    "title": "BurgerCities",
                    "slug": "burger-swap",
                    "url": "https:\/\/cryptopanic.com\/news\/burger-swap\/"
                }
            ],
            "id": 17879209,
            "url": "https:\/\/cryptopanic.com\/news\/17879209\/To-prove-this-is-true-we-have-relinquished-ownership",
            "created_at": "2023-03-14T17:23:49Z",
            "votes": {
                "negative": 0,
                "positive": 0,
                "important": 0,
                "liked": 0,
                "disliked": 0,
                "lol": 0,
                "toxic": 0,
                "saved": 0,
                "comments": 0
            }
        },
        {
            "kind": "news",
            "domain": "@burger_cities",
            "source": {
                "title": "Burger Swap Twitter",
                "region": "en",
                "domain": "twitter.com",
                "path": "@burger_cities"
            },
            "title": "Please note that this is an ETH project!\nburgerdao CA: 0xb4093c522686d4a0b473b1f3b97b952c18f35762\n\nFolks, I'm a hac\u2026",
            "published_at": "2023-03-14T17:21:36Z",
            "slug": "Please-note-that-this-is-an-ETH-project-burgerdao-CA-0xb4093c522686d4a0b473b1f3b97b952c18f35762-Folks-Im-a-hac",
            "currencies": [
                {
                    "code": "BURGER",
                    "title": "BurgerCities",
                    "slug": "burger-swap",
                    "url": "https:\/\/cryptopanic.com\/news\/burger-swap\/"
                }
            ],
            "id": 17879210,
            "url": "https:\/\/cryptopanic.com\/news\/17879210\/Please-note-that-this-is-an-ETH-project-burgerdao-CA-0xb4093c522686d4a0b473b1f3b97b952c18f35762-Folks-Im-a-hac",
            "created_at": "2023-03-14T17:21:36Z",
            "votes": {
                "negative": 0,
                "positive": 0,
                "important": 0,
                "liked": 0,
                "disliked": 0,
                "lol": 0,
                "toxic": 0,
                "saved": 0,
                "comments": 0
            }
        },
        {
            "kind": "news",
            "domain": "@burger_cities",
            "source": {
                "title": "Burger Swap Twitter",
                "region": "en",
                "domain": "twitter.com",
                "path": "@burger_cities"
            },
            "title": "Shining the spotlight on \"Courage\".\n\nWhat an amazing Legguard it is!\n\n\ufe0fDefinitely, the Blademaster can play a\u2026",
            "published_at": "2023-03-12T10:00:01Z",
            "slug": "Shining-the-spotlight-on-Courage-What-an-amazing-Legguard-it-is-Definitely-the-Blademaster-can-play-a",
            "currencies": [
                {
                    "code": "BURGER",
                    "title": "BurgerCities",
                    "slug": "burger-swap",
                    "url": "https:\/\/cryptopanic.com\/news\/burger-swap\/"
                }
            ],
            "id": 17861814,
            "url": "https:\/\/cryptopanic.com\/news\/17861814\/Shining-the-spotlight-on-Courage-What-an-amazing-Legguard-it-is-Definitely-the-Blademaster-can-play-a",
            "created_at": "2023-03-12T10:00:01Z",
            "votes": {
                "negative": 0,
                "positive": 0,
                "important": 0,
                "liked": 0,
                "disliked": 0,
                "lol": 0,
                "toxic": 0,
                "saved": 0,
                "comments": 0
            }
        }
    ]
}
