{
    "count": 200,
    "next": "https:\/\/cryptopanic.com\/api\/v1\/posts\/?auth_token=01c356e89ffc1b8eba2127c81fc8c66ee0eace75&kind=news&currencies=DGB&page=2",
    "previous": null,
    "results": [
        {
            "kind": "news",
            "domain": "@DigiByteCoin",
            "source": {
                "title": "DigiByte Twitter",
                "region": "en",
                "domain": "twitter.com",
                "path": "@digibytecoin"
            },
            "title": "RT @Cardon_Saguaro: How #DigiByte is Enabling Cross-Border Payments with Fast and Low-cost Transactions -",
            "published_at": "2023-07-12T05:25:49Z",
            "slug": "RT-Cardon_Saguaro-How-DigiByte-is-Enabling-Cross-Border-Payments-with-Fast-and-Low-cost-Transactions-",
            "currencies": [
                {
                    "code": "DGB",
                    "title": "DigiByte",
                    "slug": "digibyte",
                    "url": "https:\/\/cryptopanic.com\/news\/digibyte\/"
                }
            ],
            "id": 18763778,
            "url": "https:\/\/cryptopanic.com\/news\/18763778\/RT-Cardon_Saguaro-How-DigiByte-is-Enabling-Cross-Border-Payments-with-Fast-and-Low-cost-Transactions-",
            "created_at": "2023-07-12T05:25:49Z",
            "votes": {
                "negative": 0,
                "positive": 0,
                "important": 0,
                "liked": 0,
                "disliked": 0,
                "lol": 0,
                "toxic": 0,
                "saved": 0,
                "comments": 0
            }
        },
        {
            "kind": "news",
            "domain": "@DigiByteCoin",
            "source": {
                "title": "DigiByte Twitter",
                "region": "en",
                "domain": "twitter.com",
                "path": "@digibytecoin"
            },
            "title": "#DigiAssets can securely represent a wide range of real-world assets, from tangible items like real estate and cars\u2026",
            "published_at": "2023-07-12T03:55:41Z",
            "slug": "DigiAssets-can-securely-represent-a-wide-range-of-real-world-assets-from-tangible-items-like-real-estate-and-cars",
            "currencies": [
                {
                    "code": "DGB",
                    "title": "DigiByte",
                    "slug": "digibyte",
                    "url": "https:\/\/cryptopanic.com\/news\/digibyte\/"
                }
            ],
            "id": 18763779,
            "url": "https:\/\/cryptopanic.com\/news\/18763779\/DigiAssets-can-securely-represent-a-wide-range-of-real-world-assets-from-tangible-items-like-real-estate-and-cars",
            "created_at": "2023-07-12T03:55:41Z",
            "votes": {
                "negative": 0,
                "positive": 0,
                "important": 0,
                "liked": 0,
                "disliked": 0,
                "lol": 0,
                "toxic": 0,
                "saved": 0,
                "comments": 0
            }
        },
        {
            "kind": "news",
            "domain": "@DigiByteCoin",
            "source": {
                "title": "DigiByte Twitter",
                "region": "en",
                "domain": "twitter.com",
                "path": "@digibytecoin"
            },
            "title": "Lots of new folks in the #DigiByte community. We want to give you a warm welcome! If you are interested in learning\u2026",
            "published_at": "2023-07-12T00:37:34Z",
            "slug": "Lots-of-new-folks-in-the-DigiByte-community-We-want-to-give-you-a-warm-welcome-If-you-are-interested-in-learning",
            "currencies": [
                {
                    "code": "DGB",
                    "title": "DigiByte",
                    "slug": "digibyte",
                    "url": "https:\/\/cryptopanic.com\/news\/digibyte\/"
                }
            ],
            "id": 18763780,
            "url": "https:\/\/cryptopanic.com\/news\/18763780\/Lots-of-new-folks-in-the-DigiByte-community-We-want-to-give-you-a-warm-welcome-If-you-are-interested-in-learning",
            "created_at": "2023-07-12T00:37:34Z",
            "votes": {
                "negative": 0,
                "positive": 0,
                "important": 0,
                "liked": 0,
                "disliked": 0,
                "lol": 0,
                "toxic": 0,
                "saved": 0,
                "comments": 0
            }
        },
        {
            "kind": "news",
            "domain": "@DigiByteCoin",
            "source": {
                "title": "DigiByte Twitter",
                "region": "en",
                "domain": "twitter.com",
                "path": "@digibytecoin"
            },
            "title": "Personal Identity Use Case #3:\n\n#DigiByte can help with self-sovereign identity (SSI) through a few of the items li\u2026",
            "published_at": "2023-07-11T20:32:30Z",
            "slug": "Personal-Identity-Use-Case-3-DigiByte-can-help-with-self-sovereign-identity-SSI-through-a-few-of-the-items-li",
            "currencies": [
                {
                    "code": "DGB",
                    "title": "DigiByte",
                    "slug": "digibyte",
                    "url": "https:\/\/cryptopanic.com\/news\/digibyte\/"
                }
            ],
            "id": 18763781,
            "url": "https:\/\/cryptopanic.com\/news\/18763781\/Personal-Identity-Use-Case-3-DigiByte-can-help-with-self-sovereign-identity-SSI-through-a-few-of-the-items-li",
            "created_at": "2023-07-11T20:32:30Z",
            "votes": {
                "negative": 0,
                "positive": 0,
                "important": 0,
                "liked": 0,
                "disliked": 0,
                "lol": 0,
                "toxic": 0,
                "saved": 0,
                "comments": 0
            }
        },
        {
            "kind": "news",
            "domain": "@DigiByteCoin",
            "source": {
                "title": "DigiByte Twitter",
                "region": "en",
                "domain": "twitter.com",
                "path": "@digibytecoin"
            },
            "title": "Personal Identity Use Case #2:\n\nBelow are some instances of how #DigiByte could be incorporated into digital certif\u2026",
            "published_at": "2023-07-11T16:45:23Z",
            "slug": "Personal-Identity-Use-Case-2-Below-are-some-instances-of-how-DigiByte-could-be-incorporated-into-digital-certif",
            "currencies": [
                {
                    "code": "DGB",
                    "title": "DigiByte",
                    "slug": "digibyte",
                    "url": "https:\/\/cryptopanic.com\/news\/digibyte\/"
                }
            ],
            "id": 18763782,
            "url": "https:\/\/cryptopanic.com\/news\/18763782\/Personal-Identity-Use-Case-2-Below-are-some-instances-of-how-DigiByte-could-be-incorporated-into-digital-certif",
            "created_at": "2023-07-11T16:45:23Z",
            "votes": {
                "negative": 0,
                "positive": 0,
                "important": 0,
                "liked": 0,
                "disliked": 0,
                "lol": 0,
                "toxic": 0,
                "saved": 0,
                "comments": 0
            }
        },
        {
            "kind": "news",
            "domain": "@DigiByteCoin",
            "source": {
                "title": "DigiByte Twitter",
                "region": "en",
                "domain": "twitter.com",
                "path": "@digibytecoin"
            },
            "title": "Personal Identity Use Case #1:\n\n#DigiByte can be utilized for voting in a few ways:\n\n1. Secure and transparent voti\u2026",
            "published_at": "2023-07-11T14:58:19Z",
            "slug": "Personal-Identity-Use-Case-1-DigiByte-can-be-utilized-for-voting-in-a-few-ways-1-Secure-and-transparent-voti",
            "currencies": [
                {
                    "code": "DGB",
                    "title": "DigiByte",
                    "slug": "digibyte",
                    "url": "https:\/\/cryptopanic.com\/news\/digibyte\/"
                }
            ],
            "id": 18763783,
            "url": "https:\/\/cryptopanic.com\/news\/18763783\/Personal-Identity-Use-Case-1-DigiByte-can-be-utilized-for-voting-in-a-few-ways-1-Secure-and-transparent-voti",
            "created_at": "2023-07-11T14:58:19Z",
            "votes": {
                "negative": 0,
                "positive": 0,
                "important": 0,
                "liked": 0,
                "disliked": 0,
                "lol": 0,
                "toxic": 0,
                "saved": 0,
                "comments": 0
            }
        },
        {
            "kind": "news",
            "domain": "@DigiByteCoin",
            "source": {
                "title": "DigiByte Twitter",
                "region": "en",
                "domain": "twitter.com",
                "path": "@digibytecoin"
            },
            "title": "Thank you for addressing these issues and being active in the community @Cardon_Saguaro!",
            "published_at": "2023-07-11T14:38:37Z",
            "slug": "Thank-you-for-addressing-these-issues-and-being-active-in-the-community-Cardon_Saguaro",
            "currencies": [
                {
                    "code": "DGB",
                    "title": "DigiByte",
                    "slug": "digibyte",
                    "url": "https:\/\/cryptopanic.com\/news\/digibyte\/"
                }
            ],
            "id": 18763784,
            "url": "https:\/\/cryptopanic.com\/news\/18763784\/Thank-you-for-addressing-these-issues-and-being-active-in-the-community-Cardon_Saguaro",
            "created_at": "2023-07-11T14:38:37Z",
            "votes": {
                "negative": 0,
                "positive": 0,
                "important": 0,
                "liked": 0,
                "disliked": 0,
                "lol": 0,
                "toxic": 0,
                "saved": 0,
                "comments": 0
            }
        },
        {
            "kind": "news",
            "domain": "@DigiByteCoin",
            "source": {
                "title": "DigiByte Twitter",
                "region": "en",
                "domain": "twitter.com",
                "path": "@digibytecoin"
            },
            "title": "Let's go #DigiByte community!",
            "published_at": "2023-07-11T14:37:00Z",
            "slug": "Lets-go-DigiByte-community",
            "currencies": [
                {
                    "code": "DGB",
                    "title": "DigiByte",
                    "slug": "digibyte",
                    "url": "https:\/\/cryptopanic.com\/news\/digibyte\/"
                }
            ],
            "id": 18763785,
            "url": "https:\/\/cryptopanic.com\/news\/18763785\/Lets-go-DigiByte-community",
            "created_at": "2023-07-11T14:37:00Z",
            "votes": {
                "negative": 0,
                "positive": 0,
                "important": 0,
                "liked": 0,
                "disliked": 0,
                "lol": 0,
                "toxic": 0,
                "saved": 0,
                "comments": 0
            }
        },
        {
            "kind": "news",
            "domain": "@DigiByteCoin",
            "source": {
                "title": "DigiByte Twitter",
                "region": "en",
                "domain": "twitter.com",
                "path": "@digibytecoin"
            },
            "title": "Great job in securing the #DigiByte network!",
            "published_at": "2023-07-11T01:24:16Z",
            "slug": "Great-job-in-securing-the-DigiByte-network",
            "currencies": [
                {
                    "code": "DGB",
                    "title": "DigiByte",
                    "slug": "digibyte",
                    "url": "https:\/\/cryptopanic.com\/news\/digibyte\/"
                }
            ],
            "id": 18755669,
            "url": "https:\/\/cryptopanic.com\/news\/18755669\/Great-job-in-securing-the-DigiByte-network",
            "created_at": "2023-07-11T01:24:16Z",
            "votes": {
                "negative": 0,
                "positive": 0,
                "important": 0,
                "liked": 0,
                "disliked": 0,
                "lol": 0,
                "toxic": 0,
                "saved": 0,
                "comments": 0
            }
        },
        {
            "kind": "news",
            "domain": "@DigiByteCoin",
            "source": {
                "title": "DigiByte Twitter",
                "region": "en",
                "domain": "twitter.com",
                "path": "@digibytecoin"
            },
            "title": "#DigiByte Use Cases in Healthcare Infographic. Thank you @Mr_Right37!",
            "published_at": "2023-07-10T21:42:01Z",
            "slug": "DigiByte-Use-Cases-in-Healthcare-Infographic-Thank-you-Mr_Right37",
            "currencies": [
                {
                    "code": "DGB",
                    "title": "DigiByte",
                    "slug": "digibyte",
                    "url": "https:\/\/cryptopanic.com\/news\/digibyte\/"
                }
            ],
            "id": 18755670,
            "url": "https:\/\/cryptopanic.com\/news\/18755670\/DigiByte-Use-Cases-in-Healthcare-Infographic-Thank-you-Mr_Right37",
            "created_at": "2023-07-10T21:42:01Z",
            "votes": {
                "negative": 0,
                "positive": 0,
                "important": 0,
                "liked": 0,
                "disliked": 0,
                "lol": 0,
                "toxic": 0,
                "saved": 0,
                "comments": 0
            }
        },
        {
            "kind": "news",
            "domain": "@DigiByteCoin",
            "source": {
                "title": "DigiByte Twitter",
                "region": "en",
                "domain": "twitter.com",
                "path": "@digibytecoin"
            },
            "title": "Thank you for securing the network @dapunzy! $DGB",
            "published_at": "2023-07-10T21:05:27Z",
            "slug": "Thank-you-for-securing-the-network-dapunzy-DGB",
            "currencies": [
                {
                    "code": "DGB",
                    "title": "DigiByte",
                    "slug": "digibyte",
                    "url": "https:\/\/cryptopanic.com\/news\/digibyte\/"
                }
            ],
            "id": 18755671,
            "url": "https:\/\/cryptopanic.com\/news\/18755671\/Thank-you-for-securing-the-network-dapunzy-DGB",
            "created_at": "2023-07-10T21:05:27Z",
            "votes": {
                "negative": 0,
                "positive": 0,
                "important": 0,
                "liked": 0,
                "disliked": 0,
                "lol": 0,
                "toxic": 0,
                "saved": 0,
                "comments": 0
            }
        },
        {
            "kind": "news",
            "domain": "@DigiByteCoin",
            "source": {
                "title": "DigiByte Twitter",
                "region": "en",
                "domain": "twitter.com",
                "path": "@digibytecoin"
            },
            "title": "Beautiful infographic by @Mr_Right37 regarding #DigiByte Use Cases in Real Estate!\n\nWhat do you think?",
            "published_at": "2023-07-10T18:31:40Z",
            "slug": "Beautiful-infographic-by-Mr_Right37-regarding-DigiByte-Use-Cases-in-Real-Estate-What-do-you-think",
            "currencies": [
                {
                    "code": "DGB",
                    "title": "DigiByte",
                    "slug": "digibyte",
                    "url": "https:\/\/cryptopanic.com\/news\/digibyte\/"
                }
            ],
            "id": 18755672,
            "url": "https:\/\/cryptopanic.com\/news\/18755672\/Beautiful-infographic-by-Mr_Right37-regarding-DigiByte-Use-Cases-in-Real-Estate-What-do-you-think",
            "created_at": "2023-07-10T18:31:40Z",
            "votes": {
                "negative": 0,
                "positive": 0,
                "important": 0,
                "liked": 0,
                "disliked": 0,
                "lol": 0,
                "toxic": 0,
                "saved": 0,
                "comments": 0
            }
        },
        {
            "kind": "news",
            "domain": "@DigiByteCoin",
            "source": {
                "title": "DigiByte Twitter",
                "region": "en",
                "domain": "twitter.com",
                "path": "@digibytecoin"
            },
            "title": "RT @ChainPeople: Join the #DGB community and be part of a blockchain that's championing data integrity and authentication. #DigiByte ensure\u2026",
            "published_at": "2023-07-10T18:11:15Z",
            "slug": "RT-ChainPeople-Join-the-DGB-community-and-be-part-of-a-blockchain-thats-championing-data-integrity-and-authentication-DigiByte-ensure",
            "currencies": [
                {
                    "code": "DGB",
                    "title": "DigiByte",
                    "slug": "digibyte",
                    "url": "https:\/\/cryptopanic.com\/news\/digibyte\/"
                }
            ],
            "id": 18755673,
            "url": "https:\/\/cryptopanic.com\/news\/18755673\/RT-ChainPeople-Join-the-DGB-community-and-be-part-of-a-blockchain-thats-championing-data-integrity-and-authentication-DigiByte-ensure",
            "created_at": "2023-07-10T18:11:15Z",
            "votes": {
                "negative": 0,
                "positive": 0,
                "important": 0,
                "liked": 0,
                "disliked": 0,
                "lol": 0,
                "toxic": 0,
                "saved": 0,
                "comments": 0
            }
        },
        {
            "kind": "news",
            "domain": "@DigiByteCoin",
            "source": {
                "title": "DigiByte Twitter",
                "region": "en",
                "domain": "twitter.com",
                "path": "@digibytecoin"
            },
            "title": "Ready for another productive week #DigiByte community? ",
            "published_at": "2023-07-10T02:36:01Z",
            "slug": "Ready-for-another-productive-week-DigiByte-community",
            "currencies": [
                {
                    "code": "DGB",
                    "title": "DigiByte",
                    "slug": "digibyte",
                    "url": "https:\/\/cryptopanic.com\/news\/digibyte\/"
                }
            ],
            "id": 18749416,
            "url": "https:\/\/cryptopanic.com\/news\/18749416\/Ready-for-another-productive-week-DigiByte-community",
            "created_at": "2023-07-10T02:36:01Z",
            "votes": {
                "negative": 0,
                "positive": 0,
                "important": 0,
                "liked": 0,
                "disliked": 0,
                "lol": 0,
                "toxic": 0,
                "saved": 0,
                "comments": 0
            }
        },
        {
            "kind": "news",
            "domain": "@DigiByteCoin",
            "source": {
                "title": "DigiByte Twitter",
                "region": "en",
                "domain": "twitter.com",
                "path": "@digibytecoin"
            },
            "title": "#DigiByte Use Cases for Personal Identity:\n\n1. Self-sovereign identity: DigiByte's immutable blockchain could store\u2026",
            "published_at": "2023-07-10T02:32:32Z",
            "slug": "DigiByte-Use-Cases-for-Personal-Identity-1-Self-sovereign-identity-DigiBytes-immutable-blockchain-could-store",
            "currencies": [
                {
                    "code": "DGB",
                    "title": "DigiByte",
                    "slug": "digibyte",
                    "url": "https:\/\/cryptopanic.com\/news\/digibyte\/"
                }
            ],
            "id": 18749417,
            "url": "https:\/\/cryptopanic.com\/news\/18749417\/DigiByte-Use-Cases-for-Personal-Identity-1-Self-sovereign-identity-DigiBytes-immutable-blockchain-could-store",
            "created_at": "2023-07-10T02:32:32Z",
            "votes": {
                "negative": 0,
                "positive": 0,
                "important": 0,
                "liked": 0,
                "disliked": 0,
                "lol": 0,
                "toxic": 0,
                "saved": 0,
                "comments": 0
            }
        },
        {
            "kind": "news",
            "domain": "@DigiByteCoin",
            "source": {
                "title": "DigiByte Twitter",
                "region": "en",
                "domain": "twitter.com",
                "path": "@digibytecoin"
            },
            "title": "Come check out the #DigiByte community on #Reddit!",
            "published_at": "2023-07-09T21:50:31Z",
            "slug": "Come-check-out-the-DigiByte-community-on-Reddit",
            "currencies": [
                {
                    "code": "DGB",
                    "title": "DigiByte",
                    "slug": "digibyte",
                    "url": "https:\/\/cryptopanic.com\/news\/digibyte\/"
                }
            ],
            "id": 18749418,
            "url": "https:\/\/cryptopanic.com\/news\/18749418\/Come-check-out-the-DigiByte-community-on-Reddit",
            "created_at": "2023-07-09T21:50:31Z",
            "votes": {
                "negative": 0,
                "positive": 0,
                "important": 0,
                "liked": 0,
                "disliked": 0,
                "lol": 0,
                "toxic": 0,
                "saved": 0,
                "comments": 0
            }
        },
        {
            "kind": "news",
            "domain": "@DigiByteCoin",
            "source": {
                "title": "DigiByte Twitter",
                "region": "en",
                "domain": "twitter.com",
                "path": "@digibytecoin"
            },
            "title": "RT @michelle_dgb: How #DigiByte is Enabling Cross-Border Payments with Fast and Low-cost Transactions -",
            "published_at": "2023-07-09T20:59:16Z",
            "slug": "RT-michelle_dgb-How-DigiByte-is-Enabling-Cross-Border-Payments-with-Fast-and-Low-cost-Transactions-",
            "currencies": [
                {
                    "code": "DGB",
                    "title": "DigiByte",
                    "slug": "digibyte",
                    "url": "https:\/\/cryptopanic.com\/news\/digibyte\/"
                }
            ],
            "id": 18749419,
            "url": "https:\/\/cryptopanic.com\/news\/18749419\/RT-michelle_dgb-How-DigiByte-is-Enabling-Cross-Border-Payments-with-Fast-and-Low-cost-Transactions-",
            "created_at": "2023-07-09T20:59:16Z",
            "votes": {
                "negative": 0,
                "positive": 0,
                "important": 0,
                "liked": 0,
                "disliked": 0,
                "lol": 0,
                "toxic": 0,
                "saved": 0,
                "comments": 0
            }
        },
        {
            "kind": "news",
            "domain": "@DigiByteCoin",
            "source": {
                "title": "DigiByte Twitter",
                "region": "en",
                "domain": "twitter.com",
                "path": "@digibytecoin"
            },
            "title": "Thanks for continuing to secure the network!",
            "published_at": "2023-07-09T15:41:00Z",
            "slug": "Thanks-for-continuing-to-secure-the-network",
            "currencies": [
                {
                    "code": "DGB",
                    "title": "DigiByte",
                    "slug": "digibyte",
                    "url": "https:\/\/cryptopanic.com\/news\/digibyte\/"
                }
            ],
            "id": 18749420,
            "url": "https:\/\/cryptopanic.com\/news\/18749420\/Thanks-for-continuing-to-secure-the-network",
            "created_at": "2023-07-09T15:41:00Z",
            "votes": {
                "negative": 0,
                "positive": 0,
                "important": 0,
                "liked": 0,
                "disliked": 0,
                "lol": 0,
                "toxic": 0,
                "saved": 0,
                "comments": 0
            }
        },
        {
            "kind": "news",
            "domain": "@DigiByteCoin",
            "source": {
                "title": "DigiByte Twitter",
                "region": "en",
                "domain": "twitter.com",
                "path": "@digibytecoin"
            },
            "title": "Should we continue? #DigiByte\n\n13. Is Proof of Work\n14. Does not have a Treasury\n15. Does not have a marketing fund\u2026",
            "published_at": "2023-07-09T15:23:26Z",
            "slug": "Should-we-continue-DigiByte-13-Is-Proof-of-Work-14-Does-not-have-a-Treasury-15-Does-not-have-a-marketing-fund",
            "currencies": [
                {
                    "code": "DGB",
                    "title": "DigiByte",
                    "slug": "digibyte",
                    "url": "https:\/\/cryptopanic.com\/news\/digibyte\/"
                }
            ],
            "id": 18749421,
            "url": "https:\/\/cryptopanic.com\/news\/18749421\/Should-we-continue-DigiByte-13-Is-Proof-of-Work-14-Does-not-have-a-Treasury-15-Does-not-have-a-marketing-fund",
            "created_at": "2023-07-09T15:23:26Z",
            "votes": {
                "negative": 0,
                "positive": 0,
                "important": 0,
                "liked": 0,
                "disliked": 0,
                "lol": 0,
                "toxic": 0,
                "saved": 0,
                "comments": 0
            }
        },
        {
            "kind": "news",
            "domain": "@DigiByteCoin",
            "source": {
                "title": "DigiByte Twitter",
                "region": "en",
                "domain": "twitter.com",
                "path": "@digibytecoin"
            },
            "title": "#DigiByte \n\n1. Is not an ICO\n2. Is not a token\n3. Does not have airdrops\n4. Does not have staking\n5. Does not have\u2026",
            "published_at": "2023-07-09T04:41:23Z",
            "slug": "DigiByte-1-Is-not-an-ICO-2-Is-not-a-token-3-Does-not-have-airdrops-4-Does-not-have-staking-5-Does-not-have",
            "currencies": [
                {
                    "code": "DGB",
                    "title": "DigiByte",
                    "slug": "digibyte",
                    "url": "https:\/\/cryptopanic.com\/news\/digibyte\/"
                }
            ],
            "id": 18745275,
            "url": "https:\/\/cryptopanic.com\/news\/18745275\/DigiByte-1-Is-not-an-ICO-2-Is-not-a-token-3-Does-not-have-airdrops-4-Does-not-have-staking-5-Does-not-have",
            "created_at": "2023-07-09T04:41:23Z",
            "votes": {
                "negative": 0,
                "positive": 0,
                "important": 0,
                "liked": 0,
                "disliked": 0,
                "lol": 0,
                "toxic": 0,
                "saved": 0,
                "comments": 0
            }
        }
    ]
}
