{
    "count": 200,
    "next": "https:\/\/cryptopanic.com\/api\/v1\/posts\/?auth_token=01c356e89ffc1b8eba2127c81fc8c66ee0eace75&kind=news&currencies=HIGH&page=2",
    "previous": null,
    "results": [
        {
            "kind": "news",
            "domain": "@highstreetworld",
            "source": {
                "title": "Highstreet Twitter",
                "region": "en",
                "domain": "twitter.com",
                "path": "@highstreetworld"
            },
            "title": "You ready?\nBecause Highstreet is getting ready @NFT_BZL along with @TheSandboxGame @0xPolygon @staratlas \nCome al\u2026",
            "published_at": "2021-11-30T07:46:11Z",
            "slug": "You-ready-Because-Highstreet-is-getting-ready-NFT_BZL-along-with-TheSandboxGame-0xPolygon-staratlas-Come-al",
            "currencies": [
                {
                    "code": "HIGH",
                    "title": "Highstreet",
                    "slug": "highstreet",
                    "url": "https:\/\/cryptopanic.com\/news\/highstreet\/"
                }
            ],
            "id": 13520757,
            "url": "https:\/\/cryptopanic.com\/news\/13520757\/You-ready-Because-Highstreet-is-getting-ready-NFT_BZL-along-with-TheSandboxGame-0xPolygon-staratlas-Come-al",
            "created_at": "2021-11-30T07:46:11Z",
            "votes": {
                "negative": 0,
                "positive": 0,
                "important": 0,
                "liked": 0,
                "disliked": 0,
                "lol": 0,
                "toxic": 0,
                "saved": 0,
                "comments": 0
            }
        },
        {
            "kind": "news",
            "domain": "@highstreetworld",
            "source": {
                "title": "Highstreet Twitter",
                "region": "en",
                "domain": "twitter.com",
                "path": "@highstreetworld"
            },
            "title": "RT @DiscountGosling: Fresh @coinspeaker article hot off the press on Size Basel \u2b07\ufe0f\u2b07\ufe0f\u2b07\ufe0f\n\nHuge thank you to our sponsors for making this poss\u2026",
            "published_at": "2021-11-29T17:38:20Z",
            "slug": "RT-DiscountGosling-Fresh-coinspeaker-article-hot-off-the-press-on-Size-Basel-Huge-thank-you-to-our-sponsors-for-making-this-poss",
            "currencies": [
                {
                    "code": "HIGH",
                    "title": "Highstreet",
                    "slug": "highstreet",
                    "url": "https:\/\/cryptopanic.com\/news\/highstreet\/"
                }
            ],
            "id": 13507586,
            "url": "https:\/\/cryptopanic.com\/news\/13507586\/RT-DiscountGosling-Fresh-coinspeaker-article-hot-off-the-press-on-Size-Basel-Huge-thank-you-to-our-sponsors-for-making-this-poss",
            "created_at": "2021-11-29T17:38:20Z",
            "votes": {
                "negative": 0,
                "positive": 0,
                "important": 0,
                "liked": 0,
                "disliked": 0,
                "lol": 0,
                "toxic": 0,
                "saved": 0,
                "comments": 0
            }
        },
        {
            "kind": "news",
            "domain": "@highstreetworld",
            "source": {
                "title": "Highstreet Twitter",
                "region": "en",
                "domain": "twitter.com",
                "path": "@highstreetworld"
            },
            "title": "RT @SynFuturesDefi: \ud83e\udd73Our #FutureX 4 is going live on Nov 30th that covers #GameFi featuring:\n\n@adamwgoldberg of @standardcrypto\n@Diane_032\u2026",
            "published_at": "2021-11-29T11:40:43Z",
            "slug": "RT-SynFuturesDefi-Our-FutureX-4-is-going-live-on-Nov-30th-that-covers-GameFi-featuring-adamwgoldberg-of-standardcrypto-Diane_032",
            "currencies": [
                {
                    "code": "HIGH",
                    "title": "Highstreet",
                    "slug": "highstreet",
                    "url": "https:\/\/cryptopanic.com\/news\/highstreet\/"
                }
            ],
            "id": 13507587,
            "url": "https:\/\/cryptopanic.com\/news\/13507587\/RT-SynFuturesDefi-Our-FutureX-4-is-going-live-on-Nov-30th-that-covers-GameFi-featuring-adamwgoldberg-of-standardcrypto-Diane_032",
            "created_at": "2021-11-29T11:40:43Z",
            "votes": {
                "negative": 0,
                "positive": 0,
                "important": 0,
                "liked": 0,
                "disliked": 0,
                "lol": 0,
                "toxic": 0,
                "saved": 0,
                "comments": 0
            }
        },
        {
            "kind": "news",
            "domain": "@highstreetworld",
            "source": {
                "title": "Highstreet Twitter",
                "region": "en",
                "domain": "twitter.com",
                "path": "@highstreetworld"
            },
            "title": "RT @EchoicPro: Miami, it\u2019s great to be back!\n\n@Metaplex Studios is happy to support the following partners this week. Stay tuned for more!\u2026",
            "published_at": "2021-11-28T21:52:30Z",
            "slug": "RT-EchoicPro-Miami-its-great-to-be-back-Metaplex-Studios-is-happy-to-support-the-following-partners-this-week-Stay-tuned-for-more",
            "currencies": [
                {
                    "code": "HIGH",
                    "title": "Highstreet",
                    "slug": "highstreet",
                    "url": "https:\/\/cryptopanic.com\/news\/highstreet\/"
                }
            ],
            "id": 13496514,
            "url": "https:\/\/cryptopanic.com\/news\/13496514\/RT-EchoicPro-Miami-its-great-to-be-back-Metaplex-Studios-is-happy-to-support-the-following-partners-this-week-Stay-tuned-for-more",
            "created_at": "2021-11-28T21:52:30Z",
            "votes": {
                "negative": 0,
                "positive": 0,
                "important": 0,
                "liked": 0,
                "disliked": 0,
                "lol": 0,
                "toxic": 0,
                "saved": 0,
                "comments": 0
            }
        },
        {
            "kind": "news",
            "domain": "@highstreetworld",
            "source": {
                "title": "Highstreet Twitter",
                "region": "en",
                "domain": "twitter.com",
                "path": "@highstreetworld"
            },
            "title": "RT @NekozTek: Size Basel guest list will be complete by Monday. \n\nIf you want an invite, dm @SizeChad @DiscountGosling or myself. \n\nAlso a\u2026",
            "published_at": "2021-11-27T22:07:19Z",
            "slug": "RT-NekozTek-Size-Basel-guest-list-will-be-complete-by-Monday-If-you-want-an-invite-dm-SizeChad-DiscountGosling-or-myself-Also-a",
            "currencies": [
                {
                    "code": "HIGH",
                    "title": "Highstreet",
                    "slug": "highstreet",
                    "url": "https:\/\/cryptopanic.com\/news\/highstreet\/"
                }
            ],
            "id": 13488483,
            "url": "https:\/\/cryptopanic.com\/news\/13488483\/RT-NekozTek-Size-Basel-guest-list-will-be-complete-by-Monday-If-you-want-an-invite-dm-SizeChad-DiscountGosling-or-myself-Also-a",
            "created_at": "2021-11-27T22:07:19Z",
            "votes": {
                "negative": 0,
                "positive": 0,
                "important": 0,
                "liked": 0,
                "disliked": 0,
                "lol": 0,
                "toxic": 0,
                "saved": 0,
                "comments": 0
            }
        },
        {
            "kind": "news",
            "domain": "@highstreetworld",
            "source": {
                "title": "Highstreet Twitter",
                "region": "en",
                "domain": "twitter.com",
                "path": "@highstreetworld"
            },
            "title": "RT @SizeChad: Size Basel\n\nTY sponsors:\n@BitDAO_Official \n@arbitrum\n@rarestonecap \n@SushiSwap \n@StackedCrypto\n@highstreetworld \n@soundartsio\u2026",
            "published_at": "2021-11-27T16:20:17Z",
            "slug": "RT-SizeChad-Size-Basel-TY-sponsors-BitDAO_Official-arbitrum-rarestonecap-SushiSwap-StackedCrypto-highstreetworld-soundartsio",
            "currencies": [
                {
                    "code": "HIGH",
                    "title": "Highstreet",
                    "slug": "highstreet",
                    "url": "https:\/\/cryptopanic.com\/news\/highstreet\/"
                }
            ],
            "id": 13488484,
            "url": "https:\/\/cryptopanic.com\/news\/13488484\/RT-SizeChad-Size-Basel-TY-sponsors-BitDAO_Official-arbitrum-rarestonecap-SushiSwap-StackedCrypto-highstreetworld-soundartsio",
            "created_at": "2021-11-27T16:20:17Z",
            "votes": {
                "negative": 0,
                "positive": 0,
                "important": 0,
                "liked": 0,
                "disliked": 0,
                "lol": 0,
                "toxic": 0,
                "saved": 0,
                "comments": 0
            }
        },
        {
            "kind": "news",
            "domain": "@highstreetworld",
            "source": {
                "title": "Highstreet Twitter",
                "region": "en",
                "domain": "twitter.com",
                "path": "@highstreetworld"
            },
            "title": "Highstreet is sponsoring @NFT_BZL! \nCome meet us and learn more about Highstreet on Nov 30th, 2021\nFTX Arena,\u2026",
            "published_at": "2021-11-27T05:13:37Z",
            "slug": "Highstreet-is-sponsoring-NFT_BZL-Come-meet-us-and-learn-more-about-Highstreet-on-Nov-30th-2021-FTX-Arena",
            "currencies": [
                {
                    "code": "HIGH",
                    "title": "Highstreet",
                    "slug": "highstreet",
                    "url": "https:\/\/cryptopanic.com\/news\/highstreet\/"
                }
            ],
            "id": 13478704,
            "url": "https:\/\/cryptopanic.com\/news\/13478704\/Highstreet-is-sponsoring-NFT_BZL-Come-meet-us-and-learn-more-about-Highstreet-on-Nov-30th-2021-FTX-Arena",
            "created_at": "2021-11-27T05:13:37Z",
            "votes": {
                "negative": 0,
                "positive": 0,
                "important": 0,
                "liked": 0,
                "disliked": 0,
                "lol": 0,
                "toxic": 0,
                "saved": 0,
                "comments": 0
            }
        },
        {
            "kind": "news",
            "domain": "@highstreetworld",
            "source": {
                "title": "Highstreet Twitter",
                "region": "en",
                "domain": "twitter.com",
                "path": "@highstreetworld"
            },
            "title": "#Duckfest is upon us and the STAKES are\u00a0$HIGH!\nHighstreet is at its final phase wrapping up the opening of our stak\u2026",
            "published_at": "2021-11-24T13:01:33Z",
            "slug": "Duckfest-is-upon-us-and-the-STAKES-are-HIGH-Highstreet-is-at-its-final-phase-wrapping-up-the-opening-of-our-stak",
            "currencies": [
                {
                    "code": "HIGH",
                    "title": "Highstreet",
                    "slug": "highstreet",
                    "url": "https:\/\/cryptopanic.com\/news\/highstreet\/"
                }
            ],
            "id": 13455648,
            "url": "https:\/\/cryptopanic.com\/news\/13455648\/Duckfest-is-upon-us-and-the-STAKES-are-HIGH-Highstreet-is-at-its-final-phase-wrapping-up-the-opening-of-our-stak",
            "created_at": "2021-11-24T13:01:33Z",
            "votes": {
                "negative": 0,
                "positive": 0,
                "important": 0,
                "liked": 0,
                "disliked": 0,
                "lol": 0,
                "toxic": 0,
                "saved": 0,
                "comments": 0
            }
        },
        {
            "kind": "news",
            "domain": "@highstreetworld",
            "source": {
                "title": "Highstreet Twitter",
                "region": "en",
                "domain": "twitter.com",
                "path": "@highstreetworld"
            },
            "title": "Highstreet devs are busy conjuring up spells to be added to our alpha gameplay! \ud83e\uddd9\u200d\ufe0f\ud83e\uddd9\u200d\ufe0f\nBe sure to stay tuned fo\u2026",
            "published_at": "2021-11-24T09:14:56Z",
            "slug": "Highstreet-devs-are-busy-conjuring-up-spells-to-be-added-to-our-alpha-gameplay-Be-sure-to-stay-tuned-fo",
            "currencies": [
                {
                    "code": "HIGH",
                    "title": "Highstreet",
                    "slug": "highstreet",
                    "url": "https:\/\/cryptopanic.com\/news\/highstreet\/"
                }
            ],
            "id": 13455649,
            "url": "https:\/\/cryptopanic.com\/news\/13455649\/Highstreet-devs-are-busy-conjuring-up-spells-to-be-added-to-our-alpha-gameplay-Be-sure-to-stay-tuned-fo",
            "created_at": "2021-11-24T09:14:56Z",
            "votes": {
                "negative": 0,
                "positive": 0,
                "important": 0,
                "liked": 0,
                "disliked": 0,
                "lol": 0,
                "toxic": 0,
                "saved": 0,
                "comments": 0
            }
        },
        {
            "kind": "news",
            "domain": "@highstreetworld",
            "source": {
                "title": "Highstreet Twitter",
                "region": "en",
                "domain": "twitter.com",
                "path": "@highstreetworld"
            },
            "title": "RT @rottendoubt: tomato duck! \ud83e\udd86\nthanks @highstreetworld!\n@hollyhliu @kevinlin",
            "published_at": "2021-11-23T05:36:55Z",
            "slug": "RT-rottendoubt-tomato-duck-thanks-highstreetworld-hollyhliu-kevinlin",
            "currencies": [
                {
                    "code": "HIGH",
                    "title": "Highstreet",
                    "slug": "highstreet",
                    "url": "https:\/\/cryptopanic.com\/news\/highstreet\/"
                }
            ],
            "id": 13429374,
            "url": "https:\/\/cryptopanic.com\/news\/13429374\/RT-rottendoubt-tomato-duck-thanks-highstreetworld-hollyhliu-kevinlin",
            "created_at": "2021-11-23T05:36:55Z",
            "votes": {
                "negative": 0,
                "positive": 0,
                "important": 0,
                "liked": 0,
                "disliked": 0,
                "lol": 0,
                "toxic": 0,
                "saved": 0,
                "comments": 0
            }
        },
        {
            "kind": "news",
            "domain": "@highstreetworld",
            "source": {
                "title": "Highstreet Twitter",
                "region": "en",
                "domain": "twitter.com",
                "path": "@highstreetworld"
            },
            "title": "Highstreet partners with celebrity designer Jonathan Koon\nNow it's the time for a reimagination of retail\ufe0f\ufe0f\nCom\u2026",
            "published_at": "2021-11-22T13:44:52Z",
            "slug": "Highstreet-partners-with-celebrity-designer-Jonathan-Koon-Now-its-the-time-for-a-reimagination-of-retail-Com",
            "currencies": [
                {
                    "code": "HIGH",
                    "title": "Highstreet",
                    "slug": "highstreet",
                    "url": "https:\/\/cryptopanic.com\/news\/highstreet\/"
                }
            ],
            "id": 13429375,
            "url": "https:\/\/cryptopanic.com\/news\/13429375\/Highstreet-partners-with-celebrity-designer-Jonathan-Koon-Now-its-the-time-for-a-reimagination-of-retail-Com",
            "created_at": "2021-11-22T13:44:52Z",
            "votes": {
                "negative": 0,
                "positive": 0,
                "important": 0,
                "liked": 0,
                "disliked": 0,
                "lol": 0,
                "toxic": 0,
                "saved": 0,
                "comments": 0
            }
        },
        {
            "kind": "news",
            "domain": "@highstreetworld",
            "source": {
                "title": "Highstreet Twitter",
                "region": "en",
                "domain": "twitter.com",
                "path": "@highstreetworld"
            },
            "title": "\ud83e\udd70Recently @business \nRetail x Real Estate x Gaming\nHighstreet world is your all-in-one Metaverse!\nSpecial thanks\u2026",
            "published_at": "2021-11-21T06:33:52Z",
            "slug": "Recently-business-Retail-x-Real-Estate-x-Gaming-Highstreet-world-is-your-all-in-one-Metaverse-Special-thanks",
            "currencies": [
                {
                    "code": "HIGH",
                    "title": "Highstreet",
                    "slug": "highstreet",
                    "url": "https:\/\/cryptopanic.com\/news\/highstreet\/"
                }
            ],
            "id": 13409777,
            "url": "https:\/\/cryptopanic.com\/news\/13409777\/Recently-business-Retail-x-Real-Estate-x-Gaming-Highstreet-world-is-your-all-in-one-Metaverse-Special-thanks",
            "created_at": "2021-11-21T06:33:52Z",
            "votes": {
                "negative": 0,
                "positive": 0,
                "important": 0,
                "liked": 0,
                "disliked": 0,
                "lol": 0,
                "toxic": 0,
                "saved": 0,
                "comments": 0
            }
        },
        {
            "kind": "news",
            "domain": "@highstreetworld",
            "source": {
                "title": "Highstreet Twitter",
                "region": "en",
                "domain": "twitter.com",
                "path": "@highstreetworld"
            },
            "title": "Check out our recap on @NFT_NYC\nStay tuned for more exciting news from Highstreet",
            "published_at": "2021-11-16T14:01:52Z",
            "slug": "Check-out-our-recap-on-NFT_NYC-Stay-tuned-for-more-exciting-news-from-Highstreet",
            "currencies": [
                {
                    "code": "HIGH",
                    "title": "Highstreet",
                    "slug": "highstreet",
                    "url": "https:\/\/cryptopanic.com\/news\/highstreet\/"
                }
            ],
            "id": 13362228,
            "url": "https:\/\/cryptopanic.com\/news\/13362228\/Check-out-our-recap-on-NFT_NYC-Stay-tuned-for-more-exciting-news-from-Highstreet",
            "created_at": "2021-11-16T14:01:52Z",
            "votes": {
                "negative": 0,
                "positive": 0,
                "important": 0,
                "liked": 0,
                "disliked": 0,
                "lol": 0,
                "toxic": 0,
                "saved": 0,
                "comments": 0
            }
        },
        {
            "kind": "news",
            "domain": "@highstreetworld",
            "source": {
                "title": "Highstreet Twitter",
                "region": "en",
                "domain": "twitter.com",
                "path": "@highstreetworld"
            },
            "title": "RT @ericspivak: More from #NFTNYC still poppin up daily in my feed meanwhile I'm checked out for #ArtBasel .. This shot of @JulianGilliam &amp;\u2026",
            "published_at": "2021-11-12T01:46:07Z",
            "slug": "RT-ericspivak-More-from-NFTNYC-still-poppin-up-daily-in-my-feed-meanwhile-Im-checked-out-for-ArtBasel-This-shot-of-JulianGilliam-amp",
            "currencies": [
                {
                    "code": "HIGH",
                    "title": "Highstreet",
                    "slug": "highstreet",
                    "url": "https:\/\/cryptopanic.com\/news\/highstreet\/"
                }
            ],
            "id": 13307325,
            "url": "https:\/\/cryptopanic.com\/news\/13307325\/RT-ericspivak-More-from-NFTNYC-still-poppin-up-daily-in-my-feed-meanwhile-Im-checked-out-for-ArtBasel-This-shot-of-JulianGilliam-amp",
            "created_at": "2021-11-12T01:46:07Z",
            "votes": {
                "negative": 0,
                "positive": 0,
                "important": 0,
                "liked": 0,
                "disliked": 0,
                "lol": 0,
                "toxic": 0,
                "saved": 0,
                "comments": 0
            }
        },
        {
            "kind": "news",
            "domain": "@highstreetworld",
            "source": {
                "title": "Highstreet Twitter",
                "region": "en",
                "domain": "twitter.com",
                "path": "@highstreetworld"
            },
            "title": "Highstreet Tech All Stars are here! With a growing number of new personal investors from @Crunchyroll\n @Twitch\u2026",
            "published_at": "2021-11-08T13:02:29Z",
            "slug": "Highstreet-Tech-All-Stars-are-here-With-a-growing-number-of-new-personal-investors-from-Crunchyroll-Twitch",
            "currencies": [
                {
                    "code": "HIGH",
                    "title": "Highstreet",
                    "slug": "highstreet",
                    "url": "https:\/\/cryptopanic.com\/news\/highstreet\/"
                }
            ],
            "id": 13269479,
            "url": "https:\/\/cryptopanic.com\/news\/13269479\/Highstreet-Tech-All-Stars-are-here-With-a-growing-number-of-new-personal-investors-from-Crunchyroll-Twitch",
            "created_at": "2021-11-08T13:02:29Z",
            "votes": {
                "negative": 0,
                "positive": 0,
                "important": 0,
                "liked": 0,
                "disliked": 0,
                "lol": 0,
                "toxic": 0,
                "saved": 0,
                "comments": 0
            }
        },
        {
            "kind": "news",
            "domain": "@highstreetworld",
            "source": {
                "title": "Highstreet Twitter",
                "region": "en",
                "domain": "twitter.com",
                "path": "@highstreetworld"
            },
            "title": "RT @polkastarter:  We launched a #Metaverse series where we're going to present and highlight our already well-known Polkastars. \n\nMeet @h\u2026",
            "published_at": "2021-11-06T12:43:30Z",
            "slug": "RT-polkastarter-We-launched-a-Metaverse-series-where-were-going-to-present-and-highlight-our-already-well-known-Polkastars-Meet-h",
            "currencies": [
                {
                    "code": "HIGH",
                    "title": "Highstreet",
                    "slug": "highstreet",
                    "url": "https:\/\/cryptopanic.com\/news\/highstreet\/"
                }
            ],
            "id": 13250736,
            "url": "https:\/\/cryptopanic.com\/news\/13250736\/RT-polkastarter-We-launched-a-Metaverse-series-where-were-going-to-present-and-highlight-our-already-well-known-Polkastars-Meet-h",
            "created_at": "2021-11-06T12:43:30Z",
            "votes": {
                "negative": 0,
                "positive": 0,
                "important": 0,
                "liked": 0,
                "disliked": 0,
                "lol": 0,
                "toxic": 0,
                "saved": 0,
                "comments": 0
            }
        },
        {
            "kind": "news",
            "domain": "@highstreetworld",
            "source": {
                "title": "Highstreet Twitter",
                "region": "en",
                "domain": "twitter.com",
                "path": "@highstreetworld"
            },
            "title": "\ud83e\uddd0Wanna meet FOMO Ducks IRL and learn more about Highstreet?\nMake your way down to the Palladium Stage and join our\u2026",
            "published_at": "2021-11-04T13:27:52Z",
            "slug": "Wanna-meet-FOMO-Ducks-IRL-and-learn-more-about-Highstreet-Make-your-way-down-to-the-Palladium-Stage-and-join-our",
            "currencies": [
                {
                    "code": "HIGH",
                    "title": "Highstreet",
                    "slug": "highstreet",
                    "url": "https:\/\/cryptopanic.com\/news\/highstreet\/"
                }
            ],
            "id": 13229441,
            "url": "https:\/\/cryptopanic.com\/news\/13229441\/Wanna-meet-FOMO-Ducks-IRL-and-learn-more-about-Highstreet-Make-your-way-down-to-the-Palladium-Stage-and-join-our",
            "created_at": "2021-11-04T13:27:52Z",
            "votes": {
                "negative": 0,
                "positive": 0,
                "important": 0,
                "liked": 0,
                "disliked": 0,
                "lol": 0,
                "toxic": 0,
                "saved": 0,
                "comments": 0
            }
        },
        {
            "kind": "news",
            "domain": "@highstreetworld",
            "source": {
                "title": "Highstreet Twitter",
                "region": "en",
                "domain": "twitter.com",
                "path": "@highstreetworld"
            },
            "title": "Check out what Highstreet has to offer at Digital Art Fair Asia 2021\n\n\n\n#Highstreet\u2026",
            "published_at": "2021-11-03T14:39:22Z",
            "slug": "Check-out-what-Highstreet-has-to-offer-at-Digital-Art-Fair-Asia-2021-Highstreet",
            "currencies": [
                {
                    "code": "HIGH",
                    "title": "Highstreet",
                    "slug": "highstreet",
                    "url": "https:\/\/cryptopanic.com\/news\/highstreet\/"
                }
            ],
            "id": 13217487,
            "url": "https:\/\/cryptopanic.com\/news\/13217487\/Check-out-what-Highstreet-has-to-offer-at-Digital-Art-Fair-Asia-2021-Highstreet",
            "created_at": "2021-11-03T14:39:22Z",
            "votes": {
                "negative": 0,
                "positive": 0,
                "important": 0,
                "liked": 0,
                "disliked": 0,
                "lol": 0,
                "toxic": 0,
                "saved": 0,
                "comments": 0
            }
        },
        {
            "kind": "news",
            "domain": "@highstreetworld",
            "source": {
                "title": "Highstreet Twitter",
                "region": "en",
                "domain": "twitter.com",
                "path": "@highstreetworld"
            },
            "title": "Highstreet's alpha stage has been rolling for some of our selected partners and friends of FOMO Ducks in high place\u2026",
            "published_at": "2021-11-03T12:03:28Z",
            "slug": "Highstreets-alpha-stage-has-been-rolling-for-some-of-our-selected-partners-and-friends-of-FOMO-Ducks-in-high-place",
            "currencies": [
                {
                    "code": "HIGH",
                    "title": "Highstreet",
                    "slug": "highstreet",
                    "url": "https:\/\/cryptopanic.com\/news\/highstreet\/"
                }
            ],
            "id": 13217488,
            "url": "https:\/\/cryptopanic.com\/news\/13217488\/Highstreets-alpha-stage-has-been-rolling-for-some-of-our-selected-partners-and-friends-of-FOMO-Ducks-in-high-place",
            "created_at": "2021-11-03T12:03:28Z",
            "votes": {
                "negative": 0,
                "positive": 0,
                "important": 0,
                "liked": 0,
                "disliked": 0,
                "lol": 0,
                "toxic": 0,
                "saved": 0,
                "comments": 0
            }
        },
        {
            "kind": "news",
            "domain": "@highstreetworld",
            "source": {
                "title": "Highstreet Twitter",
                "region": "en",
                "domain": "twitter.com",
                "path": "@highstreetworld"
            },
            "title": "RT @bullperks: Let\u2019s go Fomo Duck and @highstreetworld taking over Times Square in NYC for NFT NYC week!! \ud83e\udd86",
            "published_at": "2021-11-03T00:51:10Z",
            "slug": "RT-bullperks-Lets-go-Fomo-Duck-and-highstreetworld-taking-over-Times-Square-in-NYC-for-NFT-NYC-week",
            "currencies": [
                {
                    "code": "HIGH",
                    "title": "Highstreet",
                    "slug": "highstreet",
                    "url": "https:\/\/cryptopanic.com\/news\/highstreet\/"
                }
            ],
            "id": 13203833,
            "url": "https:\/\/cryptopanic.com\/news\/13203833\/RT-bullperks-Lets-go-Fomo-Duck-and-highstreetworld-taking-over-Times-Square-in-NYC-for-NFT-NYC-week",
            "created_at": "2021-11-03T00:51:10Z",
            "votes": {
                "negative": 0,
                "positive": 0,
                "important": 0,
                "liked": 0,
                "disliked": 0,
                "lol": 0,
                "toxic": 0,
                "saved": 0,
                "comments": 0
            }
        }
    ]
}
