{
    "count": 200,
    "next": "https:\/\/cryptopanic.com\/api\/v1\/posts\/?auth_token=01c356e89ffc1b8eba2127c81fc8c66ee0eace75&kind=news&currencies=BETA&page=2",
    "previous": null,
    "results": [
        {
            "kind": "news",
            "domain": "@beta_finance",
            "source": {
                "title": "Beta Finance Twitter",
                "region": "en",
                "domain": "twitter.com",
                "path": "@beta_finance"
            },
            "title": "App innovations during DeFi summer catalyzed the bull run\n\nSince then there have been a number of infrastructure im\u2026",
            "published_at": "2023-07-10T14:28:00Z",
            "slug": "App-innovations-during-DeFi-summer-catalyzed-the-bull-run-Since-then-there-have-been-a-number-of-infrastructure-im",
            "currencies": [
                {
                    "code": "BETA",
                    "title": "Beta Finance",
                    "slug": "beta-finance",
                    "url": "https:\/\/cryptopanic.com\/news\/beta-finance\/"
                }
            ],
            "id": 18754716,
            "url": "https:\/\/cryptopanic.com\/news\/18754716\/App-innovations-during-DeFi-summer-catalyzed-the-bull-run-Since-then-there-have-been-a-number-of-infrastructure-im",
            "created_at": "2023-07-10T14:28:00Z",
            "votes": {
                "negative": 0,
                "positive": 0,
                "important": 0,
                "liked": 0,
                "disliked": 0,
                "lol": 0,
                "toxic": 0,
                "saved": 0,
                "comments": 0
            }
        },
        {
            "kind": "news",
            "domain": "@beta_finance",
            "source": {
                "title": "Beta Finance Twitter",
                "region": "en",
                "domain": "twitter.com",
                "path": "@beta_finance"
            },
            "title": "a teaser for what's to come\n\ncompletely re-vamped UI\/UX\n\nincorporating learnings from crypto natives and first-time\u2026",
            "published_at": "2023-06-29T12:52:03Z",
            "slug": "a-teaser-for-whats-to-come-completely-re-vamped-UIUX-incorporating-learnings-from-crypto-natives-and-first-time",
            "currencies": [
                {
                    "code": "BETA",
                    "title": "Beta Finance",
                    "slug": "beta-finance",
                    "url": "https:\/\/cryptopanic.com\/news\/beta-finance\/"
                }
            ],
            "id": 18684118,
            "url": "https:\/\/cryptopanic.com\/news\/18684118\/a-teaser-for-whats-to-come-completely-re-vamped-UIUX-incorporating-learnings-from-crypto-natives-and-first-time",
            "created_at": "2023-06-29T12:52:03Z",
            "votes": {
                "negative": 0,
                "positive": 0,
                "important": 0,
                "liked": 0,
                "disliked": 0,
                "lol": 0,
                "toxic": 0,
                "saved": 0,
                "comments": 0
            }
        },
        {
            "kind": "news",
            "domain": "@beta_finance",
            "source": {
                "title": "Beta Finance Twitter",
                "region": "en",
                "domain": "twitter.com",
                "path": "@beta_finance"
            },
            "title": "gm\n.\n.\n.\n.\n.\n.\n.\n.\n.\n.\n.\n.\n.\n.\n.\n.\n.\n.\n.\n.\n.\nsoon\n#OMNI #OMNI #OMNI #OMNI #OMNI #OMNI #OMNI #OMNI #OMNI #OMNI #OMNI\u2026",
            "published_at": "2023-06-21T15:27:04Z",
            "slug": "gm-soon-OMNI-OMNI-OMNI-OMNI-OMNI-OMNI-OMNI-OMNI-OMNI-OMNI-OMNI",
            "currencies": [
                {
                    "code": "BETA",
                    "title": "Beta Finance",
                    "slug": "beta-finance",
                    "url": "https:\/\/cryptopanic.com\/news\/beta-finance\/"
                }
            ],
            "id": 18626669,
            "url": "https:\/\/cryptopanic.com\/news\/18626669\/gm-soon-OMNI-OMNI-OMNI-OMNI-OMNI-OMNI-OMNI-OMNI-OMNI-OMNI-OMNI",
            "created_at": "2023-06-21T15:27:04Z",
            "votes": {
                "negative": 0,
                "positive": 0,
                "important": 0,
                "liked": 0,
                "disliked": 0,
                "lol": 0,
                "toxic": 0,
                "saved": 0,
                "comments": 0
            }
        },
        {
            "kind": "news",
            "domain": "@beta_finance",
            "source": {
                "title": "Beta Finance Twitter",
                "region": "en",
                "domain": "twitter.com",
                "path": "@beta_finance"
            },
            "title": "We have regained control of our Discord after triaging and resolving the compromised account.\n\nThankfully, we were\u2026",
            "published_at": "2023-06-20T19:01:10Z",
            "slug": "We-have-regained-control-of-our-Discord-after-triaging-and-resolving-the-compromised-account-Thankfully-we-were",
            "currencies": [
                {
                    "code": "BETA",
                    "title": "Beta Finance",
                    "slug": "beta-finance",
                    "url": "https:\/\/cryptopanic.com\/news\/beta-finance\/"
                }
            ],
            "id": 18618726,
            "url": "https:\/\/cryptopanic.com\/news\/18618726\/We-have-regained-control-of-our-Discord-after-triaging-and-resolving-the-compromised-account-Thankfully-we-were",
            "created_at": "2023-06-20T19:01:10Z",
            "votes": {
                "negative": 0,
                "positive": 0,
                "important": 0,
                "liked": 0,
                "disliked": 0,
                "lol": 0,
                "toxic": 0,
                "saved": 0,
                "comments": 0
            }
        },
        {
            "kind": "news",
            "domain": "@beta_finance",
            "source": {
                "title": "Beta Finance Twitter",
                "region": "en",
                "domain": "twitter.com",
                "path": "@beta_finance"
            },
            "title": "Our Discord is hijacked. Please do not interact with any links or posts within the Discord.\n\nWe are working to reso\u2026",
            "published_at": "2023-06-20T17:41:48Z",
            "slug": "Our-Discord-is-hijacked-Please-do-not-interact-with-any-links-or-posts-within-the-Discord-We-are-working-to-reso",
            "currencies": [
                {
                    "code": "BETA",
                    "title": "Beta Finance",
                    "slug": "beta-finance",
                    "url": "https:\/\/cryptopanic.com\/news\/beta-finance\/"
                }
            ],
            "id": 18618727,
            "url": "https:\/\/cryptopanic.com\/news\/18618727\/Our-Discord-is-hijacked-Please-do-not-interact-with-any-links-or-posts-within-the-Discord-We-are-working-to-reso",
            "created_at": "2023-06-20T17:41:48Z",
            "votes": {
                "negative": 0,
                "positive": 0,
                "important": 0,
                "liked": 0,
                "disliked": 0,
                "lol": 0,
                "toxic": 0,
                "saved": 0,
                "comments": 0
            }
        },
        {
            "kind": "news",
            "domain": "@beta_finance",
            "source": {
                "title": "Beta Finance Twitter",
                "region": "en",
                "domain": "twitter.com",
                "path": "@beta_finance"
            },
            "title": "1\/ The recent $CRV issues on Aave show us there is a need for a new mechanism design for money markets that is able\u2026",
            "published_at": "2023-06-15T12:49:59Z",
            "slug": "1-The-recent-CRV-issues-on-Aave-show-us-there-is-a-need-for-a-new-mechanism-design-for-money-markets-that-is-able",
            "currencies": [
                {
                    "code": "BETA",
                    "title": "Beta Finance",
                    "slug": "beta-finance",
                    "url": "https:\/\/cryptopanic.com\/news\/beta-finance\/"
                },
                {
                    "code": "AAVE",
                    "title": "Aave",
                    "slug": "aave",
                    "url": "https:\/\/cryptopanic.com\/news\/aave\/"
                },
                {
                    "code": "CRV",
                    "title": "Curve DAO",
                    "slug": "curve-dao-token",
                    "url": "https:\/\/cryptopanic.com\/news\/curve-dao-token\/"
                }
            ],
            "id": 18585523,
            "url": "https:\/\/cryptopanic.com\/news\/18585523\/1-The-recent-CRV-issues-on-Aave-show-us-there-is-a-need-for-a-new-mechanism-design-for-money-markets-that-is-able",
            "created_at": "2023-06-15T12:49:59Z",
            "votes": {
                "negative": 0,
                "positive": 0,
                "important": 0,
                "liked": 0,
                "disliked": 0,
                "lol": 0,
                "toxic": 0,
                "saved": 0,
                "comments": 0
            }
        },
        {
            "kind": "news",
            "domain": "@beta_finance",
            "source": {
                "title": "Beta Finance Twitter",
                "region": "en",
                "domain": "twitter.com",
                "path": "@beta_finance"
            },
            "title": "gm\n\nwe made it to the end of the week and crypto is not zero\n\nno matter the fud, our conviction remains\n\ncrypto rem\u2026",
            "published_at": "2023-06-09T15:09:24Z",
            "slug": "gm-we-made-it-to-the-end-of-the-week-and-crypto-is-not-zero-no-matter-the-fud-our-conviction-remains-crypto-rem",
            "currencies": [
                {
                    "code": "BETA",
                    "title": "Beta Finance",
                    "slug": "beta-finance",
                    "url": "https:\/\/cryptopanic.com\/news\/beta-finance\/"
                }
            ],
            "id": 18544027,
            "url": "https:\/\/cryptopanic.com\/news\/18544027\/gm-we-made-it-to-the-end-of-the-week-and-crypto-is-not-zero-no-matter-the-fud-our-conviction-remains-crypto-rem",
            "created_at": "2023-06-09T15:09:24Z",
            "votes": {
                "negative": 0,
                "positive": 0,
                "important": 0,
                "liked": 0,
                "disliked": 0,
                "lol": 0,
                "toxic": 0,
                "saved": 0,
                "comments": 0
            }
        },
        {
            "kind": "news",
            "domain": "@beta_finance",
            "source": {
                "title": "Beta Finance Twitter",
                "region": "en",
                "domain": "twitter.com",
                "path": "@beta_finance"
            },
            "title": "markets red today oof. what can we do?\n\njust #build. 4.\n\nweb3 continues to grow.",
            "published_at": "2023-06-05T16:07:55Z",
            "slug": "markets-red-today-oof-what-can-we-do-just-build-4-web3-continues-to-grow",
            "currencies": [
                {
                    "code": "BETA",
                    "title": "Beta Finance",
                    "slug": "beta-finance",
                    "url": "https:\/\/cryptopanic.com\/news\/beta-finance\/"
                }
            ],
            "id": 18509275,
            "url": "https:\/\/cryptopanic.com\/news\/18509275\/markets-red-today-oof-what-can-we-do-just-build-4-web3-continues-to-grow",
            "created_at": "2023-06-05T16:07:55Z",
            "votes": {
                "negative": 0,
                "positive": 0,
                "important": 0,
                "liked": 0,
                "disliked": 0,
                "lol": 0,
                "toxic": 0,
                "saved": 0,
                "comments": 0
            }
        },
        {
            "kind": "news",
            "domain": "@beta_finance",
            "source": {
                "title": "Beta Finance Twitter",
                "region": "en",
                "domain": "twitter.com",
                "path": "@beta_finance"
            },
            "title": "Beta uses @MultichainOrg infrastructure for bridging between Avalanche and BNBChain for bridging.\n\nWe recommend use\u2026",
            "published_at": "2023-06-01T08:05:23Z",
            "slug": "Beta-uses-MultichainOrg-infrastructure-for-bridging-between-Avalanche-and-BNBChain-for-bridging-We-recommend-use",
            "currencies": [
                {
                    "code": "BETA",
                    "title": "Beta Finance",
                    "slug": "beta-finance",
                    "url": "https:\/\/cryptopanic.com\/news\/beta-finance\/"
                },
                {
                    "code": "AVAX",
                    "title": "Avalanche",
                    "slug": "avalanche-2",
                    "url": "https:\/\/cryptopanic.com\/news\/avalanche-2\/"
                }
            ],
            "id": 18482889,
            "url": "https:\/\/cryptopanic.com\/news\/18482889\/Beta-uses-MultichainOrg-infrastructure-for-bridging-between-Avalanche-and-BNBChain-for-bridging-We-recommend-use",
            "created_at": "2023-06-01T08:05:23Z",
            "votes": {
                "negative": 0,
                "positive": 0,
                "important": 0,
                "liked": 0,
                "disliked": 0,
                "lol": 0,
                "toxic": 0,
                "saved": 0,
                "comments": 0
            }
        },
        {
            "kind": "news",
            "domain": "@beta_finance",
            "source": {
                "title": "Beta Finance Twitter",
                "region": "en",
                "domain": "twitter.com",
                "path": "@beta_finance"
            },
            "title": "gm to all the chad devs out there\n\ndw we see u ",
            "published_at": "2023-05-24T13:44:04Z",
            "slug": "gm-to-all-the-chad-devs-out-there-dw-we-see-u",
            "currencies": [
                {
                    "code": "BETA",
                    "title": "Beta Finance",
                    "slug": "beta-finance",
                    "url": "https:\/\/cryptopanic.com\/news\/beta-finance\/"
                }
            ],
            "id": 18422234,
            "url": "https:\/\/cryptopanic.com\/news\/18422234\/gm-to-all-the-chad-devs-out-there-dw-we-see-u",
            "created_at": "2023-05-24T13:44:04Z",
            "votes": {
                "negative": 0,
                "positive": 0,
                "important": 0,
                "liked": 0,
                "disliked": 0,
                "lol": 0,
                "toxic": 0,
                "saved": 0,
                "comments": 0
            }
        },
        {
            "kind": "news",
            "domain": "@beta_finance",
            "source": {
                "title": "Beta Finance Twitter",
                "region": "en",
                "domain": "twitter.com",
                "path": "@beta_finance"
            },
            "title": "1\/ GET THE MOST $ FOR YOUR $\n\ncapital efficiency is the holy grail of defi\n\nborrowers on money markets especially v\u2026",
            "published_at": "2023-05-19T15:17:26Z",
            "slug": "1-GET-THE-MOST-FOR-YOUR-capital-efficiency-is-the-holy-grail-of-defi-borrowers-on-money-markets-especially-v",
            "currencies": [
                {
                    "code": "BETA",
                    "title": "Beta Finance",
                    "slug": "beta-finance",
                    "url": "https:\/\/cryptopanic.com\/news\/beta-finance\/"
                }
            ],
            "id": 18384378,
            "url": "https:\/\/cryptopanic.com\/news\/18384378\/1-GET-THE-MOST-FOR-YOUR-capital-efficiency-is-the-holy-grail-of-defi-borrowers-on-money-markets-especially-v",
            "created_at": "2023-05-19T15:17:26Z",
            "votes": {
                "negative": 0,
                "positive": 0,
                "important": 0,
                "liked": 0,
                "disliked": 0,
                "lol": 0,
                "toxic": 0,
                "saved": 0,
                "comments": 0
            }
        },
        {
            "kind": "news",
            "domain": "@beta_finance",
            "source": {
                "title": "Beta Finance Twitter",
                "region": "en",
                "domain": "twitter.com",
                "path": "@beta_finance"
            },
            "title": "With v2 #OMNI in the works, we've re-evaluated existing infra and have decided to end new liquidity mining rewards\u2026",
            "published_at": "2023-05-18T13:17:26Z",
            "slug": "With-v2-OMNI-in-the-works-weve-re-evaluated-existing-infra-and-have-decided-to-end-new-liquidity-mining-rewards",
            "currencies": [
                {
                    "code": "BETA",
                    "title": "Beta Finance",
                    "slug": "beta-finance",
                    "url": "https:\/\/cryptopanic.com\/news\/beta-finance\/"
                }
            ],
            "id": 18375695,
            "url": "https:\/\/cryptopanic.com\/news\/18375695\/With-v2-OMNI-in-the-works-weve-re-evaluated-existing-infra-and-have-decided-to-end-new-liquidity-mining-rewards",
            "created_at": "2023-05-18T13:17:26Z",
            "votes": {
                "negative": 0,
                "positive": 0,
                "important": 0,
                "liked": 0,
                "disliked": 0,
                "lol": 0,
                "toxic": 0,
                "saved": 0,
                "comments": 0
            }
        },
        {
            "kind": "news",
            "domain": "@beta_finance",
            "source": {
                "title": "Beta Finance Twitter",
                "region": "en",
                "domain": "twitter.com",
                "path": "@beta_finance"
            },
            "title": "v2: OMNI is designed to be simple and powerful for all types of users from beginners to advanced\n\nunderstand manage\u2026",
            "published_at": "2023-05-16T16:08:56Z",
            "slug": "v2-OMNI-is-designed-to-be-simple-and-powerful-for-all-types-of-users-from-beginners-to-advanced-understand-manage",
            "currencies": [
                {
                    "code": "BETA",
                    "title": "Beta Finance",
                    "slug": "beta-finance",
                    "url": "https:\/\/cryptopanic.com\/news\/beta-finance\/"
                }
            ],
            "id": 18356931,
            "url": "https:\/\/cryptopanic.com\/news\/18356931\/v2-OMNI-is-designed-to-be-simple-and-powerful-for-all-types-of-users-from-beginners-to-advanced-understand-manage",
            "created_at": "2023-05-16T16:08:56Z",
            "votes": {
                "negative": 0,
                "positive": 0,
                "important": 0,
                "liked": 0,
                "disliked": 0,
                "lol": 0,
                "toxic": 0,
                "saved": 0,
                "comments": 0
            }
        },
        {
            "kind": "news",
            "domain": "@beta_finance",
            "source": {
                "title": "Beta Finance Twitter",
                "region": "en",
                "domain": "twitter.com",
                "path": "@beta_finance"
            },
            "title": "gm\n\nwe're building #OMNI thru the weekend, devs don't stop\ud83e\udee1",
            "published_at": "2023-05-05T13:41:12Z",
            "slug": "gm-were-building-OMNI-thru-the-weekend-devs-dont-stop",
            "currencies": [
                {
                    "code": "BETA",
                    "title": "Beta Finance",
                    "slug": "beta-finance",
                    "url": "https:\/\/cryptopanic.com\/news\/beta-finance\/"
                }
            ],
            "id": 18274346,
            "url": "https:\/\/cryptopanic.com\/news\/18274346\/gm-were-building-OMNI-thru-the-weekend-devs-dont-stop",
            "created_at": "2023-05-05T13:41:12Z",
            "votes": {
                "negative": 0,
                "positive": 0,
                "important": 0,
                "liked": 0,
                "disliked": 0,
                "lol": 0,
                "toxic": 0,
                "saved": 0,
                "comments": 0
            }
        },
        {
            "kind": "news",
            "domain": "@beta_finance",
            "source": {
                "title": "Beta Finance Twitter",
                "region": "en",
                "domain": "twitter.com",
                "path": "@beta_finance"
            },
            "title": "oh did paradigm just release a new nft lending protocol and everyone's bullish lending?\n\njust wait until everyone s\u2026",
            "published_at": "2023-05-03T14:10:00Z",
            "slug": "oh-did-paradigm-just-release-a-new-nft-lending-protocol-and-everyones-bullish-lending-just-wait-until-everyone-s",
            "currencies": [
                {
                    "code": "BETA",
                    "title": "Beta Finance",
                    "slug": "beta-finance",
                    "url": "https:\/\/cryptopanic.com\/news\/beta-finance\/"
                }
            ],
            "id": 18256786,
            "url": "https:\/\/cryptopanic.com\/news\/18256786\/oh-did-paradigm-just-release-a-new-nft-lending-protocol-and-everyones-bullish-lending-just-wait-until-everyone-s",
            "created_at": "2023-05-03T14:10:00Z",
            "votes": {
                "negative": 0,
                "positive": 0,
                "important": 0,
                "liked": 0,
                "disliked": 0,
                "lol": 0,
                "toxic": 0,
                "saved": 0,
                "comments": 0
            }
        },
        {
            "kind": "news",
            "domain": "@beta_finance",
            "source": {
                "title": "Beta Finance Twitter",
                "region": "en",
                "domain": "twitter.com",
                "path": "@beta_finance"
            },
            "title": "1\/ Lending is the 3rd largest sector of DeFi behind DEXs and LSDs\n\n@beta_finance pioneered the isolated model in 20\u2026",
            "published_at": "2023-04-26T15:24:25Z",
            "slug": "1-Lending-is-the-3rd-largest-sector-of-DeFi-behind-DEXs-and-LSDs-beta_finance-pioneered-the-isolated-model-in-20",
            "currencies": [
                {
                    "code": "BETA",
                    "title": "Beta Finance",
                    "slug": "beta-finance",
                    "url": "https:\/\/cryptopanic.com\/news\/beta-finance\/"
                }
            ],
            "id": 18203539,
            "url": "https:\/\/cryptopanic.com\/news\/18203539\/1-Lending-is-the-3rd-largest-sector-of-DeFi-behind-DEXs-and-LSDs-beta_finance-pioneered-the-isolated-model-in-20",
            "created_at": "2023-04-26T15:24:25Z",
            "votes": {
                "negative": 0,
                "positive": 0,
                "important": 0,
                "liked": 0,
                "disliked": 0,
                "lol": 0,
                "toxic": 0,
                "saved": 0,
                "comments": 0
            }
        },
        {
            "kind": "news",
            "domain": "@beta_finance",
            "source": {
                "title": "Beta Finance Twitter",
                "region": "en",
                "domain": "twitter.com",
                "path": "@beta_finance"
            },
            "title": "gm\ufe0f good week to build, progress coming along nicely\n\n#OMNI",
            "published_at": "2023-04-18T15:05:04Z",
            "slug": "gm-good-week-to-build-progress-coming-along-nicely-OMNI",
            "currencies": [
                {
                    "code": "BETA",
                    "title": "Beta Finance",
                    "slug": "beta-finance",
                    "url": "https:\/\/cryptopanic.com\/news\/beta-finance\/"
                }
            ],
            "id": 18140913,
            "url": "https:\/\/cryptopanic.com\/news\/18140913\/gm-good-week-to-build-progress-coming-along-nicely-OMNI",
            "created_at": "2023-04-18T15:05:04Z",
            "votes": {
                "negative": 0,
                "positive": 0,
                "important": 0,
                "liked": 0,
                "disliked": 0,
                "lol": 0,
                "toxic": 0,
                "saved": 0,
                "comments": 0
            }
        },
        {
            "kind": "news",
            "domain": "@beta_finance",
            "source": {
                "title": "Beta Finance Twitter",
                "region": "en",
                "domain": "twitter.com",
                "path": "@beta_finance"
            },
            "title": "What are some of the biggest problems you have when using money markets?\n\nWhat are things you wish you could do with money markets?",
            "published_at": "2023-04-12T14:41:36Z",
            "slug": "What-are-some-of-the-biggest-problems-you-have-when-using-money-markets-What-are-things-you-wish-you-could-do-with-money-markets",
            "currencies": [
                {
                    "code": "BETA",
                    "title": "Beta Finance",
                    "slug": "beta-finance",
                    "url": "https:\/\/cryptopanic.com\/news\/beta-finance\/"
                }
            ],
            "id": 18097226,
            "url": "https:\/\/cryptopanic.com\/news\/18097226\/What-are-some-of-the-biggest-problems-you-have-when-using-money-markets-What-are-things-you-wish-you-could-do-with-money-markets",
            "created_at": "2023-04-12T14:41:36Z",
            "votes": {
                "negative": 0,
                "positive": 0,
                "important": 0,
                "liked": 0,
                "disliked": 0,
                "lol": 0,
                "toxic": 0,
                "saved": 0,
                "comments": 0
            }
        },
        {
            "kind": "news",
            "domain": "@beta_finance",
            "source": {
                "title": "Beta Finance Twitter",
                "region": "en",
                "domain": "twitter.com",
                "path": "@beta_finance"
            },
            "title": "1\/ \u203c\ufe0fLending Opportunity? Hedge Opportunity? \ud83e\uddf5to find out\n\n\ud83e\udd78\u00a0Traders: $BLUR recently announced they would be extend\u2026",
            "published_at": "2023-04-07T16:32:19Z",
            "slug": "1-Lending-Opportunity-Hedge-Opportunity-to-find-out-Traders-BLUR-recently-announced-they-would-be-extend",
            "currencies": [
                {
                    "code": "BETA",
                    "title": "Beta Finance",
                    "slug": "beta-finance",
                    "url": "https:\/\/cryptopanic.com\/news\/beta-finance\/"
                }
            ],
            "id": 18063121,
            "url": "https:\/\/cryptopanic.com\/news\/18063121\/1-Lending-Opportunity-Hedge-Opportunity-to-find-out-Traders-BLUR-recently-announced-they-would-be-extend",
            "created_at": "2023-04-07T16:32:19Z",
            "votes": {
                "negative": 0,
                "positive": 0,
                "important": 0,
                "liked": 0,
                "disliked": 0,
                "lol": 0,
                "toxic": 0,
                "saved": 0,
                "comments": 0
            }
        },
        {
            "kind": "news",
            "domain": "@beta_finance",
            "source": {
                "title": "Beta Finance Twitter",
                "region": "en",
                "domain": "twitter.com",
                "path": "@beta_finance"
            },
            "title": "1\/ Some educational information on money markets for our community with the upcoming changes\ud83e\udd29\nA short thread coveri\u2026",
            "published_at": "2023-04-04T13:11:22Z",
            "slug": "1-Some-educational-information-on-money-markets-for-our-community-with-the-upcoming-changes-A-short-thread-coveri",
            "currencies": [
                {
                    "code": "BETA",
                    "title": "Beta Finance",
                    "slug": "beta-finance",
                    "url": "https:\/\/cryptopanic.com\/news\/beta-finance\/"
                }
            ],
            "id": 18037810,
            "url": "https:\/\/cryptopanic.com\/news\/18037810\/1-Some-educational-information-on-money-markets-for-our-community-with-the-upcoming-changes-A-short-thread-coveri",
            "created_at": "2023-04-04T13:11:22Z",
            "votes": {
                "negative": 0,
                "positive": 0,
                "important": 0,
                "liked": 0,
                "disliked": 0,
                "lol": 0,
                "toxic": 0,
                "saved": 0,
                "comments": 0
            }
        }
    ]
}
