{
    "count": 200,
    "next": "https:\/\/cryptopanic.com\/api\/v1\/posts\/?auth_token=01c356e89ffc1b8eba2127c81fc8c66ee0eace75&kind=news&currencies=IQ&page=2",
    "previous": null,
    "results": [
        {
            "kind": "news",
            "domain": "@IQWIKI",
            "source": {
                "title": "IQ Twitter",
                "region": "en",
                "domain": "twitter.com",
                "path": "@iqwiki"
            },
            "title": "RT @IQWIKI: Binance has added $IQ to Binance Auto-Invest!\n\nOn @binance, users can now dollar-cost average into $IQ using $USDT, $BTC and ot\u2026",
            "published_at": "2023-07-11T23:41:17Z",
            "slug": "RT-IQWIKI-Binance-has-added-IQ-to-Binance-Auto-Invest-On-binance-users-can-now-dollar-cost-average-into-IQ-using-USDT-BTC-and-ot",
            "currencies": [
                {
                    "code": "IQ",
                    "title": "IQ",
                    "slug": "everipedia",
                    "url": "https:\/\/cryptopanic.com\/news\/everipedia\/"
                }
            ],
            "id": 18764926,
            "url": "https:\/\/cryptopanic.com\/news\/18764926\/RT-IQWIKI-Binance-has-added-IQ-to-Binance-Auto-Invest-On-binance-users-can-now-dollar-cost-average-into-IQ-using-USDT-BTC-and-ot",
            "created_at": "2023-07-11T23:41:17Z",
            "votes": {
                "negative": 0,
                "positive": 0,
                "important": 0,
                "liked": 0,
                "disliked": 0,
                "lol": 0,
                "toxic": 0,
                "saved": 0,
                "comments": 0
            }
        },
        {
            "kind": "news",
            "domain": "@IQWIKI",
            "source": {
                "title": "IQ Twitter",
                "region": "en",
                "domain": "twitter.com",
                "path": "@iqwiki"
            },
            "title": "RT @DeFiDave22: No raave? No problem  \n\nThis year we DAAVE \n\nBrought to you by @FlywheelDeFi, @PIFLabs_, @0xhorizonslaw, and @IQWIKI http\u2026",
            "published_at": "2023-07-11T23:40:39Z",
            "slug": "RT-DeFiDave22-No-raave-No-problem-This-year-we-DAAVE-Brought-to-you-by-FlywheelDeFi-PIFLabs_-0xhorizonslaw-and-IQWIKI-http",
            "currencies": [
                {
                    "code": "IQ",
                    "title": "IQ",
                    "slug": "everipedia",
                    "url": "https:\/\/cryptopanic.com\/news\/everipedia\/"
                }
            ],
            "id": 18764927,
            "url": "https:\/\/cryptopanic.com\/news\/18764927\/RT-DeFiDave22-No-raave-No-problem-This-year-we-DAAVE-Brought-to-you-by-FlywheelDeFi-PIFLabs_-0xhorizonslaw-and-IQWIKI-http",
            "created_at": "2023-07-11T23:40:39Z",
            "votes": {
                "negative": 0,
                "positive": 0,
                "important": 0,
                "liked": 0,
                "disliked": 0,
                "lol": 0,
                "toxic": 0,
                "saved": 0,
                "comments": 0
            }
        },
        {
            "kind": "news",
            "domain": "@IQWIKI",
            "source": {
                "title": "IQ Twitter",
                "region": "en",
                "domain": "twitter.com",
                "path": "@iqwiki"
            },
            "title": "RT @IQWIKI: Here is a TOP 5 list of pages related to ETHCC which is next week\n\n1\ufe0f\u20e3 @EthCC\n\n2\ufe0f\u20e3 @VitalikButerin\n\n3\ufe0f\u20e3 @haydenzadams\n\n4\ufe0f\u20e3 @co\u2026",
            "published_at": "2023-07-11T16:21:02Z",
            "slug": "RT-IQWIKI-Here-is-a-TOP-5-list-of-pages-related-to-ETHCC-which-is-next-week-1-EthCC-2-VitalikButerin-3-haydenzadams-4-co",
            "currencies": [
                {
                    "code": "IQ",
                    "title": "IQ",
                    "slug": "everipedia",
                    "url": "https:\/\/cryptopanic.com\/news\/everipedia\/"
                }
            ],
            "id": 18764928,
            "url": "https:\/\/cryptopanic.com\/news\/18764928\/RT-IQWIKI-Here-is-a-TOP-5-list-of-pages-related-to-ETHCC-which-is-next-week-1-EthCC-2-VitalikButerin-3-haydenzadams-4-co",
            "created_at": "2023-07-11T16:21:02Z",
            "votes": {
                "negative": 0,
                "positive": 0,
                "important": 0,
                "liked": 0,
                "disliked": 0,
                "lol": 0,
                "toxic": 0,
                "saved": 0,
                "comments": 0
            }
        },
        {
            "kind": "news",
            "domain": "@IQWIKI",
            "source": {
                "title": "IQ Twitter",
                "region": "en",
                "domain": "twitter.com",
                "path": "@iqwiki"
            },
            "title": "Here is a TOP 5 list of pages related to ETHCC which is next week\n\n1\ufe0f\u20e3 @EthCC\n\n2\ufe0f\u20e3 @VitalikButerin\n\n3\ufe0f\u20e3\u2026",
            "published_at": "2023-07-11T03:11:10Z",
            "slug": "Here-is-a-TOP-5-list-of-pages-related-to-ETHCC-which-is-next-week-1-EthCC-2-VitalikButerin-3",
            "currencies": [
                {
                    "code": "IQ",
                    "title": "IQ",
                    "slug": "everipedia",
                    "url": "https:\/\/cryptopanic.com\/news\/everipedia\/"
                }
            ],
            "id": 18756765,
            "url": "https:\/\/cryptopanic.com\/news\/18756765\/Here-is-a-TOP-5-list-of-pages-related-to-ETHCC-which-is-next-week-1-EthCC-2-VitalikButerin-3",
            "created_at": "2023-07-11T03:11:10Z",
            "votes": {
                "negative": 0,
                "positive": 0,
                "important": 0,
                "liked": 0,
                "disliked": 0,
                "lol": 0,
                "toxic": 0,
                "saved": 0,
                "comments": 0
            }
        },
        {
            "kind": "news",
            "domain": "@IQWIKI",
            "source": {
                "title": "IQ Twitter",
                "region": "en",
                "domain": "twitter.com",
                "path": "@iqwiki"
            },
            "title": "RT @binance: #Binance Auto-Invest adds the following:\n\n $MAV\n $PENDLE\n $WBETH\n $COMBO\n $IQ",
            "published_at": "2023-07-10T18:22:32Z",
            "slug": "RT-binance-Binance-Auto-Invest-adds-the-following-MAV-PENDLE-WBETH-COMBO-IQ",
            "currencies": [
                {
                    "code": "IQ",
                    "title": "IQ",
                    "slug": "everipedia",
                    "url": "https:\/\/cryptopanic.com\/news\/everipedia\/"
                }
            ],
            "id": 18756766,
            "url": "https:\/\/cryptopanic.com\/news\/18756766\/RT-binance-Binance-Auto-Invest-adds-the-following-MAV-PENDLE-WBETH-COMBO-IQ",
            "created_at": "2023-07-10T18:22:32Z",
            "votes": {
                "negative": 0,
                "positive": 0,
                "important": 0,
                "liked": 0,
                "disliked": 0,
                "lol": 0,
                "toxic": 0,
                "saved": 0,
                "comments": 0
            }
        },
        {
            "kind": "news",
            "domain": "@IQWIKI",
            "source": {
                "title": "IQ Twitter",
                "region": "en",
                "domain": "twitter.com",
                "path": "@iqwiki"
            },
            "title": "RT @ETHuncho:  A big shout-out to @binance for their support in integrating $IQ across an expanding range of products on their platform. M\u2026",
            "published_at": "2023-07-10T18:22:26Z",
            "slug": "RT-ETHuncho-A-big-shout-out-to-binance-for-their-support-in-integrating-IQ-across-an-expanding-range-of-products-on-their-platform-M",
            "currencies": [
                {
                    "code": "IQ",
                    "title": "IQ",
                    "slug": "everipedia",
                    "url": "https:\/\/cryptopanic.com\/news\/everipedia\/"
                }
            ],
            "id": 18756767,
            "url": "https:\/\/cryptopanic.com\/news\/18756767\/RT-ETHuncho-A-big-shout-out-to-binance-for-their-support-in-integrating-IQ-across-an-expanding-range-of-products-on-their-platform-M",
            "created_at": "2023-07-10T18:22:26Z",
            "votes": {
                "negative": 0,
                "positive": 0,
                "important": 0,
                "liked": 0,
                "disliked": 0,
                "lol": 0,
                "toxic": 0,
                "saved": 0,
                "comments": 0
            }
        },
        {
            "kind": "news",
            "domain": "@IQWIKI",
            "source": {
                "title": "IQ Twitter",
                "region": "en",
                "domain": "twitter.com",
                "path": "@iqwiki"
            },
            "title": "RT @NavV96: IQ and Binance are continuing to improve access, Binance Auto-Invest makes it easy to dollar-cost average.",
            "published_at": "2023-07-10T18:14:16Z",
            "slug": "RT-NavV96-IQ-and-Binance-are-continuing-to-improve-access-Binance-Auto-Invest-makes-it-easy-to-dollar-cost-average",
            "currencies": [
                {
                    "code": "IQ",
                    "title": "IQ",
                    "slug": "everipedia",
                    "url": "https:\/\/cryptopanic.com\/news\/everipedia\/"
                }
            ],
            "id": 18756768,
            "url": "https:\/\/cryptopanic.com\/news\/18756768\/RT-NavV96-IQ-and-Binance-are-continuing-to-improve-access-Binance-Auto-Invest-makes-it-easy-to-dollar-cost-average",
            "created_at": "2023-07-10T18:14:16Z",
            "votes": {
                "negative": 0,
                "positive": 0,
                "important": 0,
                "liked": 0,
                "disliked": 0,
                "lol": 0,
                "toxic": 0,
                "saved": 0,
                "comments": 0
            }
        },
        {
            "kind": "news",
            "domain": "@IQWIKI",
            "source": {
                "title": "IQ Twitter",
                "region": "en",
                "domain": "twitter.com",
                "path": "@iqwiki"
            },
            "title": "Binance has added $IQ to Binance Auto-Invest!\n\nOn @binance, users can now dollar-cost average into $IQ using $USDT,\u2026",
            "published_at": "2023-07-10T18:10:00Z",
            "slug": "Binance-has-added-IQ-to-Binance-Auto-Invest-On-binance-users-can-now-dollar-cost-average-into-IQ-using-USDT",
            "currencies": [
                {
                    "code": "IQ",
                    "title": "IQ",
                    "slug": "everipedia",
                    "url": "https:\/\/cryptopanic.com\/news\/everipedia\/"
                }
            ],
            "id": 18756769,
            "url": "https:\/\/cryptopanic.com\/news\/18756769\/Binance-has-added-IQ-to-Binance-Auto-Invest-On-binance-users-can-now-dollar-cost-average-into-IQ-using-USDT",
            "created_at": "2023-07-10T18:10:00Z",
            "votes": {
                "negative": 0,
                "positive": 0,
                "important": 0,
                "liked": 0,
                "disliked": 0,
                "lol": 0,
                "toxic": 0,
                "saved": 0,
                "comments": 0
            }
        },
        {
            "kind": "news",
            "domain": "@IQWIKI",
            "source": {
                "title": "IQ Twitter",
                "region": "en",
                "domain": "twitter.com",
                "path": "@iqwiki"
            },
            "title": "What is the soon-to-be-released FrxGov?\n\n(a concise thread)\n@fraxfinance\nTHE AUDIT IS COMPLETE \n\n\ud83e\uddf5",
            "published_at": "2023-07-07T17:08:22Z",
            "slug": "What-is-the-soon-to-be-released-FrxGov-a-concise-thread-fraxfinance-THE-AUDIT-IS-COMPLETE",
            "currencies": [
                {
                    "code": "IQ",
                    "title": "IQ",
                    "slug": "everipedia",
                    "url": "https:\/\/cryptopanic.com\/news\/everipedia\/"
                }
            ],
            "id": 18740646,
            "url": "https:\/\/cryptopanic.com\/news\/18740646\/What-is-the-soon-to-be-released-FrxGov-a-concise-thread-fraxfinance-THE-AUDIT-IS-COMPLETE",
            "created_at": "2023-07-07T17:08:22Z",
            "votes": {
                "negative": 0,
                "positive": 0,
                "important": 0,
                "liked": 0,
                "disliked": 0,
                "lol": 0,
                "toxic": 0,
                "saved": 0,
                "comments": 0
            }
        },
        {
            "kind": "news",
            "domain": "@IQWIKI",
            "source": {
                "title": "IQ Twitter",
                "region": "en",
                "domain": "twitter.com",
                "path": "@iqwiki"
            },
            "title": "RT @syw0243: Memecoins such as @pepecoineth have been surging recently so thought I'd share this page I created on @CryptoDickbutts!\n\nFro\u2026",
            "published_at": "2023-07-06T00:33:26Z",
            "slug": "RT-syw0243-Memecoins-such-as-pepecoineth-have-been-surging-recently-so-thought-Id-share-this-page-I-created-on-CryptoDickbutts-Fro",
            "currencies": [
                {
                    "code": "IQ",
                    "title": "IQ",
                    "slug": "everipedia",
                    "url": "https:\/\/cryptopanic.com\/news\/everipedia\/"
                }
            ],
            "id": 18724594,
            "url": "https:\/\/cryptopanic.com\/news\/18724594\/RT-syw0243-Memecoins-such-as-pepecoineth-have-been-surging-recently-so-thought-Id-share-this-page-I-created-on-CryptoDickbutts-Fro",
            "created_at": "2023-07-06T00:33:26Z",
            "votes": {
                "negative": 0,
                "positive": 0,
                "important": 0,
                "liked": 0,
                "disliked": 0,
                "lol": 0,
                "toxic": 0,
                "saved": 0,
                "comments": 0
            }
        },
        {
            "kind": "news",
            "domain": "@IQWIKI",
            "source": {
                "title": "IQ Twitter",
                "region": "en",
                "domain": "twitter.com",
                "path": "@iqwiki"
            },
            "title": "June was an exciting month for $IQ \ud83e\udde0!\n\n@Binance Convert added support for $IQ.\n\n@Bond_Protocol integrated\u2026",
            "published_at": "2023-07-05T14:17:56Z",
            "slug": "June-was-an-exciting-month-for-IQ-Binance-Convert-added-support-for-IQ-Bond_Protocol-integrated",
            "currencies": [
                {
                    "code": "IQ",
                    "title": "IQ",
                    "slug": "everipedia",
                    "url": "https:\/\/cryptopanic.com\/news\/everipedia\/"
                }
            ],
            "id": 18724595,
            "url": "https:\/\/cryptopanic.com\/news\/18724595\/June-was-an-exciting-month-for-IQ-Binance-Convert-added-support-for-IQ-Bond_Protocol-integrated",
            "created_at": "2023-07-05T14:17:56Z",
            "votes": {
                "negative": 0,
                "positive": 0,
                "important": 0,
                "liked": 0,
                "disliked": 0,
                "lol": 0,
                "toxic": 0,
                "saved": 0,
                "comments": 0
            }
        },
        {
            "kind": "news",
            "domain": "@IQWIKI",
            "source": {
                "title": "IQ Twitter",
                "region": "en",
                "domain": "twitter.com",
                "path": "@iqwiki"
            },
            "title": "We are thrilled to announce that is now part of the @LensProtocol Community!\n\nCheck out our\u2026",
            "published_at": "2023-07-04T16:44:51Z",
            "slug": "We-are-thrilled-to-announce-that-is-now-part-of-the-LensProtocol-Community-Check-out-our",
            "currencies": [
                {
                    "code": "IQ",
                    "title": "IQ",
                    "slug": "everipedia",
                    "url": "https:\/\/cryptopanic.com\/news\/everipedia\/"
                }
            ],
            "id": 18716779,
            "url": "https:\/\/cryptopanic.com\/news\/18716779\/We-are-thrilled-to-announce-that-is-now-part-of-the-LensProtocol-Community-Check-out-our",
            "created_at": "2023-07-04T16:44:51Z",
            "votes": {
                "negative": 0,
                "positive": 0,
                "important": 0,
                "liked": 0,
                "disliked": 0,
                "lol": 0,
                "toxic": 0,
                "saved": 0,
                "comments": 0
            }
        },
        {
            "kind": "news",
            "domain": "@IQWIKI",
            "source": {
                "title": "IQ Twitter",
                "region": "en",
                "domain": "twitter.com",
                "path": "@iqwiki"
            },
            "title": "RT @FlywheelDeFi: \ud83e\udd14 WHO IS @samkazemian \ud83e\udd14\n\nThe \ud83c\uddee\ud83c\uddf7-\ud83c\uddfa\ud83c\uddf8 SW engineer and programmer founded @fraxfinance - the DeFi Super App \ud83e\uddb8\u200d\ufe0f\n\nFrom swapp\u2026",
            "published_at": "2023-07-04T14:42:16Z",
            "slug": "RT-FlywheelDeFi-WHO-IS-samkazemian-The-SW-engineer-and-programmer-founded-fraxfinance-the-DeFi-Super-App-From-swapp",
            "currencies": [
                {
                    "code": "IQ",
                    "title": "IQ",
                    "slug": "everipedia",
                    "url": "https:\/\/cryptopanic.com\/news\/everipedia\/"
                }
            ],
            "id": 18716781,
            "url": "https:\/\/cryptopanic.com\/news\/18716781\/RT-FlywheelDeFi-WHO-IS-samkazemian-The-SW-engineer-and-programmer-founded-fraxfinance-the-DeFi-Super-App-From-swapp",
            "created_at": "2023-07-04T14:42:16Z",
            "votes": {
                "negative": 0,
                "positive": 0,
                "important": 0,
                "liked": 0,
                "disliked": 0,
                "lol": 0,
                "toxic": 0,
                "saved": 0,
                "comments": 0
            }
        },
        {
            "kind": "news",
            "domain": "@IQWIKI",
            "source": {
                "title": "IQ Twitter",
                "region": "en",
                "domain": "twitter.com",
                "path": "@iqwiki"
            },
            "title": "Here are the TOP5 5\ufe0f\u20e3 trending pages at for 7\/02\n\n1\ufe0f\u20e3 @CharlotteFang77\n\n2\ufe0f\u20e3 @CyberKongz\u2026",
            "published_at": "2023-07-04T06:00:04Z",
            "slug": "Here-are-the-TOP5-5-trending-pages-at-for-702-1-CharlotteFang77-2-CyberKongz",
            "currencies": [
                {
                    "code": "IQ",
                    "title": "IQ",
                    "slug": "everipedia",
                    "url": "https:\/\/cryptopanic.com\/news\/everipedia\/"
                }
            ],
            "id": 18709586,
            "url": "https:\/\/cryptopanic.com\/news\/18709586\/Here-are-the-TOP5-5-trending-pages-at-for-702-1-CharlotteFang77-2-CyberKongz",
            "created_at": "2023-07-04T06:00:04Z",
            "votes": {
                "negative": 0,
                "positive": 0,
                "important": 0,
                "liked": 0,
                "disliked": 0,
                "lol": 0,
                "toxic": 0,
                "saved": 0,
                "comments": 0
            }
        },
        {
            "kind": "news",
            "domain": "@IQWIKI",
            "source": {
                "title": "IQ Twitter",
                "region": "en",
                "domain": "twitter.com",
                "path": "@iqwiki"
            },
            "title": "What are A.I Tokens?\ud83e\udd37\u200d\ufe0f\n\n\ud83e\udd16\ud83e\uddbe(a concise and educational thread)\n\n\ud83e\uddf5",
            "published_at": "2023-07-03T14:24:55Z",
            "slug": "What-are-AI-Tokens-a-concise-and-educational-thread",
            "currencies": [
                {
                    "code": "IQ",
                    "title": "IQ",
                    "slug": "everipedia",
                    "url": "https:\/\/cryptopanic.com\/news\/everipedia\/"
                }
            ],
            "id": 18709587,
            "url": "https:\/\/cryptopanic.com\/news\/18709587\/What-are-AI-Tokens-a-concise-and-educational-thread",
            "created_at": "2023-07-03T14:24:55Z",
            "votes": {
                "negative": 0,
                "positive": 0,
                "important": 0,
                "liked": 0,
                "disliked": 0,
                "lol": 0,
                "toxic": 0,
                "saved": 0,
                "comments": 0
            }
        },
        {
            "kind": "news",
            "domain": "@IQWIKI",
            "source": {
                "title": "IQ Twitter",
                "region": "en",
                "domain": "twitter.com",
                "path": "@iqwiki"
            },
            "title": " @goodgensler \nFor those that are interested, we have a informational wiki page on Good Gary Gensler\u2026",
            "published_at": "2023-07-03T05:48:09Z",
            "slug": "goodgensler-For-those-that-are-interested-we-have-a-informational-wiki-page-on-Good-Gary-Gensler",
            "currencies": [
                {
                    "code": "IQ",
                    "title": "IQ",
                    "slug": "everipedia",
                    "url": "https:\/\/cryptopanic.com\/news\/everipedia\/"
                }
            ],
            "id": 18703132,
            "url": "https:\/\/cryptopanic.com\/news\/18703132\/goodgensler-For-those-that-are-interested-we-have-a-informational-wiki-page-on-Good-Gary-Gensler",
            "created_at": "2023-07-03T05:48:09Z",
            "votes": {
                "negative": 0,
                "positive": 0,
                "important": 0,
                "liked": 0,
                "disliked": 0,
                "lol": 0,
                "toxic": 0,
                "saved": 0,
                "comments": 0
            }
        },
        {
            "kind": "news",
            "domain": "@IQWIKI",
            "source": {
                "title": "IQ Twitter",
                "region": "en",
                "domain": "twitter.com",
                "path": "@iqwiki"
            },
            "title": "RT @AfriTalentFair: Glad to have Stephen Ogbaje @iamsirsteve, Technical Product Manager @IQWIKI, as one of our Panelists for TalentFair '23\u2026",
            "published_at": "2023-07-01T19:49:59Z",
            "slug": "RT-AfriTalentFair-Glad-to-have-Stephen-Ogbaje-iamsirsteve-Technical-Product-Manager-IQWIKI-as-one-of-our-Panelists-for-TalentFair-23",
            "currencies": [
                {
                    "code": "IQ",
                    "title": "IQ",
                    "slug": "everipedia",
                    "url": "https:\/\/cryptopanic.com\/news\/everipedia\/"
                }
            ],
            "id": 18698986,
            "url": "https:\/\/cryptopanic.com\/news\/18698986\/RT-AfriTalentFair-Glad-to-have-Stephen-Ogbaje-iamsirsteve-Technical-Product-Manager-IQWIKI-as-one-of-our-Panelists-for-TalentFair-23",
            "created_at": "2023-07-01T19:49:59Z",
            "votes": {
                "negative": 0,
                "positive": 0,
                "important": 0,
                "liked": 0,
                "disliked": 0,
                "lol": 0,
                "toxic": 0,
                "saved": 0,
                "comments": 0
            }
        },
        {
            "kind": "news",
            "domain": "@IQWIKI",
            "source": {
                "title": "IQ Twitter",
                "region": "en",
                "domain": "twitter.com",
                "path": "@iqwiki"
            },
            "title": "South Korea passes cryptocurrency bill to protect investors and promote fair trading by regulating activities like\u2026",
            "published_at": "2023-06-30T14:34:17Z",
            "slug": "South-Korea-passes-cryptocurrency-bill-to-protect-investors-and-promote-fair-trading-by-regulating-activities-like",
            "currencies": [
                {
                    "code": "IQ",
                    "title": "IQ",
                    "slug": "everipedia",
                    "url": "https:\/\/cryptopanic.com\/news\/everipedia\/"
                }
            ],
            "id": 18693947,
            "url": "https:\/\/cryptopanic.com\/news\/18693947\/South-Korea-passes-cryptocurrency-bill-to-protect-investors-and-promote-fair-trading-by-regulating-activities-like",
            "created_at": "2023-06-30T14:34:17Z",
            "votes": {
                "negative": 0,
                "positive": 0,
                "important": 0,
                "liked": 0,
                "disliked": 0,
                "lol": 0,
                "toxic": 0,
                "saved": 0,
                "comments": 0
            }
        },
        {
            "kind": "news",
            "domain": "@IQWIKI",
            "source": {
                "title": "IQ Twitter",
                "region": "en",
                "domain": "twitter.com",
                "path": "@iqwiki"
            },
            "title": "RT @Aanuoluwap75979: Axelar Network @axelarcore connects #blockchains &amp; provides #Web3 interoperability. \nThe protocol supports cross-chai\u2026",
            "published_at": "2023-06-29T16:32:22Z",
            "slug": "RT-Aanuoluwap75979-Axelar-Network-axelarcore-connects-blockchains-amp-provides-Web3-interoperability-The-protocol-supports-cross-chai",
            "currencies": [
                {
                    "code": "IQ",
                    "title": "IQ",
                    "slug": "everipedia",
                    "url": "https:\/\/cryptopanic.com\/news\/everipedia\/"
                }
            ],
            "id": 18686148,
            "url": "https:\/\/cryptopanic.com\/news\/18686148\/RT-Aanuoluwap75979-Axelar-Network-axelarcore-connects-blockchains-amp-provides-Web3-interoperability-The-protocol-supports-cross-chai",
            "created_at": "2023-06-29T16:32:22Z",
            "votes": {
                "negative": 0,
                "positive": 0,
                "important": 0,
                "liked": 0,
                "disliked": 0,
                "lol": 0,
                "toxic": 0,
                "saved": 0,
                "comments": 0
            }
        },
        {
            "kind": "news",
            "domain": "@IQWIKI",
            "source": {
                "title": "IQ Twitter",
                "region": "en",
                "domain": "twitter.com",
                "path": "@iqwiki"
            },
            "title": "Let's dive into the current major players in Ethereum Liquid Staking Derivatives\n\n\ud83e\uddf5",
            "published_at": "2023-06-29T11:33:21Z",
            "slug": "Lets-dive-into-the-current-major-players-in-Ethereum-Liquid-Staking-Derivatives",
            "currencies": [
                {
                    "code": "IQ",
                    "title": "IQ",
                    "slug": "everipedia",
                    "url": "https:\/\/cryptopanic.com\/news\/everipedia\/"
                }
            ],
            "id": 18686149,
            "url": "https:\/\/cryptopanic.com\/news\/18686149\/Lets-dive-into-the-current-major-players-in-Ethereum-Liquid-Staking-Derivatives",
            "created_at": "2023-06-29T11:33:21Z",
            "votes": {
                "negative": 0,
                "positive": 0,
                "important": 0,
                "liked": 0,
                "disliked": 0,
                "lol": 0,
                "toxic": 0,
                "saved": 0,
                "comments": 0
            }
        }
    ]
}
