{
    "count": 200,
    "next": "https:\/\/cryptopanic.com\/api\/v1\/posts\/?auth_token=01c356e89ffc1b8eba2127c81fc8c66ee0eace75&kind=news&currencies=MBL&page=2",
    "previous": null,
    "results": [
        {
            "kind": "news",
            "domain": "@moviebloc",
            "source": {
                "title": "MovieBloc Twitter",
                "region": "en",
                "domain": "twitter.com",
                "path": "@moviebloc"
            },
            "title": "Now it's free on  \n\n&lt;Cocu&gt;, &lt;The Case&gt;, &lt;Marionette&gt;, &lt;Bullmastiff&gt; \n\n #Shorts #FreeMovie\u2026",
            "published_at": "2023-07-11T02:00:00Z",
            "slug": "Now-its-free-on-ltCocugt-ltThe-Casegt-ltMarionettegt-ltBullmastiffgt-Shorts-FreeMovie",
            "currencies": [
                {
                    "code": "MBL",
                    "title": "MovieBloc",
                    "slug": "moviebloc",
                    "url": "https:\/\/cryptopanic.com\/news\/moviebloc\/"
                }
            ],
            "id": 18757682,
            "url": "https:\/\/cryptopanic.com\/news\/18757682\/Now-its-free-on-ltCocugt-ltThe-Casegt-ltMarionettegt-ltBullmastiffgt-Shorts-FreeMovie",
            "created_at": "2023-07-11T02:00:00Z",
            "votes": {
                "negative": 0,
                "positive": 0,
                "important": 0,
                "liked": 0,
                "disliked": 0,
                "lol": 0,
                "toxic": 0,
                "saved": 0,
                "comments": 0
            }
        },
        {
            "kind": "news",
            "domain": "@moviebloc",
            "source": {
                "title": "MovieBloc Twitter",
                "region": "en",
                "domain": "twitter.com",
                "path": "@moviebloc"
            },
            "title": "Now it's free on \n\n&lt;The Memory Shop&gt;, &lt;Iron Me&gt; ,&lt;Baked Pears&gt; &lt;Premium Baby&gt; \n\n #Shorts\u2026",
            "published_at": "2023-07-04T02:00:00Z",
            "slug": "Now-its-free-on-ltThe-Memory-Shopgt-ltIron-Megt-ltBaked-Pearsgt-ltPremium-Babygt-Shorts",
            "currencies": [
                {
                    "code": "MBL",
                    "title": "MovieBloc",
                    "slug": "moviebloc",
                    "url": "https:\/\/cryptopanic.com\/news\/moviebloc\/"
                }
            ],
            "id": 18710464,
            "url": "https:\/\/cryptopanic.com\/news\/18710464\/Now-its-free-on-ltThe-Memory-Shopgt-ltIron-Megt-ltBaked-Pearsgt-ltPremium-Babygt-Shorts",
            "created_at": "2023-07-04T02:00:00Z",
            "votes": {
                "negative": 0,
                "positive": 0,
                "important": 0,
                "liked": 0,
                "disliked": 0,
                "lol": 0,
                "toxic": 0,
                "saved": 0,
                "comments": 0
            }
        },
        {
            "kind": "news",
            "domain": "@moviebloc",
            "source": {
                "title": "MovieBloc Twitter",
                "region": "en",
                "domain": "twitter.com",
                "path": "@moviebloc"
            },
            "title": "Now it's free on \n\n&lt;Patision Avenue&gt;, &lt;Wien for life&gt; ,&lt;Shooting Star&gt; \n&lt;Joy Palace&gt;\u2026",
            "published_at": "2023-06-27T02:00:00Z",
            "slug": "Now-its-free-on-ltPatision-Avenuegt-ltWien-for-lifegt-ltShooting-Stargt-ltJoy-Palacegt",
            "currencies": [
                {
                    "code": "MBL",
                    "title": "MovieBloc",
                    "slug": "moviebloc",
                    "url": "https:\/\/cryptopanic.com\/news\/moviebloc\/"
                }
            ],
            "id": 18662618,
            "url": "https:\/\/cryptopanic.com\/news\/18662618\/Now-its-free-on-ltPatision-Avenuegt-ltWien-for-lifegt-ltShooting-Stargt-ltJoy-Palacegt",
            "created_at": "2023-06-27T02:00:00Z",
            "votes": {
                "negative": 0,
                "positive": 0,
                "important": 0,
                "liked": 0,
                "disliked": 0,
                "lol": 0,
                "toxic": 0,
                "saved": 0,
                "comments": 0
            }
        },
        {
            "kind": "news",
            "domain": "@moviebloc",
            "source": {
                "title": "MovieBloc Twitter",
                "region": "en",
                "domain": "twitter.com",
                "path": "@moviebloc"
            },
            "title": "[EVENT] Watch movies and Get MBL! #ReviewEvent\n\nWe are hosting an event where you can receive up to $100 worth of M\u2026",
            "published_at": "2023-06-27T01:00:01Z",
            "slug": "EVENT-Watch-movies-and-Get-MBL-ReviewEvent-We-are-hosting-an-event-where-you-can-receive-up-to-100-worth-of-M",
            "currencies": [
                {
                    "code": "MBL",
                    "title": "MovieBloc",
                    "slug": "moviebloc",
                    "url": "https:\/\/cryptopanic.com\/news\/moviebloc\/"
                }
            ],
            "id": 18662619,
            "url": "https:\/\/cryptopanic.com\/news\/18662619\/EVENT-Watch-movies-and-Get-MBL-ReviewEvent-We-are-hosting-an-event-where-you-can-receive-up-to-100-worth-of-M",
            "created_at": "2023-06-27T01:00:01Z",
            "votes": {
                "negative": 0,
                "positive": 0,
                "important": 0,
                "liked": 0,
                "disliked": 0,
                "lol": 0,
                "toxic": 0,
                "saved": 0,
                "comments": 0
            }
        },
        {
            "kind": "news",
            "domain": "@moviebloc",
            "source": {
                "title": "MovieBloc Twitter",
                "region": "en",
                "domain": "twitter.com",
                "path": "@moviebloc"
            },
            "title": "Now it's free on \n\n&lt;The Zapperz&gt; While you are asleep, the night's mischief begins!\n\n#Shorts\u2026",
            "published_at": "2023-06-23T02:00:00Z",
            "slug": "Now-its-free-on-ltThe-Zapperzgt-While-you-are-asleep-the-nights-mischief-begins-Shorts",
            "currencies": [
                {
                    "code": "MBL",
                    "title": "MovieBloc",
                    "slug": "moviebloc",
                    "url": "https:\/\/cryptopanic.com\/news\/moviebloc\/"
                }
            ],
            "id": 18638354,
            "url": "https:\/\/cryptopanic.com\/news\/18638354\/Now-its-free-on-ltThe-Zapperzgt-While-you-are-asleep-the-nights-mischief-begins-Shorts",
            "created_at": "2023-06-23T02:00:00Z",
            "votes": {
                "negative": 0,
                "positive": 0,
                "important": 0,
                "liked": 0,
                "disliked": 0,
                "lol": 0,
                "toxic": 0,
                "saved": 0,
                "comments": 0
            }
        },
        {
            "kind": "news",
            "domain": "@moviebloc",
            "source": {
                "title": "MovieBloc Twitter",
                "region": "en",
                "domain": "twitter.com",
                "path": "@moviebloc"
            },
            "title": "Now it's free on \n\n&lt;Pie&gt; The grandmother's pie-baking house seems suspicious.\n\n#Shorts\u2026",
            "published_at": "2023-06-22T02:00:00Z",
            "slug": "Now-its-free-on-ltPiegt-The-grandmothers-pie-baking-house-seems-suspicious-Shorts",
            "currencies": [
                {
                    "code": "MBL",
                    "title": "MovieBloc",
                    "slug": "moviebloc",
                    "url": "https:\/\/cryptopanic.com\/news\/moviebloc\/"
                }
            ],
            "id": 18629797,
            "url": "https:\/\/cryptopanic.com\/news\/18629797\/Now-its-free-on-ltPiegt-The-grandmothers-pie-baking-house-seems-suspicious-Shorts",
            "created_at": "2023-06-22T02:00:00Z",
            "votes": {
                "negative": 0,
                "positive": 0,
                "important": 0,
                "liked": 0,
                "disliked": 0,
                "lol": 0,
                "toxic": 0,
                "saved": 0,
                "comments": 0
            }
        },
        {
            "kind": "news",
            "domain": "@moviebloc",
            "source": {
                "title": "MovieBloc Twitter",
                "region": "en",
                "domain": "twitter.com",
                "path": "@moviebloc"
            },
            "title": "Now it's free on \n\n&lt;Getting Fat in a Healthy Way&gt; In a world where it is difficult for thin\u2026",
            "published_at": "2023-06-20T02:00:00Z",
            "slug": "Now-its-free-on-ltGetting-Fat-in-a-Healthy-Waygt-In-a-world-where-it-is-difficult-for-thin",
            "currencies": [
                {
                    "code": "MBL",
                    "title": "MovieBloc",
                    "slug": "moviebloc",
                    "url": "https:\/\/cryptopanic.com\/news\/moviebloc\/"
                }
            ],
            "id": 18613703,
            "url": "https:\/\/cryptopanic.com\/news\/18613703\/Now-its-free-on-ltGetting-Fat-in-a-Healthy-Waygt-In-a-world-where-it-is-difficult-for-thin",
            "created_at": "2023-06-20T02:00:00Z",
            "votes": {
                "negative": 0,
                "positive": 0,
                "important": 0,
                "liked": 0,
                "disliked": 0,
                "lol": 0,
                "toxic": 0,
                "saved": 0,
                "comments": 0
            }
        },
        {
            "kind": "news",
            "domain": "@moviebloc",
            "source": {
                "title": "MovieBloc Twitter",
                "region": "en",
                "domain": "twitter.com",
                "path": "@moviebloc"
            },
            "title": "Now it's free on \n\n&lt;Tunnelrat&gt; Two enemy soldiers get locked up in a tunnel below the World\u2026",
            "published_at": "2023-06-19T02:00:00Z",
            "slug": "Now-its-free-on-ltTunnelratgt-Two-enemy-soldiers-get-locked-up-in-a-tunnel-below-the-World",
            "currencies": [
                {
                    "code": "MBL",
                    "title": "MovieBloc",
                    "slug": "moviebloc",
                    "url": "https:\/\/cryptopanic.com\/news\/moviebloc\/"
                }
            ],
            "id": 18606813,
            "url": "https:\/\/cryptopanic.com\/news\/18606813\/Now-its-free-on-ltTunnelratgt-Two-enemy-soldiers-get-locked-up-in-a-tunnel-below-the-World",
            "created_at": "2023-06-19T02:00:00Z",
            "votes": {
                "negative": 0,
                "positive": 0,
                "important": 0,
                "liked": 0,
                "disliked": 0,
                "lol": 0,
                "toxic": 0,
                "saved": 0,
                "comments": 0
            }
        },
        {
            "kind": "news",
            "domain": "@moviebloc",
            "source": {
                "title": "MovieBloc Twitter",
                "region": "en",
                "domain": "twitter.com",
                "path": "@moviebloc"
            },
            "title": "Now it's free on \n\n&lt;Mobile Suit Gundam March&gt; Hikikomori (a loner) Hyun-dong, decides to us\u2026",
            "published_at": "2023-06-16T02:00:00Z",
            "slug": "Now-its-free-on-ltMobile-Suit-Gundam-Marchgt-Hikikomori-a-loner-Hyun-dong-decides-to-us",
            "currencies": [
                {
                    "code": "MBL",
                    "title": "MovieBloc",
                    "slug": "moviebloc",
                    "url": "https:\/\/cryptopanic.com\/news\/moviebloc\/"
                }
            ],
            "id": 18588650,
            "url": "https:\/\/cryptopanic.com\/news\/18588650\/Now-its-free-on-ltMobile-Suit-Gundam-Marchgt-Hikikomori-a-loner-Hyun-dong-decides-to-us",
            "created_at": "2023-06-16T02:00:00Z",
            "votes": {
                "negative": 0,
                "positive": 0,
                "important": 0,
                "liked": 0,
                "disliked": 0,
                "lol": 0,
                "toxic": 0,
                "saved": 0,
                "comments": 0
            }
        },
        {
            "kind": "news",
            "domain": "@moviebloc",
            "source": {
                "title": "MovieBloc Twitter",
                "region": "en",
                "domain": "twitter.com",
                "path": "@moviebloc"
            },
            "title": "[Event] MovieBloc's community 'Movie Talk'is now open! Participate in the event and get MBL! \u2026",
            "published_at": "2023-06-15T03:09:40Z",
            "slug": "Event-MovieBlocs-community-Movie-Talkis-now-open-Participate-in-the-event-and-get-MBL",
            "currencies": [
                {
                    "code": "MBL",
                    "title": "MovieBloc",
                    "slug": "moviebloc",
                    "url": "https:\/\/cryptopanic.com\/news\/moviebloc\/"
                }
            ],
            "id": 18580738,
            "url": "https:\/\/cryptopanic.com\/news\/18580738\/Event-MovieBlocs-community-Movie-Talkis-now-open-Participate-in-the-event-and-get-MBL",
            "created_at": "2023-06-15T03:09:40Z",
            "votes": {
                "negative": 0,
                "positive": 0,
                "important": 0,
                "liked": 0,
                "disliked": 0,
                "lol": 0,
                "toxic": 0,
                "saved": 0,
                "comments": 0
            }
        },
        {
            "kind": "news",
            "domain": "@moviebloc",
            "source": {
                "title": "MovieBloc Twitter",
                "region": "en",
                "domain": "twitter.com",
                "path": "@moviebloc"
            },
            "title": "Now it's free on \n\n&lt;Metastasis&gt; Yeonsu was wandering after out of the hospital. and then sh\u2026",
            "published_at": "2023-06-15T02:00:00Z",
            "slug": "Now-its-free-on-ltMetastasisgt-Yeonsu-was-wandering-after-out-of-the-hospital-and-then-sh",
            "currencies": [
                {
                    "code": "MBL",
                    "title": "MovieBloc",
                    "slug": "moviebloc",
                    "url": "https:\/\/cryptopanic.com\/news\/moviebloc\/"
                }
            ],
            "id": 18580739,
            "url": "https:\/\/cryptopanic.com\/news\/18580739\/Now-its-free-on-ltMetastasisgt-Yeonsu-was-wandering-after-out-of-the-hospital-and-then-sh",
            "created_at": "2023-06-15T02:00:00Z",
            "votes": {
                "negative": 0,
                "positive": 0,
                "important": 0,
                "liked": 0,
                "disliked": 0,
                "lol": 0,
                "toxic": 0,
                "saved": 0,
                "comments": 0
            }
        },
        {
            "kind": "news",
            "domain": "@moviebloc",
            "source": {
                "title": "MovieBloc Twitter",
                "region": "en",
                "domain": "twitter.com",
                "path": "@moviebloc"
            },
            "title": "Now it's free on \n\n&lt;Remote Arcadia: Root&gt; A young boy coming from an elite lineage leaves h\u2026",
            "published_at": "2023-06-13T02:00:00Z",
            "slug": "Now-its-free-on-ltRemote-Arcadia-Rootgt-A-young-boy-coming-from-an-elite-lineage-leaves-h",
            "currencies": [
                {
                    "code": "MBL",
                    "title": "MovieBloc",
                    "slug": "moviebloc",
                    "url": "https:\/\/cryptopanic.com\/news\/moviebloc\/"
                }
            ],
            "id": 18563995,
            "url": "https:\/\/cryptopanic.com\/news\/18563995\/Now-its-free-on-ltRemote-Arcadia-Rootgt-A-young-boy-coming-from-an-elite-lineage-leaves-h",
            "created_at": "2023-06-13T02:00:00Z",
            "votes": {
                "negative": 0,
                "positive": 0,
                "important": 0,
                "liked": 0,
                "disliked": 0,
                "lol": 0,
                "toxic": 0,
                "saved": 0,
                "comments": 0
            }
        },
        {
            "kind": "news",
            "domain": "@moviebloc",
            "source": {
                "title": "MovieBloc Twitter",
                "region": "en",
                "domain": "twitter.com",
                "path": "@moviebloc"
            },
            "title": "Now it's free on \n\n&lt;Blood Group&gt; A meadow, a football. Dried sausages and a dirty looking d\u2026",
            "published_at": "2023-06-12T02:00:00Z",
            "slug": "Now-its-free-on-ltBlood-Groupgt-A-meadow-a-football-Dried-sausages-and-a-dirty-looking-d",
            "currencies": [
                {
                    "code": "MBL",
                    "title": "MovieBloc",
                    "slug": "moviebloc",
                    "url": "https:\/\/cryptopanic.com\/news\/moviebloc\/"
                }
            ],
            "id": 18556702,
            "url": "https:\/\/cryptopanic.com\/news\/18556702\/Now-its-free-on-ltBlood-Groupgt-A-meadow-a-football-Dried-sausages-and-a-dirty-looking-d",
            "created_at": "2023-06-12T02:00:00Z",
            "votes": {
                "negative": 0,
                "positive": 0,
                "important": 0,
                "liked": 0,
                "disliked": 0,
                "lol": 0,
                "toxic": 0,
                "saved": 0,
                "comments": 0
            }
        },
        {
            "kind": "news",
            "domain": "@moviebloc",
            "source": {
                "title": "MovieBloc Twitter",
                "region": "en",
                "domain": "twitter.com",
                "path": "@moviebloc"
            },
            "title": "Now it's free on  \n\n&lt;Don\u2019t Leave Me In The Shhh&gt;\"Quiet Time\" is introduced in public transp\u2026",
            "published_at": "2023-06-09T02:00:01Z",
            "slug": "Now-its-free-on-ltDont-Leave-Me-In-The-ShhhgtQuiet-Time-is-introduced-in-public-transp",
            "currencies": [
                {
                    "code": "MBL",
                    "title": "MovieBloc",
                    "slug": "moviebloc",
                    "url": "https:\/\/cryptopanic.com\/news\/moviebloc\/"
                }
            ],
            "id": 18538581,
            "url": "https:\/\/cryptopanic.com\/news\/18538581\/Now-its-free-on-ltDont-Leave-Me-In-The-ShhhgtQuiet-Time-is-introduced-in-public-transp",
            "created_at": "2023-06-09T02:00:01Z",
            "votes": {
                "negative": 0,
                "positive": 0,
                "important": 0,
                "liked": 0,
                "disliked": 0,
                "lol": 0,
                "toxic": 0,
                "saved": 0,
                "comments": 0
            }
        },
        {
            "kind": "news",
            "domain": "@moviebloc",
            "source": {
                "title": "MovieBloc Twitter",
                "region": "en",
                "domain": "twitter.com",
                "path": "@moviebloc"
            },
            "title": "Now it's free on  \n\n&lt;The Set-Up&gt; Jacob returns home with one intention: to kill himself.\u2026",
            "published_at": "2023-06-08T02:00:00Z",
            "slug": "Now-its-free-on-ltThe-Set-Upgt-Jacob-returns-home-with-one-intention-to-kill-himself",
            "currencies": [
                {
                    "code": "MBL",
                    "title": "MovieBloc",
                    "slug": "moviebloc",
                    "url": "https:\/\/cryptopanic.com\/news\/moviebloc\/"
                }
            ],
            "id": 18529928,
            "url": "https:\/\/cryptopanic.com\/news\/18529928\/Now-its-free-on-ltThe-Set-Upgt-Jacob-returns-home-with-one-intention-to-kill-himself",
            "created_at": "2023-06-08T02:00:00Z",
            "votes": {
                "negative": 0,
                "positive": 0,
                "important": 0,
                "liked": 0,
                "disliked": 0,
                "lol": 0,
                "toxic": 0,
                "saved": 0,
                "comments": 0
            }
        },
        {
            "kind": "news",
            "domain": "@moviebloc",
            "source": {
                "title": "MovieBloc Twitter",
                "region": "en",
                "domain": "twitter.com",
                "path": "@moviebloc"
            },
            "title": "Now it's free on  \n\n&lt;Christmas Roast&gt; He administers the letter of the law and does it in g\u2026",
            "published_at": "2023-06-06T02:00:01Z",
            "slug": "Now-its-free-on-ltChristmas-Roastgt-He-administers-the-letter-of-the-law-and-does-it-in-g",
            "currencies": [
                {
                    "code": "MBL",
                    "title": "MovieBloc",
                    "slug": "moviebloc",
                    "url": "https:\/\/cryptopanic.com\/news\/moviebloc\/"
                }
            ],
            "id": 18512476,
            "url": "https:\/\/cryptopanic.com\/news\/18512476\/Now-its-free-on-ltChristmas-Roastgt-He-administers-the-letter-of-the-law-and-does-it-in-g",
            "created_at": "2023-06-06T02:00:01Z",
            "votes": {
                "negative": 0,
                "positive": 0,
                "important": 0,
                "liked": 0,
                "disliked": 0,
                "lol": 0,
                "toxic": 0,
                "saved": 0,
                "comments": 0
            }
        },
        {
            "kind": "news",
            "domain": "@moviebloc",
            "source": {
                "title": "MovieBloc Twitter",
                "region": "en",
                "domain": "twitter.com",
                "path": "@moviebloc"
            },
            "title": "Now it's free on  \n\n&lt;30 Minutes by Day&gt; They are old, watching TV all day except when it is\u2026",
            "published_at": "2023-06-05T02:00:00Z",
            "slug": "Now-its-free-on-lt30-Minutes-by-Daygt-They-are-old-watching-TV-all-day-except-when-it-is",
            "currencies": [
                {
                    "code": "MBL",
                    "title": "MovieBloc",
                    "slug": "moviebloc",
                    "url": "https:\/\/cryptopanic.com\/news\/moviebloc\/"
                }
            ],
            "id": 18504669,
            "url": "https:\/\/cryptopanic.com\/news\/18504669\/Now-its-free-on-lt30-Minutes-by-Daygt-They-are-old-watching-TV-all-day-except-when-it-is",
            "created_at": "2023-06-05T02:00:00Z",
            "votes": {
                "negative": 0,
                "positive": 0,
                "important": 0,
                "liked": 0,
                "disliked": 0,
                "lol": 0,
                "toxic": 0,
                "saved": 0,
                "comments": 0
            }
        },
        {
            "kind": "news",
            "domain": "@moviebloc",
            "source": {
                "title": "MovieBloc Twitter",
                "region": "en",
                "domain": "twitter.com",
                "path": "@moviebloc"
            },
            "title": "Now it's free on  \n\n&lt;The Last Tape&gt; A young man and a veteran meet for the last time before\u2026",
            "published_at": "2023-06-02T02:00:01Z",
            "slug": "Now-its-free-on-ltThe-Last-Tapegt-A-young-man-and-a-veteran-meet-for-the-last-time-before",
            "currencies": [
                {
                    "code": "MBL",
                    "title": "MovieBloc",
                    "slug": "moviebloc",
                    "url": "https:\/\/cryptopanic.com\/news\/moviebloc\/"
                }
            ],
            "id": 18486230,
            "url": "https:\/\/cryptopanic.com\/news\/18486230\/Now-its-free-on-ltThe-Last-Tapegt-A-young-man-and-a-veteran-meet-for-the-last-time-before",
            "created_at": "2023-06-02T02:00:01Z",
            "votes": {
                "negative": 0,
                "positive": 0,
                "important": 0,
                "liked": 0,
                "disliked": 0,
                "lol": 0,
                "toxic": 0,
                "saved": 0,
                "comments": 0
            }
        },
        {
            "kind": "news",
            "domain": "@moviebloc",
            "source": {
                "title": "MovieBloc Twitter",
                "region": "en",
                "domain": "twitter.com",
                "path": "@moviebloc"
            },
            "title": "\u226aNews\u226b\u201cSynchronization rate 99%\u201d...Release of warm casting for the live-action film of DreamWorks masterpiece \u2018How\u2026",
            "published_at": "2023-06-01T02:43:33Z",
            "slug": "NewsSynchronization-rate-99Release-of-warm-casting-for-the-live-action-film-of-DreamWorks-masterpiece-How",
            "currencies": [
                {
                    "code": "MBL",
                    "title": "MovieBloc",
                    "slug": "moviebloc",
                    "url": "https:\/\/cryptopanic.com\/news\/moviebloc\/"
                }
            ],
            "id": 18477348,
            "url": "https:\/\/cryptopanic.com\/news\/18477348\/NewsSynchronization-rate-99Release-of-warm-casting-for-the-live-action-film-of-DreamWorks-masterpiece-How",
            "created_at": "2023-06-01T02:43:33Z",
            "votes": {
                "negative": 0,
                "positive": 0,
                "important": 0,
                "liked": 0,
                "disliked": 0,
                "lol": 0,
                "toxic": 0,
                "saved": 0,
                "comments": 0
            }
        },
        {
            "kind": "news",
            "domain": "@moviebloc",
            "source": {
                "title": "MovieBloc Twitter",
                "region": "en",
                "domain": "twitter.com",
                "path": "@moviebloc"
            },
            "title": "Now it's free on  \n\n&lt;The Nipple Whisperer&gt; Maurice Sanders has a gift. He\u2019s a nipple whispe\u2026",
            "published_at": "2023-06-01T02:00:01Z",
            "slug": "Now-its-free-on-ltThe-Nipple-Whisperergt-Maurice-Sanders-has-a-gift-Hes-a-nipple-whispe",
            "currencies": [
                {
                    "code": "MBL",
                    "title": "MovieBloc",
                    "slug": "moviebloc",
                    "url": "https:\/\/cryptopanic.com\/news\/moviebloc\/"
                }
            ],
            "id": 18477349,
            "url": "https:\/\/cryptopanic.com\/news\/18477349\/Now-its-free-on-ltThe-Nipple-Whisperergt-Maurice-Sanders-has-a-gift-Hes-a-nipple-whispe",
            "created_at": "2023-06-01T02:00:01Z",
            "votes": {
                "negative": 0,
                "positive": 0,
                "important": 0,
                "liked": 0,
                "disliked": 0,
                "lol": 0,
                "toxic": 0,
                "saved": 0,
                "comments": 0
            }
        }
    ]
}
