{
    "count": 200,
    "next": "https:\/\/cryptopanic.com\/api\/v1\/posts\/?auth_token=01c356e89ffc1b8eba2127c81fc8c66ee0eace75&kind=news&currencies=NEXO&page=2",
    "previous": null,
    "results": [
        {
            "kind": "news",
            "domain": "cryptobriefing.com",
            "source": {
                "title": "CryptoBriefing",
                "region": "en",
                "domain": "cryptobriefing.com",
                "path": null
            },
            "title": "Mastercard Partners with Nexo for Simplified Cryptocurrency Transactions",
            "published_at": "2023-08-31T16:17:48Z",
            "slug": "Mastercard-Partners-with-Nexo-for-Simplified-Cryptocurrency-Transactions",
            "currencies": [
                {
                    "code": "NEXO",
                    "title": "NEXO",
                    "slug": "nexo",
                    "url": "https:\/\/cryptopanic.com\/news\/nexo\/"
                }
            ],
            "id": 18872143,
            "url": "https:\/\/cryptopanic.com\/news\/18872143\/Mastercard-Partners-with-Nexo-for-Simplified-Cryptocurrency-Transactions",
            "created_at": "2023-08-31T16:17:48Z",
            "votes": {
                "negative": 0,
                "positive": 0,
                "important": 0,
                "liked": 0,
                "disliked": 0,
                "lol": 0,
                "toxic": 0,
                "saved": 0,
                "comments": 0
            }
        },
        {
            "kind": "news",
            "domain": "@Nexo",
            "source": {
                "title": "NEXO Twitter",
                "region": "en",
                "domain": "twitter.com",
                "path": "@nexo"
            },
            "title": "The ultimate #crypto card credentials:\n\n Powers your lifestyle virtually everywhere you go\n Earns you crypto with\u2026",
            "published_at": "2023-07-11T13:35:59Z",
            "slug": "The-ultimate-crypto-card-credentials-Powers-your-lifestyle-virtually-everywhere-you-go-Earns-you-crypto-with",
            "currencies": [
                {
                    "code": "NEXO",
                    "title": "NEXO",
                    "slug": "nexo",
                    "url": "https:\/\/cryptopanic.com\/news\/nexo\/"
                }
            ],
            "id": 18765891,
            "url": "https:\/\/cryptopanic.com\/news\/18765891\/The-ultimate-crypto-card-credentials-Powers-your-lifestyle-virtually-everywhere-you-go-Earns-you-crypto-with",
            "created_at": "2023-07-11T13:35:59Z",
            "votes": {
                "negative": 0,
                "positive": 0,
                "important": 0,
                "liked": 0,
                "disliked": 0,
                "lol": 0,
                "toxic": 0,
                "saved": 0,
                "comments": 0
            }
        },
        {
            "kind": "news",
            "domain": "@Nexo",
            "source": {
                "title": "NEXO Twitter",
                "region": "en",
                "domain": "twitter.com",
                "path": "@nexo"
            },
            "title": "From stablecoins to stable #passiveincome.\n\nIndustry-leading earn rates of up to 1\u20e36\u20e3% per year. Proven security tr\u2026",
            "published_at": "2023-07-10T14:31:01Z",
            "slug": "From-stablecoins-to-stable-passiveincome-Industry-leading-earn-rates-of-up-to-16-per-year-Proven-security-tr",
            "currencies": [
                {
                    "code": "NEXO",
                    "title": "NEXO",
                    "slug": "nexo",
                    "url": "https:\/\/cryptopanic.com\/news\/nexo\/"
                }
            ],
            "id": 18757756,
            "url": "https:\/\/cryptopanic.com\/news\/18757756\/From-stablecoins-to-stable-passiveincome-Industry-leading-earn-rates-of-up-to-16-per-year-Proven-security-tr",
            "created_at": "2023-07-10T14:31:01Z",
            "votes": {
                "negative": 0,
                "positive": 0,
                "important": 0,
                "liked": 0,
                "disliked": 0,
                "lol": 0,
                "toxic": 0,
                "saved": 0,
                "comments": 0
            }
        },
        {
            "kind": "news",
            "domain": "@Nexo",
            "source": {
                "title": "NEXO Twitter",
                "region": "en",
                "domain": "twitter.com",
                "path": "@nexo"
            },
            "title": "RT @NexoPrime: \ud83c\uddfa\ud83c\uddf8 U.S. CPI &amp; PPI readings take the macro spotlight this week, due to come out on July 12 &amp; 13 respectively.\n\nPlan ahead in\u2026",
            "published_at": "2023-07-10T12:41:00Z",
            "slug": "RT-NexoPrime-US-CPI-amp-PPI-readings-take-the-macro-spotlight-this-week-due-to-come-out-on-July-12-amp-13-respectively-Plan-ahead-in",
            "currencies": [
                {
                    "code": "NEXO",
                    "title": "NEXO",
                    "slug": "nexo",
                    "url": "https:\/\/cryptopanic.com\/news\/nexo\/"
                }
            ],
            "id": 18757757,
            "url": "https:\/\/cryptopanic.com\/news\/18757757\/RT-NexoPrime-US-CPI-amp-PPI-readings-take-the-macro-spotlight-this-week-due-to-come-out-on-July-12-amp-13-respectively-Plan-ahead-in",
            "created_at": "2023-07-10T12:41:00Z",
            "votes": {
                "negative": 0,
                "positive": 0,
                "important": 0,
                "liked": 0,
                "disliked": 0,
                "lol": 0,
                "toxic": 0,
                "saved": 0,
                "comments": 0
            }
        },
        {
            "kind": "news",
            "domain": "@Nexo",
            "source": {
                "title": "NEXO Twitter",
                "region": "en",
                "domain": "twitter.com",
                "path": "@nexo"
            },
            "title": "Treat your Sunday to some #blockchain know-how with our new podcast #TheSocialBlock. Hosted by @HristovaMagy.\n\nFor\u2026",
            "published_at": "2023-07-09T11:00:20Z",
            "slug": "Treat-your-Sunday-to-some-blockchain-know-how-with-our-new-podcast-TheSocialBlock-Hosted-by-HristovaMagy-For",
            "currencies": [
                {
                    "code": "NEXO",
                    "title": "NEXO",
                    "slug": "nexo",
                    "url": "https:\/\/cryptopanic.com\/news\/nexo\/"
                }
            ],
            "id": 18750653,
            "url": "https:\/\/cryptopanic.com\/news\/18750653\/Treat-your-Sunday-to-some-blockchain-know-how-with-our-new-podcast-TheSocialBlock-Hosted-by-HristovaMagy-For",
            "created_at": "2023-07-09T11:00:20Z",
            "votes": {
                "negative": 0,
                "positive": 0,
                "important": 0,
                "liked": 0,
                "disliked": 0,
                "lol": 0,
                "toxic": 0,
                "saved": 0,
                "comments": 0
            }
        },
        {
            "kind": "news",
            "domain": "@Nexo",
            "source": {
                "title": "NEXO Twitter",
                "region": "en",
                "domain": "twitter.com",
                "path": "@nexo"
            },
            "title": "In this patch of your weekly #Dispatch:\n\n #Litecoin\u2019s time to shine \ufe0f\n \u201cSoft landing ahead\u201d with the Fed \n\u2026",
            "published_at": "2023-07-07T15:00:02Z",
            "slug": "In-this-patch-of-your-weekly-Dispatch-Litecoins-time-to-shine-Soft-landing-ahead-with-the-Fed",
            "currencies": [
                {
                    "code": "NEXO",
                    "title": "NEXO",
                    "slug": "nexo",
                    "url": "https:\/\/cryptopanic.com\/news\/nexo\/"
                }
            ],
            "id": 18741495,
            "url": "https:\/\/cryptopanic.com\/news\/18741495\/In-this-patch-of-your-weekly-Dispatch-Litecoins-time-to-shine-Soft-landing-ahead-with-the-Fed",
            "created_at": "2023-07-07T15:00:02Z",
            "votes": {
                "negative": 0,
                "positive": 0,
                "important": 0,
                "liked": 0,
                "disliked": 0,
                "lol": 0,
                "toxic": 0,
                "saved": 0,
                "comments": 0
            }
        },
        {
            "kind": "news",
            "domain": "@Nexo",
            "source": {
                "title": "NEXO Twitter",
                "region": "en",
                "domain": "twitter.com",
                "path": "@nexo"
            },
            "title": "On Nexo you can bridge assets across blockchains without paying gas fees. Because staying flexible is key.\n\nA quick\u2026",
            "published_at": "2023-07-07T13:30:41Z",
            "slug": "On-Nexo-you-can-bridge-assets-across-blockchains-without-paying-gas-fees-Because-staying-flexible-is-key-A-quick",
            "currencies": [
                {
                    "code": "NEXO",
                    "title": "NEXO",
                    "slug": "nexo",
                    "url": "https:\/\/cryptopanic.com\/news\/nexo\/"
                }
            ],
            "id": 18741496,
            "url": "https:\/\/cryptopanic.com\/news\/18741496\/On-Nexo-you-can-bridge-assets-across-blockchains-without-paying-gas-fees-Because-staying-flexible-is-key-A-quick",
            "created_at": "2023-07-07T13:30:41Z",
            "votes": {
                "negative": 0,
                "positive": 0,
                "important": 0,
                "liked": 0,
                "disliked": 0,
                "lol": 0,
                "toxic": 0,
                "saved": 0,
                "comments": 0
            }
        },
        {
            "kind": "news",
            "domain": "@Nexo",
            "source": {
                "title": "NEXO Twitter",
                "region": "en",
                "domain": "twitter.com",
                "path": "@nexo"
            },
            "title": "Top-ups through the @avax C-Chain spell perfect conditions for an earnings avalanche.\n\nDeposit your $AVAX with ease\u2026",
            "published_at": "2023-07-06T14:30:14Z",
            "slug": "Top-ups-through-the-avax-C-Chain-spell-perfect-conditions-for-an-earnings-avalanche-Deposit-your-AVAX-with-ease",
            "currencies": [
                {
                    "code": "NEXO",
                    "title": "NEXO",
                    "slug": "nexo",
                    "url": "https:\/\/cryptopanic.com\/news\/nexo\/"
                },
                {
                    "code": "AVAX",
                    "title": "Avalanche",
                    "slug": "avalanche-2",
                    "url": "https:\/\/cryptopanic.com\/news\/avalanche-2\/"
                }
            ],
            "id": 18734012,
            "url": "https:\/\/cryptopanic.com\/news\/18734012\/Top-ups-through-the-avax-C-Chain-spell-perfect-conditions-for-an-earnings-avalanche-Deposit-your-AVAX-with-ease",
            "created_at": "2023-07-06T14:30:14Z",
            "votes": {
                "negative": 0,
                "positive": 0,
                "important": 0,
                "liked": 0,
                "disliked": 0,
                "lol": 0,
                "toxic": 0,
                "saved": 0,
                "comments": 0
            }
        },
        {
            "kind": "news",
            "domain": "@Nexo",
            "source": {
                "title": "NEXO Twitter",
                "region": "en",
                "domain": "twitter.com",
                "path": "@nexo"
            },
            "title": "\ufe0f Nexo is now SOC 2 Type 2 compliant, as audited by @aligncompliance.\n\nThe independent examination attests to our\u2026",
            "published_at": "2023-07-06T13:00:30Z",
            "slug": "Nexo-is-now-SOC-2-Type-2-compliant-as-audited-by-aligncompliance-The-independent-examination-attests-to-our",
            "currencies": [
                {
                    "code": "NEXO",
                    "title": "NEXO",
                    "slug": "nexo",
                    "url": "https:\/\/cryptopanic.com\/news\/nexo\/"
                }
            ],
            "id": 18734013,
            "url": "https:\/\/cryptopanic.com\/news\/18734013\/Nexo-is-now-SOC-2-Type-2-compliant-as-audited-by-aligncompliance-The-independent-examination-attests-to-our",
            "created_at": "2023-07-06T13:00:30Z",
            "votes": {
                "negative": 0,
                "positive": 0,
                "important": 0,
                "liked": 0,
                "disliked": 0,
                "lol": 0,
                "toxic": 0,
                "saved": 0,
                "comments": 0
            }
        },
        {
            "kind": "news",
            "domain": "@Nexo",
            "source": {
                "title": "NEXO Twitter",
                "region": "en",
                "domain": "twitter.com",
                "path": "@nexo"
            },
            "title": "Tell us what you think and score epic swag \u2013 deadline is today. \u231b\ufe0f\n\nReply below with your suggestions about the Loy\u2026",
            "published_at": "2023-07-05T12:00:16Z",
            "slug": "Tell-us-what-you-think-and-score-epic-swag-deadline-is-today-Reply-below-with-your-suggestions-about-the-Loy",
            "currencies": [
                {
                    "code": "NEXO",
                    "title": "NEXO",
                    "slug": "nexo",
                    "url": "https:\/\/cryptopanic.com\/news\/nexo\/"
                }
            ],
            "id": 18725546,
            "url": "https:\/\/cryptopanic.com\/news\/18725546\/Tell-us-what-you-think-and-score-epic-swag-deadline-is-today-Reply-below-with-your-suggestions-about-the-Loy",
            "created_at": "2023-07-05T12:00:16Z",
            "votes": {
                "negative": 0,
                "positive": 0,
                "important": 0,
                "liked": 0,
                "disliked": 0,
                "lol": 0,
                "toxic": 0,
                "saved": 0,
                "comments": 0
            }
        },
        {
            "kind": "news",
            "domain": "@Nexo",
            "source": {
                "title": "NEXO Twitter",
                "region": "en",
                "domain": "twitter.com",
                "path": "@nexo"
            },
            "title": "Just a friendly @litecoin halving reminder \u2013 we\u2019re less than a month away!\n\nPlenty of time to #DYOR and make your m\u2026",
            "published_at": "2023-07-04T15:40:21Z",
            "slug": "Just-a-friendly-litecoin-halving-reminder-were-less-than-a-month-away-Plenty-of-time-to-DYOR-and-make-your-m",
            "currencies": [
                {
                    "code": "NEXO",
                    "title": "NEXO",
                    "slug": "nexo",
                    "url": "https:\/\/cryptopanic.com\/news\/nexo\/"
                }
            ],
            "id": 18717653,
            "url": "https:\/\/cryptopanic.com\/news\/18717653\/Just-a-friendly-litecoin-halving-reminder-were-less-than-a-month-away-Plenty-of-time-to-DYOR-and-make-your-m",
            "created_at": "2023-07-04T15:40:21Z",
            "votes": {
                "negative": 0,
                "positive": 0,
                "important": 0,
                "liked": 0,
                "disliked": 0,
                "lol": 0,
                "toxic": 0,
                "saved": 0,
                "comments": 0
            }
        },
        {
            "kind": "news",
            "domain": "@Nexo",
            "source": {
                "title": "NEXO Twitter",
                "region": "en",
                "domain": "twitter.com",
                "path": "@nexo"
            },
            "title": "We want to hear your thoughts on the $NEXO Token \u2013 utilities, Loyalty program, the works. All ideas are welcome.\n\nL\u2026",
            "published_at": "2023-07-04T13:20:20Z",
            "slug": "We-want-to-hear-your-thoughts-on-the-NEXO-Token-utilities-Loyalty-program-the-works-All-ideas-are-welcome-L",
            "currencies": [
                {
                    "code": "NEXO",
                    "title": "NEXO",
                    "slug": "nexo",
                    "url": "https:\/\/cryptopanic.com\/news\/nexo\/"
                }
            ],
            "id": 18717655,
            "url": "https:\/\/cryptopanic.com\/news\/18717655\/We-want-to-hear-your-thoughts-on-the-NEXO-Token-utilities-Loyalty-program-the-works-All-ideas-are-welcome-L",
            "created_at": "2023-07-04T13:20:20Z",
            "votes": {
                "negative": 0,
                "positive": 0,
                "important": 0,
                "liked": 0,
                "disliked": 0,
                "lol": 0,
                "toxic": 0,
                "saved": 0,
                "comments": 0
            }
        },
        {
            "kind": "news",
            "domain": "@Nexo",
            "source": {
                "title": "NEXO Twitter",
                "region": "en",
                "domain": "twitter.com",
                "path": "@nexo"
            },
            "title": "Headphones at the ready \u2013 our new podcast is here! \ufe0f\n\n#TheSocialBlock is where blockchain and culture collide into\u2026",
            "published_at": "2023-07-04T11:00:34Z",
            "slug": "Headphones-at-the-ready-our-new-podcast-is-here-TheSocialBlock-is-where-blockchain-and-culture-collide-into",
            "currencies": [
                {
                    "code": "NEXO",
                    "title": "NEXO",
                    "slug": "nexo",
                    "url": "https:\/\/cryptopanic.com\/news\/nexo\/"
                }
            ],
            "id": 18717656,
            "url": "https:\/\/cryptopanic.com\/news\/18717656\/Headphones-at-the-ready-our-new-podcast-is-here-TheSocialBlock-is-where-blockchain-and-culture-collide-into",
            "created_at": "2023-07-04T11:00:34Z",
            "votes": {
                "negative": 0,
                "positive": 0,
                "important": 0,
                "liked": 0,
                "disliked": 0,
                "lol": 0,
                "toxic": 0,
                "saved": 0,
                "comments": 0
            }
        },
        {
            "kind": "news",
            "domain": "@Nexo",
            "source": {
                "title": "NEXO Twitter",
                "region": "en",
                "domain": "twitter.com",
                "path": "@nexo"
            },
            "title": "Very difficult not to, but let\u2019s just leave it at \u201cProbably nothing\u201d. What say you, @HristovaMagy?",
            "published_at": "2023-07-03T16:00:53Z",
            "slug": "Very-difficult-not-to-but-lets-just-leave-it-at-Probably-nothing-What-say-you-HristovaMagy",
            "currencies": [
                {
                    "code": "NEXO",
                    "title": "NEXO",
                    "slug": "nexo",
                    "url": "https:\/\/cryptopanic.com\/news\/nexo\/"
                }
            ],
            "id": 18710531,
            "url": "https:\/\/cryptopanic.com\/news\/18710531\/Very-difficult-not-to-but-lets-just-leave-it-at-Probably-nothing-What-say-you-HristovaMagy",
            "created_at": "2023-07-03T16:00:53Z",
            "votes": {
                "negative": 0,
                "positive": 0,
                "important": 0,
                "liked": 0,
                "disliked": 0,
                "lol": 0,
                "toxic": 0,
                "saved": 0,
                "comments": 0
            }
        },
        {
            "kind": "news",
            "domain": "@Nexo",
            "source": {
                "title": "NEXO Twitter",
                "region": "en",
                "domain": "twitter.com",
                "path": "@nexo"
            },
            "title": " We want your feedback on the $NEXO Token's perks and loyalty program. From bold ideas to tiny tweaks \u2013 we are all\u2026",
            "published_at": "2023-07-03T09:00:41Z",
            "slug": "We-want-your-feedback-on-the-NEXO-Tokens-perks-and-loyalty-program-From-bold-ideas-to-tiny-tweaks-we-are-all",
            "currencies": [
                {
                    "code": "NEXO",
                    "title": "NEXO",
                    "slug": "nexo",
                    "url": "https:\/\/cryptopanic.com\/news\/nexo\/"
                }
            ],
            "id": 18710533,
            "url": "https:\/\/cryptopanic.com\/news\/18710533\/We-want-your-feedback-on-the-NEXO-Tokens-perks-and-loyalty-program-From-bold-ideas-to-tiny-tweaks-we-are-all",
            "created_at": "2023-07-03T09:00:41Z",
            "votes": {
                "negative": 0,
                "positive": 0,
                "important": 0,
                "liked": 0,
                "disliked": 0,
                "lol": 0,
                "toxic": 0,
                "saved": 0,
                "comments": 0
            }
        },
        {
            "kind": "news",
            "domain": "@Nexo",
            "source": {
                "title": "NEXO Twitter",
                "region": "en",
                "domain": "twitter.com",
                "path": "@nexo"
            },
            "title": "Heavy on the beat, easy on the #crypto at @Q_dance \ud83e\udd18",
            "published_at": "2023-07-02T16:30:14Z",
            "slug": "Heavy-on-the-beat-easy-on-the-crypto-at-Q_dance",
            "currencies": [
                {
                    "code": "NEXO",
                    "title": "NEXO",
                    "slug": "nexo",
                    "url": "https:\/\/cryptopanic.com\/news\/nexo\/"
                }
            ],
            "id": 18703743,
            "url": "https:\/\/cryptopanic.com\/news\/18703743\/Heavy-on-the-beat-easy-on-the-crypto-at-Q_dance",
            "created_at": "2023-07-02T16:30:14Z",
            "votes": {
                "negative": 0,
                "positive": 0,
                "important": 0,
                "liked": 0,
                "disliked": 0,
                "lol": 0,
                "toxic": 0,
                "saved": 0,
                "comments": 0
            }
        },
        {
            "kind": "news",
            "domain": "@Nexo",
            "source": {
                "title": "NEXO Twitter",
                "region": "en",
                "domain": "twitter.com",
                "path": "@nexo"
            },
            "title": "In this patch of your weekly #Dispatch:\n\n MicroStrategy's #Bitcoin blitz \n The #Fed\u2019s reality check \n A new UK\u2026",
            "published_at": "2023-06-30T15:00:22Z",
            "slug": "In-this-patch-of-your-weekly-Dispatch-MicroStrategys-Bitcoin-blitz-The-Feds-reality-check-A-new-UK",
            "currencies": [
                {
                    "code": "NEXO",
                    "title": "NEXO",
                    "slug": "nexo",
                    "url": "https:\/\/cryptopanic.com\/news\/nexo\/"
                }
            ],
            "id": 18694783,
            "url": "https:\/\/cryptopanic.com\/news\/18694783\/In-this-patch-of-your-weekly-Dispatch-MicroStrategys-Bitcoin-blitz-The-Feds-reality-check-A-new-UK",
            "created_at": "2023-06-30T15:00:22Z",
            "votes": {
                "negative": 0,
                "positive": 0,
                "important": 0,
                "liked": 0,
                "disliked": 0,
                "lol": 0,
                "toxic": 0,
                "saved": 0,
                "comments": 0
            }
        },
        {
            "kind": "news",
            "domain": "@Nexo",
            "source": {
                "title": "NEXO Twitter",
                "region": "en",
                "domain": "twitter.com",
                "path": "@nexo"
            },
            "title": "Don\u2019t want to sell your #crypto? Good \u2013 you don\u2019t have to.\n\nGet instant funds in a few clicks by borrowing with Nex\u2026",
            "published_at": "2023-06-30T12:10:20Z",
            "slug": "Dont-want-to-sell-your-crypto-Good-you-dont-have-to-Get-instant-funds-in-a-few-clicks-by-borrowing-with-Nex",
            "currencies": [
                {
                    "code": "NEXO",
                    "title": "NEXO",
                    "slug": "nexo",
                    "url": "https:\/\/cryptopanic.com\/news\/nexo\/"
                }
            ],
            "id": 18694784,
            "url": "https:\/\/cryptopanic.com\/news\/18694784\/Dont-want-to-sell-your-crypto-Good-you-dont-have-to-Get-instant-funds-in-a-few-clicks-by-borrowing-with-Nex",
            "created_at": "2023-06-30T12:10:20Z",
            "votes": {
                "negative": 0,
                "positive": 0,
                "important": 0,
                "liked": 0,
                "disliked": 0,
                "lol": 0,
                "toxic": 0,
                "saved": 0,
                "comments": 0
            }
        },
        {
            "kind": "news",
            "domain": "@Nexo",
            "source": {
                "title": "NEXO Twitter",
                "region": "en",
                "domain": "twitter.com",
                "path": "@nexo"
            },
            "title": "Our improved earn rates are here to stay. \n\nBut you have until tomorrow to open an account or fund yours for the fi\u2026",
            "published_at": "2023-06-29T14:35:04Z",
            "slug": "Our-improved-earn-rates-are-here-to-stay-But-you-have-until-tomorrow-to-open-an-account-or-fund-yours-for-the-fi",
            "currencies": [
                {
                    "code": "NEXO",
                    "title": "NEXO",
                    "slug": "nexo",
                    "url": "https:\/\/cryptopanic.com\/news\/nexo\/"
                }
            ],
            "id": 18687114,
            "url": "https:\/\/cryptopanic.com\/news\/18687114\/Our-improved-earn-rates-are-here-to-stay-But-you-have-until-tomorrow-to-open-an-account-or-fund-yours-for-the-fi",
            "created_at": "2023-06-29T14:35:04Z",
            "votes": {
                "negative": 0,
                "positive": 0,
                "important": 0,
                "liked": 0,
                "disliked": 0,
                "lol": 0,
                "toxic": 0,
                "saved": 0,
                "comments": 0
            }
        },
        {
            "kind": "news",
            "domain": "@Nexo",
            "source": {
                "title": "NEXO Twitter",
                "region": "en",
                "domain": "twitter.com",
                "path": "@nexo"
            },
            "title": "5\u20e30\u20e30\u20e3+ market pairs are a few clicks &amp; zero fees away.",
            "published_at": "2023-06-28T15:05:07Z",
            "slug": "500-market-pairs-are-a-few-clicks-amp-zero-fees-away",
            "currencies": [
                {
                    "code": "NEXO",
                    "title": "NEXO",
                    "slug": "nexo",
                    "url": "https:\/\/cryptopanic.com\/news\/nexo\/"
                }
            ],
            "id": 18679143,
            "url": "https:\/\/cryptopanic.com\/news\/18679143\/500-market-pairs-are-a-few-clicks-amp-zero-fees-away",
            "created_at": "2023-06-28T15:05:07Z",
            "votes": {
                "negative": 0,
                "positive": 0,
                "important": 0,
                "liked": 0,
                "disliked": 0,
                "lol": 0,
                "toxic": 0,
                "saved": 0,
                "comments": 0
            }
        }
    ]
}
