{
    "count": 200,
    "next": "https:\/\/cryptopanic.com\/api\/v1\/posts\/?auth_token=01c356e89ffc1b8eba2127c81fc8c66ee0eace75&kind=news&currencies=SHIB&page=2",
    "previous": null,
    "results": [
        {
            "kind": "news",
            "domain": "feeds2.benzinga.com",
            "source": {
                "title": "Benzinga",
                "region": "en",
                "domain": "feeds2.benzinga.com",
                "path": null
            },
            "title": "Crypto Regret: Trader Misses Out On $28M Windfall By Cashing Out Shiba Inu In 2020 At 'Same F***ing Price' As Purchase",
            "published_at": "2023-10-03T12:02:12Z",
            "slug": "Crypto-Regret-Trader-Misses-Out-On-28M-Windfall-By-Cashing-Out-Shiba-Inu-In-2020-At-Same-Fing-Price-As-Purchase",
            "currencies": [
                {
                    "code": "SHIB",
                    "title": "Shiba Inu",
                    "slug": "shiba-inu",
                    "url": "https:\/\/cryptopanic.com\/news\/shiba-inu\/"
                }
            ],
            "id": 18944437,
            "url": "https:\/\/cryptopanic.com\/news\/18944437\/Crypto-Regret-Trader-Misses-Out-On-28M-Windfall-By-Cashing-Out-Shiba-Inu-In-2020-At-Same-Fing-Price-As-Purchase",
            "created_at": "2023-10-03T12:02:12Z",
            "votes": {
                "negative": 0,
                "positive": 0,
                "important": 0,
                "liked": 0,
                "disliked": 0,
                "lol": 0,
                "toxic": 0,
                "saved": 0,
                "comments": 0
            }
        },
        {
            "kind": "news",
            "domain": "finbold.com",
            "source": {
                "title": "Finbold",
                "region": "en",
                "domain": "finbold.com",
                "path": null
            },
            "title": "Machine learning algorithm sets SHIB price for October 31",
            "published_at": "2023-10-03T11:24:29Z",
            "slug": "Machine-learning-algorithm-sets-SHIB-price-for-October-31",
            "currencies": [
                {
                    "code": "SHIB",
                    "title": "Shiba Inu",
                    "slug": "shiba-inu",
                    "url": "https:\/\/cryptopanic.com\/news\/shiba-inu\/"
                }
            ],
            "id": 18944297,
            "url": "https:\/\/cryptopanic.com\/news\/18944297\/Machine-learning-algorithm-sets-SHIB-price-for-October-31",
            "created_at": "2023-10-03T11:24:29Z",
            "votes": {
                "negative": 0,
                "positive": 0,
                "important": 0,
                "liked": 0,
                "disliked": 0,
                "lol": 0,
                "toxic": 0,
                "saved": 0,
                "comments": 0
            }
        },
        {
            "kind": "news",
            "domain": "u.today",
            "source": {
                "title": "U.Today",
                "region": "en",
                "domain": "u.today",
                "path": null
            },
            "title": "Shiba Inu, XRP Holders Should Pay Attention to This Binance Announcement",
            "published_at": "2023-10-03T11:10:00Z",
            "slug": "Shiba-Inu-XRP-Holders-Should-Pay-Attention-to-This-Binance-Announcement",
            "currencies": [
                {
                    "code": "XRP",
                    "title": "XRP",
                    "slug": "ripple",
                    "url": "https:\/\/cryptopanic.com\/news\/ripple\/"
                },
                {
                    "code": "SHIB",
                    "title": "Shiba Inu",
                    "slug": "shiba-inu",
                    "url": "https:\/\/cryptopanic.com\/news\/shiba-inu\/"
                }
            ],
            "id": 18944259,
            "url": "https:\/\/cryptopanic.com\/news\/18944259\/Shiba-Inu-XRP-Holders-Should-Pay-Attention-to-This-Binance-Announcement",
            "created_at": "2023-10-03T11:10:00Z",
            "votes": {
                "negative": 0,
                "positive": 0,
                "important": 0,
                "liked": 0,
                "disliked": 0,
                "lol": 0,
                "toxic": 0,
                "saved": 0,
                "comments": 0
            }
        },
        {
            "kind": "news",
            "domain": "cryptopotato.com",
            "source": {
                "title": "Feed - Cryptopotato.Com",
                "region": "en",
                "domain": "cryptopotato.com",
                "path": null
            },
            "title": "Shiba Inu (SHIB) on the Verge of Hitting a Massive Milestone",
            "published_at": "2023-10-03T08:31:19Z",
            "slug": "Shiba-Inu-SHIB-on-the-Verge-of-Hitting-a-Massive-Milestone",
            "currencies": [
                {
                    "code": "SHIB",
                    "title": "Shiba Inu",
                    "slug": "shiba-inu",
                    "url": "https:\/\/cryptopanic.com\/news\/shiba-inu\/"
                }
            ],
            "id": 18943865,
            "url": "https:\/\/cryptopanic.com\/news\/18943865\/Shiba-Inu-SHIB-on-the-Verge-of-Hitting-a-Massive-Milestone",
            "created_at": "2023-10-03T08:31:19Z",
            "votes": {
                "negative": 0,
                "positive": 0,
                "important": 0,
                "liked": 0,
                "disliked": 0,
                "lol": 0,
                "toxic": 0,
                "saved": 0,
                "comments": 0
            }
        },
        {
            "kind": "news",
            "domain": "feeds2.benzinga.com",
            "source": {
                "title": "Benzinga",
                "region": "en",
                "domain": "feeds2.benzinga.com",
                "path": null
            },
            "title": "Shiba Inu Burn Rate Decline Spurs 4% Plunge, Longs In Distress",
            "published_at": "2023-10-03T07:08:53Z",
            "slug": "Shiba-Inu-Burn-Rate-Decline-Spurs-4-Plunge-Longs-In-Distress",
            "currencies": [
                {
                    "code": "DOGE",
                    "title": "Dogecoin",
                    "slug": "dogecoin",
                    "url": "https:\/\/cryptopanic.com\/news\/dogecoin\/"
                },
                {
                    "code": "SHIB",
                    "title": "Shiba Inu",
                    "slug": "shiba-inu",
                    "url": "https:\/\/cryptopanic.com\/news\/shiba-inu\/"
                }
            ],
            "id": 18943734,
            "url": "https:\/\/cryptopanic.com\/news\/18943734\/Shiba-Inu-Burn-Rate-Decline-Spurs-4-Plunge-Longs-In-Distress",
            "created_at": "2023-10-03T07:08:53Z",
            "votes": {
                "negative": 0,
                "positive": 0,
                "important": 0,
                "liked": 0,
                "disliked": 0,
                "lol": 0,
                "toxic": 0,
                "saved": 0,
                "comments": 0
            }
        },
        {
            "kind": "news",
            "domain": "feeds2.benzinga.com",
            "source": {
                "title": "Benzinga",
                "region": "en",
                "domain": "feeds2.benzinga.com",
                "path": null
            },
            "title": "Baby Doge's Epic 5% Rally Beats Dogecoin, Shiba Inu Gains After $5M Token Burn",
            "published_at": "2023-10-03T05:00:08Z",
            "slug": "Baby-Doges-Epic-5-Rally-Beats-Dogecoin-Shiba-Inu-Gains-After-5M-Token-Burn",
            "currencies": [
                {
                    "code": "SHIB",
                    "title": "Shiba Inu",
                    "slug": "shiba-inu",
                    "url": "https:\/\/cryptopanic.com\/news\/shiba-inu\/"
                }
            ],
            "id": 18943580,
            "url": "https:\/\/cryptopanic.com\/news\/18943580\/Baby-Doges-Epic-5-Rally-Beats-Dogecoin-Shiba-Inu-Gains-After-5M-Token-Burn",
            "created_at": "2023-10-03T05:00:08Z",
            "votes": {
                "negative": 0,
                "positive": 0,
                "important": 0,
                "liked": 0,
                "disliked": 0,
                "lol": 0,
                "toxic": 0,
                "saved": 0,
                "comments": 0
            }
        },
        {
            "kind": "news",
            "domain": "bitcoinist.com",
            "source": {
                "title": "Bitcoinist",
                "region": "en",
                "domain": "bitcoinist.com",
                "path": null
            },
            "title": "Shiba Inu Founder\u2019s Wallets Emptied And Moved: Is Ryoshi Vanishing\u2013Again?",
            "published_at": "2023-10-03T02:00:21Z",
            "slug": "Shiba-Inu-Founders-Wallets-Emptied-And-Moved-Is-Ryoshi-VanishingAgain",
            "currencies": [
                {
                    "code": "BTC",
                    "title": "Bitcoin",
                    "slug": "bitcoin",
                    "url": "https:\/\/cryptopanic.com\/news\/bitcoin\/"
                },
                {
                    "code": "SHIB",
                    "title": "Shiba Inu",
                    "slug": "shiba-inu",
                    "url": "https:\/\/cryptopanic.com\/news\/shiba-inu\/"
                }
            ],
            "id": 18943424,
            "url": "https:\/\/cryptopanic.com\/news\/18943424\/Shiba-Inu-Founders-Wallets-Emptied-And-Moved-Is-Ryoshi-VanishingAgain",
            "created_at": "2023-10-03T02:00:21Z",
            "votes": {
                "negative": 0,
                "positive": 0,
                "important": 0,
                "liked": 0,
                "disliked": 0,
                "lol": 0,
                "toxic": 0,
                "saved": 0,
                "comments": 0
            }
        },
        {
            "kind": "news",
            "domain": "u.today",
            "source": {
                "title": "U.Today",
                "region": "en",
                "domain": "u.today",
                "path": null
            },
            "title": "Shiba Inu (SHIB) Joins Marketwide Rally",
            "published_at": "2023-10-03T01:00:00Z",
            "slug": "Shiba-Inu-SHIB-Joins-Marketwide-Rally",
            "currencies": [
                {
                    "code": "SHIB",
                    "title": "Shiba Inu",
                    "slug": "shiba-inu",
                    "url": "https:\/\/cryptopanic.com\/news\/shiba-inu\/"
                }
            ],
            "id": 18943378,
            "url": "https:\/\/cryptopanic.com\/news\/18943378\/Shiba-Inu-SHIB-Joins-Marketwide-Rally",
            "created_at": "2023-10-03T01:00:00Z",
            "votes": {
                "negative": 0,
                "positive": 0,
                "important": 0,
                "liked": 0,
                "disliked": 0,
                "lol": 0,
                "toxic": 0,
                "saved": 0,
                "comments": 0
            }
        },
        {
            "kind": "news",
            "domain": "cryptopotato.com",
            "source": {
                "title": "Feed - Cryptopotato.Com",
                "region": "en",
                "domain": "cryptopotato.com",
                "path": null
            },
            "title": "Five Things to Be Extremely Careful About: Shiba Inu (SHIB) Team With Massive Warning",
            "published_at": "2023-10-02T21:15:06Z",
            "slug": "Five-Things-to-Be-Extremely-Careful-About-Shiba-Inu-SHIB-Team-With-Massive-Warning",
            "currencies": [
                {
                    "code": "SHIB",
                    "title": "Shiba Inu",
                    "slug": "shiba-inu",
                    "url": "https:\/\/cryptopanic.com\/news\/shiba-inu\/"
                }
            ],
            "id": 18943159,
            "url": "https:\/\/cryptopanic.com\/news\/18943159\/Five-Things-to-Be-Extremely-Careful-About-Shiba-Inu-SHIB-Team-With-Massive-Warning",
            "created_at": "2023-10-02T21:15:06Z",
            "votes": {
                "negative": 0,
                "positive": 0,
                "important": 0,
                "liked": 0,
                "disliked": 0,
                "lol": 0,
                "toxic": 0,
                "saved": 0,
                "comments": 0
            }
        },
        {
            "kind": "news",
            "domain": "coingape.com",
            "source": {
                "title": "CoinGape",
                "region": "en",
                "domain": "coingape.com",
                "path": null
            },
            "title": "Shiba Inu Price Delays Bullish Breakout As Investors Buy the Rumor And Sell The News",
            "published_at": "2023-10-02T18:50:26Z",
            "slug": "Shiba-Inu-Price-Delays-Bullish-Breakout-As-Investors-Buy-the-Rumor-And-Sell-The-News",
            "currencies": [
                {
                    "code": "ETH",
                    "title": "Ethereum",
                    "slug": "ethereum",
                    "url": "https:\/\/cryptopanic.com\/news\/ethereum\/"
                },
                {
                    "code": "SHIB",
                    "title": "Shiba Inu",
                    "slug": "shiba-inu",
                    "url": "https:\/\/cryptopanic.com\/news\/shiba-inu\/"
                }
            ],
            "id": 18942926,
            "url": "https:\/\/cryptopanic.com\/news\/18942926\/Shiba-Inu-Price-Delays-Bullish-Breakout-As-Investors-Buy-the-Rumor-And-Sell-The-News",
            "created_at": "2023-10-02T18:50:26Z",
            "votes": {
                "negative": 0,
                "positive": 0,
                "important": 0,
                "liked": 0,
                "disliked": 0,
                "lol": 0,
                "toxic": 0,
                "saved": 0,
                "comments": 0
            }
        },
        {
            "kind": "news",
            "domain": "u.today",
            "votes": {
                "negative": 0,
                "positive": 1,
                "important": 0,
                "liked": 1,
                "disliked": 0,
                "lol": 0,
                "toxic": 0,
                "saved": 0,
                "comments": 0
            },
            "source": {
                "title": "U.Today",
                "region": "en",
                "domain": "u.today",
                "path": null
            },
            "title": "Shibarium Nears Key Landmark as Shiba Inu Prepares for Big Move",
            "published_at": "2023-10-02T15:57:00Z",
            "slug": "Shibarium-Nears-Key-Landmark-as-Shiba-Inu-Prepares-for-Big-Move",
            "currencies": [
                {
                    "code": "SHIB",
                    "title": "Shiba Inu",
                    "slug": "shiba-inu",
                    "url": "https:\/\/cryptopanic.com\/news\/shiba-inu\/"
                }
            ],
            "id": 18942528,
            "url": "https:\/\/cryptopanic.com\/news\/18942528\/Shibarium-Nears-Key-Landmark-as-Shiba-Inu-Prepares-for-Big-Move",
            "created_at": "2023-10-02T15:57:00Z"
        },
        {
            "kind": "news",
            "domain": "dailycoin.com",
            "source": {
                "title": "Dailycoin",
                "region": "en",
                "domain": "dailycoin.com",
                "path": null
            },
            "title": "Shiba Inu's Triumphant Return Trips at 59% Shibburn Drop",
            "published_at": "2023-10-02T14:35:00Z",
            "slug": "Shiba-Inus-Triumphant-Return-Trips-at-59-Shibburn-Drop",
            "currencies": [
                {
                    "code": "SHIB",
                    "title": "Shiba Inu",
                    "slug": "shiba-inu",
                    "url": "https:\/\/cryptopanic.com\/news\/shiba-inu\/"
                }
            ],
            "id": 18942294,
            "url": "https:\/\/cryptopanic.com\/news\/18942294\/Shiba-Inus-Triumphant-Return-Trips-at-59-Shibburn-Drop",
            "created_at": "2023-10-02T14:35:00Z",
            "votes": {
                "negative": 0,
                "positive": 0,
                "important": 0,
                "liked": 0,
                "disliked": 0,
                "lol": 0,
                "toxic": 0,
                "saved": 0,
                "comments": 0
            }
        },
        {
            "kind": "news",
            "domain": "u.today",
            "source": {
                "title": "U.Today",
                "region": "en",
                "domain": "u.today",
                "path": null
            },
            "title": "DOGE and SHIB Price Analysis for October 2",
            "published_at": "2023-10-02T14:22:00Z",
            "slug": "DOGE-and-SHIB-Price-Analysis-for-October-2",
            "currencies": [
                {
                    "code": "DOGE",
                    "title": "Dogecoin",
                    "slug": "dogecoin",
                    "url": "https:\/\/cryptopanic.com\/news\/dogecoin\/"
                },
                {
                    "code": "SHIB",
                    "title": "Shiba Inu",
                    "slug": "shiba-inu",
                    "url": "https:\/\/cryptopanic.com\/news\/shiba-inu\/"
                }
            ],
            "id": 18942274,
            "url": "https:\/\/cryptopanic.com\/news\/18942274\/DOGE-and-SHIB-Price-Analysis-for-October-2",
            "created_at": "2023-10-02T14:22:00Z",
            "votes": {
                "negative": 0,
                "positive": 0,
                "important": 0,
                "liked": 0,
                "disliked": 0,
                "lol": 0,
                "toxic": 0,
                "saved": 0,
                "comments": 0
            }
        },
        {
            "kind": "news",
            "domain": "u.today",
            "source": {
                "title": "U.Today",
                "region": "en",
                "domain": "u.today",
                "path": null
            },
            "title": "Is Shiba Inu (SHIB) Getting Sold Out? 425 Billion Moved on Coinbase",
            "published_at": "2023-10-02T13:06:00Z",
            "slug": "Is-Shiba-Inu-SHIB-Getting-Sold-Out-425-Billion-Moved-on-Coinbase",
            "currencies": [
                {
                    "code": "SHIB",
                    "title": "Shiba Inu",
                    "slug": "shiba-inu",
                    "url": "https:\/\/cryptopanic.com\/news\/shiba-inu\/"
                }
            ],
            "id": 18942019,
            "url": "https:\/\/cryptopanic.com\/news\/18942019\/Is-Shiba-Inu-SHIB-Getting-Sold-Out-425-Billion-Moved-on-Coinbase",
            "created_at": "2023-10-02T13:06:00Z",
            "votes": {
                "negative": 0,
                "positive": 0,
                "important": 0,
                "liked": 0,
                "disliked": 0,
                "lol": 0,
                "toxic": 0,
                "saved": 0,
                "comments": 0
            }
        },
        {
            "kind": "news",
            "domain": "u.today",
            "source": {
                "title": "U.Today",
                "region": "en",
                "domain": "u.today",
                "path": null
            },
            "title": "Top 3 Things to Watch in Shiba Inu (SHIB) Ecosystem This Week",
            "published_at": "2023-10-02T12:30:00Z",
            "slug": "Top-3-Things-to-Watch-in-Shiba-Inu-SHIB-Ecosystem-This-Week",
            "currencies": [
                {
                    "code": "SHIB",
                    "title": "Shiba Inu",
                    "slug": "shiba-inu",
                    "url": "https:\/\/cryptopanic.com\/news\/shiba-inu\/"
                }
            ],
            "id": 18941882,
            "url": "https:\/\/cryptopanic.com\/news\/18941882\/Top-3-Things-to-Watch-in-Shiba-Inu-SHIB-Ecosystem-This-Week",
            "created_at": "2023-10-02T12:30:00Z",
            "votes": {
                "negative": 0,
                "positive": 0,
                "important": 0,
                "liked": 0,
                "disliked": 0,
                "lol": 0,
                "toxic": 0,
                "saved": 0,
                "comments": 0
            }
        },
        {
            "kind": "news",
            "domain": "feeds2.benzinga.com",
            "votes": {
                "negative": 0,
                "positive": 0,
                "important": 0,
                "liked": 1,
                "disliked": 0,
                "lol": 0,
                "toxic": 0,
                "saved": 0,
                "comments": 0
            },
            "source": {
                "title": "Benzinga",
                "region": "en",
                "domain": "feeds2.benzinga.com",
                "path": null
            },
            "title": "Warehouse Manager Retires After $8K Shiba Inu Bet Reaps Him $500K \u2014 What If He Had Held On To SHIB?",
            "published_at": "2023-10-02T12:04:40Z",
            "slug": "Warehouse-Manager-Retires-After-8K-Shiba-Inu-Bet-Reaps-Him-500K-What-If-He-Had-Held-On-To-SHIB",
            "currencies": [
                {
                    "code": "DOGE",
                    "title": "Dogecoin",
                    "slug": "dogecoin",
                    "url": "https:\/\/cryptopanic.com\/news\/dogecoin\/"
                },
                {
                    "code": "SHIB",
                    "title": "Shiba Inu",
                    "slug": "shiba-inu",
                    "url": "https:\/\/cryptopanic.com\/news\/shiba-inu\/"
                }
            ],
            "id": 18941853,
            "url": "https:\/\/cryptopanic.com\/news\/18941853\/Warehouse-Manager-Retires-After-8K-Shiba-Inu-Bet-Reaps-Him-500K-What-If-He-Had-Held-On-To-SHIB",
            "created_at": "2023-10-02T12:04:40Z"
        },
        {
            "kind": "news",
            "domain": "cryptopotato.com",
            "source": {
                "title": "Feed - Cryptopotato.Com",
                "region": "en",
                "domain": "cryptopotato.com",
                "path": null
            },
            "title": "Is a SHIB Bull Market Incoming? 3 Things to Consider This Week (Shiba Inu Price Analysis)",
            "published_at": "2023-10-02T11:25:44Z",
            "slug": "Is-a-SHIB-Bull-Market-Incoming-3-Things-to-Consider-This-Week-Shiba-Inu-Price-Analysis",
            "currencies": [
                {
                    "code": "BTC",
                    "title": "Bitcoin",
                    "slug": "bitcoin",
                    "url": "https:\/\/cryptopanic.com\/news\/bitcoin\/"
                },
                {
                    "code": "SHIB",
                    "title": "Shiba Inu",
                    "slug": "shiba-inu",
                    "url": "https:\/\/cryptopanic.com\/news\/shiba-inu\/"
                }
            ],
            "id": 18941717,
            "url": "https:\/\/cryptopanic.com\/news\/18941717\/Is-a-SHIB-Bull-Market-Incoming-3-Things-to-Consider-This-Week-Shiba-Inu-Price-Analysis",
            "created_at": "2023-10-02T11:25:44Z",
            "votes": {
                "negative": 0,
                "positive": 0,
                "important": 0,
                "liked": 0,
                "disliked": 0,
                "lol": 0,
                "toxic": 0,
                "saved": 0,
                "comments": 0
            }
        },
        {
            "kind": "news",
            "domain": "cryptopotato.com",
            "source": {
                "title": "Feed - Cryptopotato.Com",
                "region": "en",
                "domain": "cryptopotato.com",
                "path": null
            },
            "title": "This is How Much Shiba Inu (SHIB) Tokens Got Burned Last Month",
            "published_at": "2023-10-02T10:29:16Z",
            "slug": "This-is-How-Much-Shiba-Inu-SHIB-Tokens-Got-Burned-Last-Month",
            "currencies": [
                {
                    "code": "SHIB",
                    "title": "Shiba Inu",
                    "slug": "shiba-inu",
                    "url": "https:\/\/cryptopanic.com\/news\/shiba-inu\/"
                }
            ],
            "id": 18941562,
            "url": "https:\/\/cryptopanic.com\/news\/18941562\/This-is-How-Much-Shiba-Inu-SHIB-Tokens-Got-Burned-Last-Month",
            "created_at": "2023-10-02T10:29:16Z",
            "votes": {
                "negative": 0,
                "positive": 0,
                "important": 0,
                "liked": 0,
                "disliked": 0,
                "lol": 0,
                "toxic": 0,
                "saved": 0,
                "comments": 0
            }
        },
        {
            "kind": "news",
            "domain": "cryptopotato.com",
            "source": {
                "title": "Feed - Cryptopotato.Com",
                "region": "en",
                "domain": "cryptopotato.com",
                "path": null
            },
            "title": "Bitcoin Price Predictions, Ripple (XRP) Developments, SHIB Adoption: Bits Recap Oct 2nd",
            "published_at": "2023-10-02T08:34:50Z",
            "slug": "Bitcoin-Price-Predictions-Ripple-XRP-Developments-SHIB-Adoption-Bits-Recap-Oct-2nd",
            "currencies": [
                {
                    "code": "BTC",
                    "title": "Bitcoin",
                    "slug": "bitcoin",
                    "url": "https:\/\/cryptopanic.com\/news\/bitcoin\/"
                },
                {
                    "code": "XRP",
                    "title": "XRP",
                    "slug": "ripple",
                    "url": "https:\/\/cryptopanic.com\/news\/ripple\/"
                },
                {
                    "code": "SHIB",
                    "title": "Shiba Inu",
                    "slug": "shiba-inu",
                    "url": "https:\/\/cryptopanic.com\/news\/shiba-inu\/"
                }
            ],
            "id": 18941317,
            "url": "https:\/\/cryptopanic.com\/news\/18941317\/Bitcoin-Price-Predictions-Ripple-XRP-Developments-SHIB-Adoption-Bits-Recap-Oct-2nd",
            "created_at": "2023-10-02T08:34:50Z",
            "votes": {
                "negative": 0,
                "positive": 0,
                "important": 0,
                "liked": 0,
                "disliked": 0,
                "lol": 0,
                "toxic": 0,
                "saved": 0,
                "comments": 0
            }
        },
        {
            "kind": "news",
            "domain": "feeds2.benzinga.com",
            "votes": {
                "negative": 0,
                "positive": 2,
                "important": 2,
                "liked": 2,
                "disliked": 0,
                "lol": 0,
                "toxic": 0,
                "saved": 0,
                "comments": 0
            },
            "source": {
                "title": "Benzinga",
                "region": "en",
                "domain": "feeds2.benzinga.com",
                "path": null
            },
            "title": "Shiba Inu Massive Burn: Over 2.3B SHIB Tokens Vanish Into Thin Air In September",
            "published_at": "2023-10-02T06:50:18Z",
            "slug": "Shiba-Inu-Massive-Burn-Over-23B-SHIB-Tokens-Vanish-Into-Thin-Air-In-September",
            "currencies": [
                {
                    "code": "DOGE",
                    "title": "Dogecoin",
                    "slug": "dogecoin",
                    "url": "https:\/\/cryptopanic.com\/news\/dogecoin\/"
                },
                {
                    "code": "SHIB",
                    "title": "Shiba Inu",
                    "slug": "shiba-inu",
                    "url": "https:\/\/cryptopanic.com\/news\/shiba-inu\/"
                }
            ],
            "id": 18941150,
            "url": "https:\/\/cryptopanic.com\/news\/18941150\/Shiba-Inu-Massive-Burn-Over-23B-SHIB-Tokens-Vanish-Into-Thin-Air-In-September",
            "created_at": "2023-10-02T06:50:18Z"
        }
    ]
}
