{
    "count": 200,
    "next": "https:\/\/cryptopanic.com\/api\/v1\/posts\/?auth_token=01c356e89ffc1b8eba2127c81fc8c66ee0eace75&kind=news&currencies=LTO&page=2",
    "previous": null,
    "results": [
        {
            "kind": "news",
            "domain": "@TheLTONetwork",
            "source": {
                "title": "LTO Network Twitter",
                "region": "en",
                "domain": "twitter.com",
                "path": "@theltonetwork"
            },
            "title": "Let's have some fun again! \n\nJoin our December Price Prediction on Reddit and win!! \n\nLink:\u2026",
            "published_at": "2021-12-01T01:49:01Z",
            "slug": "Lets-have-some-fun-again-Join-our-December-Price-Prediction-on-Reddit-and-win-Link",
            "currencies": [
                {
                    "code": "LTO",
                    "title": "LTO Network",
                    "slug": "lto-network",
                    "url": "https:\/\/cryptopanic.com\/news\/lto-network\/"
                }
            ],
            "id": 13521419,
            "url": "https:\/\/cryptopanic.com\/news\/13521419\/Lets-have-some-fun-again-Join-our-December-Price-Prediction-on-Reddit-and-win-Link",
            "created_at": "2021-12-01T01:49:01Z",
            "votes": {
                "negative": 0,
                "positive": 0,
                "important": 0,
                "liked": 0,
                "disliked": 0,
                "lol": 0,
                "toxic": 0,
                "saved": 0,
                "comments": 0
            }
        },
        {
            "kind": "news",
            "domain": "@TheLTONetwork",
            "source": {
                "title": "LTO Network Twitter",
                "region": "en",
                "domain": "twitter.com",
                "path": "@theltonetwork"
            },
            "title": "Thanks @binance for supporting our new ERC20 contract. \ud83e\udd1d\n\nWithdrawals and deposits will be resumed once complete.\u2026",
            "published_at": "2021-11-30T04:06:30Z",
            "slug": "Thanks-binance-for-supporting-our-new-ERC20-contract-Withdrawals-and-deposits-will-be-resumed-once-complete",
            "currencies": [
                {
                    "code": "LTO",
                    "title": "LTO Network",
                    "slug": "lto-network",
                    "url": "https:\/\/cryptopanic.com\/news\/lto-network\/"
                }
            ],
            "id": 13508234,
            "url": "https:\/\/cryptopanic.com\/news\/13508234\/Thanks-binance-for-supporting-our-new-ERC20-contract-Withdrawals-and-deposits-will-be-resumed-once-complete",
            "created_at": "2021-11-30T04:06:30Z",
            "votes": {
                "negative": 0,
                "positive": 0,
                "important": 0,
                "liked": 0,
                "disliked": 0,
                "lol": 0,
                "toxic": 0,
                "saved": 0,
                "comments": 0
            }
        },
        {
            "kind": "news",
            "domain": "@TheLTONetwork",
            "votes": {
                "negative": 0,
                "positive": 1,
                "important": 0,
                "liked": 0,
                "disliked": 0,
                "lol": 0,
                "toxic": 0,
                "saved": 0,
                "comments": 0
            },
            "source": {
                "title": "LTO Network Twitter",
                "region": "en",
                "domain": "twitter.com",
                "path": "@theltonetwork"
            },
            "title": "Announcement: LTO Network partners with @Formula2 driver @BoschungRalph bringing him and his car to the metaverse u\u2026",
            "published_at": "2021-11-29T12:00:12Z",
            "slug": "Announcement-LTO-Network-partners-with-Formula2-driver-BoschungRalph-bringing-him-and-his-car-to-the-metaverse-u",
            "currencies": [
                {
                    "code": "LTO",
                    "title": "LTO Network",
                    "slug": "lto-network",
                    "url": "https:\/\/cryptopanic.com\/news\/lto-network\/"
                }
            ],
            "id": 13508235,
            "url": "https:\/\/cryptopanic.com\/news\/13508235\/Announcement-LTO-Network-partners-with-Formula2-driver-BoschungRalph-bringing-him-and-his-car-to-the-metaverse-u",
            "created_at": "2021-11-29T12:00:12Z"
        },
        {
            "kind": "news",
            "domain": "@TheLTONetwork",
            "source": {
                "title": "LTO Network Twitter",
                "region": "en",
                "domain": "twitter.com",
                "path": "@theltonetwork"
            },
            "title": "We have been nominated for the Dutch Blockchain Awards. \n\nFollow the link to VOTE $LTO Let's make us number #1!!\u2026",
            "published_at": "2021-11-26T11:24:25Z",
            "slug": "We-have-been-nominated-for-the-Dutch-Blockchain-Awards-Follow-the-link-to-VOTE-LTO-Lets-make-us-number-1",
            "currencies": [
                {
                    "code": "LTO",
                    "title": "LTO Network",
                    "slug": "lto-network",
                    "url": "https:\/\/cryptopanic.com\/news\/lto-network\/"
                },
                {
                    "code": "LN",
                    "title": "LINK",
                    "slug": "link",
                    "url": "https:\/\/cryptopanic.com\/news\/link\/"
                }
            ],
            "id": 13479244,
            "url": "https:\/\/cryptopanic.com\/news\/13479244\/We-have-been-nominated-for-the-Dutch-Blockchain-Awards-Follow-the-link-to-VOTE-LTO-Lets-make-us-number-1",
            "created_at": "2021-11-26T11:24:25Z",
            "votes": {
                "negative": 0,
                "positive": 0,
                "important": 0,
                "liked": 0,
                "disliked": 0,
                "lol": 0,
                "toxic": 0,
                "saved": 0,
                "comments": 0
            }
        },
        {
            "kind": "news",
            "domain": "@TheLTONetwork",
            "source": {
                "title": "LTO Network Twitter",
                "region": "en",
                "domain": "twitter.com",
                "path": "@theltonetwork"
            },
            "title": "Want to know what our lead architect, @arnolddaniels, thinks about NTFs and the Metaverse? \n\nFind out here",
            "published_at": "2021-11-25T17:25:48Z",
            "slug": "Want-to-know-what-our-lead-architect-arnolddaniels-thinks-about-NTFs-and-the-Metaverse-Find-out-here",
            "currencies": [
                {
                    "code": "LTO",
                    "title": "LTO Network",
                    "slug": "lto-network",
                    "url": "https:\/\/cryptopanic.com\/news\/lto-network\/"
                }
            ],
            "id": 13468031,
            "url": "https:\/\/cryptopanic.com\/news\/13468031\/Want-to-know-what-our-lead-architect-arnolddaniels-thinks-about-NTFs-and-the-Metaverse-Find-out-here",
            "created_at": "2021-11-25T17:25:48Z",
            "votes": {
                "negative": 0,
                "positive": 0,
                "important": 0,
                "liked": 0,
                "disliked": 0,
                "lol": 0,
                "toxic": 0,
                "saved": 0,
                "comments": 0
            }
        },
        {
            "kind": "news",
            "domain": "@TheLTONetwork",
            "source": {
                "title": "LTO Network Twitter",
                "region": "en",
                "domain": "twitter.com",
                "path": "@theltonetwork"
            },
            "title": "We are celebrating 20k followers this week!\u00a0\ud83e\udd73\ud83e\udd73\ud83e\udd73  \n\nComment $LTO\u00a0\u00a0to celebrate with us!",
            "published_at": "2021-11-25T08:00:08Z",
            "slug": "We-are-celebrating-20k-followers-this-week-Comment-LTO-to-celebrate-with-us",
            "currencies": [
                {
                    "code": "LTO",
                    "title": "LTO Network",
                    "slug": "lto-network",
                    "url": "https:\/\/cryptopanic.com\/news\/lto-network\/"
                }
            ],
            "id": 13468032,
            "url": "https:\/\/cryptopanic.com\/news\/13468032\/We-are-celebrating-20k-followers-this-week-Comment-LTO-to-celebrate-with-us",
            "created_at": "2021-11-25T08:00:08Z",
            "votes": {
                "negative": 0,
                "positive": 0,
                "important": 0,
                "liked": 0,
                "disliked": 0,
                "lol": 0,
                "toxic": 0,
                "saved": 0,
                "comments": 0
            }
        },
        {
            "kind": "news",
            "domain": "@TheLTONetwork",
            "source": {
                "title": "LTO Network Twitter",
                "region": "en",
                "domain": "twitter.com",
                "path": "@theltonetwork"
            },
            "title": "This wouldn't happen with our NFT2.0 ",
            "published_at": "2021-11-23T16:52:05Z",
            "slug": "This-wouldnt-happen-with-our-NFT20",
            "currencies": [
                {
                    "code": "LTO",
                    "title": "LTO Network",
                    "slug": "lto-network",
                    "url": "https:\/\/cryptopanic.com\/news\/lto-network\/"
                }
            ],
            "id": 13442633,
            "url": "https:\/\/cryptopanic.com\/news\/13442633\/This-wouldnt-happen-with-our-NFT20",
            "created_at": "2021-11-23T16:52:05Z",
            "votes": {
                "negative": 0,
                "positive": 0,
                "important": 0,
                "liked": 0,
                "disliked": 0,
                "lol": 0,
                "toxic": 0,
                "saved": 0,
                "comments": 0
            }
        },
        {
            "kind": "news",
            "domain": "@TheLTONetwork",
            "source": {
                "title": "LTO Network Twitter",
                "region": "en",
                "domain": "twitter.com",
                "path": "@theltonetwork"
            },
            "title": "Casino + $LTO =\n\nMore details to come!",
            "published_at": "2021-11-22T08:20:18Z",
            "slug": "Casino-LTO-More-details-to-come",
            "currencies": [
                {
                    "code": "LTO",
                    "title": "LTO Network",
                    "slug": "lto-network",
                    "url": "https:\/\/cryptopanic.com\/news\/lto-network\/"
                }
            ],
            "id": 13430014,
            "url": "https:\/\/cryptopanic.com\/news\/13430014\/Casino-LTO-More-details-to-come",
            "created_at": "2021-11-22T08:20:18Z",
            "votes": {
                "negative": 0,
                "positive": 0,
                "important": 0,
                "liked": 0,
                "disliked": 0,
                "lol": 0,
                "toxic": 0,
                "saved": 0,
                "comments": 0
            }
        },
        {
            "kind": "news",
            "domain": "@TheLTONetwork",
            "source": {
                "title": "LTO Network Twitter",
                "region": "en",
                "domain": "twitter.com",
                "path": "@theltonetwork"
            },
            "title": "Good news!  \n\nYou can buy $LTO with 0 trading fees on @kucoincom from November 19 - 22, 2021\n\u200b#lto #KuCoin\u2026",
            "published_at": "2021-11-18T22:45:07Z",
            "slug": "Good-news-You-can-buy-LTO-with-0-trading-fees-on-kucoincom-from-November-19-22-2021-lto-KuCoin",
            "currencies": [
                {
                    "code": "LTO",
                    "title": "LTO Network",
                    "slug": "lto-network",
                    "url": "https:\/\/cryptopanic.com\/news\/lto-network\/"
                }
            ],
            "id": 13389764,
            "url": "https:\/\/cryptopanic.com\/news\/13389764\/Good-news-You-can-buy-LTO-with-0-trading-fees-on-kucoincom-from-November-19-22-2021-lto-KuCoin",
            "created_at": "2021-11-18T22:45:07Z",
            "votes": {
                "negative": 0,
                "positive": 0,
                "important": 0,
                "liked": 0,
                "disliked": 0,
                "lol": 0,
                "toxic": 0,
                "saved": 0,
                "comments": 0
            }
        },
        {
            "kind": "news",
            "domain": "@TheLTONetwork",
            "source": {
                "title": "LTO Network Twitter",
                "region": "en",
                "domain": "twitter.com",
                "path": "@theltonetwork"
            },
            "title": "Our NFT2.0 Roadmap is here! \ufe0f\u200d\n\nNFT2.0 empowers content creators and allows true digital ownership of assets.\n\nW\u2026",
            "published_at": "2021-11-17T15:29:50Z",
            "slug": "Our-NFT20-Roadmap-is-here-NFT20-empowers-content-creators-and-allows-true-digital-ownership-of-assets-W",
            "currencies": [
                {
                    "code": "LTO",
                    "title": "LTO Network",
                    "slug": "lto-network",
                    "url": "https:\/\/cryptopanic.com\/news\/lto-network\/"
                }
            ],
            "id": 13375556,
            "url": "https:\/\/cryptopanic.com\/news\/13375556\/Our-NFT20-Roadmap-is-here-NFT20-empowers-content-creators-and-allows-true-digital-ownership-of-assets-W",
            "created_at": "2021-11-17T15:29:50Z",
            "votes": {
                "negative": 0,
                "positive": 0,
                "important": 0,
                "liked": 0,
                "disliked": 0,
                "lol": 0,
                "toxic": 0,
                "saved": 0,
                "comments": 0
            }
        },
        {
            "kind": "news",
            "domain": "@TheLTONetwork",
            "source": {
                "title": "LTO Network Twitter",
                "region": "en",
                "domain": "twitter.com",
                "path": "@theltonetwork"
            },
            "title": "The Uniswap Farm for our V2 $LTO token is now online! \n\nIf you provide liquidity on the new ERC20 LTO smart contrac\u2026",
            "published_at": "2021-11-16T16:13:21Z",
            "slug": "The-Uniswap-Farm-for-our-V2-LTO-token-is-now-online-If-you-provide-liquidity-on-the-new-ERC20-LTO-smart-contrac",
            "currencies": [
                {
                    "code": "LTO",
                    "title": "LTO Network",
                    "slug": "lto-network",
                    "url": "https:\/\/cryptopanic.com\/news\/lto-network\/"
                },
                {
                    "code": "UNI",
                    "title": "Uniswap",
                    "slug": "uniswap",
                    "url": "https:\/\/cryptopanic.com\/news\/uniswap\/"
                }
            ],
            "id": 13362900,
            "url": "https:\/\/cryptopanic.com\/news\/13362900\/The-Uniswap-Farm-for-our-V2-LTO-token-is-now-online-If-you-provide-liquidity-on-the-new-ERC20-LTO-smart-contrac",
            "created_at": "2021-11-16T16:13:21Z",
            "votes": {
                "negative": 0,
                "positive": 0,
                "important": 0,
                "liked": 0,
                "disliked": 0,
                "lol": 0,
                "toxic": 0,
                "saved": 0,
                "comments": 0
            }
        },
        {
            "kind": "news",
            "domain": "@TheLTONetwork",
            "source": {
                "title": "LTO Network Twitter",
                "region": "en",
                "domain": "twitter.com",
                "path": "@theltonetwork"
            },
            "title": "We want to hear from you - how did you first find @TheLTONetwork\u00a0\ud83e\udd14 \n\nEnter and stand a chance to win 75 USD worth\u2026",
            "published_at": "2021-11-15T11:00:03Z",
            "slug": "We-want-to-hear-from-you-how-did-you-first-find-TheLTONetwork-Enter-and-stand-a-chance-to-win-75-USD-worth",
            "currencies": [
                {
                    "code": "LTO",
                    "title": "LTO Network",
                    "slug": "lto-network",
                    "url": "https:\/\/cryptopanic.com\/news\/lto-network\/"
                }
            ],
            "id": 13350922,
            "url": "https:\/\/cryptopanic.com\/news\/13350922\/We-want-to-hear-from-you-how-did-you-first-find-TheLTONetwork-Enter-and-stand-a-chance-to-win-75-USD-worth",
            "created_at": "2021-11-15T11:00:03Z",
            "votes": {
                "negative": 0,
                "positive": 0,
                "important": 0,
                "liked": 0,
                "disliked": 0,
                "lol": 0,
                "toxic": 0,
                "saved": 0,
                "comments": 0
            }
        },
        {
            "kind": "news",
            "domain": "@TheLTONetwork",
            "source": {
                "title": "LTO Network Twitter",
                "region": "en",
                "domain": "twitter.com",
                "path": "@theltonetwork"
            },
            "title": "RT @cryptocees: The APY for staking $LTO is crawling up lately.\nCurrently approaching 5% again!\n\nPick your favorite node on @TheLTONetwork\u2026",
            "published_at": "2021-11-15T08:39:05Z",
            "slug": "RT-cryptocees-The-APY-for-staking-LTO-is-crawling-up-lately-Currently-approaching-5-again-Pick-your-favorite-node-on-TheLTONetwork",
            "currencies": [
                {
                    "code": "LTO",
                    "title": "LTO Network",
                    "slug": "lto-network",
                    "url": "https:\/\/cryptopanic.com\/news\/lto-network\/"
                }
            ],
            "id": 13350923,
            "url": "https:\/\/cryptopanic.com\/news\/13350923\/RT-cryptocees-The-APY-for-staking-LTO-is-crawling-up-lately-Currently-approaching-5-again-Pick-your-favorite-node-on-TheLTONetwork",
            "created_at": "2021-11-15T08:39:05Z",
            "votes": {
                "negative": 0,
                "positive": 0,
                "important": 0,
                "liked": 0,
                "disliked": 0,
                "lol": 0,
                "toxic": 0,
                "saved": 0,
                "comments": 0
            }
        },
        {
            "kind": "news",
            "domain": "@TheLTONetwork",
            "source": {
                "title": "LTO Network Twitter",
                "region": "en",
                "domain": "twitter.com",
                "path": "@theltonetwork"
            },
            "title": "Thanks @CryptosR_Us for sharing the $LTO vision!! \ufe0f\n#LTOARMY",
            "published_at": "2021-11-15T02:16:47Z",
            "slug": "Thanks-CryptosR_Us-for-sharing-the-LTO-vision-LTOARMY",
            "currencies": [
                {
                    "code": "LTO",
                    "title": "LTO Network",
                    "slug": "lto-network",
                    "url": "https:\/\/cryptopanic.com\/news\/lto-network\/"
                }
            ],
            "id": 13338196,
            "url": "https:\/\/cryptopanic.com\/news\/13338196\/Thanks-CryptosR_Us-for-sharing-the-LTO-vision-LTOARMY",
            "created_at": "2021-11-15T02:16:47Z",
            "votes": {
                "negative": 0,
                "positive": 0,
                "important": 0,
                "liked": 0,
                "disliked": 0,
                "lol": 0,
                "toxic": 0,
                "saved": 0,
                "comments": 0
            }
        },
        {
            "kind": "news",
            "domain": "@TheLTONetwork",
            "source": {
                "title": "LTO Network Twitter",
                "region": "en",
                "domain": "twitter.com",
                "path": "@theltonetwork"
            },
            "title": "#1 !! \n\nTHANK YOU #LTOARMY \n$LTO is making waves! ",
            "published_at": "2021-11-15T01:27:10Z",
            "slug": "1-THANK-YOU-LTOARMY-LTO-is-making-waves",
            "currencies": [
                {
                    "code": "LTO",
                    "title": "LTO Network",
                    "slug": "lto-network",
                    "url": "https:\/\/cryptopanic.com\/news\/lto-network\/"
                }
            ],
            "id": 13338197,
            "url": "https:\/\/cryptopanic.com\/news\/13338197\/1-THANK-YOU-LTOARMY-LTO-is-making-waves",
            "created_at": "2021-11-15T01:27:10Z",
            "votes": {
                "negative": 0,
                "positive": 0,
                "important": 0,
                "liked": 0,
                "disliked": 0,
                "lol": 0,
                "toxic": 0,
                "saved": 0,
                "comments": 0
            }
        },
        {
            "kind": "news",
            "domain": "@TheLTONetwork",
            "source": {
                "title": "LTO Network Twitter",
                "region": "en",
                "domain": "twitter.com",
                "path": "@theltonetwork"
            },
            "title": "RT @OmarReserved: I recently came across $LTO and @TheLTONetwork and I was impressed by what they are trying to achieve.\n\nThe thread is not\u2026",
            "published_at": "2021-11-15T00:20:24Z",
            "slug": "RT-OmarReserved-I-recently-came-across-LTO-and-TheLTONetwork-and-I-was-impressed-by-what-they-are-trying-to-achieve-The-thread-is-not",
            "currencies": [
                {
                    "code": "LTO",
                    "title": "LTO Network",
                    "slug": "lto-network",
                    "url": "https:\/\/cryptopanic.com\/news\/lto-network\/"
                }
            ],
            "id": 13338198,
            "url": "https:\/\/cryptopanic.com\/news\/13338198\/RT-OmarReserved-I-recently-came-across-LTO-and-TheLTONetwork-and-I-was-impressed-by-what-they-are-trying-to-achieve-The-thread-is-not",
            "created_at": "2021-11-15T00:20:24Z",
            "votes": {
                "negative": 0,
                "positive": 0,
                "important": 0,
                "liked": 0,
                "disliked": 0,
                "lol": 0,
                "toxic": 0,
                "saved": 0,
                "comments": 0
            }
        },
        {
            "kind": "news",
            "domain": "@TheLTONetwork",
            "source": {
                "title": "LTO Network Twitter",
                "region": "en",
                "domain": "twitter.com",
                "path": "@theltonetwork"
            },
            "title": "RT @jarzoombek: Maybe the market finally realized that $LTO is also L1 blockchain? \ud83e\uddd0",
            "published_at": "2021-11-14T12:23:19Z",
            "slug": "RT-jarzoombek-Maybe-the-market-finally-realized-that-LTO-is-also-L1-blockchain",
            "currencies": [
                {
                    "code": "LTO",
                    "title": "LTO Network",
                    "slug": "lto-network",
                    "url": "https:\/\/cryptopanic.com\/news\/lto-network\/"
                }
            ],
            "id": 13338199,
            "url": "https:\/\/cryptopanic.com\/news\/13338199\/RT-jarzoombek-Maybe-the-market-finally-realized-that-LTO-is-also-L1-blockchain",
            "created_at": "2021-11-14T12:23:19Z",
            "votes": {
                "negative": 0,
                "positive": 0,
                "important": 0,
                "liked": 0,
                "disliked": 0,
                "lol": 0,
                "toxic": 0,
                "saved": 0,
                "comments": 0
            }
        },
        {
            "kind": "news",
            "domain": "@TheLTONetwork",
            "source": {
                "title": "LTO Network Twitter",
                "region": "en",
                "domain": "twitter.com",
                "path": "@theltonetwork"
            },
            "title": "RT @ArnoldDaniels: I was my pleasure to speak about my passion at Beemup's open metaverse focused event. Blockchain, Verifiable Credentials\u2026",
            "published_at": "2021-11-13T00:36:30Z",
            "slug": "RT-ArnoldDaniels-I-was-my-pleasure-to-speak-about-my-passion-at-Beemups-open-metaverse-focused-event-Blockchain-Verifiable-Credentials",
            "currencies": [
                {
                    "code": "LTO",
                    "title": "LTO Network",
                    "slug": "lto-network",
                    "url": "https:\/\/cryptopanic.com\/news\/lto-network\/"
                }
            ],
            "id": 13321085,
            "url": "https:\/\/cryptopanic.com\/news\/13321085\/RT-ArnoldDaniels-I-was-my-pleasure-to-speak-about-my-passion-at-Beemups-open-metaverse-focused-event-Blockchain-Verifiable-Credentials",
            "created_at": "2021-11-13T00:36:30Z",
            "votes": {
                "negative": 0,
                "positive": 0,
                "important": 0,
                "liked": 0,
                "disliked": 0,
                "lol": 0,
                "toxic": 0,
                "saved": 0,
                "comments": 0
            }
        },
        {
            "kind": "news",
            "domain": "@TheLTONetwork",
            "source": {
                "title": "LTO Network Twitter",
                "region": "en",
                "domain": "twitter.com",
                "path": "@theltonetwork"
            },
            "title": "RT @itsnaderi: Our coin grew $65 Million in market cap across three days .. \ud83e\udd2f\ud83e\udd2f\n@TheLTONetwork $LTO",
            "published_at": "2021-11-12T15:43:11Z",
            "slug": "RT-itsnaderi-Our-coin-grew-65-Million-in-market-cap-across-three-days-TheLTONetwork-LTO",
            "currencies": [
                {
                    "code": "LTO",
                    "title": "LTO Network",
                    "slug": "lto-network",
                    "url": "https:\/\/cryptopanic.com\/news\/lto-network\/"
                }
            ],
            "id": 13321086,
            "url": "https:\/\/cryptopanic.com\/news\/13321086\/RT-itsnaderi-Our-coin-grew-65-Million-in-market-cap-across-three-days-TheLTONetwork-LTO",
            "created_at": "2021-11-12T15:43:11Z",
            "votes": {
                "negative": 0,
                "positive": 0,
                "important": 0,
                "liked": 0,
                "disliked": 0,
                "lol": 0,
                "toxic": 0,
                "saved": 0,
                "comments": 0
            }
        },
        {
            "kind": "news",
            "domain": "@TheLTONetwork",
            "source": {
                "title": "LTO Network Twitter",
                "region": "en",
                "domain": "twitter.com",
                "path": "@theltonetwork"
            },
            "title": "RT @HouseofChimera: Curious about all that buzz on @TheLTONetwork? Read up on this week's altcoin update about the LTO Cobalt mainnet updat\u2026",
            "published_at": "2021-11-12T11:54:44Z",
            "slug": "RT-HouseofChimera-Curious-about-all-that-buzz-on-TheLTONetwork-Read-up-on-this-weeks-altcoin-update-about-the-LTO-Cobalt-mainnet-updat",
            "currencies": [
                {
                    "code": "LTO",
                    "title": "LTO Network",
                    "slug": "lto-network",
                    "url": "https:\/\/cryptopanic.com\/news\/lto-network\/"
                }
            ],
            "id": 13321087,
            "url": "https:\/\/cryptopanic.com\/news\/13321087\/RT-HouseofChimera-Curious-about-all-that-buzz-on-TheLTONetwork-Read-up-on-this-weeks-altcoin-update-about-the-LTO-Cobalt-mainnet-updat",
            "created_at": "2021-11-12T11:54:44Z",
            "votes": {
                "negative": 0,
                "positive": 0,
                "important": 0,
                "liked": 0,
                "disliked": 0,
                "lol": 0,
                "toxic": 0,
                "saved": 0,
                "comments": 0
            }
        }
    ]
}
