{
    "count": 200,
    "next": "https:\/\/cryptopanic.com\/api\/v1\/posts\/?auth_token=01c356e89ffc1b8eba2127c81fc8c66ee0eace75&kind=news&currencies=MLN&page=2",
    "previous": null,
    "results": [
        {
            "kind": "news",
            "domain": "@enzymefinance",
            "source": {
                "title": "Enzyme Twitter",
                "region": "en",
                "domain": "twitter.com",
                "path": "@enzymefinance"
            },
            "title": "1) Exciting news! \ud83e\udd73\n\nSay hello to the new Enzyme Grant Programme, designed to foster innovation in DeFi asset manag\u2026",
            "published_at": "2023-07-10T15:37:19Z",
            "slug": "1-Exciting-news-Say-hello-to-the-new-Enzyme-Grant-Programme-designed-to-foster-innovation-in-DeFi-asset-manag",
            "currencies": [
                {
                    "code": "MLN",
                    "title": "Enzyme",
                    "slug": "melon",
                    "url": "https:\/\/cryptopanic.com\/news\/melon\/"
                }
            ],
            "id": 18755930,
            "url": "https:\/\/cryptopanic.com\/news\/18755930\/1-Exciting-news-Say-hello-to-the-new-Enzyme-Grant-Programme-designed-to-foster-innovation-in-DeFi-asset-manag",
            "created_at": "2023-07-10T15:37:19Z",
            "votes": {
                "negative": 0,
                "positive": 0,
                "important": 0,
                "liked": 0,
                "disliked": 0,
                "lol": 0,
                "toxic": 0,
                "saved": 0,
                "comments": 0
            }
        },
        {
            "kind": "news",
            "domain": "@enzymefinance",
            "source": {
                "title": "Enzyme Twitter",
                "region": "en",
                "domain": "twitter.com",
                "path": "@enzymefinance"
            },
            "title": "RT @humanDAO: Huge day for humanDAO in our mission to improve lives through crypto! \n\nWe've received our first major grant: 2,500 $MLN to c\u2026",
            "published_at": "2023-07-07T12:08:32Z",
            "slug": "RT-humanDAO-Huge-day-for-humanDAO-in-our-mission-to-improve-lives-through-crypto-Weve-received-our-first-major-grant-2500-MLN-to-c",
            "currencies": [
                {
                    "code": "MLN",
                    "title": "Enzyme",
                    "slug": "melon",
                    "url": "https:\/\/cryptopanic.com\/news\/melon\/"
                }
            ],
            "id": 18739951,
            "url": "https:\/\/cryptopanic.com\/news\/18739951\/RT-humanDAO-Huge-day-for-humanDAO-in-our-mission-to-improve-lives-through-crypto-Weve-received-our-first-major-grant-2500-MLN-to-c",
            "created_at": "2023-07-07T12:08:32Z",
            "votes": {
                "negative": 0,
                "positive": 0,
                "important": 0,
                "liked": 0,
                "disliked": 0,
                "lol": 0,
                "toxic": 0,
                "saved": 0,
                "comments": 0
            }
        },
        {
            "kind": "news",
            "domain": "@enzymefinance",
            "source": {
                "title": "Enzyme Twitter",
                "region": "en",
                "domain": "twitter.com",
                "path": "@enzymefinance"
            },
            "title": "RT @avantgardefi: We\u2019re live for day 2 at @eth_barcelona \ud83c\uddea\ud83c\uddf8\ufe0f \n\nInteresting convo about the art of distributed validation and liquid $ETH s\u2026",
            "published_at": "2023-07-06T10:56:47Z",
            "slug": "RT-avantgardefi-Were-live-for-day-2-at-eth_barcelona-Interesting-convo-about-the-art-of-distributed-validation-and-liquid-ETH-s",
            "currencies": [
                {
                    "code": "MLN",
                    "title": "Enzyme",
                    "slug": "melon",
                    "url": "https:\/\/cryptopanic.com\/news\/melon\/"
                }
            ],
            "id": 18732294,
            "url": "https:\/\/cryptopanic.com\/news\/18732294\/RT-avantgardefi-Were-live-for-day-2-at-eth_barcelona-Interesting-convo-about-the-art-of-distributed-validation-and-liquid-ETH-s",
            "created_at": "2023-07-06T10:56:47Z",
            "votes": {
                "negative": 0,
                "positive": 0,
                "important": 0,
                "liked": 0,
                "disliked": 0,
                "lol": 0,
                "toxic": 0,
                "saved": 0,
                "comments": 0
            }
        },
        {
            "kind": "news",
            "domain": "@enzymefinance",
            "source": {
                "title": "Enzyme Twitter",
                "region": "en",
                "domain": "twitter.com",
                "path": "@enzymefinance"
            },
            "title": "RT @avantgardefi: Hola @eth_barcelona \ud83c\uddea\ud83c\uddf8\n\nThe squad has landed! Get in touch if you want to discuss DAO treasury management, institutional-\u2026",
            "published_at": "2023-07-05T10:38:27Z",
            "slug": "RT-avantgardefi-Hola-eth_barcelona-The-squad-has-landed-Get-in-touch-if-you-want-to-discuss-DAO-treasury-management-institutional-",
            "currencies": [
                {
                    "code": "MLN",
                    "title": "Enzyme",
                    "slug": "melon",
                    "url": "https:\/\/cryptopanic.com\/news\/melon\/"
                }
            ],
            "id": 18723744,
            "url": "https:\/\/cryptopanic.com\/news\/18723744\/RT-avantgardefi-Hola-eth_barcelona-The-squad-has-landed-Get-in-touch-if-you-want-to-discuss-DAO-treasury-management-institutional-",
            "created_at": "2023-07-05T10:38:27Z",
            "votes": {
                "negative": 0,
                "positive": 0,
                "important": 0,
                "liked": 0,
                "disliked": 0,
                "lol": 0,
                "toxic": 0,
                "saved": 0,
                "comments": 0
            }
        },
        {
            "kind": "news",
            "domain": "@enzymefinance",
            "source": {
                "title": "Enzyme Twitter",
                "region": "en",
                "domain": "twitter.com",
                "path": "@enzymefinance"
            },
            "title": "RT @Mona_El_Isa: The next trillion dollars that come into #DeFi will come from institutions. So here it is... \n\nThe playbook on how institu\u2026",
            "published_at": "2023-07-05T08:13:30Z",
            "slug": "RT-Mona_El_Isa-The-next-trillion-dollars-that-come-into-DeFi-will-come-from-institutions-So-here-it-is-The-playbook-on-how-institu",
            "currencies": [
                {
                    "code": "MLN",
                    "title": "Enzyme",
                    "slug": "melon",
                    "url": "https:\/\/cryptopanic.com\/news\/melon\/"
                }
            ],
            "id": 18723745,
            "url": "https:\/\/cryptopanic.com\/news\/18723745\/RT-Mona_El_Isa-The-next-trillion-dollars-that-come-into-DeFi-will-come-from-institutions-So-here-it-is-The-playbook-on-how-institu",
            "created_at": "2023-07-05T08:13:30Z",
            "votes": {
                "negative": 0,
                "positive": 0,
                "important": 0,
                "liked": 0,
                "disliked": 0,
                "lol": 0,
                "toxic": 0,
                "saved": 0,
                "comments": 0
            }
        },
        {
            "kind": "news",
            "domain": "@enzymefinance",
            "source": {
                "title": "Enzyme Twitter",
                "region": "en",
                "domain": "twitter.com",
                "path": "@enzymefinance"
            },
            "title": "RT @avantgardefi: It's here! Download our new Institutional-Grade DeFi report\ufe0f\n\n \n\nIn this report, we present a so\u2026",
            "published_at": "2023-07-04T13:41:26Z",
            "slug": "RT-avantgardefi-Its-here-Download-our-new-Institutional-Grade-DeFi-report-In-this-report-we-present-a-so",
            "currencies": [
                {
                    "code": "MLN",
                    "title": "Enzyme",
                    "slug": "melon",
                    "url": "https:\/\/cryptopanic.com\/news\/melon\/"
                }
            ],
            "id": 18716021,
            "url": "https:\/\/cryptopanic.com\/news\/18716021\/RT-avantgardefi-Its-here-Download-our-new-Institutional-Grade-DeFi-report-In-this-report-we-present-a-so",
            "created_at": "2023-07-04T13:41:26Z",
            "votes": {
                "negative": 0,
                "positive": 0,
                "important": 0,
                "liked": 0,
                "disliked": 0,
                "lol": 0,
                "toxic": 0,
                "saved": 0,
                "comments": 0
            }
        },
        {
            "kind": "news",
            "domain": "@enzymefinance",
            "source": {
                "title": "Enzyme Twitter",
                "region": "en",
                "domain": "twitter.com",
                "path": "@enzymefinance"
            },
            "title": "Hola @eth_barcelona! \ud83c\uddea\ud83c\uddf8\ufe0f\n\nThe @enzymefinance team will be in town this week. Are you interested in...\n\n DAO Treas\u2026",
            "published_at": "2023-07-03T08:46:15Z",
            "slug": "Hola-eth_barcelona-The-enzymefinance-team-will-be-in-town-this-week-Are-you-interested-in-DAO-Treas",
            "currencies": [
                {
                    "code": "MLN",
                    "title": "Enzyme",
                    "slug": "melon",
                    "url": "https:\/\/cryptopanic.com\/news\/melon\/"
                }
            ],
            "id": 18708756,
            "url": "https:\/\/cryptopanic.com\/news\/18708756\/Hola-eth_barcelona-The-enzymefinance-team-will-be-in-town-this-week-Are-you-interested-in-DAO-Treas",
            "created_at": "2023-07-03T08:46:15Z",
            "votes": {
                "negative": 0,
                "positive": 0,
                "important": 0,
                "liked": 0,
                "disliked": 0,
                "lol": 0,
                "toxic": 0,
                "saved": 0,
                "comments": 0
            }
        },
        {
            "kind": "news",
            "domain": "@enzymefinance",
            "source": {
                "title": "Enzyme Twitter",
                "region": "en",
                "domain": "twitter.com",
                "path": "@enzymefinance"
            },
            "title": "Did you know @enzymefinance now supports @1inch?  \n\nAsset managers now have more ways to secure optimal trade rate\u2026",
            "published_at": "2023-06-30T11:38:05Z",
            "slug": "Did-you-know-enzymefinance-now-supports-1inch-Asset-managers-now-have-more-ways-to-secure-optimal-trade-rate",
            "currencies": [
                {
                    "code": "MLN",
                    "title": "Enzyme",
                    "slug": "melon",
                    "url": "https:\/\/cryptopanic.com\/news\/melon\/"
                }
            ],
            "id": 18693229,
            "url": "https:\/\/cryptopanic.com\/news\/18693229\/Did-you-know-enzymefinance-now-supports-1inch-Asset-managers-now-have-more-ways-to-secure-optimal-trade-rate",
            "created_at": "2023-06-30T11:38:05Z",
            "votes": {
                "negative": 0,
                "positive": 0,
                "important": 0,
                "liked": 0,
                "disliked": 0,
                "lol": 0,
                "toxic": 0,
                "saved": 0,
                "comments": 0
            }
        },
        {
            "kind": "news",
            "domain": "@enzymefinance",
            "source": {
                "title": "Enzyme Twitter",
                "region": "en",
                "domain": "twitter.com",
                "path": "@enzymefinance"
            },
            "title": "\ud83e\udd73 Exciting news! @Enzymefinance now supports @1inch!\n\nAsset managers now have an additional option to secure optima\u2026",
            "published_at": "2023-06-27T10:00:18Z",
            "slug": "Exciting-news-Enzymefinance-now-supports-1inch-Asset-managers-now-have-an-additional-option-to-secure-optima",
            "currencies": [
                {
                    "code": "MLN",
                    "title": "Enzyme",
                    "slug": "melon",
                    "url": "https:\/\/cryptopanic.com\/news\/melon\/"
                }
            ],
            "id": 18669017,
            "url": "https:\/\/cryptopanic.com\/news\/18669017\/Exciting-news-Enzymefinance-now-supports-1inch-Asset-managers-now-have-an-additional-option-to-secure-optima",
            "created_at": "2023-06-27T10:00:18Z",
            "votes": {
                "negative": 0,
                "positive": 0,
                "important": 0,
                "liked": 0,
                "disliked": 0,
                "lol": 0,
                "toxic": 0,
                "saved": 0,
                "comments": 0
            }
        },
        {
            "kind": "news",
            "domain": "@enzymefinance",
            "source": {
                "title": "Enzyme Twitter",
                "region": "en",
                "domain": "twitter.com",
                "path": "@enzymefinance"
            },
            "title": "RT @avantgardefi: Over the last few weeks, members of @NexusMutualDAO have reviewed and discussed our proposal that recommends using an @en\u2026",
            "published_at": "2023-06-26T18:12:12Z",
            "slug": "RT-avantgardefi-Over-the-last-few-weeks-members-of-NexusMutualDAO-have-reviewed-and-discussed-our-proposal-that-recommends-using-an-en",
            "currencies": [
                {
                    "code": "MLN",
                    "title": "Enzyme",
                    "slug": "melon",
                    "url": "https:\/\/cryptopanic.com\/news\/melon\/"
                }
            ],
            "id": 18660759,
            "url": "https:\/\/cryptopanic.com\/news\/18660759\/RT-avantgardefi-Over-the-last-few-weeks-members-of-NexusMutualDAO-have-reviewed-and-discussed-our-proposal-that-recommends-using-an-en",
            "created_at": "2023-06-26T18:12:12Z",
            "votes": {
                "negative": 0,
                "positive": 0,
                "important": 0,
                "liked": 0,
                "disliked": 0,
                "lol": 0,
                "toxic": 0,
                "saved": 0,
                "comments": 0
            }
        },
        {
            "kind": "news",
            "domain": "@enzymefinance",
            "source": {
                "title": "Enzyme Twitter",
                "region": "en",
                "domain": "twitter.com",
                "path": "@enzymefinance"
            },
            "title": "RT @avantgardefi: We had a great time at last week\u2019s Global Investment Forum in Geneva! \n\nVery excited to announce the first ever instituti\u2026",
            "published_at": "2023-06-19T14:06:43Z",
            "slug": "RT-avantgardefi-We-had-a-great-time-at-last-weeks-Global-Investment-Forum-in-Geneva-Very-excited-to-announce-the-first-ever-instituti",
            "currencies": [
                {
                    "code": "MLN",
                    "title": "Enzyme",
                    "slug": "melon",
                    "url": "https:\/\/cryptopanic.com\/news\/melon\/"
                }
            ],
            "id": 18611889,
            "url": "https:\/\/cryptopanic.com\/news\/18611889\/RT-avantgardefi-We-had-a-great-time-at-last-weeks-Global-Investment-Forum-in-Geneva-Very-excited-to-announce-the-first-ever-instituti",
            "created_at": "2023-06-19T14:06:43Z",
            "votes": {
                "negative": 0,
                "positive": 0,
                "important": 0,
                "liked": 0,
                "disliked": 0,
                "lol": 0,
                "toxic": 0,
                "saved": 0,
                "comments": 0
            }
        },
        {
            "kind": "news",
            "domain": "@enzymefinance",
            "source": {
                "title": "Enzyme Twitter",
                "region": "en",
                "domain": "twitter.com",
                "path": "@enzymefinance"
            },
            "title": "RT @avantgardefi: 3\/ Avantgarde and Agio have worked hand in hand over the last year to bridge the gap between institutions and blockchain-\u2026",
            "published_at": "2023-06-16T06:43:44Z",
            "slug": "RT-avantgardefi-3-Avantgarde-and-Agio-have-worked-hand-in-hand-over-the-last-year-to-bridge-the-gap-between-institutions-and-blockchain-",
            "currencies": [
                {
                    "code": "MLN",
                    "title": "Enzyme",
                    "slug": "melon",
                    "url": "https:\/\/cryptopanic.com\/news\/melon\/"
                }
            ],
            "id": 18586714,
            "url": "https:\/\/cryptopanic.com\/news\/18586714\/RT-avantgardefi-3-Avantgarde-and-Agio-have-worked-hand-in-hand-over-the-last-year-to-bridge-the-gap-between-institutions-and-blockchain-",
            "created_at": "2023-06-16T06:43:44Z",
            "votes": {
                "negative": 0,
                "positive": 0,
                "important": 0,
                "liked": 0,
                "disliked": 0,
                "lol": 0,
                "toxic": 0,
                "saved": 0,
                "comments": 0
            }
        },
        {
            "kind": "news",
            "domain": "@enzymefinance",
            "source": {
                "title": "Enzyme Twitter",
                "region": "en",
                "domain": "twitter.com",
                "path": "@enzymefinance"
            },
            "title": "A few highlights from a fun week at @EthPrague and @PragueDefi! \ud83c\udde8\ud83c\uddff \n\nSee you @ ETH Barcelona and Paris soon \u2026",
            "published_at": "2023-06-10T17:39:28Z",
            "slug": "A-few-highlights-from-a-fun-week-at-EthPrague-and-PragueDefi-See-you-ETH-Barcelona-and-Paris-soon",
            "currencies": [
                {
                    "code": "MLN",
                    "title": "Enzyme",
                    "slug": "melon",
                    "url": "https:\/\/cryptopanic.com\/news\/melon\/"
                }
            ],
            "id": 18551103,
            "url": "https:\/\/cryptopanic.com\/news\/18551103\/A-few-highlights-from-a-fun-week-at-EthPrague-and-PragueDefi-See-you-ETH-Barcelona-and-Paris-soon",
            "created_at": "2023-06-10T17:39:28Z",
            "votes": {
                "negative": 0,
                "positive": 0,
                "important": 0,
                "liked": 0,
                "disliked": 0,
                "lol": 0,
                "toxic": 0,
                "saved": 0,
                "comments": 0
            }
        },
        {
            "kind": "news",
            "domain": "@enzymefinance",
            "source": {
                "title": "Enzyme Twitter",
                "region": "en",
                "domain": "twitter.com",
                "path": "@enzymefinance"
            },
            "title": "RT @avantgardefi: The @avantgardefi and @enzymefinance team has touched down for @PragueDefi &amp; @EthPrague! \ud83c\udde8\ud83c\uddff \n\n@Mona_El_Isa discussed how\u2026",
            "published_at": "2023-06-08T13:48:10Z",
            "slug": "RT-avantgardefi-The-avantgardefi-and-enzymefinance-team-has-touched-down-for-PragueDefi-amp-EthPrague-Mona_El_Isa-discussed-how",
            "currencies": [
                {
                    "code": "MLN",
                    "title": "Enzyme",
                    "slug": "melon",
                    "url": "https:\/\/cryptopanic.com\/news\/melon\/"
                }
            ],
            "id": 18536774,
            "url": "https:\/\/cryptopanic.com\/news\/18536774\/RT-avantgardefi-The-avantgardefi-and-enzymefinance-team-has-touched-down-for-PragueDefi-amp-EthPrague-Mona_El_Isa-discussed-how",
            "created_at": "2023-06-08T13:48:10Z",
            "votes": {
                "negative": 0,
                "positive": 0,
                "important": 0,
                "liked": 0,
                "disliked": 0,
                "lol": 0,
                "toxic": 0,
                "saved": 0,
                "comments": 0
            }
        },
        {
            "kind": "news",
            "domain": "@enzymefinance",
            "source": {
                "title": "Enzyme Twitter",
                "region": "en",
                "domain": "twitter.com",
                "path": "@enzymefinance"
            },
            "title": " We're delighted to announce that @Enzymefinance now supports supplying to @AaveAave v3 liquidity pools!\n\nEnjoy mo\u2026",
            "published_at": "2023-06-06T09:59:22Z",
            "slug": "Were-delighted-to-announce-that-Enzymefinance-now-supports-supplying-to-AaveAave-v3-liquidity-pools-Enjoy-mo",
            "currencies": [
                {
                    "code": "MLN",
                    "title": "Enzyme",
                    "slug": "melon",
                    "url": "https:\/\/cryptopanic.com\/news\/melon\/"
                }
            ],
            "id": 18519562,
            "url": "https:\/\/cryptopanic.com\/news\/18519562\/Were-delighted-to-announce-that-Enzymefinance-now-supports-supplying-to-AaveAave-v3-liquidity-pools-Enjoy-mo",
            "created_at": "2023-06-06T09:59:22Z",
            "votes": {
                "negative": 0,
                "positive": 0,
                "important": 0,
                "liked": 0,
                "disliked": 0,
                "lol": 0,
                "toxic": 0,
                "saved": 0,
                "comments": 0
            }
        },
        {
            "kind": "news",
            "domain": "@enzymefinance",
            "source": {
                "title": "Enzyme Twitter",
                "region": "en",
                "domain": "twitter.com",
                "path": "@enzymefinance"
            },
            "title": "Will you be attending @PragueDefi Summit or @EthPrague this week? \ud83c\udde8\ud83c\uddff \ufe0f\n\nThe Enzyme team will be in town!  \n\nIf yo\u2026",
            "published_at": "2023-06-05T10:56:10Z",
            "slug": "Will-you-be-attending-PragueDefi-Summit-or-EthPrague-this-week-The-Enzyme-team-will-be-in-town-If-yo",
            "currencies": [
                {
                    "code": "MLN",
                    "title": "Enzyme",
                    "slug": "melon",
                    "url": "https:\/\/cryptopanic.com\/news\/melon\/"
                }
            ],
            "id": 18510542,
            "url": "https:\/\/cryptopanic.com\/news\/18510542\/Will-you-be-attending-PragueDefi-Summit-or-EthPrague-this-week-The-Enzyme-team-will-be-in-town-If-yo",
            "created_at": "2023-06-05T10:56:10Z",
            "votes": {
                "negative": 0,
                "positive": 0,
                "important": 0,
                "liked": 0,
                "disliked": 0,
                "lol": 0,
                "toxic": 0,
                "saved": 0,
                "comments": 0
            }
        },
        {
            "kind": "news",
            "domain": "@enzymefinance",
            "source": {
                "title": "Enzyme Twitter",
                "region": "en",
                "domain": "twitter.com",
                "path": "@enzymefinance"
            },
            "title": "Say hello to an entirely new Enzyme trading UI! \n\nWe've added new features, a streamlined design and extended sup\u2026",
            "published_at": "2023-05-31T11:00:36Z",
            "slug": "Say-hello-to-an-entirely-new-Enzyme-trading-UI-Weve-added-new-features-a-streamlined-design-and-extended-sup",
            "currencies": [
                {
                    "code": "MLN",
                    "title": "Enzyme",
                    "slug": "melon",
                    "url": "https:\/\/cryptopanic.com\/news\/melon\/"
                }
            ],
            "id": 18475252,
            "url": "https:\/\/cryptopanic.com\/news\/18475252\/Say-hello-to-an-entirely-new-Enzyme-trading-UI-Weve-added-new-features-a-streamlined-design-and-extended-sup",
            "created_at": "2023-05-31T11:00:36Z",
            "votes": {
                "negative": 0,
                "positive": 0,
                "important": 0,
                "liked": 0,
                "disliked": 0,
                "lol": 0,
                "toxic": 0,
                "saved": 0,
                "comments": 0
            }
        },
        {
            "kind": "news",
            "domain": "@enzymefinance",
            "source": {
                "title": "Enzyme Twitter",
                "region": "en",
                "domain": "twitter.com",
                "path": "@enzymefinance"
            },
            "title": "Oracles play an integral role in the DeFi space, so we\u2019re excited to see how @Redstone_defi\u2019s cross-chain capabilit\u2026",
            "published_at": "2023-05-24T14:25:27Z",
            "slug": "Oracles-play-an-integral-role-in-the-DeFi-space-so-were-excited-to-see-how-Redstone_defis-cross-chain-capabilit",
            "currencies": [
                {
                    "code": "MLN",
                    "title": "Enzyme",
                    "slug": "melon",
                    "url": "https:\/\/cryptopanic.com\/news\/melon\/"
                }
            ],
            "id": 18423650,
            "url": "https:\/\/cryptopanic.com\/news\/18423650\/Oracles-play-an-integral-role-in-the-DeFi-space-so-were-excited-to-see-how-Redstone_defis-cross-chain-capabilit",
            "created_at": "2023-05-24T14:25:27Z",
            "votes": {
                "negative": 0,
                "positive": 0,
                "important": 0,
                "liked": 0,
                "disliked": 0,
                "lol": 0,
                "toxic": 0,
                "saved": 0,
                "comments": 0
            }
        },
        {
            "kind": "news",
            "domain": "@enzymefinance",
            "source": {
                "title": "Enzyme Twitter",
                "region": "en",
                "domain": "twitter.com",
                "path": "@enzymefinance"
            },
            "title": "RT @Droidex_io: NEW LISTING\n\nHola, @enzymefinance!\n\n#Enzyme is an on-chain asset management system enabling access to DeFi from one unifi\u2026",
            "published_at": "2023-05-24T13:38:06Z",
            "slug": "RT-Droidex_io-NEW-LISTING-Hola-enzymefinance-Enzyme-is-an-on-chain-asset-management-system-enabling-access-to-DeFi-from-one-unifi",
            "currencies": [
                {
                    "code": "MLN",
                    "title": "Enzyme",
                    "slug": "melon",
                    "url": "https:\/\/cryptopanic.com\/news\/melon\/"
                }
            ],
            "id": 18423651,
            "url": "https:\/\/cryptopanic.com\/news\/18423651\/RT-Droidex_io-NEW-LISTING-Hola-enzymefinance-Enzyme-is-an-on-chain-asset-management-system-enabling-access-to-DeFi-from-one-unifi",
            "created_at": "2023-05-24T13:38:06Z",
            "votes": {
                "negative": 0,
                "positive": 0,
                "important": 0,
                "liked": 0,
                "disliked": 0,
                "lol": 0,
                "toxic": 0,
                "saved": 0,
                "comments": 0
            }
        },
        {
            "kind": "news",
            "domain": "@enzymefinance",
            "source": {
                "title": "Enzyme Twitter",
                "region": "en",
                "domain": "twitter.com",
                "path": "@enzymefinance"
            },
            "title": "RT @avantgardefi: Hey @defivas and @Velvet_Capital, care to explain why you have copied Avantgarde + @enzymefinance\u2019s positioning word-for\u2026",
            "published_at": "2023-05-19T14:42:00Z",
            "slug": "RT-avantgardefi-Hey-defivas-and-Velvet_Capital-care-to-explain-why-you-have-copied-Avantgarde-enzymefinances-positioning-word-for",
            "currencies": [
                {
                    "code": "MLN",
                    "title": "Enzyme",
                    "slug": "melon",
                    "url": "https:\/\/cryptopanic.com\/news\/melon\/"
                }
            ],
            "id": 18385625,
            "url": "https:\/\/cryptopanic.com\/news\/18385625\/RT-avantgardefi-Hey-defivas-and-Velvet_Capital-care-to-explain-why-you-have-copied-Avantgarde-enzymefinances-positioning-word-for",
            "created_at": "2023-05-19T14:42:00Z",
            "votes": {
                "negative": 0,
                "positive": 0,
                "important": 0,
                "liked": 0,
                "disliked": 0,
                "lol": 0,
                "toxic": 0,
                "saved": 0,
                "comments": 0
            }
        }
    ]
}
