{
    "count": 200,
    "next": "https:\/\/cryptopanic.com\/api\/v1\/posts\/?auth_token=01c356e89ffc1b8eba2127c81fc8c66ee0eace75&kind=news&currencies=FIRO&page=2",
    "previous": null,
    "results": [
        {
            "kind": "news",
            "domain": "@firoorg",
            "votes": {
                "negative": 0,
                "positive": 1,
                "important": 1,
                "liked": 2,
                "disliked": 0,
                "lol": 0,
                "toxic": 0,
                "saved": 0,
                "comments": 0
            },
            "source": {
                "title": "Firo Twitter",
                "region": "en",
                "domain": "twitter.com",
                "path": "@firoorg"
            },
            "title": "RT @stakedTokens: Did you know that the stFIRO-stETH pool on SushiSwap went as high as 803% APY earlier in the week? \n Here's a step-by-s\u2026",
            "published_at": "2021-04-03T02:17:26Z",
            "slug": "RT-stakedTokens-Did-you-know-that-the-stFIRO-stETH-pool-on-SushiSwap-went-as-high-as-803-APY-earlier-in-the-week-Heres-a-step-by-s",
            "currencies": [
                {
                    "code": "FIRO",
                    "title": "Firo",
                    "slug": "zcoin",
                    "url": "https:\/\/cryptopanic.com\/news\/zcoin\/"
                }
            ],
            "id": 11714223,
            "url": "https:\/\/cryptopanic.com\/news\/11714223\/RT-stakedTokens-Did-you-know-that-the-stFIRO-stETH-pool-on-SushiSwap-went-as-high-as-803-APY-earlier-in-the-week-Heres-a-step-by-s",
            "created_at": "2021-04-03T02:17:26Z"
        },
        {
            "kind": "news",
            "domain": "@firoorg",
            "votes": {
                "negative": 0,
                "positive": 1,
                "important": 0,
                "liked": 0,
                "disliked": 0,
                "lol": 1,
                "toxic": 0,
                "saved": 0,
                "comments": 0
            },
            "source": {
                "title": "Firo Twitter",
                "region": "en",
                "domain": "twitter.com",
                "path": "@firoorg"
            },
            "title": "Imitation is the sincerest form of flattery but we have no relations to Vassana Token $VSNT who has blatantly rippe\u2026",
            "published_at": "2021-04-01T18:22:45Z",
            "slug": "Imitation-is-the-sincerest-form-of-flattery-but-we-have-no-relations-to-Vassana-Token-VSNT-who-has-blatantly-rippe",
            "currencies": [
                {
                    "code": "FIRO",
                    "title": "Firo",
                    "slug": "zcoin",
                    "url": "https:\/\/cryptopanic.com\/news\/zcoin\/"
                }
            ],
            "id": 11709572,
            "url": "https:\/\/cryptopanic.com\/news\/11709572\/Imitation-is-the-sincerest-form-of-flattery-but-we-have-no-relations-to-Vassana-Token-VSNT-who-has-blatantly-rippe",
            "created_at": "2021-04-01T18:22:45Z"
        },
        {
            "kind": "news",
            "domain": "@firoorg",
            "votes": {
                "negative": 0,
                "positive": 1,
                "important": 0,
                "liked": 1,
                "disliked": 0,
                "lol": 0,
                "toxic": 0,
                "saved": 0,
                "comments": 0
            },
            "source": {
                "title": "Firo Twitter",
                "region": "en",
                "domain": "twitter.com",
                "path": "@firoorg"
            },
            "title": "Firo is now integrated with #BinanceSmartChain @BinanceChain with full support in @binance and Binance Bridge.\u2026",
            "published_at": "2021-04-01T07:59:45Z",
            "slug": "Firo-is-now-integrated-with-BinanceSmartChain-BinanceChain-with-full-support-in-binance-and-Binance-Bridge",
            "currencies": [
                {
                    "code": "FIRO",
                    "title": "Firo",
                    "slug": "zcoin",
                    "url": "https:\/\/cryptopanic.com\/news\/zcoin\/"
                }
            ],
            "id": 11709573,
            "url": "https:\/\/cryptopanic.com\/news\/11709573\/Firo-is-now-integrated-with-BinanceSmartChain-BinanceChain-with-full-support-in-binance-and-Binance-Bridge",
            "created_at": "2021-04-01T07:59:45Z"
        },
        {
            "kind": "news",
            "domain": "@firoorg",
            "votes": {
                "negative": 0,
                "positive": 0,
                "important": 0,
                "liked": 1,
                "disliked": 0,
                "lol": 0,
                "toxic": 0,
                "saved": 0,
                "comments": 0
            },
            "source": {
                "title": "Firo Twitter",
                "region": "en",
                "domain": "twitter.com",
                "path": "@firoorg"
            },
            "title": "stFIRO (wrapped masternoded $FIRO on ETH) has been approved for @SushiSwap Onsen rewards!",
            "published_at": "2021-03-29T11:00:52Z",
            "slug": "stFIRO-wrapped-masternoded-FIRO-on-ETH-has-been-approved-for-SushiSwap-Onsen-rewards",
            "currencies": [
                {
                    "code": "FIRO",
                    "title": "Firo",
                    "slug": "zcoin",
                    "url": "https:\/\/cryptopanic.com\/news\/zcoin\/"
                }
            ],
            "id": 11693720,
            "url": "https:\/\/cryptopanic.com\/news\/11693720\/stFIRO-wrapped-masternoded-FIRO-on-ETH-has-been-approved-for-SushiSwap-Onsen-rewards",
            "created_at": "2021-03-29T11:00:52Z"
        },
        {
            "kind": "news",
            "domain": "@firoorg",
            "votes": {
                "negative": 0,
                "positive": 1,
                "important": 0,
                "liked": 0,
                "disliked": 0,
                "lol": 0,
                "toxic": 0,
                "saved": 0,
                "comments": 0
            },
            "source": {
                "title": "Firo Twitter",
                "region": "en",
                "domain": "twitter.com",
                "path": "@firoorg"
            },
            "title": "What's ProgPOW or MTP you asked? \nWhy are we moving to ProgPOW?\n\nThis week on the Firo Frontier, We are talking j\u2026",
            "published_at": "2021-03-29T08:41:42Z",
            "slug": "Whats-ProgPOW-or-MTP-you-asked-Why-are-we-moving-to-ProgPOW-This-week-on-the-Firo-Frontier-We-are-talking-j",
            "currencies": [
                {
                    "code": "FIRO",
                    "title": "Firo",
                    "slug": "zcoin",
                    "url": "https:\/\/cryptopanic.com\/news\/zcoin\/"
                }
            ],
            "id": 11693721,
            "url": "https:\/\/cryptopanic.com\/news\/11693721\/Whats-ProgPOW-or-MTP-you-asked-Why-are-we-moving-to-ProgPOW-This-week-on-the-Firo-Frontier-We-are-talking-j",
            "created_at": "2021-03-29T08:41:42Z"
        },
        {
            "kind": "news",
            "domain": "@firoorg",
            "votes": {
                "negative": 0,
                "positive": 0,
                "important": 1,
                "liked": 1,
                "disliked": 0,
                "lol": 0,
                "toxic": 0,
                "saved": 0,
                "comments": 0
            },
            "source": {
                "title": "Firo Twitter",
                "region": "en",
                "domain": "twitter.com",
                "path": "@firoorg"
            },
            "title": "RT @rocketbotpro: ANN: Firo on RocketBot! \n\nStart earning, tipping, airdropping, and giving away FIRO with RocketBot today!\n\nFollow @fir\u2026",
            "published_at": "2021-03-27T15:38:56Z",
            "slug": "RT-rocketbotpro-ANN-Firo-on-RocketBot-Start-earning-tipping-airdropping-and-giving-away-FIRO-with-RocketBot-today-Follow-fir",
            "currencies": [
                {
                    "code": "FIRO",
                    "title": "Firo",
                    "slug": "zcoin",
                    "url": "https:\/\/cryptopanic.com\/news\/zcoin\/"
                }
            ],
            "id": 11686107,
            "url": "https:\/\/cryptopanic.com\/news\/11686107\/RT-rocketbotpro-ANN-Firo-on-RocketBot-Start-earning-tipping-airdropping-and-giving-away-FIRO-with-RocketBot-today-Follow-fir",
            "created_at": "2021-03-27T15:38:56Z"
        },
        {
            "kind": "news",
            "domain": "@firoorg",
            "source": {
                "title": "Firo Twitter",
                "region": "en",
                "domain": "twitter.com",
                "path": "@firoorg"
            },
            "title": "To those who missed the community meeting earlier, we have uploaded a recording of it on our youtube channel\u2026",
            "published_at": "2021-03-27T15:26:17Z",
            "slug": "To-those-who-missed-the-community-meeting-earlier-we-have-uploaded-a-recording-of-it-on-our-youtube-channel",
            "currencies": [
                {
                    "code": "FIRO",
                    "title": "Firo",
                    "slug": "zcoin",
                    "url": "https:\/\/cryptopanic.com\/news\/zcoin\/"
                }
            ],
            "id": 11686108,
            "url": "https:\/\/cryptopanic.com\/news\/11686108\/To-those-who-missed-the-community-meeting-earlier-we-have-uploaded-a-recording-of-it-on-our-youtube-channel",
            "created_at": "2021-03-27T15:26:17Z",
            "votes": {
                "negative": 0,
                "positive": 0,
                "important": 0,
                "liked": 0,
                "disliked": 0,
                "lol": 0,
                "toxic": 0,
                "saved": 0,
                "comments": 0
            }
        },
        {
            "kind": "news",
            "domain": "@firoorg",
            "votes": {
                "negative": 0,
                "positive": 0,
                "important": 0,
                "liked": 1,
                "disliked": 0,
                "lol": 0,
                "toxic": 0,
                "saved": 0,
                "comments": 0
            },
            "source": {
                "title": "Firo Twitter",
                "region": "en",
                "domain": "twitter.com",
                "path": "@firoorg"
            },
            "title": "Firo's Community meeting happening now!\n\nJoin us over voice on our discord server \n\n#FIRO $FIRO",
            "published_at": "2021-03-27T08:03:09Z",
            "slug": "Firos-Community-meeting-happening-now-Join-us-over-voice-on-our-discord-server-FIRO-FIRO",
            "currencies": [
                {
                    "code": "FIRO",
                    "title": "Firo",
                    "slug": "zcoin",
                    "url": "https:\/\/cryptopanic.com\/news\/zcoin\/"
                }
            ],
            "id": 11686109,
            "url": "https:\/\/cryptopanic.com\/news\/11686109\/Firos-Community-meeting-happening-now-Join-us-over-voice-on-our-discord-server-FIRO-FIRO",
            "created_at": "2021-03-27T08:03:09Z"
        },
        {
            "kind": "news",
            "domain": "@firoorg",
            "source": {
                "title": "Firo Twitter",
                "region": "en",
                "domain": "twitter.com",
                "path": "@firoorg"
            },
            "title": "Firo's Community meeting will start in 30 minutes!\n\nJoin us over voice on our discord server",
            "published_at": "2021-03-27T07:30:48Z",
            "slug": "Firos-Community-meeting-will-start-in-30-minutes-Join-us-over-voice-on-our-discord-server",
            "currencies": [
                {
                    "code": "FIRO",
                    "title": "Firo",
                    "slug": "zcoin",
                    "url": "https:\/\/cryptopanic.com\/news\/zcoin\/"
                }
            ],
            "id": 11686110,
            "url": "https:\/\/cryptopanic.com\/news\/11686110\/Firos-Community-meeting-will-start-in-30-minutes-Join-us-over-voice-on-our-discord-server",
            "created_at": "2021-03-27T07:30:48Z",
            "votes": {
                "negative": 0,
                "positive": 0,
                "important": 0,
                "liked": 0,
                "disliked": 0,
                "lol": 0,
                "toxic": 0,
                "saved": 0,
                "comments": 0
            }
        },
        {
            "kind": "news",
            "domain": "@firoorg",
            "source": {
                "title": "Firo Twitter",
                "region": "en",
                "domain": "twitter.com",
                "path": "@firoorg"
            },
            "title": "Happening tomorrow!",
            "published_at": "2021-03-26T13:55:07Z",
            "slug": "Happening-tomorrow",
            "currencies": [
                {
                    "code": "FIRO",
                    "title": "Firo",
                    "slug": "zcoin",
                    "url": "https:\/\/cryptopanic.com\/news\/zcoin\/"
                }
            ],
            "id": 11682143,
            "url": "https:\/\/cryptopanic.com\/news\/11682143\/Happening-tomorrow",
            "created_at": "2021-03-26T13:55:07Z",
            "votes": {
                "negative": 0,
                "positive": 0,
                "important": 0,
                "liked": 0,
                "disliked": 0,
                "lol": 0,
                "toxic": 0,
                "saved": 0,
                "comments": 0
            }
        },
        {
            "kind": "news",
            "domain": "@firoorg",
            "source": {
                "title": "Firo Twitter",
                "region": "en",
                "domain": "twitter.com",
                "path": "@firoorg"
            },
            "title": "RT @OhGodAGirl: Attention to all mining developers! Here\u2019s your chance to implement one of the coolest algorithms in the space\u2026if I do say\u2026",
            "published_at": "2021-03-26T06:40:22Z",
            "slug": "RT-OhGodAGirl-Attention-to-all-mining-developers-Heres-your-chance-to-implement-one-of-the-coolest-algorithms-in-the-spaceif-I-do-say",
            "currencies": [
                {
                    "code": "FIRO",
                    "title": "Firo",
                    "slug": "zcoin",
                    "url": "https:\/\/cryptopanic.com\/news\/zcoin\/"
                }
            ],
            "id": 11682144,
            "url": "https:\/\/cryptopanic.com\/news\/11682144\/RT-OhGodAGirl-Attention-to-all-mining-developers-Heres-your-chance-to-implement-one-of-the-coolest-algorithms-in-the-spaceif-I-do-say",
            "created_at": "2021-03-26T06:40:22Z",
            "votes": {
                "negative": 0,
                "positive": 0,
                "important": 0,
                "liked": 0,
                "disliked": 0,
                "lol": 0,
                "toxic": 0,
                "saved": 0,
                "comments": 0
            }
        },
        {
            "kind": "news",
            "domain": "@firoorg",
            "source": {
                "title": "Firo Twitter",
                "region": "en",
                "domain": "twitter.com",
                "path": "@firoorg"
            },
            "title": "We are looking for an experienced dev to implement ProgPOW in Firo! DMs are open! #firo #proofofwork",
            "published_at": "2021-03-26T06:36:03Z",
            "slug": "We-are-looking-for-an-experienced-dev-to-implement-ProgPOW-in-Firo-DMs-are-open-firo-proofofwork",
            "currencies": [
                {
                    "code": "FIRO",
                    "title": "Firo",
                    "slug": "zcoin",
                    "url": "https:\/\/cryptopanic.com\/news\/zcoin\/"
                }
            ],
            "id": 11682145,
            "url": "https:\/\/cryptopanic.com\/news\/11682145\/We-are-looking-for-an-experienced-dev-to-implement-ProgPOW-in-Firo-DMs-are-open-firo-proofofwork",
            "created_at": "2021-03-26T06:36:03Z",
            "votes": {
                "negative": 0,
                "positive": 0,
                "important": 0,
                "liked": 0,
                "disliked": 0,
                "lol": 0,
                "toxic": 0,
                "saved": 0,
                "comments": 0
            }
        },
        {
            "kind": "news",
            "domain": "@firoorg",
            "source": {
                "title": "Firo Twitter",
                "region": "en",
                "domain": "twitter.com",
                "path": "@firoorg"
            },
            "title": "Vote for #FIRO to be listed on \n\n1 S11 token = 1 vote",
            "published_at": "2021-03-25T18:09:08Z",
            "slug": "Vote-for-FIRO-to-be-listed-on-1-S11-token-1-vote",
            "currencies": [
                {
                    "code": "FIRO",
                    "title": "Firo",
                    "slug": "zcoin",
                    "url": "https:\/\/cryptopanic.com\/news\/zcoin\/"
                }
            ],
            "id": 11677159,
            "url": "https:\/\/cryptopanic.com\/news\/11677159\/Vote-for-FIRO-to-be-listed-on-1-S11-token-1-vote",
            "created_at": "2021-03-25T18:09:08Z",
            "votes": {
                "negative": 0,
                "positive": 0,
                "important": 0,
                "liked": 0,
                "disliked": 0,
                "lol": 0,
                "toxic": 0,
                "saved": 0,
                "comments": 0
            }
        },
        {
            "kind": "news",
            "domain": "@firoorg",
            "source": {
                "title": "Firo Twitter",
                "region": "en",
                "domain": "twitter.com",
                "path": "@firoorg"
            },
            "title": "RT @SmartCryptoNew1: \ufe0f Set your calendar and join on @firoorg community meeting that will takes place on 27th March 2021\n\n\ufe0f Gather all yo\u2026",
            "published_at": "2021-03-25T16:27:54Z",
            "slug": "RT-SmartCryptoNew1-Set-your-calendar-and-join-on-firoorg-community-meeting-that-will-takes-place-on-27th-March-2021-Gather-all-yo",
            "currencies": [
                {
                    "code": "FIRO",
                    "title": "Firo",
                    "slug": "zcoin",
                    "url": "https:\/\/cryptopanic.com\/news\/zcoin\/"
                }
            ],
            "id": 11677160,
            "url": "https:\/\/cryptopanic.com\/news\/11677160\/RT-SmartCryptoNew1-Set-your-calendar-and-join-on-firoorg-community-meeting-that-will-takes-place-on-27th-March-2021-Gather-all-yo",
            "created_at": "2021-03-25T16:27:54Z",
            "votes": {
                "negative": 0,
                "positive": 0,
                "important": 0,
                "liked": 0,
                "disliked": 0,
                "lol": 0,
                "toxic": 0,
                "saved": 0,
                "comments": 0
            }
        },
        {
            "kind": "news",
            "domain": "@firoorg",
            "source": {
                "title": "Firo Twitter",
                "region": "en",
                "domain": "twitter.com",
                "path": "@firoorg"
            },
            "title": "1\/ FATF's proposed amendments to their guidance on cryptocurrencies is an affront to its core purpose. Discouraging\u2026",
            "published_at": "2021-03-24T13:03:04Z",
            "slug": "1-FATFs-proposed-amendments-to-their-guidance-on-cryptocurrencies-is-an-affront-to-its-core-purpose-Discouraging",
            "currencies": [
                {
                    "code": "FIRO",
                    "title": "Firo",
                    "slug": "zcoin",
                    "url": "https:\/\/cryptopanic.com\/news\/zcoin\/"
                }
            ],
            "id": 11671787,
            "url": "https:\/\/cryptopanic.com\/news\/11671787\/1-FATFs-proposed-amendments-to-their-guidance-on-cryptocurrencies-is-an-affront-to-its-core-purpose-Discouraging",
            "created_at": "2021-03-24T13:03:04Z",
            "votes": {
                "negative": 0,
                "positive": 0,
                "important": 0,
                "liked": 0,
                "disliked": 0,
                "lol": 0,
                "toxic": 0,
                "saved": 0,
                "comments": 0
            }
        },
        {
            "kind": "news",
            "domain": "@firoorg",
            "source": {
                "title": "Firo Twitter",
                "region": "en",
                "domain": "twitter.com",
                "path": "@firoorg"
            },
            "title": "Reminder! Our next community meeting is on this coming Saturday 4pm (gmt+8)!",
            "published_at": "2021-03-24T09:42:07Z",
            "slug": "Reminder-Our-next-community-meeting-is-on-this-coming-Saturday-4pm-gmt8",
            "currencies": [
                {
                    "code": "FIRO",
                    "title": "Firo",
                    "slug": "zcoin",
                    "url": "https:\/\/cryptopanic.com\/news\/zcoin\/"
                }
            ],
            "id": 11671788,
            "url": "https:\/\/cryptopanic.com\/news\/11671788\/Reminder-Our-next-community-meeting-is-on-this-coming-Saturday-4pm-gmt8",
            "created_at": "2021-03-24T09:42:07Z",
            "votes": {
                "negative": 0,
                "positive": 0,
                "important": 0,
                "liked": 0,
                "disliked": 0,
                "lol": 0,
                "toxic": 0,
                "saved": 0,
                "comments": 0
            }
        },
        {
            "kind": "news",
            "domain": "@firoorg",
            "source": {
                "title": "Firo Twitter",
                "region": "en",
                "domain": "twitter.com",
                "path": "@firoorg"
            },
            "title": "Our liquidity mining campaign with Hummingbot is still ongoing! Provide liquidity for #Firo on @binance and earn re\u2026",
            "published_at": "2021-03-23T14:43:28Z",
            "slug": "Our-liquidity-mining-campaign-with-Hummingbot-is-still-ongoing-Provide-liquidity-for-Firo-on-binance-and-earn-re",
            "currencies": [
                {
                    "code": "FIRO",
                    "title": "Firo",
                    "slug": "zcoin",
                    "url": "https:\/\/cryptopanic.com\/news\/zcoin\/"
                }
            ],
            "id": 11666506,
            "url": "https:\/\/cryptopanic.com\/news\/11666506\/Our-liquidity-mining-campaign-with-Hummingbot-is-still-ongoing-Provide-liquidity-for-Firo-on-binance-and-earn-re",
            "created_at": "2021-03-23T14:43:28Z",
            "votes": {
                "negative": 0,
                "positive": 0,
                "important": 0,
                "liked": 0,
                "disliked": 0,
                "lol": 0,
                "toxic": 0,
                "saved": 0,
                "comments": 0
            }
        },
        {
            "kind": "news",
            "domain": "@firoorg",
            "source": {
                "title": "Firo Twitter",
                "region": "en",
                "domain": "twitter.com",
                "path": "@firoorg"
            },
            "title": "Firo Frontier Episode 3 is now out talking about Lelantus reactivation and the events surrounding it! #firo $FIRO\u2026",
            "published_at": "2021-03-22T07:22:09Z",
            "slug": "Firo-Frontier-Episode-3-is-now-out-talking-about-Lelantus-reactivation-and-the-events-surrounding-it-firo-FIRO",
            "currencies": [
                {
                    "code": "FIRO",
                    "title": "Firo",
                    "slug": "zcoin",
                    "url": "https:\/\/cryptopanic.com\/news\/zcoin\/"
                }
            ],
            "id": 11660932,
            "url": "https:\/\/cryptopanic.com\/news\/11660932\/Firo-Frontier-Episode-3-is-now-out-talking-about-Lelantus-reactivation-and-the-events-surrounding-it-firo-FIRO",
            "created_at": "2021-03-22T07:22:09Z",
            "votes": {
                "negative": 0,
                "positive": 0,
                "important": 0,
                "liked": 0,
                "disliked": 0,
                "lol": 0,
                "toxic": 0,
                "saved": 0,
                "comments": 0
            }
        },
        {
            "kind": "news",
            "domain": "@firoorg",
            "source": {
                "title": "Firo Twitter",
                "region": "en",
                "domain": "twitter.com",
                "path": "@firoorg"
            },
            "title": "RT @SeaFlagCrypto: FIRO Coin Mining Guide | Most Profitable Coin to Mine than Ethereum | ZC... via @YouTube \n\n@firo\u2026",
            "published_at": "2021-03-22T06:31:39Z",
            "slug": "RT-SeaFlagCrypto-FIRO-Coin-Mining-Guide-Most-Profitable-Coin-to-Mine-than-Ethereum-ZC-via-YouTube-firo",
            "currencies": [
                {
                    "code": "FIRO",
                    "title": "Firo",
                    "slug": "zcoin",
                    "url": "https:\/\/cryptopanic.com\/news\/zcoin\/"
                }
            ],
            "id": 11660933,
            "url": "https:\/\/cryptopanic.com\/news\/11660933\/RT-SeaFlagCrypto-FIRO-Coin-Mining-Guide-Most-Profitable-Coin-to-Mine-than-Ethereum-ZC-via-YouTube-firo",
            "created_at": "2021-03-22T06:31:39Z",
            "votes": {
                "negative": 0,
                "positive": 0,
                "important": 0,
                "liked": 0,
                "disliked": 0,
                "lol": 0,
                "toxic": 0,
                "saved": 0,
                "comments": 0
            }
        },
        {
            "kind": "news",
            "domain": "@firoorg",
            "source": {
                "title": "Firo Twitter",
                "region": "en",
                "domain": "twitter.com",
                "path": "@firoorg"
            },
            "title": "RT @firoorg: Join us for our next community meeting on Saturday the 27th March at 4 pm (GMT +8)\n\nIf you have any topic that you want to rai\u2026",
            "published_at": "2021-03-21T11:03:24Z",
            "slug": "RT-firoorg-Join-us-for-our-next-community-meeting-on-Saturday-the-27th-March-at-4-pm-GMT-8-If-you-have-any-topic-that-you-want-to-rai",
            "currencies": [
                {
                    "code": "FIRO",
                    "title": "Firo",
                    "slug": "zcoin",
                    "url": "https:\/\/cryptopanic.com\/news\/zcoin\/"
                }
            ],
            "id": 11656365,
            "url": "https:\/\/cryptopanic.com\/news\/11656365\/RT-firoorg-Join-us-for-our-next-community-meeting-on-Saturday-the-27th-March-at-4-pm-GMT-8-If-you-have-any-topic-that-you-want-to-rai",
            "created_at": "2021-03-21T11:03:24Z",
            "votes": {
                "negative": 0,
                "positive": 0,
                "important": 0,
                "liked": 0,
                "disliked": 0,
                "lol": 0,
                "toxic": 0,
                "saved": 0,
                "comments": 0
            }
        }
    ]
}
