{
    "count": 200,
    "next": "https:\/\/cryptopanic.com\/api\/v1\/posts\/?auth_token=01c356e89ffc1b8eba2127c81fc8c66ee0eace75&kind=news&currencies=SKL&page=2",
    "previous": null,
    "results": [
        {
            "kind": "news",
            "domain": "@SkaleNetwork",
            "source": {
                "title": "SKALE Twitter",
                "region": "en",
                "domain": "twitter.com",
                "path": "@skalenetwork"
            },
            "title": "RT @SkaleNetwork: This week, come together with leaders fueling growth and collaboration \ud83e\udd1d\n\nDive into insightful conversations, learn from\u2026",
            "published_at": "2023-07-12T06:31:16Z",
            "slug": "RT-SkaleNetwork-This-week-come-together-with-leaders-fueling-growth-and-collaboration-Dive-into-insightful-conversations-learn-from",
            "currencies": [
                {
                    "code": "SKL",
                    "title": "SKALE",
                    "slug": "skale",
                    "url": "https:\/\/cryptopanic.com\/news\/skale\/"
                }
            ],
            "id": 18766859,
            "url": "https:\/\/cryptopanic.com\/news\/18766859\/RT-SkaleNetwork-This-week-come-together-with-leaders-fueling-growth-and-collaboration-Dive-into-insightful-conversations-learn-from",
            "created_at": "2023-07-12T06:31:16Z",
            "votes": {
                "negative": 0,
                "positive": 0,
                "important": 0,
                "liked": 0,
                "disliked": 0,
                "lol": 0,
                "toxic": 0,
                "saved": 0,
                "comments": 0
            }
        },
        {
            "kind": "news",
            "domain": "@SkaleNetwork",
            "source": {
                "title": "SKALE Twitter",
                "region": "en",
                "domain": "twitter.com",
                "path": "@skalenetwork"
            },
            "title": "This week, come together with leaders fueling growth and collaboration \ud83e\udd1d\n\nDive into insightful conversations, learn\u2026",
            "published_at": "2023-07-11T16:08:49Z",
            "slug": "This-week-come-together-with-leaders-fueling-growth-and-collaboration-Dive-into-insightful-conversations-learn",
            "currencies": [
                {
                    "code": "SKL",
                    "title": "SKALE",
                    "slug": "skale",
                    "url": "https:\/\/cryptopanic.com\/news\/skale\/"
                }
            ],
            "id": 18766860,
            "url": "https:\/\/cryptopanic.com\/news\/18766860\/This-week-come-together-with-leaders-fueling-growth-and-collaboration-Dive-into-insightful-conversations-learn",
            "created_at": "2023-07-11T16:08:49Z",
            "votes": {
                "negative": 0,
                "positive": 0,
                "important": 0,
                "liked": 0,
                "disliked": 0,
                "lol": 0,
                "toxic": 0,
                "saved": 0,
                "comments": 0
            }
        },
        {
            "kind": "news",
            "domain": "@SkaleNetwork",
            "source": {
                "title": "SKALE Twitter",
                "region": "en",
                "domain": "twitter.com",
                "path": "@skalenetwork"
            },
            "title": "RT @SkaleNetwork: Get ready for an epic adventure with Merlin\u2019s Dungeons, SKALE\u2019s latest game partner! \n\n Relive nostalgia with this capt\u2026",
            "published_at": "2023-07-11T07:10:03Z",
            "slug": "RT-SkaleNetwork-Get-ready-for-an-epic-adventure-with-Merlins-Dungeons-SKALEs-latest-game-partner-Relive-nostalgia-with-this-capt",
            "currencies": [
                {
                    "code": "SKL",
                    "title": "SKALE",
                    "slug": "skale",
                    "url": "https:\/\/cryptopanic.com\/news\/skale\/"
                }
            ],
            "id": 18758667,
            "url": "https:\/\/cryptopanic.com\/news\/18758667\/RT-SkaleNetwork-Get-ready-for-an-epic-adventure-with-Merlins-Dungeons-SKALEs-latest-game-partner-Relive-nostalgia-with-this-capt",
            "created_at": "2023-07-11T07:10:03Z",
            "votes": {
                "negative": 0,
                "positive": 0,
                "important": 0,
                "liked": 0,
                "disliked": 0,
                "lol": 0,
                "toxic": 0,
                "saved": 0,
                "comments": 0
            }
        },
        {
            "kind": "news",
            "domain": "@SkaleNetwork",
            "source": {
                "title": "SKALE Twitter",
                "region": "en",
                "domain": "twitter.com",
                "path": "@skalenetwork"
            },
            "title": "Get ready for an epic adventure with Merlin\u2019s Dungeons, SKALE\u2019s latest game partner! \n\n Relive nostalgia with thi\u2026",
            "published_at": "2023-07-10T22:18:33Z",
            "slug": "Get-ready-for-an-epic-adventure-with-Merlins-Dungeons-SKALEs-latest-game-partner-Relive-nostalgia-with-thi",
            "currencies": [
                {
                    "code": "SKL",
                    "title": "SKALE",
                    "slug": "skale",
                    "url": "https:\/\/cryptopanic.com\/news\/skale\/"
                }
            ],
            "id": 18758668,
            "url": "https:\/\/cryptopanic.com\/news\/18758668\/Get-ready-for-an-epic-adventure-with-Merlins-Dungeons-SKALEs-latest-game-partner-Relive-nostalgia-with-thi",
            "created_at": "2023-07-10T22:18:33Z",
            "votes": {
                "negative": 0,
                "positive": 0,
                "important": 0,
                "liked": 0,
                "disliked": 0,
                "lol": 0,
                "toxic": 0,
                "saved": 0,
                "comments": 0
            }
        },
        {
            "kind": "news",
            "domain": "@SkaleNetwork",
            "source": {
                "title": "SKALE Twitter",
                "region": "en",
                "domain": "twitter.com",
                "path": "@skalenetwork"
            },
            "title": "Unleashing the Engineering Power of #SKALE!\n\nQ1 Achievements:\n Metaport Bridge: Seamless token transfers\n Optimiz\u2026",
            "published_at": "2023-07-10T18:00:19Z",
            "slug": "Unleashing-the-Engineering-Power-of-SKALE-Q1-Achievements-Metaport-Bridge-Seamless-token-transfers-Optimiz",
            "currencies": [
                {
                    "code": "SKL",
                    "title": "SKALE",
                    "slug": "skale",
                    "url": "https:\/\/cryptopanic.com\/news\/skale\/"
                }
            ],
            "id": 18758669,
            "url": "https:\/\/cryptopanic.com\/news\/18758669\/Unleashing-the-Engineering-Power-of-SKALE-Q1-Achievements-Metaport-Bridge-Seamless-token-transfers-Optimiz",
            "created_at": "2023-07-10T18:00:19Z",
            "votes": {
                "negative": 0,
                "positive": 0,
                "important": 0,
                "liked": 0,
                "disliked": 0,
                "lol": 0,
                "toxic": 0,
                "saved": 0,
                "comments": 0
            }
        },
        {
            "kind": "news",
            "domain": "@SkaleNetwork",
            "source": {
                "title": "SKALE Twitter",
                "region": "en",
                "domain": "twitter.com",
                "path": "@skalenetwork"
            },
            "title": "RT @jackoholleran: Fun seeing FUN games with awesome UX run on a blockchain. Amazing execution by @32bit_Untitled!\n\n#SKALE",
            "published_at": "2023-07-09T20:56:54Z",
            "slug": "RT-jackoholleran-Fun-seeing-FUN-games-with-awesome-UX-run-on-a-blockchain-Amazing-execution-by-32bit_Untitled-SKALE",
            "currencies": [
                {
                    "code": "SKL",
                    "title": "SKALE",
                    "slug": "skale",
                    "url": "https:\/\/cryptopanic.com\/news\/skale\/"
                }
            ],
            "id": 18751276,
            "url": "https:\/\/cryptopanic.com\/news\/18751276\/RT-jackoholleran-Fun-seeing-FUN-games-with-awesome-UX-run-on-a-blockchain-Amazing-execution-by-32bit_Untitled-SKALE",
            "created_at": "2023-07-09T20:56:54Z",
            "votes": {
                "negative": 0,
                "positive": 0,
                "important": 0,
                "liked": 0,
                "disliked": 0,
                "lol": 0,
                "toxic": 0,
                "saved": 0,
                "comments": 0
            }
        },
        {
            "kind": "news",
            "domain": "@SkaleNetwork",
            "source": {
                "title": "SKALE Twitter",
                "region": "en",
                "domain": "twitter.com",
                "path": "@skalenetwork"
            },
            "title": "Projects that prioritize user experience \n\nSee you in the game @jackoholleran!!",
            "published_at": "2023-07-08T17:28:57Z",
            "slug": "Projects-that-prioritize-user-experience-See-you-in-the-game-jackoholleran",
            "currencies": [
                {
                    "code": "SKL",
                    "title": "SKALE",
                    "slug": "skale",
                    "url": "https:\/\/cryptopanic.com\/news\/skale\/"
                }
            ],
            "id": 18746792,
            "url": "https:\/\/cryptopanic.com\/news\/18746792\/Projects-that-prioritize-user-experience-See-you-in-the-game-jackoholleran",
            "created_at": "2023-07-08T17:28:57Z",
            "votes": {
                "negative": 0,
                "positive": 0,
                "important": 0,
                "liked": 0,
                "disliked": 0,
                "lol": 0,
                "toxic": 0,
                "saved": 0,
                "comments": 0
            }
        },
        {
            "kind": "news",
            "domain": "@SkaleNetwork",
            "source": {
                "title": "SKALE Twitter",
                "region": "en",
                "domain": "twitter.com",
                "path": "@skalenetwork"
            },
            "title": "Happy #staturday! \n\nAnother solid week where dapps that have launched on #SKALE have saved their users over 8.5m US\u2026",
            "published_at": "2023-07-08T17:20:22Z",
            "slug": "Happy-staturday-Another-solid-week-where-dapps-that-have-launched-on-SKALE-have-saved-their-users-over-85m-US",
            "currencies": [
                {
                    "code": "SKL",
                    "title": "SKALE",
                    "slug": "skale",
                    "url": "https:\/\/cryptopanic.com\/news\/skale\/"
                }
            ],
            "id": 18746793,
            "url": "https:\/\/cryptopanic.com\/news\/18746793\/Happy-staturday-Another-solid-week-where-dapps-that-have-launched-on-SKALE-have-saved-their-users-over-85m-US",
            "created_at": "2023-07-08T17:20:22Z",
            "votes": {
                "negative": 0,
                "positive": 0,
                "important": 0,
                "liked": 0,
                "disliked": 0,
                "lol": 0,
                "toxic": 0,
                "saved": 0,
                "comments": 0
            }
        },
        {
            "kind": "news",
            "domain": "@SkaleNetwork",
            "source": {
                "title": "SKALE Twitter",
                "region": "en",
                "domain": "twitter.com",
                "path": "@skalenetwork"
            },
            "title": "RT @SkaleNetwork: The thriving @32bit_Untitled has secured its position as the #38 blockchain game and proudly builds on the SKALE network!\u2026",
            "published_at": "2023-07-08T08:05:31Z",
            "slug": "RT-SkaleNetwork-The-thriving-32bit_Untitled-has-secured-its-position-as-the-38-blockchain-game-and-proudly-builds-on-the-SKALE-network",
            "currencies": [
                {
                    "code": "SKL",
                    "title": "SKALE",
                    "slug": "skale",
                    "url": "https:\/\/cryptopanic.com\/news\/skale\/"
                }
            ],
            "id": 18742304,
            "url": "https:\/\/cryptopanic.com\/news\/18742304\/RT-SkaleNetwork-The-thriving-32bit_Untitled-has-secured-its-position-as-the-38-blockchain-game-and-proudly-builds-on-the-SKALE-network",
            "created_at": "2023-07-08T08:05:31Z",
            "votes": {
                "negative": 0,
                "positive": 0,
                "important": 0,
                "liked": 0,
                "disliked": 0,
                "lol": 0,
                "toxic": 0,
                "saved": 0,
                "comments": 0
            }
        },
        {
            "kind": "news",
            "domain": "@SkaleNetwork",
            "source": {
                "title": "SKALE Twitter",
                "region": "en",
                "domain": "twitter.com",
                "path": "@skalenetwork"
            },
            "title": "Rome wasn't built in a day, and the journey towards integrating AI and Web3 is no different. \ufe0f\n\nWe're on the right\u2026",
            "published_at": "2023-07-07T21:31:59Z",
            "slug": "Rome-wasnt-built-in-a-day-and-the-journey-towards-integrating-AI-and-Web3-is-no-different-Were-on-the-right",
            "currencies": [
                {
                    "code": "SKL",
                    "title": "SKALE",
                    "slug": "skale",
                    "url": "https:\/\/cryptopanic.com\/news\/skale\/"
                }
            ],
            "id": 18742305,
            "url": "https:\/\/cryptopanic.com\/news\/18742305\/Rome-wasnt-built-in-a-day-and-the-journey-towards-integrating-AI-and-Web3-is-no-different-Were-on-the-right",
            "created_at": "2023-07-07T21:31:59Z",
            "votes": {
                "negative": 0,
                "positive": 0,
                "important": 0,
                "liked": 0,
                "disliked": 0,
                "lol": 0,
                "toxic": 0,
                "saved": 0,
                "comments": 0
            }
        },
        {
            "kind": "news",
            "domain": "@SkaleNetwork",
            "source": {
                "title": "SKALE Twitter",
                "region": "en",
                "domain": "twitter.com",
                "path": "@skalenetwork"
            },
            "title": "The thriving @32bit_Untitled has secured its position as the #38 blockchain game and proudly builds on the SKALE ne\u2026",
            "published_at": "2023-07-07T17:14:31Z",
            "slug": "The-thriving-32bit_Untitled-has-secured-its-position-as-the-38-blockchain-game-and-proudly-builds-on-the-SKALE-ne",
            "currencies": [
                {
                    "code": "SKL",
                    "title": "SKALE",
                    "slug": "skale",
                    "url": "https:\/\/cryptopanic.com\/news\/skale\/"
                }
            ],
            "id": 18742306,
            "url": "https:\/\/cryptopanic.com\/news\/18742306\/The-thriving-32bit_Untitled-has-secured-its-position-as-the-38-blockchain-game-and-proudly-builds-on-the-SKALE-ne",
            "created_at": "2023-07-07T17:14:31Z",
            "votes": {
                "negative": 0,
                "positive": 0,
                "important": 0,
                "liked": 0,
                "disliked": 0,
                "lol": 0,
                "toxic": 0,
                "saved": 0,
                "comments": 0
            }
        },
        {
            "kind": "news",
            "domain": "@SkaleNetwork",
            "source": {
                "title": "SKALE Twitter",
                "region": "en",
                "domain": "twitter.com",
                "path": "@skalenetwork"
            },
            "title": "RT @SmartCryptoNew1: \ud83d\udfe3 @CoinSender innovative multi-address transaction platform has launched on @SkaleNetwork \n\n\ud83d\udfe3 #Coinsender is a #dApp d\u2026",
            "published_at": "2023-07-07T16:02:50Z",
            "slug": "RT-SmartCryptoNew1-CoinSender-innovative-multi-address-transaction-platform-has-launched-on-SkaleNetwork-Coinsender-is-a-dApp-d",
            "currencies": [
                {
                    "code": "SKL",
                    "title": "SKALE",
                    "slug": "skale",
                    "url": "https:\/\/cryptopanic.com\/news\/skale\/"
                }
            ],
            "id": 18742307,
            "url": "https:\/\/cryptopanic.com\/news\/18742307\/RT-SmartCryptoNew1-CoinSender-innovative-multi-address-transaction-platform-has-launched-on-SkaleNetwork-Coinsender-is-a-dApp-d",
            "created_at": "2023-07-07T16:02:50Z",
            "votes": {
                "negative": 0,
                "positive": 0,
                "important": 0,
                "liked": 0,
                "disliked": 0,
                "lol": 0,
                "toxic": 0,
                "saved": 0,
                "comments": 0
            }
        },
        {
            "kind": "news",
            "domain": "@SkaleNetwork",
            "source": {
                "title": "SKALE Twitter",
                "region": "en",
                "domain": "twitter.com",
                "path": "@skalenetwork"
            },
            "title": "Welcome to the zero gas fee movement @CoinSender \ud83e\udd1d",
            "published_at": "2023-07-07T14:22:04Z",
            "slug": "Welcome-to-the-zero-gas-fee-movement-CoinSender",
            "currencies": [
                {
                    "code": "SKL",
                    "title": "SKALE",
                    "slug": "skale",
                    "url": "https:\/\/cryptopanic.com\/news\/skale\/"
                }
            ],
            "id": 18742308,
            "url": "https:\/\/cryptopanic.com\/news\/18742308\/Welcome-to-the-zero-gas-fee-movement-CoinSender",
            "created_at": "2023-07-07T14:22:04Z",
            "votes": {
                "negative": 0,
                "positive": 0,
                "important": 0,
                "liked": 0,
                "disliked": 0,
                "lol": 0,
                "toxic": 0,
                "saved": 0,
                "comments": 0
            }
        },
        {
            "kind": "news",
            "domain": "@SkaleNetwork",
            "source": {
                "title": "SKALE Twitter",
                "region": "en",
                "domain": "twitter.com",
                "path": "@skalenetwork"
            },
            "title": "RT @SkaleNetwork: Say \u2018goodbye\u2019 to complicated token distribution, and \u2018hello\u2019 to multi-transaction payouts with a few clicks.\n\n@CoinSender\u2026",
            "published_at": "2023-07-07T07:38:25Z",
            "slug": "RT-SkaleNetwork-Say-goodbye-to-complicated-token-distribution-and-hello-to-multi-transaction-payouts-with-a-few-clicks-CoinSender",
            "currencies": [
                {
                    "code": "SKL",
                    "title": "SKALE",
                    "slug": "skale",
                    "url": "https:\/\/cryptopanic.com\/news\/skale\/"
                }
            ],
            "id": 18735060,
            "url": "https:\/\/cryptopanic.com\/news\/18735060\/RT-SkaleNetwork-Say-goodbye-to-complicated-token-distribution-and-hello-to-multi-transaction-payouts-with-a-few-clicks-CoinSender",
            "created_at": "2023-07-07T07:38:25Z",
            "votes": {
                "negative": 0,
                "positive": 0,
                "important": 0,
                "liked": 0,
                "disliked": 0,
                "lol": 0,
                "toxic": 0,
                "saved": 0,
                "comments": 0
            }
        },
        {
            "kind": "news",
            "domain": "@SkaleNetwork",
            "source": {
                "title": "SKALE Twitter",
                "region": "en",
                "domain": "twitter.com",
                "path": "@skalenetwork"
            },
            "title": "Say \u2018goodbye\u2019 to complicated token distribution, and \u2018hello\u2019 to multi-transaction payouts with a few clicks.\u2026",
            "published_at": "2023-07-06T20:33:46Z",
            "slug": "Say-goodbye-to-complicated-token-distribution-and-hello-to-multi-transaction-payouts-with-a-few-clicks",
            "currencies": [
                {
                    "code": "SKL",
                    "title": "SKALE",
                    "slug": "skale",
                    "url": "https:\/\/cryptopanic.com\/news\/skale\/"
                }
            ],
            "id": 18735061,
            "url": "https:\/\/cryptopanic.com\/news\/18735061\/Say-goodbye-to-complicated-token-distribution-and-hello-to-multi-transaction-payouts-with-a-few-clicks",
            "created_at": "2023-07-06T20:33:46Z",
            "votes": {
                "negative": 0,
                "positive": 0,
                "important": 0,
                "liked": 0,
                "disliked": 0,
                "lol": 0,
                "toxic": 0,
                "saved": 0,
                "comments": 0
            }
        },
        {
            "kind": "news",
            "domain": "@SkaleNetwork",
            "source": {
                "title": "SKALE Twitter",
                "region": "en",
                "domain": "twitter.com",
                "path": "@skalenetwork"
            },
            "title": "RT @SkaleNetwork: The gaming ecosystem on SKALE is booming, offering incredible blockchain games with ZERO gas fees. \n\nImmerse yourself in\u2026",
            "published_at": "2023-07-06T05:53:46Z",
            "slug": "RT-SkaleNetwork-The-gaming-ecosystem-on-SKALE-is-booming-offering-incredible-blockchain-games-with-ZERO-gas-fees-Immerse-yourself-in",
            "currencies": [
                {
                    "code": "SKL",
                    "title": "SKALE",
                    "slug": "skale",
                    "url": "https:\/\/cryptopanic.com\/news\/skale\/"
                }
            ],
            "id": 18726529,
            "url": "https:\/\/cryptopanic.com\/news\/18726529\/RT-SkaleNetwork-The-gaming-ecosystem-on-SKALE-is-booming-offering-incredible-blockchain-games-with-ZERO-gas-fees-Immerse-yourself-in",
            "created_at": "2023-07-06T05:53:46Z",
            "votes": {
                "negative": 0,
                "positive": 0,
                "important": 0,
                "liked": 0,
                "disliked": 0,
                "lol": 0,
                "toxic": 0,
                "saved": 0,
                "comments": 0
            }
        },
        {
            "kind": "news",
            "domain": "@SkaleNetwork",
            "source": {
                "title": "SKALE Twitter",
                "region": "en",
                "domain": "twitter.com",
                "path": "@skalenetwork"
            },
            "title": "What a month it's been for SKALE! \n\nFrom the DappRadar Integration to the game-changing Levitation Protocol announ\u2026",
            "published_at": "2023-07-05T21:19:07Z",
            "slug": "What-a-month-its-been-for-SKALE-From-the-DappRadar-Integration-to-the-game-changing-Levitation-Protocol-announ",
            "currencies": [
                {
                    "code": "SKL",
                    "title": "SKALE",
                    "slug": "skale",
                    "url": "https:\/\/cryptopanic.com\/news\/skale\/"
                }
            ],
            "id": 18726530,
            "url": "https:\/\/cryptopanic.com\/news\/18726530\/What-a-month-its-been-for-SKALE-From-the-DappRadar-Integration-to-the-game-changing-Levitation-Protocol-announ",
            "created_at": "2023-07-05T21:19:07Z",
            "votes": {
                "negative": 0,
                "positive": 0,
                "important": 0,
                "liked": 0,
                "disliked": 0,
                "lol": 0,
                "toxic": 0,
                "saved": 0,
                "comments": 0
            }
        },
        {
            "kind": "news",
            "domain": "@SkaleNetwork",
            "source": {
                "title": "SKALE Twitter",
                "region": "en",
                "domain": "twitter.com",
                "path": "@skalenetwork"
            },
            "title": "RT @MercyDeGreat: Looking for a Scalable Blockchain Solution?\n\nWhy Not Explore SKALE Network?\n\nLet\u2019s take a deep dive into the World of SKA\u2026",
            "published_at": "2023-07-05T17:54:16Z",
            "slug": "RT-MercyDeGreat-Looking-for-a-Scalable-Blockchain-Solution-Why-Not-Explore-SKALE-Network-Lets-take-a-deep-dive-into-the-World-of-SKA",
            "currencies": [
                {
                    "code": "SKL",
                    "title": "SKALE",
                    "slug": "skale",
                    "url": "https:\/\/cryptopanic.com\/news\/skale\/"
                }
            ],
            "id": 18726531,
            "url": "https:\/\/cryptopanic.com\/news\/18726531\/RT-MercyDeGreat-Looking-for-a-Scalable-Blockchain-Solution-Why-Not-Explore-SKALE-Network-Lets-take-a-deep-dive-into-the-World-of-SKA",
            "created_at": "2023-07-05T17:54:16Z",
            "votes": {
                "negative": 0,
                "positive": 0,
                "important": 0,
                "liked": 0,
                "disliked": 0,
                "lol": 0,
                "toxic": 0,
                "saved": 0,
                "comments": 0
            }
        },
        {
            "kind": "news",
            "domain": "@SkaleNetwork",
            "source": {
                "title": "SKALE Twitter",
                "region": "en",
                "domain": "twitter.com",
                "path": "@skalenetwork"
            },
            "title": "The gaming ecosystem on SKALE is booming, offering incredible blockchain games with ZERO gas fees. \n\nImmerse yours\u2026",
            "published_at": "2023-07-05T16:23:43Z",
            "slug": "The-gaming-ecosystem-on-SKALE-is-booming-offering-incredible-blockchain-games-with-ZERO-gas-fees-Immerse-yours",
            "currencies": [
                {
                    "code": "SKL",
                    "title": "SKALE",
                    "slug": "skale",
                    "url": "https:\/\/cryptopanic.com\/news\/skale\/"
                }
            ],
            "id": 18726532,
            "url": "https:\/\/cryptopanic.com\/news\/18726532\/The-gaming-ecosystem-on-SKALE-is-booming-offering-incredible-blockchain-games-with-ZERO-gas-fees-Immerse-yours",
            "created_at": "2023-07-05T16:23:43Z",
            "votes": {
                "negative": 0,
                "positive": 0,
                "important": 0,
                "liked": 0,
                "disliked": 0,
                "lol": 0,
                "toxic": 0,
                "saved": 0,
                "comments": 0
            }
        },
        {
            "kind": "news",
            "domain": "@SkaleNetwork",
            "source": {
                "title": "SKALE Twitter",
                "region": "en",
                "domain": "twitter.com",
                "path": "@skalenetwork"
            },
            "title": "RT @nftbmarket: Congrats to the @SkaleNetwork team!\nWe are super excited to bring NFTb to Skale ",
            "published_at": "2023-07-05T06:26:07Z",
            "slug": "RT-nftbmarket-Congrats-to-the-SkaleNetwork-team-We-are-super-excited-to-bring-NFTb-to-Skale",
            "currencies": [
                {
                    "code": "SKL",
                    "title": "SKALE",
                    "slug": "skale",
                    "url": "https:\/\/cryptopanic.com\/news\/skale\/"
                }
            ],
            "id": 18718539,
            "url": "https:\/\/cryptopanic.com\/news\/18718539\/RT-nftbmarket-Congrats-to-the-SkaleNetwork-team-We-are-super-excited-to-bring-NFTb-to-Skale",
            "created_at": "2023-07-05T06:26:07Z",
            "votes": {
                "negative": 0,
                "positive": 0,
                "important": 0,
                "liked": 0,
                "disliked": 0,
                "lol": 0,
                "toxic": 0,
                "saved": 0,
                "comments": 0
            }
        }
    ]
}
