{
    "count": 200,
    "next": "https:\/\/cryptopanic.com\/api\/v1\/posts\/?auth_token=01c356e89ffc1b8eba2127c81fc8c66ee0eace75&kind=news&currencies=CTK&page=2",
    "previous": null,
    "results": [
        {
            "kind": "news",
            "domain": "@ShentuChain",
            "source": {
                "title": "CertiK Twitter",
                "region": "en",
                "domain": "twitter.com",
                "path": "@shentuchain"
            },
            "title": ".@YTWOFUND is a global investment firm which is also active outside of the crypto sector, recently joined Shentu as\u2026",
            "published_at": "2023-07-11T16:49:31Z",
            "slug": "YTWOFUND-is-a-global-investment-firm-which-is-also-active-outside-of-the-crypto-sector-recently-joined-Shentu-as",
            "currencies": [
                {
                    "code": "CTK",
                    "title": "Shentu",
                    "slug": "certik",
                    "url": "https:\/\/cryptopanic.com\/news\/certik\/"
                }
            ],
            "id": 18763266,
            "url": "https:\/\/cryptopanic.com\/news\/18763266\/YTWOFUND-is-a-global-investment-firm-which-is-also-active-outside-of-the-crypto-sector-recently-joined-Shentu-as",
            "created_at": "2023-07-11T16:49:31Z",
            "votes": {
                "negative": 0,
                "positive": 0,
                "important": 0,
                "liked": 0,
                "disliked": 0,
                "lol": 0,
                "toxic": 0,
                "saved": 0,
                "comments": 0
            }
        },
        {
            "kind": "news",
            "domain": "@ShentuChain",
            "source": {
                "title": "CertiK Twitter",
                "region": "en",
                "domain": "twitter.com",
                "path": "@shentuchain"
            },
            "title": "Learn on how to stay a little safer with the great advice of the Emperor @Flowslikeosmo and @bubblemaps in the wild\u2026",
            "published_at": "2023-07-09T20:27:22Z",
            "slug": "Learn-on-how-to-stay-a-little-safer-with-the-great-advice-of-the-Emperor-Flowslikeosmo-and-bubblemaps-in-the-wild",
            "currencies": [
                {
                    "code": "CTK",
                    "title": "Shentu",
                    "slug": "certik",
                    "url": "https:\/\/cryptopanic.com\/news\/certik\/"
                }
            ],
            "id": 18749122,
            "url": "https:\/\/cryptopanic.com\/news\/18749122\/Learn-on-how-to-stay-a-little-safer-with-the-great-advice-of-the-Emperor-Flowslikeosmo-and-bubblemaps-in-the-wild",
            "created_at": "2023-07-09T20:27:22Z",
            "votes": {
                "negative": 0,
                "positive": 0,
                "important": 0,
                "liked": 0,
                "disliked": 0,
                "lol": 0,
                "toxic": 0,
                "saved": 0,
                "comments": 0
            }
        },
        {
            "kind": "news",
            "domain": "@ShentuChain",
            "source": {
                "title": "CertiK Twitter",
                "region": "en",
                "domain": "twitter.com",
                "path": "@shentuchain"
            },
            "title": "Meet Topstake, a small independent but reliable validator that has been validating Shentu since shortly after laun\u2026",
            "published_at": "2023-07-09T01:05:08Z",
            "slug": "Meet-Topstake-a-small-independent-but-reliable-validator-that-has-been-validating-Shentu-since-shortly-after-laun",
            "currencies": [
                {
                    "code": "CTK",
                    "title": "Shentu",
                    "slug": "certik",
                    "url": "https:\/\/cryptopanic.com\/news\/certik\/"
                }
            ],
            "id": 18744971,
            "url": "https:\/\/cryptopanic.com\/news\/18744971\/Meet-Topstake-a-small-independent-but-reliable-validator-that-has-been-validating-Shentu-since-shortly-after-laun",
            "created_at": "2023-07-09T01:05:08Z",
            "votes": {
                "negative": 0,
                "positive": 0,
                "important": 0,
                "liked": 0,
                "disliked": 0,
                "lol": 0,
                "toxic": 0,
                "saved": 0,
                "comments": 0
            }
        },
        {
            "kind": "news",
            "domain": "@ShentuChain",
            "source": {
                "title": "CertiK Twitter",
                "region": "en",
                "domain": "twitter.com",
                "path": "@shentuchain"
            },
            "title": "To raise awareness, this is something that could also happen on #Shentu.\n \nAlways DYOR about the validator you are\u2026",
            "published_at": "2023-07-06T16:34:19Z",
            "slug": "To-raise-awareness-this-is-something-that-could-also-happen-on-Shentu-Always-DYOR-about-the-validator-you-are",
            "currencies": [
                {
                    "code": "CTK",
                    "title": "Shentu",
                    "slug": "certik",
                    "url": "https:\/\/cryptopanic.com\/news\/certik\/"
                }
            ],
            "id": 18731466,
            "url": "https:\/\/cryptopanic.com\/news\/18731466\/To-raise-awareness-this-is-something-that-could-also-happen-on-Shentu-Always-DYOR-about-the-validator-you-are",
            "created_at": "2023-07-06T16:34:19Z",
            "votes": {
                "negative": 0,
                "positive": 0,
                "important": 0,
                "liked": 0,
                "disliked": 0,
                "lol": 0,
                "toxic": 0,
                "saved": 0,
                "comments": 0
            }
        },
        {
            "kind": "news",
            "domain": "@ShentuChain",
            "source": {
                "title": "CertiK Twitter",
                "region": "en",
                "domain": "twitter.com",
                "path": "@shentuchain"
            },
            "title": "Meet @Binnoex, a German business group, validating 12 mainnets including Shentu for the long term. Beyond validatio\u2026",
            "published_at": "2023-07-06T10:34:48Z",
            "slug": "Meet-Binnoex-a-German-business-group-validating-12-mainnets-including-Shentu-for-the-long-term-Beyond-validatio",
            "currencies": [
                {
                    "code": "CTK",
                    "title": "Shentu",
                    "slug": "certik",
                    "url": "https:\/\/cryptopanic.com\/news\/certik\/"
                }
            ],
            "id": 18731467,
            "url": "https:\/\/cryptopanic.com\/news\/18731467\/Meet-Binnoex-a-German-business-group-validating-12-mainnets-including-Shentu-for-the-long-term-Beyond-validatio",
            "created_at": "2023-07-06T10:34:48Z",
            "votes": {
                "negative": 0,
                "positive": 0,
                "important": 0,
                "liked": 0,
                "disliked": 0,
                "lol": 0,
                "toxic": 0,
                "saved": 0,
                "comments": 0
            }
        },
        {
            "kind": "news",
            "domain": "@ShentuChain",
            "source": {
                "title": "CertiK Twitter",
                "region": "en",
                "domain": "twitter.com",
                "path": "@shentuchain"
            },
            "title": "The Chicken Coop (@JasonSopko42), an independent validator operating from USA, making his super chickens validate\u2026",
            "published_at": "2023-07-04T21:03:16Z",
            "slug": "The-Chicken-Coop-JasonSopko42-an-independent-validator-operating-from-USA-making-his-super-chickens-validate",
            "currencies": [
                {
                    "code": "CTK",
                    "title": "Shentu",
                    "slug": "certik",
                    "url": "https:\/\/cryptopanic.com\/news\/certik\/"
                }
            ],
            "id": 18715293,
            "url": "https:\/\/cryptopanic.com\/news\/18715293\/The-Chicken-Coop-JasonSopko42-an-independent-validator-operating-from-USA-making-his-super-chickens-validate",
            "created_at": "2023-07-04T21:03:16Z",
            "votes": {
                "negative": 0,
                "positive": 0,
                "important": 0,
                "liked": 0,
                "disliked": 0,
                "lol": 0,
                "toxic": 0,
                "saved": 0,
                "comments": 0
            }
        },
        {
            "kind": "news",
            "domain": "@ShentuChain",
            "source": {
                "title": "CertiK Twitter",
                "region": "en",
                "domain": "twitter.com",
                "path": "@shentuchain"
            },
            "title": "RT @CertiKAlert: #CertiKStatsAlert  \n\nCombining all the incidents in June we\u2019ve confirmed ~$134M lost to exploits, hacks and scams. \n\nExit\u2026",
            "published_at": "2023-07-01T18:53:52Z",
            "slug": "RT-CertiKAlert-CertiKStatsAlert-Combining-all-the-incidents-in-June-weve-confirmed-134M-lost-to-exploits-hacks-and-scams-Exit",
            "currencies": [
                {
                    "code": "CTK",
                    "title": "Shentu",
                    "slug": "certik",
                    "url": "https:\/\/cryptopanic.com\/news\/certik\/"
                }
            ],
            "id": 18698086,
            "url": "https:\/\/cryptopanic.com\/news\/18698086\/RT-CertiKAlert-CertiKStatsAlert-Combining-all-the-incidents-in-June-weve-confirmed-134M-lost-to-exploits-hacks-and-scams-Exit",
            "created_at": "2023-07-01T18:53:52Z",
            "votes": {
                "negative": 0,
                "positive": 0,
                "important": 0,
                "liked": 0,
                "disliked": 0,
                "lol": 0,
                "toxic": 0,
                "saved": 0,
                "comments": 0
            }
        },
        {
            "kind": "news",
            "domain": "@ShentuChain",
            "source": {
                "title": "CertiK Twitter",
                "region": "en",
                "domain": "twitter.com",
                "path": "@shentuchain"
            },
            "title": "\ud83c\uddfb\ud83c\uddf3 @TTTcapital is a professional validator from Vietnam, secures 7 main nets. Running a thriving crypto community w\u2026",
            "published_at": "2023-07-01T11:29:43Z",
            "slug": "TTTcapital-is-a-professional-validator-from-Vietnam-secures-7-main-nets-Running-a-thriving-crypto-community-w",
            "currencies": [
                {
                    "code": "CTK",
                    "title": "Shentu",
                    "slug": "certik",
                    "url": "https:\/\/cryptopanic.com\/news\/certik\/"
                }
            ],
            "id": 18698087,
            "url": "https:\/\/cryptopanic.com\/news\/18698087\/TTTcapital-is-a-professional-validator-from-Vietnam-secures-7-main-nets-Running-a-thriving-crypto-community-w",
            "created_at": "2023-07-01T11:29:43Z",
            "votes": {
                "negative": 0,
                "positive": 0,
                "important": 0,
                "liked": 0,
                "disliked": 0,
                "lol": 0,
                "toxic": 0,
                "saved": 0,
                "comments": 0
            }
        },
        {
            "kind": "news",
            "domain": "@ShentuChain",
            "source": {
                "title": "CertiK Twitter",
                "region": "en",
                "domain": "twitter.com",
                "path": "@shentuchain"
            },
            "title": "Meet @Stakely_io, they are a top Staking-as-a-Service provider specialized in Proof-of-Stake blockchains. With ove\u2026",
            "published_at": "2023-06-29T11:23:29Z",
            "slug": "Meet-Stakely_io-they-are-a-top-Staking-as-a-Service-provider-specialized-in-Proof-of-Stake-blockchains-With-ove",
            "currencies": [
                {
                    "code": "CTK",
                    "title": "Shentu",
                    "slug": "certik",
                    "url": "https:\/\/cryptopanic.com\/news\/certik\/"
                }
            ],
            "id": 18684521,
            "url": "https:\/\/cryptopanic.com\/news\/18684521\/Meet-Stakely_io-they-are-a-top-Staking-as-a-Service-provider-specialized-in-Proof-of-Stake-blockchains-With-ove",
            "created_at": "2023-06-29T11:23:29Z",
            "votes": {
                "negative": 0,
                "positive": 0,
                "important": 0,
                "liked": 0,
                "disliked": 0,
                "lol": 0,
                "toxic": 0,
                "saved": 0,
                "comments": 0
            }
        },
        {
            "kind": "news",
            "domain": "@ShentuChain",
            "source": {
                "title": "CertiK Twitter",
                "region": "en",
                "domain": "twitter.com",
                "path": "@shentuchain"
            },
            "title": ".@osmosiszone added support for extra wallets!\n\nNow you can go and Swap $CTK at pool 1020 in the comfort of your p\u2026",
            "published_at": "2023-06-28T17:56:09Z",
            "slug": "osmosiszone-added-support-for-extra-wallets-Now-you-can-go-and-Swap-CTK-at-pool-1020-in-the-comfort-of-your-p",
            "currencies": [
                {
                    "code": "CTK",
                    "title": "Shentu",
                    "slug": "certik",
                    "url": "https:\/\/cryptopanic.com\/news\/certik\/"
                }
            ],
            "id": 18676449,
            "url": "https:\/\/cryptopanic.com\/news\/18676449\/osmosiszone-added-support-for-extra-wallets-Now-you-can-go-and-Swap-CTK-at-pool-1020-in-the-comfort-of-your-p",
            "created_at": "2023-06-28T17:56:09Z",
            "votes": {
                "negative": 0,
                "positive": 0,
                "important": 0,
                "liked": 0,
                "disliked": 0,
                "lol": 0,
                "toxic": 0,
                "saved": 0,
                "comments": 0
            }
        },
        {
            "kind": "news",
            "domain": "@ShentuChain",
            "source": {
                "title": "CertiK Twitter",
                "region": "en",
                "domain": "twitter.com",
                "path": "@shentuchain"
            },
            "title": "\ud83e\ude90@CosmostationVD is an enterprise-level blockchain infrastructure company securing 60+ networks as a validator. Not\u2026",
            "published_at": "2023-06-27T20:48:14Z",
            "slug": "CosmostationVD-is-an-enterprise-level-blockchain-infrastructure-company-securing-60-networks-as-a-validator-Not",
            "currencies": [
                {
                    "code": "CTK",
                    "title": "Shentu",
                    "slug": "certik",
                    "url": "https:\/\/cryptopanic.com\/news\/certik\/"
                }
            ],
            "id": 18668219,
            "url": "https:\/\/cryptopanic.com\/news\/18668219\/CosmostationVD-is-an-enterprise-level-blockchain-infrastructure-company-securing-60-networks-as-a-validator-Not",
            "created_at": "2023-06-27T20:48:14Z",
            "votes": {
                "negative": 0,
                "positive": 0,
                "important": 0,
                "liked": 0,
                "disliked": 0,
                "lol": 0,
                "toxic": 0,
                "saved": 0,
                "comments": 0
            }
        },
        {
            "kind": "news",
            "domain": "@ShentuChain",
            "source": {
                "title": "CertiK Twitter",
                "region": "en",
                "domain": "twitter.com",
                "path": "@shentuchain"
            },
            "title": "Our validator family just got bigger with the addition of a new Vietnamese \ud83c\uddfb\ud83c\uddf3 member @TTTcapital . \ud83e\udd18 Join us in e\u2026",
            "published_at": "2023-06-26T15:56:01Z",
            "slug": "Our-validator-family-just-got-bigger-with-the-addition-of-a-new-Vietnamese-member-TTTcapital-Join-us-in-e",
            "currencies": [
                {
                    "code": "CTK",
                    "title": "Shentu",
                    "slug": "certik",
                    "url": "https:\/\/cryptopanic.com\/news\/certik\/"
                }
            ],
            "id": 18659952,
            "url": "https:\/\/cryptopanic.com\/news\/18659952\/Our-validator-family-just-got-bigger-with-the-addition-of-a-new-Vietnamese-member-TTTcapital-Join-us-in-e",
            "created_at": "2023-06-26T15:56:01Z",
            "votes": {
                "negative": 0,
                "positive": 0,
                "important": 0,
                "liked": 0,
                "disliked": 0,
                "lol": 0,
                "toxic": 0,
                "saved": 0,
                "comments": 0
            }
        },
        {
            "kind": "news",
            "domain": "@TeamCryptyk",
            "source": {
                "title": "Cryptyk Twitter",
                "region": "en",
                "domain": "twitter.com",
                "path": "@teamcryptyk"
            },
            "title": "RT @DecentrykCorp: Preventing counterfeiting is our top priority at @DecentrykCorp. We use #PhygitalPassport technology on our own products\u2026",
            "published_at": "2023-06-24T14:49:26Z",
            "slug": "RT-DecentrykCorp-Preventing-counterfeiting-is-our-top-priority-at-DecentrykCorp-We-use-PhygitalPassport-technology-on-our-own-products",
            "currencies": [
                {
                    "code": "CTK",
                    "title": "Cryptyk",
                    "slug": "cryptyk",
                    "url": "https:\/\/cryptopanic.com\/news\/cryptyk\/"
                }
            ],
            "id": 18649680,
            "url": "https:\/\/cryptopanic.com\/news\/18649680\/RT-DecentrykCorp-Preventing-counterfeiting-is-our-top-priority-at-DecentrykCorp-We-use-PhygitalPassport-technology-on-our-own-products",
            "created_at": "2023-06-24T14:49:26Z",
            "votes": {
                "negative": 0,
                "positive": 0,
                "important": 0,
                "liked": 0,
                "disliked": 0,
                "lol": 0,
                "toxic": 0,
                "saved": 0,
                "comments": 0
            }
        },
        {
            "kind": "news",
            "domain": "@ShentuChain",
            "source": {
                "title": "CertiK Twitter",
                "region": "en",
                "domain": "twitter.com",
                "path": "@shentuchain"
            },
            "title": "\ud83e\udd89 @OwlStake, recently a professional validator from Vietnam joined the Shentu network! They excel in validating mul\u2026",
            "published_at": "2023-06-24T09:48:25Z",
            "slug": "OwlStake-recently-a-professional-validator-from-Vietnam-joined-the-Shentu-network-They-excel-in-validating-mul",
            "currencies": [
                {
                    "code": "CTK",
                    "title": "Shentu",
                    "slug": "certik",
                    "url": "https:\/\/cryptopanic.com\/news\/certik\/"
                }
            ],
            "id": 18649544,
            "url": "https:\/\/cryptopanic.com\/news\/18649544\/OwlStake-recently-a-professional-validator-from-Vietnam-joined-the-Shentu-network-They-excel-in-validating-mul",
            "created_at": "2023-06-24T09:48:25Z",
            "votes": {
                "negative": 0,
                "positive": 0,
                "important": 0,
                "liked": 0,
                "disliked": 0,
                "lol": 0,
                "toxic": 0,
                "saved": 0,
                "comments": 0
            }
        },
        {
            "kind": "news",
            "domain": "@ShentuChain",
            "source": {
                "title": "CertiK Twitter",
                "region": "en",
                "domain": "twitter.com",
                "path": "@shentuchain"
            },
            "title": "\ud83e\udd73We are glad to announce that we are now also on CMC Communities.\ud83e\udd73\nA big thanks to @CoinMarketCap for supporting\u2026",
            "published_at": "2023-06-23T15:42:33Z",
            "slug": "We-are-glad-to-announce-that-we-are-now-also-on-CMC-Communities-A-big-thanks-to-CoinMarketCap-for-supporting",
            "currencies": [
                {
                    "code": "CTK",
                    "title": "Shentu",
                    "slug": "certik",
                    "url": "https:\/\/cryptopanic.com\/news\/certik\/"
                }
            ],
            "id": 18643551,
            "url": "https:\/\/cryptopanic.com\/news\/18643551\/We-are-glad-to-announce-that-we-are-now-also-on-CMC-Communities-A-big-thanks-to-CoinMarketCap-for-supporting",
            "created_at": "2023-06-23T15:42:33Z",
            "votes": {
                "negative": 0,
                "positive": 0,
                "important": 0,
                "liked": 0,
                "disliked": 0,
                "lol": 0,
                "toxic": 0,
                "saved": 0,
                "comments": 0
            }
        },
        {
            "kind": "news",
            "domain": "@ShentuChain",
            "source": {
                "title": "CertiK Twitter",
                "region": "en",
                "domain": "twitter.com",
                "path": "@shentuchain"
            },
            "title": "Meet @web34ever, a Validator &amp; Dedicated Contributor that offers a reliable staking service that are always online!\u2026",
            "published_at": "2023-06-22T13:12:31Z",
            "slug": "Meet-web34ever-a-Validator-amp-Dedicated-Contributor-that-offers-a-reliable-staking-service-that-are-always-online",
            "currencies": [
                {
                    "code": "CTK",
                    "title": "Shentu",
                    "slug": "certik",
                    "url": "https:\/\/cryptopanic.com\/news\/certik\/"
                }
            ],
            "id": 18635717,
            "url": "https:\/\/cryptopanic.com\/news\/18635717\/Meet-web34ever-a-Validator-amp-Dedicated-Contributor-that-offers-a-reliable-staking-service-that-are-always-online",
            "created_at": "2023-06-22T13:12:31Z",
            "votes": {
                "negative": 0,
                "positive": 0,
                "important": 0,
                "liked": 0,
                "disliked": 0,
                "lol": 0,
                "toxic": 0,
                "saved": 0,
                "comments": 0
            }
        },
        {
            "kind": "news",
            "domain": "@ShentuChain",
            "source": {
                "title": "CertiK Twitter",
                "region": "en",
                "domain": "twitter.com",
                "path": "@shentuchain"
            },
            "title": "Meet @dsrvlabs, a Shentu genesis validator and leading blockchain technology company that validates 40+ global netw\u2026",
            "published_at": "2023-06-20T11:39:07Z",
            "slug": "Meet-dsrvlabs-a-Shentu-genesis-validator-and-leading-blockchain-technology-company-that-validates-40-global-netw",
            "currencies": [
                {
                    "code": "CTK",
                    "title": "Shentu",
                    "slug": "certik",
                    "url": "https:\/\/cryptopanic.com\/news\/certik\/"
                }
            ],
            "id": 18619095,
            "url": "https:\/\/cryptopanic.com\/news\/18619095\/Meet-dsrvlabs-a-Shentu-genesis-validator-and-leading-blockchain-technology-company-that-validates-40-global-netw",
            "created_at": "2023-06-20T11:39:07Z",
            "votes": {
                "negative": 0,
                "positive": 0,
                "important": 0,
                "liked": 0,
                "disliked": 0,
                "lol": 0,
                "toxic": 0,
                "saved": 0,
                "comments": 0
            }
        },
        {
            "kind": "news",
            "domain": "@ShentuChain",
            "source": {
                "title": "CertiK Twitter",
                "region": "en",
                "domain": "twitter.com",
                "path": "@shentuchain"
            },
            "title": "CyberG (@vadyhodler777) shines as a trustworthy Shentu genesis validator. Hailing from Ukraine, they are passionate\u2026",
            "published_at": "2023-06-17T12:13:41Z",
            "slug": "CyberG-vadyhodler777-shines-as-a-trustworthy-Shentu-genesis-validator-Hailing-from-Ukraine-they-are-passionate",
            "currencies": [
                {
                    "code": "CTK",
                    "title": "Shentu",
                    "slug": "certik",
                    "url": "https:\/\/cryptopanic.com\/news\/certik\/"
                }
            ],
            "id": 18600879,
            "url": "https:\/\/cryptopanic.com\/news\/18600879\/CyberG-vadyhodler777-shines-as-a-trustworthy-Shentu-genesis-validator-Hailing-from-Ukraine-they-are-passionate",
            "created_at": "2023-06-17T12:13:41Z",
            "votes": {
                "negative": 0,
                "positive": 0,
                "important": 0,
                "liked": 0,
                "disliked": 0,
                "lol": 0,
                "toxic": 0,
                "saved": 0,
                "comments": 0
            }
        },
        {
            "kind": "news",
            "domain": "@ShentuChain",
            "source": {
                "title": "CertiK Twitter",
                "region": "en",
                "domain": "twitter.com",
                "path": "@shentuchain"
            },
            "title": " Check out the incredible introductory guide to #Shentu brought to you by our amazing friends at @StakinOfficial.\u2026",
            "published_at": "2023-06-16T17:59:09Z",
            "slug": "Check-out-the-incredible-introductory-guide-to-Shentu-brought-to-you-by-our-amazing-friends-at-StakinOfficial",
            "currencies": [
                {
                    "code": "CTK",
                    "title": "Shentu",
                    "slug": "certik",
                    "url": "https:\/\/cryptopanic.com\/news\/certik\/"
                }
            ],
            "id": 18594873,
            "url": "https:\/\/cryptopanic.com\/news\/18594873\/Check-out-the-incredible-introductory-guide-to-Shentu-brought-to-you-by-our-amazing-friends-at-StakinOfficial",
            "created_at": "2023-06-16T17:59:09Z",
            "votes": {
                "negative": 0,
                "positive": 0,
                "important": 0,
                "liked": 0,
                "disliked": 0,
                "lol": 0,
                "toxic": 0,
                "saved": 0,
                "comments": 0
            }
        },
        {
            "kind": "news",
            "domain": "@ShentuChain",
            "source": {
                "title": "CertiK Twitter",
                "region": "en",
                "domain": "twitter.com",
                "path": "@shentuchain"
            },
            "title": "Introducing @KleomedesDAO; a contributor-owned enterprise on 25+ chains. Educating and Onboarding the Cosmos throug\u2026",
            "published_at": "2023-06-15T17:06:08Z",
            "slug": "Introducing-KleomedesDAO-a-contributor-owned-enterprise-on-25-chains-Educating-and-Onboarding-the-Cosmos-throug",
            "currencies": [
                {
                    "code": "CTK",
                    "title": "Shentu",
                    "slug": "certik",
                    "url": "https:\/\/cryptopanic.com\/news\/certik\/"
                }
            ],
            "id": 18585948,
            "url": "https:\/\/cryptopanic.com\/news\/18585948\/Introducing-KleomedesDAO-a-contributor-owned-enterprise-on-25-chains-Educating-and-Onboarding-the-Cosmos-throug",
            "created_at": "2023-06-15T17:06:08Z",
            "votes": {
                "negative": 0,
                "positive": 0,
                "important": 0,
                "liked": 0,
                "disliked": 0,
                "lol": 0,
                "toxic": 0,
                "saved": 0,
                "comments": 0
            }
        }
    ]
}
