{
    "count": 200,
    "next": "https:\/\/cryptopanic.com\/api\/v1\/posts\/?auth_token=01c356e89ffc1b8eba2127c81fc8c66ee0eace75&kind=news&currencies=KMD&page=2",
    "previous": null,
    "results": [
        {
            "kind": "news",
            "domain": "@KomodoPlatform",
            "source": {
                "title": "Komodo Twitter",
                "region": "en",
                "domain": "twitter.com",
                "path": "@komodoplatform"
            },
            "title": "The #crypto space holds many exciting events! \ud83c\udd92\n\nFor example, did you know the next #Bitcoin #halving is expected t\u2026",
            "published_at": "2023-07-12T08:00:07Z",
            "slug": "The-crypto-space-holds-many-exciting-events-For-example-did-you-know-the-next-Bitcoin-halving-is-expected-t",
            "currencies": [
                {
                    "code": "KMD",
                    "title": "Komodo",
                    "slug": "komodo",
                    "url": "https:\/\/cryptopanic.com\/news\/komodo\/"
                }
            ],
            "id": 18765254,
            "url": "https:\/\/cryptopanic.com\/news\/18765254\/The-crypto-space-holds-many-exciting-events-For-example-did-you-know-the-next-Bitcoin-halving-is-expected-t",
            "created_at": "2023-07-12T08:00:07Z",
            "votes": {
                "negative": 0,
                "positive": 0,
                "important": 0,
                "liked": 0,
                "disliked": 0,
                "lol": 0,
                "toxic": 0,
                "saved": 0,
                "comments": 0
            }
        },
        {
            "kind": "news",
            "domain": "@KomodoPlatform",
            "source": {
                "title": "Komodo Twitter",
                "region": "en",
                "domain": "twitter.com",
                "path": "@komodoplatform"
            },
            "title": "1\/4\ud83e\uddf5 If you still have no clue about the reasons of our name changes, we've got your back!\n\nWe'll cover each of the\u2026",
            "published_at": "2023-07-12T00:00:06Z",
            "slug": "14-If-you-still-have-no-clue-about-the-reasons-of-our-name-changes-weve-got-your-back-Well-cover-each-of-the",
            "currencies": [
                {
                    "code": "KMD",
                    "title": "Komodo",
                    "slug": "komodo",
                    "url": "https:\/\/cryptopanic.com\/news\/komodo\/"
                }
            ],
            "id": 18765256,
            "url": "https:\/\/cryptopanic.com\/news\/18765256\/14-If-you-still-have-no-clue-about-the-reasons-of-our-name-changes-weve-got-your-back-Well-cover-each-of-the",
            "created_at": "2023-07-12T00:00:06Z",
            "votes": {
                "negative": 0,
                "positive": 0,
                "important": 0,
                "liked": 0,
                "disliked": 0,
                "lol": 0,
                "toxic": 0,
                "saved": 0,
                "comments": 0
            }
        },
        {
            "kind": "news",
            "domain": "@KomodoPlatform",
            "source": {
                "title": "Komodo Twitter",
                "region": "en",
                "domain": "twitter.com",
                "path": "@komodoplatform"
            },
            "title": "The news spread fast \n\n@AlexaBlockchain features the key points of our renaming and quotes what our CTO @0xca333 s\u2026",
            "published_at": "2023-07-11T18:00:05Z",
            "slug": "The-news-spread-fast-AlexaBlockchain-features-the-key-points-of-our-renaming-and-quotes-what-our-CTO-0xca333-s",
            "currencies": [
                {
                    "code": "KMD",
                    "title": "Komodo",
                    "slug": "komodo",
                    "url": "https:\/\/cryptopanic.com\/news\/komodo\/"
                }
            ],
            "id": 18765258,
            "url": "https:\/\/cryptopanic.com\/news\/18765258\/The-news-spread-fast-AlexaBlockchain-features-the-key-points-of-our-renaming-and-quotes-what-our-CTO-0xca333-s",
            "created_at": "2023-07-11T18:00:05Z",
            "votes": {
                "negative": 0,
                "positive": 0,
                "important": 0,
                "liked": 0,
                "disliked": 0,
                "lol": 0,
                "toxic": 0,
                "saved": 0,
                "comments": 0
            }
        },
        {
            "kind": "news",
            "domain": "@KomodoPlatform",
            "source": {
                "title": "Komodo Twitter",
                "region": "en",
                "domain": "twitter.com",
                "path": "@komodoplatform"
            },
            "title": "You may be wondering about #Komodo tech stack renaming \n\nNothing to worry about: join our live Q&amp;A session with\u2026",
            "published_at": "2023-07-11T15:00:36Z",
            "slug": "You-may-be-wondering-about-Komodo-tech-stack-renaming-Nothing-to-worry-about-join-our-live-QampA-session-with",
            "currencies": [
                {
                    "code": "KMD",
                    "title": "Komodo",
                    "slug": "komodo",
                    "url": "https:\/\/cryptopanic.com\/news\/komodo\/"
                }
            ],
            "id": 18765260,
            "url": "https:\/\/cryptopanic.com\/news\/18765260\/You-may-be-wondering-about-Komodo-tech-stack-renaming-Nothing-to-worry-about-join-our-live-QampA-session-with",
            "created_at": "2023-07-11T15:00:36Z",
            "votes": {
                "negative": 0,
                "positive": 0,
                "important": 0,
                "liked": 0,
                "disliked": 0,
                "lol": 0,
                "toxic": 0,
                "saved": 0,
                "comments": 0
            }
        },
        {
            "kind": "news",
            "domain": "@KomodoPlatform",
            "source": {
                "title": "Komodo Twitter",
                "region": "en",
                "domain": "twitter.com",
                "path": "@komodoplatform"
            },
            "title": "Why the new name? Why Komodo Wallet? \n\nLet's unleash how this new name aligns with our vision of empowering an\u2026",
            "published_at": "2023-07-11T12:57:57Z",
            "slug": "Why-the-new-name-Why-Komodo-Wallet-Lets-unleash-how-this-new-name-aligns-with-our-vision-of-empowering-an",
            "currencies": [
                {
                    "code": "KMD",
                    "title": "Komodo",
                    "slug": "komodo",
                    "url": "https:\/\/cryptopanic.com\/news\/komodo\/"
                }
            ],
            "id": 18765263,
            "url": "https:\/\/cryptopanic.com\/news\/18765263\/Why-the-new-name-Why-Komodo-Wallet-Lets-unleash-how-this-new-name-aligns-with-our-vision-of-empowering-an",
            "created_at": "2023-07-11T12:57:57Z",
            "votes": {
                "negative": 0,
                "positive": 0,
                "important": 0,
                "liked": 0,
                "disliked": 0,
                "lol": 0,
                "toxic": 0,
                "saved": 0,
                "comments": 0
            }
        },
        {
            "kind": "news",
            "domain": "@KomodoPlatform",
            "source": {
                "title": "Komodo Twitter",
                "region": "en",
                "domain": "twitter.com",
                "path": "@komodoplatform"
            },
            "title": "Let's go over the key points of our rename, shall we?  ",
            "published_at": "2023-07-11T07:22:38Z",
            "slug": "Lets-go-over-the-key-points-of-our-rename-shall-we",
            "currencies": [
                {
                    "code": "KMD",
                    "title": "Komodo",
                    "slug": "komodo",
                    "url": "https:\/\/cryptopanic.com\/news\/komodo\/"
                }
            ],
            "id": 18757086,
            "url": "https:\/\/cryptopanic.com\/news\/18757086\/Lets-go-over-the-key-points-of-our-rename-shall-we",
            "created_at": "2023-07-11T07:22:38Z",
            "votes": {
                "negative": 0,
                "positive": 0,
                "important": 0,
                "liked": 0,
                "disliked": 0,
                "lol": 0,
                "toxic": 0,
                "saved": 0,
                "comments": 0
            }
        },
        {
            "kind": "news",
            "domain": "@KomodoPlatform",
            "source": {
                "title": "Komodo Twitter",
                "region": "en",
                "domain": "twitter.com",
                "path": "@komodoplatform"
            },
            "title": "RT @AtomicDEX: Today we have a BIG announcement to make \n\nFrom now on, we will NO LONGER USE the name \"AtomicDEX\"\ufe0f\n\nAtomicDEX \ufe0f Komodo W\u2026",
            "published_at": "2023-07-10T15:04:53Z",
            "slug": "RT-AtomicDEX-Today-we-have-a-BIG-announcement-to-make-From-now-on-we-will-NO-LONGER-USE-the-name-AtomicDEX-AtomicDEX-Komodo-W",
            "currencies": [
                {
                    "code": "KMD",
                    "title": "Komodo",
                    "slug": "komodo",
                    "url": "https:\/\/cryptopanic.com\/news\/komodo\/"
                }
            ],
            "id": 18757087,
            "url": "https:\/\/cryptopanic.com\/news\/18757087\/RT-AtomicDEX-Today-we-have-a-BIG-announcement-to-make-From-now-on-we-will-NO-LONGER-USE-the-name-AtomicDEX-AtomicDEX-Komodo-W",
            "created_at": "2023-07-10T15:04:53Z",
            "votes": {
                "negative": 0,
                "positive": 0,
                "important": 0,
                "liked": 0,
                "disliked": 0,
                "lol": 0,
                "toxic": 0,
                "saved": 0,
                "comments": 0
            }
        },
        {
            "kind": "news",
            "domain": "@KomodoPlatform",
            "source": {
                "title": "Komodo Twitter",
                "region": "en",
                "domain": "twitter.com",
                "path": "@komodoplatform"
            },
            "title": "It's Summary Saturday, so we're curious \ud83e\udd14\n\nWhat do you think was the biggest milestone of #Komodo in 2023 so far? W\u2026",
            "published_at": "2023-07-08T04:00:06Z",
            "slug": "Its-Summary-Saturday-so-were-curious-What-do-you-think-was-the-biggest-milestone-of-Komodo-in-2023-so-far-W",
            "currencies": [
                {
                    "code": "KMD",
                    "title": "Komodo",
                    "slug": "komodo",
                    "url": "https:\/\/cryptopanic.com\/news\/komodo\/"
                }
            ],
            "id": 18740921,
            "url": "https:\/\/cryptopanic.com\/news\/18740921\/Its-Summary-Saturday-so-were-curious-What-do-you-think-was-the-biggest-milestone-of-Komodo-in-2023-so-far-W",
            "created_at": "2023-07-08T04:00:06Z",
            "votes": {
                "negative": 0,
                "positive": 0,
                "important": 0,
                "liked": 0,
                "disliked": 0,
                "lol": 0,
                "toxic": 0,
                "saved": 0,
                "comments": 0
            }
        },
        {
            "kind": "news",
            "domain": "@KomodoPlatform",
            "source": {
                "title": "Komodo Twitter",
                "region": "en",
                "domain": "twitter.com",
                "path": "@komodoplatform"
            },
            "title": "1\/3 Attention #Komodo community!\n\nIt's time for our weekly Discord Wrap-Up\n\nOur Discord is the go-to place for me\u2026",
            "published_at": "2023-07-07T17:23:45Z",
            "slug": "13-Attention-Komodo-community-Its-time-for-our-weekly-Discord-Wrap-Up-Our-Discord-is-the-go-to-place-for-me",
            "currencies": [
                {
                    "code": "KMD",
                    "title": "Komodo",
                    "slug": "komodo",
                    "url": "https:\/\/cryptopanic.com\/news\/komodo\/"
                }
            ],
            "id": 18740922,
            "url": "https:\/\/cryptopanic.com\/news\/18740922\/13-Attention-Komodo-community-Its-time-for-our-weekly-Discord-Wrap-Up-Our-Discord-is-the-go-to-place-for-me",
            "created_at": "2023-07-07T17:23:45Z",
            "votes": {
                "negative": 0,
                "positive": 0,
                "important": 0,
                "liked": 0,
                "disliked": 0,
                "lol": 0,
                "toxic": 0,
                "saved": 0,
                "comments": 0
            }
        },
        {
            "kind": "news",
            "domain": "@KomodoPlatform",
            "source": {
                "title": "Komodo Twitter",
                "region": "en",
                "domain": "twitter.com",
                "path": "@komodoplatform"
            },
            "title": "RT @HuobiGlobal: Komodo leads the way in innovation with its open-source blockchain Enter our #HuobiCrazyAirdrop with Komodo!\n\nShare $2000\u2026",
            "published_at": "2023-07-07T14:04:23Z",
            "slug": "RT-HuobiGlobal-Komodo-leads-the-way-in-innovation-with-its-open-source-blockchain-Enter-our-HuobiCrazyAirdrop-with-Komodo-Share-2000",
            "currencies": [
                {
                    "code": "KMD",
                    "title": "Komodo",
                    "slug": "komodo",
                    "url": "https:\/\/cryptopanic.com\/news\/komodo\/"
                }
            ],
            "id": 18740923,
            "url": "https:\/\/cryptopanic.com\/news\/18740923\/RT-HuobiGlobal-Komodo-leads-the-way-in-innovation-with-its-open-source-blockchain-Enter-our-HuobiCrazyAirdrop-with-Komodo-Share-2000",
            "created_at": "2023-07-07T14:04:23Z",
            "votes": {
                "negative": 0,
                "positive": 0,
                "important": 0,
                "liked": 0,
                "disliked": 0,
                "lol": 0,
                "toxic": 0,
                "saved": 0,
                "comments": 0
            }
        },
        {
            "kind": "news",
            "domain": "@KomodoPlatform",
            "source": {
                "title": "Komodo Twitter",
                "region": "en",
                "domain": "twitter.com",
                "path": "@komodoplatform"
            },
            "title": "We have some exciting news for you this Friday \n\nToday at 9:00 AM UTC\/5:00 PM SGT, KMD\/USDT trading pair is going\u2026",
            "published_at": "2023-07-07T09:00:22Z",
            "slug": "We-have-some-exciting-news-for-you-this-Friday-Today-at-900-AM-UTC500-PM-SGT-KMDUSDT-trading-pair-is-going",
            "currencies": [
                {
                    "code": "KMD",
                    "title": "Komodo",
                    "slug": "komodo",
                    "url": "https:\/\/cryptopanic.com\/news\/komodo\/"
                }
            ],
            "id": 18740924,
            "url": "https:\/\/cryptopanic.com\/news\/18740924\/We-have-some-exciting-news-for-you-this-Friday-Today-at-900-AM-UTC500-PM-SGT-KMDUSDT-trading-pair-is-going",
            "created_at": "2023-07-07T09:00:22Z",
            "votes": {
                "negative": 0,
                "positive": 0,
                "important": 0,
                "liked": 0,
                "disliked": 0,
                "lol": 0,
                "toxic": 0,
                "saved": 0,
                "comments": 0
            }
        },
        {
            "kind": "news",
            "domain": "@KomodoPlatform",
            "source": {
                "title": "Komodo Twitter",
                "region": "en",
                "domain": "twitter.com",
                "path": "@komodoplatform"
            },
            "title": "The USA celebrated #Independence Day, but what can we say about independence in the #blockchain space? \ud83e\udd14\n\nHere's a\u2026",
            "published_at": "2023-07-06T14:01:30Z",
            "slug": "The-USA-celebrated-Independence-Day-but-what-can-we-say-about-independence-in-the-blockchain-space-Heres-a",
            "currencies": [
                {
                    "code": "KMD",
                    "title": "Komodo",
                    "slug": "komodo",
                    "url": "https:\/\/cryptopanic.com\/news\/komodo\/"
                }
            ],
            "id": 18733353,
            "url": "https:\/\/cryptopanic.com\/news\/18733353\/The-USA-celebrated-Independence-Day-but-what-can-we-say-about-independence-in-the-blockchain-space-Heres-a",
            "created_at": "2023-07-06T14:01:30Z",
            "votes": {
                "negative": 0,
                "positive": 0,
                "important": 0,
                "liked": 0,
                "disliked": 0,
                "lol": 0,
                "toxic": 0,
                "saved": 0,
                "comments": 0
            }
        },
        {
            "kind": "news",
            "domain": "@KomodoPlatform",
            "source": {
                "title": "Komodo Twitter",
                "region": "en",
                "domain": "twitter.com",
                "path": "@komodoplatform"
            },
            "title": "#Komodo aims to empower #blockchain developers to build non-custodial &amp; interoperable solutions \ud83e\udd8e\n\nOur tech helps t\u2026",
            "published_at": "2023-07-06T04:00:03Z",
            "slug": "Komodo-aims-to-empower-blockchain-developers-to-build-non-custodial-amp-interoperable-solutions-Our-tech-helps-t",
            "currencies": [
                {
                    "code": "KMD",
                    "title": "Komodo",
                    "slug": "komodo",
                    "url": "https:\/\/cryptopanic.com\/news\/komodo\/"
                }
            ],
            "id": 18724900,
            "url": "https:\/\/cryptopanic.com\/news\/18724900\/Komodo-aims-to-empower-blockchain-developers-to-build-non-custodial-amp-interoperable-solutions-Our-tech-helps-t",
            "created_at": "2023-07-06T04:00:03Z",
            "votes": {
                "negative": 0,
                "positive": 0,
                "important": 0,
                "liked": 0,
                "disliked": 0,
                "lol": 0,
                "toxic": 0,
                "saved": 0,
                "comments": 0
            }
        },
        {
            "kind": "news",
            "domain": "@KomodoPlatform",
            "source": {
                "title": "Komodo Twitter",
                "region": "en",
                "domain": "twitter.com",
                "path": "@komodoplatform"
            },
            "title": "#Web3Wednesday Stats are here \n\nAccording to a study by @Deloitte, 96% of financial services pioneers are convince\u2026",
            "published_at": "2023-07-05T15:00:14Z",
            "slug": "Web3Wednesday-Stats-are-here-According-to-a-study-by-Deloitte-96-of-financial-services-pioneers-are-convince",
            "currencies": [
                {
                    "code": "KMD",
                    "title": "Komodo",
                    "slug": "komodo",
                    "url": "https:\/\/cryptopanic.com\/news\/komodo\/"
                }
            ],
            "id": 18724901,
            "url": "https:\/\/cryptopanic.com\/news\/18724901\/Web3Wednesday-Stats-are-here-According-to-a-study-by-Deloitte-96-of-financial-services-pioneers-are-convince",
            "created_at": "2023-07-05T15:00:14Z",
            "votes": {
                "negative": 0,
                "positive": 0,
                "important": 0,
                "liked": 0,
                "disliked": 0,
                "lol": 0,
                "toxic": 0,
                "saved": 0,
                "comments": 0
            }
        },
        {
            "kind": "news",
            "domain": "@KomodoPlatform",
            "source": {
                "title": "Komodo Twitter",
                "region": "en",
                "domain": "twitter.com",
                "path": "@komodoplatform"
            },
            "title": "UK passes #crypto-friendly bill amidst #SEC's hurdles, fostering innovation and creativity represented by the\u2026",
            "published_at": "2023-07-05T11:20:17Z",
            "slug": "UK-passes-crypto-friendly-bill-amidst-SECs-hurdles-fostering-innovation-and-creativity-represented-by-the",
            "currencies": [
                {
                    "code": "KMD",
                    "title": "Komodo",
                    "slug": "komodo",
                    "url": "https:\/\/cryptopanic.com\/news\/komodo\/"
                }
            ],
            "id": 18724902,
            "url": "https:\/\/cryptopanic.com\/news\/18724902\/UK-passes-crypto-friendly-bill-amidst-SECs-hurdles-fostering-innovation-and-creativity-represented-by-the",
            "created_at": "2023-07-05T11:20:17Z",
            "votes": {
                "negative": 0,
                "positive": 0,
                "important": 0,
                "liked": 0,
                "disliked": 0,
                "lol": 0,
                "toxic": 0,
                "saved": 0,
                "comments": 0
            }
        },
        {
            "kind": "news",
            "domain": "@KomodoPlatform",
            "source": {
                "title": "Komodo Twitter",
                "region": "en",
                "domain": "twitter.com",
                "path": "@komodoplatform"
            },
            "title": "Happy 4th of July to our American Komodians! \ud83e\udd8e",
            "published_at": "2023-07-04T15:30:06Z",
            "slug": "Happy-4th-of-July-to-our-American-Komodians",
            "currencies": [
                {
                    "code": "KMD",
                    "title": "Komodo",
                    "slug": "komodo",
                    "url": "https:\/\/cryptopanic.com\/news\/komodo\/"
                }
            ],
            "id": 18717069,
            "url": "https:\/\/cryptopanic.com\/news\/18717069\/Happy-4th-of-July-to-our-American-Komodians",
            "created_at": "2023-07-04T15:30:06Z",
            "votes": {
                "negative": 0,
                "positive": 0,
                "important": 0,
                "liked": 0,
                "disliked": 0,
                "lol": 0,
                "toxic": 0,
                "saved": 0,
                "comments": 0
            }
        },
        {
            "kind": "news",
            "domain": "@KomodoPlatform",
            "source": {
                "title": "Komodo Twitter",
                "region": "en",
                "domain": "twitter.com",
                "path": "@komodoplatform"
            },
            "title": "Layer 1 #blockchain transactions can be slow or expensive, so here's a list of #cryptocurrencies that take mere sec\u2026",
            "published_at": "2023-07-04T06:00:01Z",
            "slug": "Layer-1-blockchain-transactions-can-be-slow-or-expensive-so-heres-a-list-of-cryptocurrencies-that-take-mere-sec",
            "currencies": [
                {
                    "code": "KMD",
                    "title": "Komodo",
                    "slug": "komodo",
                    "url": "https:\/\/cryptopanic.com\/news\/komodo\/"
                }
            ],
            "id": 18709887,
            "url": "https:\/\/cryptopanic.com\/news\/18709887\/Layer-1-blockchain-transactions-can-be-slow-or-expensive-so-heres-a-list-of-cryptocurrencies-that-take-mere-sec",
            "created_at": "2023-07-04T06:00:01Z",
            "votes": {
                "negative": 0,
                "positive": 0,
                "important": 0,
                "liked": 0,
                "disliked": 0,
                "lol": 0,
                "toxic": 0,
                "saved": 0,
                "comments": 0
            }
        },
        {
            "kind": "news",
            "domain": "@KomodoPlatform",
            "source": {
                "title": "Komodo Twitter",
                "region": "en",
                "domain": "twitter.com",
                "path": "@komodoplatform"
            },
            "title": "The #Komodo hard fork is successfully completed! \ud83e\udd73\n\nSeason 7 Notary Node operators are now online. Congratulations\u2026",
            "published_at": "2023-07-03T14:02:59Z",
            "slug": "The-Komodo-hard-fork-is-successfully-completed-Season-7-Notary-Node-operators-are-now-online-Congratulations",
            "currencies": [
                {
                    "code": "KMD",
                    "title": "Komodo",
                    "slug": "komodo",
                    "url": "https:\/\/cryptopanic.com\/news\/komodo\/"
                }
            ],
            "id": 18709888,
            "url": "https:\/\/cryptopanic.com\/news\/18709888\/The-Komodo-hard-fork-is-successfully-completed-Season-7-Notary-Node-operators-are-now-online-Congratulations",
            "created_at": "2023-07-03T14:02:59Z",
            "votes": {
                "negative": 0,
                "positive": 0,
                "important": 0,
                "liked": 0,
                "disliked": 0,
                "lol": 0,
                "toxic": 0,
                "saved": 0,
                "comments": 0
            }
        },
        {
            "kind": "news",
            "domain": "@KomodoPlatform",
            "source": {
                "title": "Komodo Twitter",
                "region": "en",
                "domain": "twitter.com",
                "path": "@komodoplatform"
            },
            "title": "Thank you @WhatTheFinance9 for this mention \n\nAnd yes, if you're ready to go atomic and use #decentralized and ope\u2026",
            "published_at": "2023-07-03T07:58:56Z",
            "slug": "Thank-you-WhatTheFinance9-for-this-mention-And-yes-if-youre-ready-to-go-atomic-and-use-decentralized-and-ope",
            "currencies": [
                {
                    "code": "KMD",
                    "title": "Komodo",
                    "slug": "komodo",
                    "url": "https:\/\/cryptopanic.com\/news\/komodo\/"
                }
            ],
            "id": 18703328,
            "url": "https:\/\/cryptopanic.com\/news\/18703328\/Thank-you-WhatTheFinance9-for-this-mention-And-yes-if-youre-ready-to-go-atomic-and-use-decentralized-and-ope",
            "created_at": "2023-07-03T07:58:56Z",
            "votes": {
                "negative": 0,
                "positive": 0,
                "important": 0,
                "liked": 0,
                "disliked": 0,
                "lol": 0,
                "toxic": 0,
                "saved": 0,
                "comments": 0
            }
        },
        {
            "kind": "news",
            "domain": "@KomodoPlatform",
            "source": {
                "title": "Komodo Twitter",
                "region": "en",
                "domain": "twitter.com",
                "path": "@komodoplatform"
            },
            "title": "As @Fidelity prepares to submit its own spot Bitcoin #ETF application, #Bitcoin and #Ether rise in value \n\nLooks l\u2026",
            "published_at": "2023-07-02T17:36:45Z",
            "slug": "As-Fidelity-prepares-to-submit-its-own-spot-Bitcoin-ETF-application-Bitcoin-and-Ether-rise-in-value-Looks-l",
            "currencies": [
                {
                    "code": "KMD",
                    "title": "Komodo",
                    "slug": "komodo",
                    "url": "https:\/\/cryptopanic.com\/news\/komodo\/"
                }
            ],
            "id": 18703329,
            "url": "https:\/\/cryptopanic.com\/news\/18703329\/As-Fidelity-prepares-to-submit-its-own-spot-Bitcoin-ETF-application-Bitcoin-and-Ether-rise-in-value-Looks-l",
            "created_at": "2023-07-02T17:36:45Z",
            "votes": {
                "negative": 0,
                "positive": 0,
                "important": 0,
                "liked": 0,
                "disliked": 0,
                "lol": 0,
                "toxic": 0,
                "saved": 0,
                "comments": 0
            }
        }
    ]
}
