{
    "count": 200,
    "next": "https:\/\/cryptopanic.com\/api\/v1\/posts\/?auth_token=01c356e89ffc1b8eba2127c81fc8c66ee0eace75&kind=news&currencies=COMBO&page=2",
    "previous": null,
    "results": [
        {
            "kind": "news",
            "domain": "@furucombo",
            "source": {
                "title": "Furucombo Twitter",
                "region": "en",
                "domain": "twitter.com",
                "path": "@furucombo"
            },
            "title": "RT @furucombo: One effective approach is to create a personalized token basket, and with Furucombo, you can conveniently purchase multiple\u2026",
            "published_at": "2023-07-12T07:24:59Z",
            "slug": "RT-furucombo-One-effective-approach-is-to-create-a-personalized-token-basket-and-with-Furucombo-you-can-conveniently-purchase-multiple",
            "currencies": [
                {
                    "code": "COMBO",
                    "title": "Furucombo",
                    "slug": "furucombo",
                    "url": "https:\/\/cryptopanic.com\/news\/furucombo\/"
                }
            ],
            "id": 18764418,
            "url": "https:\/\/cryptopanic.com\/news\/18764418\/RT-furucombo-One-effective-approach-is-to-create-a-personalized-token-basket-and-with-Furucombo-you-can-conveniently-purchase-multiple",
            "created_at": "2023-07-12T07:24:59Z",
            "votes": {
                "negative": 0,
                "positive": 0,
                "important": 0,
                "liked": 0,
                "disliked": 0,
                "lol": 0,
                "toxic": 0,
                "saved": 0,
                "comments": 0
            }
        },
        {
            "kind": "news",
            "domain": "@furucombo",
            "source": {
                "title": "Furucombo Twitter",
                "region": "en",
                "domain": "twitter.com",
                "path": "@furucombo"
            },
            "title": "Update: We would like to inform you that, as a result of the temporary pause of @hummusdefi, the related features w\u2026",
            "published_at": "2023-07-12T03:55:35Z",
            "slug": "Update-We-would-like-to-inform-you-that-as-a-result-of-the-temporary-pause-of-hummusdefi-the-related-features-w",
            "currencies": [
                {
                    "code": "COMBO",
                    "title": "Furucombo",
                    "slug": "furucombo",
                    "url": "https:\/\/cryptopanic.com\/news\/furucombo\/"
                }
            ],
            "id": 18764419,
            "url": "https:\/\/cryptopanic.com\/news\/18764419\/Update-We-would-like-to-inform-you-that-as-a-result-of-the-temporary-pause-of-hummusdefi-the-related-features-w",
            "created_at": "2023-07-12T03:55:35Z",
            "votes": {
                "negative": 0,
                "positive": 0,
                "important": 0,
                "liked": 0,
                "disliked": 0,
                "lol": 0,
                "toxic": 0,
                "saved": 0,
                "comments": 0
            }
        },
        {
            "kind": "news",
            "domain": "@furucombo",
            "source": {
                "title": "Furucombo Twitter",
                "region": "en",
                "domain": "twitter.com",
                "path": "@furucombo"
            },
            "title": "RT @FurucomboDB: Do you think $ETH will go down?\n\nIf so, you can easily leverage your existing position on @AaveAave to short ETH at https\u2026",
            "published_at": "2023-07-12T03:06:59Z",
            "slug": "RT-FurucomboDB-Do-you-think-ETH-will-go-down-If-so-you-can-easily-leverage-your-existing-position-on-AaveAave-to-short-ETH-at-https",
            "currencies": [
                {
                    "code": "COMBO",
                    "title": "Furucombo",
                    "slug": "furucombo",
                    "url": "https:\/\/cryptopanic.com\/news\/furucombo\/"
                }
            ],
            "id": 18764420,
            "url": "https:\/\/cryptopanic.com\/news\/18764420\/RT-FurucomboDB-Do-you-think-ETH-will-go-down-If-so-you-can-easily-leverage-your-existing-position-on-AaveAave-to-short-ETH-at-https",
            "created_at": "2023-07-12T03:06:59Z",
            "votes": {
                "negative": 0,
                "positive": 0,
                "important": 0,
                "liked": 0,
                "disliked": 0,
                "lol": 0,
                "toxic": 0,
                "saved": 0,
                "comments": 0
            }
        },
        {
            "kind": "news",
            "domain": "@furucombo",
            "source": {
                "title": "Furucombo Twitter",
                "region": "en",
                "domain": "twitter.com",
                "path": "@furucombo"
            },
            "title": "Are you looking to enhance the diversity of your investment portfolio by exploring various tokens, thereby minimizi\u2026",
            "published_at": "2023-07-11T06:04:12Z",
            "slug": "Are-you-looking-to-enhance-the-diversity-of-your-investment-portfolio-by-exploring-various-tokens-thereby-minimizi",
            "currencies": [
                {
                    "code": "COMBO",
                    "title": "Furucombo",
                    "slug": "furucombo",
                    "url": "https:\/\/cryptopanic.com\/news\/furucombo\/"
                }
            ],
            "id": 18756286,
            "url": "https:\/\/cryptopanic.com\/news\/18756286\/Are-you-looking-to-enhance-the-diversity-of-your-investment-portfolio-by-exploring-various-tokens-thereby-minimizi",
            "created_at": "2023-07-11T06:04:12Z",
            "votes": {
                "negative": 0,
                "positive": 0,
                "important": 0,
                "liked": 0,
                "disliked": 0,
                "lol": 0,
                "toxic": 0,
                "saved": 0,
                "comments": 0
            }
        },
        {
            "kind": "news",
            "domain": "@combonetworkio",
            "source": {
                "title": "COCOS BCX Twitter",
                "region": "en",
                "domain": "twitter.com",
                "path": "@combonetworkio"
            },
            "title": "COMBO Biweekly Updates:\n\n\ud83d\udfeaSimple Earn COMBO Quiz on #Binance \n\ud83d\udfeaHavenMarket introduced as the first NFT marketplace\u2026",
            "published_at": "2023-07-11T03:16:46Z",
            "slug": "COMBO-Biweekly-Updates-Simple-Earn-COMBO-Quiz-on-Binance-HavenMarket-introduced-as-the-first-NFT-marketplace",
            "currencies": [
                {
                    "code": "COMBO",
                    "title": "COMBO",
                    "slug": "cocos-bcx",
                    "url": "https:\/\/cryptopanic.com\/news\/cocos-bcx\/"
                }
            ],
            "id": 18754989,
            "url": "https:\/\/cryptopanic.com\/news\/18754989\/COMBO-Biweekly-Updates-Simple-Earn-COMBO-Quiz-on-Binance-HavenMarket-introduced-as-the-first-NFT-marketplace",
            "created_at": "2023-07-11T03:16:46Z",
            "votes": {
                "negative": 0,
                "positive": 0,
                "important": 0,
                "liked": 0,
                "disliked": 0,
                "lol": 0,
                "toxic": 0,
                "saved": 0,
                "comments": 0
            }
        },
        {
            "kind": "news",
            "domain": "@furucombo",
            "source": {
                "title": "Furucombo Twitter",
                "region": "en",
                "domain": "twitter.com",
                "path": "@furucombo"
            },
            "title": "RT @FurucomboDB: Try our Lending Dashboard instead! With our lending dashboard, you can effortlessly generate and execute the strategy of y\u2026",
            "published_at": "2023-07-11T02:17:48Z",
            "slug": "RT-FurucomboDB-Try-our-Lending-Dashboard-instead-With-our-lending-dashboard-you-can-effortlessly-generate-and-execute-the-strategy-of-y",
            "currencies": [
                {
                    "code": "COMBO",
                    "title": "Furucombo",
                    "slug": "furucombo",
                    "url": "https:\/\/cryptopanic.com\/news\/furucombo\/"
                }
            ],
            "id": 18756287,
            "url": "https:\/\/cryptopanic.com\/news\/18756287\/RT-FurucomboDB-Try-our-Lending-Dashboard-instead-With-our-lending-dashboard-you-can-effortlessly-generate-and-execute-the-strategy-of-y",
            "created_at": "2023-07-11T02:17:48Z",
            "votes": {
                "negative": 0,
                "positive": 0,
                "important": 0,
                "liked": 0,
                "disliked": 0,
                "lol": 0,
                "toxic": 0,
                "saved": 0,
                "comments": 0
            }
        },
        {
            "kind": "news",
            "domain": "@combonetworkio",
            "source": {
                "title": "COCOS BCX Twitter",
                "region": "en",
                "domain": "twitter.com",
                "path": "@combonetworkio"
            },
            "title": "RT @havenmarket_xyz:  Limited-time Haven NFT minting to celebrate launching on @combonetworkio! \n\ufe0fUnlock Potential in Haven Market: Mint\u2026",
            "published_at": "2023-07-10T12:04:31Z",
            "slug": "RT-havenmarket_xyz-Limited-time-Haven-NFT-minting-to-celebrate-launching-on-combonetworkio-Unlock-Potential-in-Haven-Market-Mint",
            "currencies": [
                {
                    "code": "COMBO",
                    "title": "COMBO",
                    "slug": "cocos-bcx",
                    "url": "https:\/\/cryptopanic.com\/news\/cocos-bcx\/"
                }
            ],
            "id": 18754990,
            "url": "https:\/\/cryptopanic.com\/news\/18754990\/RT-havenmarket_xyz-Limited-time-Haven-NFT-minting-to-celebrate-launching-on-combonetworkio-Unlock-Potential-in-Haven-Market-Mint",
            "created_at": "2023-07-10T12:04:31Z",
            "votes": {
                "negative": 0,
                "positive": 0,
                "important": 0,
                "liked": 0,
                "disliked": 0,
                "lol": 0,
                "toxic": 0,
                "saved": 0,
                "comments": 0
            }
        },
        {
            "kind": "news",
            "domain": "@furucombo",
            "source": {
                "title": "Furucombo Twitter",
                "region": "en",
                "domain": "twitter.com",
                "path": "@furucombo"
            },
            "title": "RT @FurucomboDB: During market volatility, remember to be prepared if you have open positions.\n\nUse our lending dashboard to easily manage\u2026",
            "published_at": "2023-07-10T09:30:37Z",
            "slug": "RT-FurucomboDB-During-market-volatility-remember-to-be-prepared-if-you-have-open-positions-Use-our-lending-dashboard-to-easily-manage",
            "currencies": [
                {
                    "code": "COMBO",
                    "title": "Furucombo",
                    "slug": "furucombo",
                    "url": "https:\/\/cryptopanic.com\/news\/furucombo\/"
                }
            ],
            "id": 18756288,
            "url": "https:\/\/cryptopanic.com\/news\/18756288\/RT-FurucomboDB-During-market-volatility-remember-to-be-prepared-if-you-have-open-positions-Use-our-lending-dashboard-to-easily-manage",
            "created_at": "2023-07-10T09:30:37Z",
            "votes": {
                "negative": 0,
                "positive": 0,
                "important": 0,
                "liked": 0,
                "disliked": 0,
                "lol": 0,
                "toxic": 0,
                "saved": 0,
                "comments": 0
            }
        },
        {
            "kind": "news",
            "domain": "@furucombo",
            "source": {
                "title": "Furucombo Twitter",
                "region": "en",
                "domain": "twitter.com",
                "path": "@furucombo"
            },
            "title": "RT @FurucomboDB: Expecting a downturn in the market? \u200d\ufe0f If you want to reduce your borrowed position &amp; exposure to the market, repaying\u2026",
            "published_at": "2023-07-10T01:31:48Z",
            "slug": "RT-FurucomboDB-Expecting-a-downturn-in-the-market-If-you-want-to-reduce-your-borrowed-position-amp-exposure-to-the-market-repaying",
            "currencies": [
                {
                    "code": "COMBO",
                    "title": "Furucombo",
                    "slug": "furucombo",
                    "url": "https:\/\/cryptopanic.com\/news\/furucombo\/"
                }
            ],
            "id": 18749793,
            "url": "https:\/\/cryptopanic.com\/news\/18749793\/RT-FurucomboDB-Expecting-a-downturn-in-the-market-If-you-want-to-reduce-your-borrowed-position-amp-exposure-to-the-market-repaying",
            "created_at": "2023-07-10T01:31:48Z",
            "votes": {
                "negative": 0,
                "positive": 0,
                "important": 0,
                "liked": 0,
                "disliked": 0,
                "lol": 0,
                "toxic": 0,
                "saved": 0,
                "comments": 0
            }
        },
        {
            "kind": "news",
            "domain": "@furucombo",
            "source": {
                "title": "Furucombo Twitter",
                "region": "en",
                "domain": "twitter.com",
                "path": "@furucombo"
            },
            "title": "RT @FurucomboDB: Do you have a positive outlook on the $ETH market? If you're looking to amplify the exposure of your existing position on\u2026",
            "published_at": "2023-07-09T14:13:32Z",
            "slug": "RT-FurucomboDB-Do-you-have-a-positive-outlook-on-the-ETH-market-If-youre-looking-to-amplify-the-exposure-of-your-existing-position-on",
            "currencies": [
                {
                    "code": "COMBO",
                    "title": "Furucombo",
                    "slug": "furucombo",
                    "url": "https:\/\/cryptopanic.com\/news\/furucombo\/"
                }
            ],
            "id": 18749794,
            "url": "https:\/\/cryptopanic.com\/news\/18749794\/RT-FurucomboDB-Do-you-have-a-positive-outlook-on-the-ETH-market-If-youre-looking-to-amplify-the-exposure-of-your-existing-position-on",
            "created_at": "2023-07-09T14:13:32Z",
            "votes": {
                "negative": 0,
                "positive": 0,
                "important": 0,
                "liked": 0,
                "disliked": 0,
                "lol": 0,
                "toxic": 0,
                "saved": 0,
                "comments": 0
            }
        },
        {
            "kind": "news",
            "domain": "@furucombo",
            "source": {
                "title": "Furucombo Twitter",
                "region": "en",
                "domain": "twitter.com",
                "path": "@furucombo"
            },
            "title": "Wondering how to easily bridge your assets from one network to another?\n\nFurucombo now supports stargate bridging b\u2026",
            "published_at": "2023-07-08T12:30:00Z",
            "slug": "Wondering-how-to-easily-bridge-your-assets-from-one-network-to-another-Furucombo-now-supports-stargate-bridging-b",
            "currencies": [
                {
                    "code": "COMBO",
                    "title": "Furucombo",
                    "slug": "furucombo",
                    "url": "https:\/\/cryptopanic.com\/news\/furucombo\/"
                }
            ],
            "id": 18745602,
            "url": "https:\/\/cryptopanic.com\/news\/18745602\/Wondering-how-to-easily-bridge-your-assets-from-one-network-to-another-Furucombo-now-supports-stargate-bridging-b",
            "created_at": "2023-07-08T12:30:00Z",
            "votes": {
                "negative": 0,
                "positive": 0,
                "important": 0,
                "liked": 0,
                "disliked": 0,
                "lol": 0,
                "toxic": 0,
                "saved": 0,
                "comments": 0
            }
        },
        {
            "kind": "news",
            "domain": "@furucombo",
            "source": {
                "title": "Furucombo Twitter",
                "region": "en",
                "domain": "twitter.com",
                "path": "@furucombo"
            },
            "title": "Looking to make a swap? Our top pick for you is @MaiaDAOEco's Swap Token cube on the @MetisDAO network!\n\nYou can n\u2026",
            "published_at": "2023-07-07T13:30:00Z",
            "slug": "Looking-to-make-a-swap-Our-top-pick-for-you-is-MaiaDAOEcos-Swap-Token-cube-on-the-MetisDAO-network-You-can-n",
            "currencies": [
                {
                    "code": "COMBO",
                    "title": "Furucombo",
                    "slug": "furucombo",
                    "url": "https:\/\/cryptopanic.com\/news\/furucombo\/"
                }
            ],
            "id": 18740255,
            "url": "https:\/\/cryptopanic.com\/news\/18740255\/Looking-to-make-a-swap-Our-top-pick-for-you-is-MaiaDAOEcos-Swap-Token-cube-on-the-MetisDAO-network-You-can-n",
            "created_at": "2023-07-07T13:30:00Z",
            "votes": {
                "negative": 0,
                "positive": 0,
                "important": 0,
                "liked": 0,
                "disliked": 0,
                "lol": 0,
                "toxic": 0,
                "saved": 0,
                "comments": 0
            }
        },
        {
            "kind": "news",
            "domain": "@combonetworkio",
            "source": {
                "title": "COCOS BCX Twitter",
                "region": "en",
                "domain": "twitter.com",
                "path": "@combonetworkio"
            },
            "title": "RT @havenmarket_xyz: \ud83e\udd1dWe\u2019re honored to partner with @combonetworkio\n\nCOMBO is a leading provider of Scaling Solutions for #Web3 Game Devel\u2026",
            "published_at": "2023-07-07T12:16:47Z",
            "slug": "RT-havenmarket_xyz-Were-honored-to-partner-with-combonetworkio-COMBO-is-a-leading-provider-of-Scaling-Solutions-for-Web3-Game-Devel",
            "currencies": [
                {
                    "code": "COMBO",
                    "title": "COMBO",
                    "slug": "cocos-bcx",
                    "url": "https:\/\/cryptopanic.com\/news\/cocos-bcx\/"
                }
            ],
            "id": 18739183,
            "url": "https:\/\/cryptopanic.com\/news\/18739183\/RT-havenmarket_xyz-Were-honored-to-partner-with-combonetworkio-COMBO-is-a-leading-provider-of-Scaling-Solutions-for-Web3-Game-Devel",
            "created_at": "2023-07-07T12:16:47Z",
            "votes": {
                "negative": 0,
                "positive": 0,
                "important": 0,
                "liked": 0,
                "disliked": 0,
                "lol": 0,
                "toxic": 0,
                "saved": 0,
                "comments": 0
            }
        },
        {
            "kind": "news",
            "domain": "@furucombo",
            "source": {
                "title": "Furucombo Twitter",
                "region": "en",
                "domain": "twitter.com",
                "path": "@furucombo"
            },
            "title": "How can you participate in the  @MetisDAO trading campaign and earn one of 10 prizes of $200USDC? \ud83e\udd11\n\n1\ufe0f\u20e3Complete t\u2026",
            "published_at": "2023-07-07T08:00:02Z",
            "slug": "How-can-you-participate-in-the-MetisDAO-trading-campaign-and-earn-one-of-10-prizes-of-200USDC-1Complete-t",
            "currencies": [
                {
                    "code": "COMBO",
                    "title": "Furucombo",
                    "slug": "furucombo",
                    "url": "https:\/\/cryptopanic.com\/news\/furucombo\/"
                }
            ],
            "id": 18740256,
            "url": "https:\/\/cryptopanic.com\/news\/18740256\/How-can-you-participate-in-the-MetisDAO-trading-campaign-and-earn-one-of-10-prizes-of-200USDC-1Complete-t",
            "created_at": "2023-07-07T08:00:02Z",
            "votes": {
                "negative": 0,
                "positive": 0,
                "important": 0,
                "liked": 0,
                "disliked": 0,
                "lol": 0,
                "toxic": 0,
                "saved": 0,
                "comments": 0
            }
        },
        {
            "kind": "news",
            "domain": "@furucombo",
            "source": {
                "title": "Furucombo Twitter",
                "region": "en",
                "domain": "twitter.com",
                "path": "@furucombo"
            },
            "title": "Update: We would like to inform you that, as a result of the temporary pause of @GeistFinance, the related features\u2026",
            "published_at": "2023-07-07T03:53:41Z",
            "slug": "Update-We-would-like-to-inform-you-that-as-a-result-of-the-temporary-pause-of-GeistFinance-the-related-features",
            "currencies": [
                {
                    "code": "COMBO",
                    "title": "Furucombo",
                    "slug": "furucombo",
                    "url": "https:\/\/cryptopanic.com\/news\/furucombo\/"
                }
            ],
            "id": 18732615,
            "url": "https:\/\/cryptopanic.com\/news\/18732615\/Update-We-would-like-to-inform-you-that-as-a-result-of-the-temporary-pause-of-GeistFinance-the-related-features",
            "created_at": "2023-07-07T03:53:41Z",
            "votes": {
                "negative": 0,
                "positive": 0,
                "important": 0,
                "liked": 0,
                "disliked": 0,
                "lol": 0,
                "toxic": 0,
                "saved": 0,
                "comments": 0
            }
        },
        {
            "kind": "news",
            "domain": "@furucombo",
            "source": {
                "title": "Furucombo Twitter",
                "region": "en",
                "domain": "twitter.com",
                "path": "@furucombo"
            },
            "title": "\u23f1\ufe0f Furucombo's @MetisDAO workshop starts in 1 hour from now!\n\nWe will be diving deep into what Metis network is, pr\u2026",
            "published_at": "2023-07-06T15:00:00Z",
            "slug": "Furucombos-MetisDAO-workshop-starts-in-1-hour-from-now-We-will-be-diving-deep-into-what-Metis-network-is-pr",
            "currencies": [
                {
                    "code": "COMBO",
                    "title": "Furucombo",
                    "slug": "furucombo",
                    "url": "https:\/\/cryptopanic.com\/news\/furucombo\/"
                }
            ],
            "id": 18732616,
            "url": "https:\/\/cryptopanic.com\/news\/18732616\/Furucombos-MetisDAO-workshop-starts-in-1-hour-from-now-We-will-be-diving-deep-into-what-Metis-network-is-pr",
            "created_at": "2023-07-06T15:00:00Z",
            "votes": {
                "negative": 0,
                "positive": 0,
                "important": 0,
                "liked": 0,
                "disliked": 0,
                "lol": 0,
                "toxic": 0,
                "saved": 0,
                "comments": 0
            }
        },
        {
            "kind": "news",
            "domain": "@furucombo",
            "source": {
                "title": "Furucombo Twitter",
                "region": "en",
                "domain": "twitter.com",
                "path": "@furucombo"
            },
            "title": "Looking to swap your stablecoins on the Metis network? You can use the @hummusdefi cubes on @MetisDAO to explore th\u2026",
            "published_at": "2023-07-06T12:30:00Z",
            "slug": "Looking-to-swap-your-stablecoins-on-the-Metis-network-You-can-use-the-hummusdefi-cubes-on-MetisDAO-to-explore-th",
            "currencies": [
                {
                    "code": "COMBO",
                    "title": "Furucombo",
                    "slug": "furucombo",
                    "url": "https:\/\/cryptopanic.com\/news\/furucombo\/"
                }
            ],
            "id": 18732617,
            "url": "https:\/\/cryptopanic.com\/news\/18732617\/Looking-to-swap-your-stablecoins-on-the-Metis-network-You-can-use-the-hummusdefi-cubes-on-MetisDAO-to-explore-th",
            "created_at": "2023-07-06T12:30:00Z",
            "votes": {
                "negative": 0,
                "positive": 0,
                "important": 0,
                "liked": 0,
                "disliked": 0,
                "lol": 0,
                "toxic": 0,
                "saved": 0,
                "comments": 0
            }
        },
        {
            "kind": "news",
            "domain": "@combonetworkio",
            "source": {
                "title": "COCOS BCX Twitter",
                "region": "en",
                "domain": "twitter.com",
                "path": "@combonetworkio"
            },
            "title": "Congrats on our close partner @Web3Go for the exciting news! \n\nWeb3Go is a blockchain company offering data tools\u2026",
            "published_at": "2023-07-06T07:15:20Z",
            "slug": "Congrats-on-our-close-partner-Web3Go-for-the-exciting-news-Web3Go-is-a-blockchain-company-offering-data-tools",
            "currencies": [
                {
                    "code": "COMBO",
                    "title": "COMBO",
                    "slug": "cocos-bcx",
                    "url": "https:\/\/cryptopanic.com\/news\/cocos-bcx\/"
                }
            ],
            "id": 18731377,
            "url": "https:\/\/cryptopanic.com\/news\/18731377\/Congrats-on-our-close-partner-Web3Go-for-the-exciting-news-Web3Go-is-a-blockchain-company-offering-data-tools",
            "created_at": "2023-07-06T07:15:20Z",
            "votes": {
                "negative": 0,
                "positive": 0,
                "important": 0,
                "liked": 0,
                "disliked": 0,
                "lol": 0,
                "toxic": 0,
                "saved": 0,
                "comments": 0
            }
        },
        {
            "kind": "news",
            "domain": "@furucombo",
            "source": {
                "title": "Furucombo Twitter",
                "region": "en",
                "domain": "twitter.com",
                "path": "@furucombo"
            },
            "title": " Ready multichain traders, the new round quests have started!\n\nComplete a trading quest on the @MetisDAO network t\u2026",
            "published_at": "2023-07-06T02:18:45Z",
            "slug": "Ready-multichain-traders-the-new-round-quests-have-started-Complete-a-trading-quest-on-the-MetisDAO-network-t",
            "currencies": [
                {
                    "code": "COMBO",
                    "title": "Furucombo",
                    "slug": "furucombo",
                    "url": "https:\/\/cryptopanic.com\/news\/furucombo\/"
                }
            ],
            "id": 18724131,
            "url": "https:\/\/cryptopanic.com\/news\/18724131\/Ready-multichain-traders-the-new-round-quests-have-started-Complete-a-trading-quest-on-the-MetisDAO-network-t",
            "created_at": "2023-07-06T02:18:45Z",
            "votes": {
                "negative": 0,
                "positive": 0,
                "important": 0,
                "liked": 0,
                "disliked": 0,
                "lol": 0,
                "toxic": 0,
                "saved": 0,
                "comments": 0
            }
        },
        {
            "kind": "news",
            "domain": "@furucombo",
            "source": {
                "title": "Furucombo Twitter",
                "region": "en",
                "domain": "twitter.com",
                "path": "@furucombo"
            },
            "title": "RT @FurucomboDB: When the market becomes volatile, if you have positions on hand, remember you can use #flashloans to self-liquidate to avo\u2026",
            "published_at": "2023-07-05T13:44:49Z",
            "slug": "RT-FurucomboDB-When-the-market-becomes-volatile-if-you-have-positions-on-hand-remember-you-can-use-flashloans-to-self-liquidate-to-avo",
            "currencies": [
                {
                    "code": "COMBO",
                    "title": "Furucombo",
                    "slug": "furucombo",
                    "url": "https:\/\/cryptopanic.com\/news\/furucombo\/"
                }
            ],
            "id": 18724132,
            "url": "https:\/\/cryptopanic.com\/news\/18724132\/RT-FurucomboDB-When-the-market-becomes-volatile-if-you-have-positions-on-hand-remember-you-can-use-flashloans-to-self-liquidate-to-avo",
            "created_at": "2023-07-05T13:44:49Z",
            "votes": {
                "negative": 0,
                "positive": 0,
                "important": 0,
                "liked": 0,
                "disliked": 0,
                "lol": 0,
                "toxic": 0,
                "saved": 0,
                "comments": 0
            }
        }
    ]
}
