{
    "count": 200,
    "next": "https:\/\/cryptopanic.com\/api\/v1\/posts\/?auth_token=01c356e89ffc1b8eba2127c81fc8c66ee0eace75&kind=news&currencies=DEXE&page=2",
    "previous": null,
    "results": [
        {
            "kind": "news",
            "domain": "@DexeNetwork",
            "source": {
                "title": "DeXe Twitter",
                "region": "en",
                "domain": "twitter.com",
                "path": "@dexenetwork"
            },
            "title": "RT @CryptoDiffer: TOP 15 coins by @LunarCRUSH Galaxy Score\n\nGalaxy Score is a proprietary score that is constantly measuring crypto against\u2026",
            "published_at": "2023-07-11T12:38:38Z",
            "slug": "RT-CryptoDiffer-TOP-15-coins-by-LunarCRUSH-Galaxy-Score-Galaxy-Score-is-a-proprietary-score-that-is-constantly-measuring-crypto-against",
            "currencies": [
                {
                    "code": "DEXE",
                    "title": "DeXe",
                    "slug": "dexe",
                    "url": "https:\/\/cryptopanic.com\/news\/dexe\/"
                }
            ],
            "id": 18763701,
            "url": "https:\/\/cryptopanic.com\/news\/18763701\/RT-CryptoDiffer-TOP-15-coins-by-LunarCRUSH-Galaxy-Score-Galaxy-Score-is-a-proprietary-score-that-is-constantly-measuring-crypto-against",
            "created_at": "2023-07-11T12:38:38Z",
            "votes": {
                "negative": 0,
                "positive": 0,
                "important": 0,
                "liked": 0,
                "disliked": 0,
                "lol": 0,
                "toxic": 0,
                "saved": 0,
                "comments": 0
            }
        },
        {
            "kind": "news",
            "domain": "@DexeNetwork",
            "source": {
                "title": "DeXe Twitter",
                "region": "en",
                "domain": "twitter.com",
                "path": "@dexenetwork"
            },
            "title": "Hey DeXers - good news for the weekend - our DAO has a new approved proposal.\n\nThe proposal to partner up with the\u2026",
            "published_at": "2023-07-08T14:01:03Z",
            "slug": "Hey-DeXers-good-news-for-the-weekend-our-DAO-has-a-new-approved-proposal-The-proposal-to-partner-up-with-the",
            "currencies": [
                {
                    "code": "DEXE",
                    "title": "DeXe",
                    "slug": "dexe",
                    "url": "https:\/\/cryptopanic.com\/news\/dexe\/"
                }
            ],
            "id": 18745231,
            "url": "https:\/\/cryptopanic.com\/news\/18745231\/Hey-DeXers-good-news-for-the-weekend-our-DAO-has-a-new-approved-proposal-The-proposal-to-partner-up-with-the",
            "created_at": "2023-07-08T14:01:03Z",
            "votes": {
                "negative": 0,
                "positive": 0,
                "important": 0,
                "liked": 0,
                "disliked": 0,
                "lol": 0,
                "toxic": 0,
                "saved": 0,
                "comments": 0
            }
        },
        {
            "kind": "news",
            "domain": "@DexeNetwork",
            "source": {
                "title": "DeXe Twitter",
                "region": "en",
                "domain": "twitter.com",
                "path": "@dexenetwork"
            },
            "title": "Hey DeXers, our next DAO Talk is on Tuesday, July 11th @ 16:00 UTC.\u00a0\n\nJoining us is @futurealisha, the governance\u2026",
            "published_at": "2023-07-08T10:00:12Z",
            "slug": "Hey-DeXers-our-next-DAO-Talk-is-on-Tuesday-July-11th-1600-UTC-Joining-us-is-futurealisha-the-governance",
            "currencies": [
                {
                    "code": "DEXE",
                    "title": "DeXe",
                    "slug": "dexe",
                    "url": "https:\/\/cryptopanic.com\/news\/dexe\/"
                }
            ],
            "id": 18745232,
            "url": "https:\/\/cryptopanic.com\/news\/18745232\/Hey-DeXers-our-next-DAO-Talk-is-on-Tuesday-July-11th-1600-UTC-Joining-us-is-futurealisha-the-governance",
            "created_at": "2023-07-08T10:00:12Z",
            "votes": {
                "negative": 0,
                "positive": 0,
                "important": 0,
                "liked": 0,
                "disliked": 0,
                "lol": 0,
                "toxic": 0,
                "saved": 0,
                "comments": 0
            }
        },
        {
            "kind": "news",
            "domain": "@DexeNetwork",
            "source": {
                "title": "DeXe Twitter",
                "region": "en",
                "domain": "twitter.com",
                "path": "@dexenetwork"
            },
            "title": "DeFining news: June 30th, 2023 \n\nWhat\u2019s new in DeFi world this week? @MultichainOrg gets hacked, @OPNX_Official in\u2026",
            "published_at": "2023-07-07T15:10:15Z",
            "slug": "DeFining-news-June-30th-2023-Whats-new-in-DeFi-world-this-week-MultichainOrg-gets-hacked-OPNX_Official-in",
            "currencies": [
                {
                    "code": "DEXE",
                    "title": "DeXe",
                    "slug": "dexe",
                    "url": "https:\/\/cryptopanic.com\/news\/dexe\/"
                }
            ],
            "id": 18739625,
            "url": "https:\/\/cryptopanic.com\/news\/18739625\/DeFining-news-June-30th-2023-Whats-new-in-DeFi-world-this-week-MultichainOrg-gets-hacked-OPNX_Official-in",
            "created_at": "2023-07-07T15:10:15Z",
            "votes": {
                "negative": 0,
                "positive": 0,
                "important": 0,
                "liked": 0,
                "disliked": 0,
                "lol": 0,
                "toxic": 0,
                "saved": 0,
                "comments": 0
            }
        },
        {
            "kind": "news",
            "domain": "@DexeNetwork",
            "source": {
                "title": "DeXe Twitter",
                "region": "en",
                "domain": "twitter.com",
                "path": "@dexenetwork"
            },
            "title": "$DEXE have been safely withdrawn from the bridge, and its minting rights have been revoked. DeXe stands secure.\nWe\u2026",
            "published_at": "2023-07-07T00:11:36Z",
            "slug": "DEXE-have-been-safely-withdrawn-from-the-bridge-and-its-minting-rights-have-been-revoked-DeXe-stands-secure-We",
            "currencies": [
                {
                    "code": "DEXE",
                    "title": "DeXe",
                    "slug": "dexe",
                    "url": "https:\/\/cryptopanic.com\/news\/dexe\/"
                }
            ],
            "id": 18731927,
            "url": "https:\/\/cryptopanic.com\/news\/18731927\/DEXE-have-been-safely-withdrawn-from-the-bridge-and-its-minting-rights-have-been-revoked-DeXe-stands-secure-We",
            "created_at": "2023-07-07T00:11:36Z",
            "votes": {
                "negative": 0,
                "positive": 0,
                "important": 0,
                "liked": 0,
                "disliked": 0,
                "lol": 0,
                "toxic": 0,
                "saved": 0,
                "comments": 0
            }
        },
        {
            "kind": "news",
            "domain": "@DexeNetwork",
            "source": {
                "title": "DeXe Twitter",
                "region": "en",
                "domain": "twitter.com",
                "path": "@dexenetwork"
            },
            "title": "Hey DeXers - let\u2019s play a game. Look at the Top 15 DAOs by treasury growth in the past 24 hours. \n\nHow many of th\u2026",
            "published_at": "2023-07-06T17:15:57Z",
            "slug": "Hey-DeXers-lets-play-a-game-Look-at-the-Top-15-DAOs-by-treasury-growth-in-the-past-24-hours-How-many-of-th",
            "currencies": [
                {
                    "code": "DEXE",
                    "title": "DeXe",
                    "slug": "dexe",
                    "url": "https:\/\/cryptopanic.com\/news\/dexe\/"
                }
            ],
            "id": 18731928,
            "url": "https:\/\/cryptopanic.com\/news\/18731928\/Hey-DeXers-lets-play-a-game-Look-at-the-Top-15-DAOs-by-treasury-growth-in-the-past-24-hours-How-many-of-th",
            "created_at": "2023-07-06T17:15:57Z",
            "votes": {
                "negative": 0,
                "positive": 0,
                "important": 0,
                "liked": 0,
                "disliked": 0,
                "lol": 0,
                "toxic": 0,
                "saved": 0,
                "comments": 0
            }
        },
        {
            "kind": "news",
            "domain": "@DexeNetwork",
            "source": {
                "title": "DeXe Twitter",
                "region": "en",
                "domain": "twitter.com",
                "path": "@dexenetwork"
            },
            "title": "Hey DeXers - did you know that all of our DAO Talks are now available on all your favorite podcast platforms.\n\nNow\u2026",
            "published_at": "2023-07-06T15:20:08Z",
            "slug": "Hey-DeXers-did-you-know-that-all-of-our-DAO-Talks-are-now-available-on-all-your-favorite-podcast-platforms-Now",
            "currencies": [
                {
                    "code": "DEXE",
                    "title": "DeXe",
                    "slug": "dexe",
                    "url": "https:\/\/cryptopanic.com\/news\/dexe\/"
                }
            ],
            "id": 18731929,
            "url": "https:\/\/cryptopanic.com\/news\/18731929\/Hey-DeXers-did-you-know-that-all-of-our-DAO-Talks-are-now-available-on-all-your-favorite-podcast-platforms-Now",
            "created_at": "2023-07-06T15:20:08Z",
            "votes": {
                "negative": 0,
                "positive": 0,
                "important": 0,
                "liked": 0,
                "disliked": 0,
                "lol": 0,
                "toxic": 0,
                "saved": 0,
                "comments": 0
            }
        },
        {
            "kind": "news",
            "domain": "@DexeNetwork",
            "source": {
                "title": "DeXe Twitter",
                "region": "en",
                "domain": "twitter.com",
                "path": "@dexenetwork"
            },
            "title": "And this is the one on trust frameworks. Also great for understanding DAOs.",
            "published_at": "2023-07-05T17:30:36Z",
            "slug": "And-this-is-the-one-on-trust-frameworks-Also-great-for-understanding-DAOs",
            "currencies": [
                {
                    "code": "DEXE",
                    "title": "DeXe",
                    "slug": "dexe",
                    "url": "https:\/\/cryptopanic.com\/news\/dexe\/"
                }
            ],
            "id": 18723365,
            "url": "https:\/\/cryptopanic.com\/news\/18723365\/And-this-is-the-one-on-trust-frameworks-Also-great-for-understanding-DAOs",
            "created_at": "2023-07-05T17:30:36Z",
            "votes": {
                "negative": 0,
                "positive": 0,
                "important": 0,
                "liked": 0,
                "disliked": 0,
                "lol": 0,
                "toxic": 0,
                "saved": 0,
                "comments": 0
            }
        },
        {
            "kind": "news",
            "domain": "@DexeNetwork",
            "source": {
                "title": "DeXe Twitter",
                "region": "en",
                "domain": "twitter.com",
                "path": "@dexenetwork"
            },
            "title": "For those who tuned in to the DAO Talk that just ended (and those who didn't), this is Stefen's talk about contribu\u2026",
            "published_at": "2023-07-05T17:29:53Z",
            "slug": "For-those-who-tuned-in-to-the-DAO-Talk-that-just-ended-and-those-who-didnt-this-is-Stefens-talk-about-contribu",
            "currencies": [
                {
                    "code": "DEXE",
                    "title": "DeXe",
                    "slug": "dexe",
                    "url": "https:\/\/cryptopanic.com\/news\/dexe\/"
                }
            ],
            "id": 18723367,
            "url": "https:\/\/cryptopanic.com\/news\/18723367\/For-those-who-tuned-in-to-the-DAO-Talk-that-just-ended-and-those-who-didnt-this-is-Stefens-talk-about-contribu",
            "created_at": "2023-07-05T17:29:53Z",
            "votes": {
                "negative": 0,
                "positive": 0,
                "important": 0,
                "liked": 0,
                "disliked": 0,
                "lol": 0,
                "toxic": 0,
                "saved": 0,
                "comments": 0
            }
        },
        {
            "kind": "news",
            "domain": "@DexeNetwork",
            "source": {
                "title": "DeXe Twitter",
                "region": "en",
                "domain": "twitter.com",
                "path": "@dexenetwork"
            },
            "title": "RT @bsc_daily: Top Gainers in #BNBChain Ecosystem Last 24 Hours\n\n\ud83e\udd47 $VINU @VitaInuCoin\n\ud83e\udd48 $DEXE @DexeNetwork\n\ud83e\udd49 $WOM @WombatExchange\n$REI @G\u2026",
            "published_at": "2023-07-05T12:23:21Z",
            "slug": "RT-bsc_daily-Top-Gainers-in-BNBChain-Ecosystem-Last-24-Hours-VINU-VitaInuCoin-DEXE-DexeNetwork-WOM-WombatExchange-REI-G",
            "currencies": [
                {
                    "code": "DEXE",
                    "title": "DeXe",
                    "slug": "dexe",
                    "url": "https:\/\/cryptopanic.com\/news\/dexe\/"
                }
            ],
            "id": 18723369,
            "url": "https:\/\/cryptopanic.com\/news\/18723369\/RT-bsc_daily-Top-Gainers-in-BNBChain-Ecosystem-Last-24-Hours-VINU-VitaInuCoin-DEXE-DexeNetwork-WOM-WombatExchange-REI-G",
            "created_at": "2023-07-05T12:23:21Z",
            "votes": {
                "negative": 0,
                "positive": 0,
                "important": 0,
                "liked": 0,
                "disliked": 0,
                "lol": 0,
                "toxic": 0,
                "saved": 0,
                "comments": 0
            }
        },
        {
            "kind": "news",
            "domain": "@DexeNetwork",
            "source": {
                "title": "DeXe Twitter",
                "region": "en",
                "domain": "twitter.com",
                "path": "@dexenetwork"
            },
            "title": "State of the DAOs - July 4th\n\n@rarible wants more delegates. @Uniswap asks what to do with its $ARB. @CFTC wants t\u2026",
            "published_at": "2023-07-04T15:50:20Z",
            "slug": "State-of-the-DAOs-July-4th-rarible-wants-more-delegates-Uniswap-asks-what-to-do-with-its-ARB-CFTC-wants-t",
            "currencies": [
                {
                    "code": "DEXE",
                    "title": "DeXe",
                    "slug": "dexe",
                    "url": "https:\/\/cryptopanic.com\/news\/dexe\/"
                }
            ],
            "id": 18715707,
            "url": "https:\/\/cryptopanic.com\/news\/18715707\/State-of-the-DAOs-July-4th-rarible-wants-more-delegates-Uniswap-asks-what-to-do-with-its-ARB-CFTC-wants-t",
            "created_at": "2023-07-04T15:50:20Z",
            "votes": {
                "negative": 0,
                "positive": 0,
                "important": 0,
                "liked": 0,
                "disliked": 0,
                "lol": 0,
                "toxic": 0,
                "saved": 0,
                "comments": 0
            }
        },
        {
            "kind": "news",
            "domain": "@DexeNetwork",
            "source": {
                "title": "DeXe Twitter",
                "region": "en",
                "domain": "twitter.com",
                "path": "@dexenetwork"
            },
            "title": "Hey DeXers, the DAOist partnership proposal is getting traction.\n\nIt already got enough voting support at the disc\u2026",
            "published_at": "2023-07-03T17:16:31Z",
            "slug": "Hey-DeXers-the-DAOist-partnership-proposal-is-getting-traction-It-already-got-enough-voting-support-at-the-disc",
            "currencies": [
                {
                    "code": "DEXE",
                    "title": "DeXe",
                    "slug": "dexe",
                    "url": "https:\/\/cryptopanic.com\/news\/dexe\/"
                }
            ],
            "id": 18708417,
            "url": "https:\/\/cryptopanic.com\/news\/18708417\/Hey-DeXers-the-DAOist-partnership-proposal-is-getting-traction-It-already-got-enough-voting-support-at-the-disc",
            "created_at": "2023-07-03T17:16:31Z",
            "votes": {
                "negative": 0,
                "positive": 0,
                "important": 0,
                "liked": 0,
                "disliked": 0,
                "lol": 0,
                "toxic": 0,
                "saved": 0,
                "comments": 0
            }
        },
        {
            "kind": "news",
            "domain": "@DexeNetwork",
            "source": {
                "title": "DeXe Twitter",
                "region": "en",
                "domain": "twitter.com",
                "path": "@dexenetwork"
            },
            "title": "Hey DeXers, just 2\ufe0f\u20e3 days remain until our DAO Talk with @stefdelev, Head of Growth at @GovrnHQ \u2026",
            "published_at": "2023-07-03T12:35:23Z",
            "slug": "Hey-DeXers-just-2-days-remain-until-our-DAO-Talk-with-stefdelev-Head-of-Growth-at-GovrnHQ",
            "currencies": [
                {
                    "code": "DEXE",
                    "title": "DeXe",
                    "slug": "dexe",
                    "url": "https:\/\/cryptopanic.com\/news\/dexe\/"
                }
            ],
            "id": 18708418,
            "url": "https:\/\/cryptopanic.com\/news\/18708418\/Hey-DeXers-just-2-days-remain-until-our-DAO-Talk-with-stefdelev-Head-of-Growth-at-GovrnHQ",
            "created_at": "2023-07-03T12:35:23Z",
            "votes": {
                "negative": 0,
                "positive": 0,
                "important": 0,
                "liked": 0,
                "disliked": 0,
                "lol": 0,
                "toxic": 0,
                "saved": 0,
                "comments": 0
            }
        },
        {
            "kind": "news",
            "domain": "@DexeNetwork",
            "source": {
                "title": "DeXe Twitter",
                "region": "en",
                "domain": "twitter.com",
                "path": "@dexenetwork"
            },
            "title": "DeXe DAO June Update\n\nIn June, we first had a live talk on:\nLegal Strategies for DAOs, ",
            "published_at": "2023-07-01T14:42:11Z",
            "slug": "DeXe-DAO-June-Update-In-June-we-first-had-a-live-talk-on-Legal-Strategies-for-DAOs",
            "currencies": [
                {
                    "code": "DEXE",
                    "title": "DeXe",
                    "slug": "dexe",
                    "url": "https:\/\/cryptopanic.com\/news\/dexe\/"
                }
            ],
            "id": 18698334,
            "url": "https:\/\/cryptopanic.com\/news\/18698334\/DeXe-DAO-June-Update-In-June-we-first-had-a-live-talk-on-Legal-Strategies-for-DAOs",
            "created_at": "2023-07-01T14:42:11Z",
            "votes": {
                "negative": 0,
                "positive": 0,
                "important": 0,
                "liked": 0,
                "disliked": 0,
                "lol": 0,
                "toxic": 0,
                "saved": 0,
                "comments": 0
            }
        },
        {
            "kind": "news",
            "domain": "@DexeNetwork",
            "source": {
                "title": "DeXe Twitter",
                "region": "en",
                "domain": "twitter.com",
                "path": "@dexenetwork"
            },
            "title": "Quest time!! We're launching special quests on Zealy starting this week. And runing for a whole month. That's a wh\u2026",
            "published_at": "2023-07-01T10:40:12Z",
            "slug": "Quest-time-Were-launching-special-quests-on-Zealy-starting-this-week-And-runing-for-a-whole-month-Thats-a-wh",
            "currencies": [
                {
                    "code": "DEXE",
                    "title": "DeXe",
                    "slug": "dexe",
                    "url": "https:\/\/cryptopanic.com\/news\/dexe\/"
                }
            ],
            "id": 18698335,
            "url": "https:\/\/cryptopanic.com\/news\/18698335\/Quest-time-Were-launching-special-quests-on-Zealy-starting-this-week-And-runing-for-a-whole-month-Thats-a-wh",
            "created_at": "2023-07-01T10:40:12Z",
            "votes": {
                "negative": 0,
                "positive": 0,
                "important": 0,
                "liked": 0,
                "disliked": 0,
                "lol": 0,
                "toxic": 0,
                "saved": 0,
                "comments": 0
            }
        },
        {
            "kind": "news",
            "domain": "@DexeNetwork",
            "source": {
                "title": "DeXe Twitter",
                "region": "en",
                "domain": "twitter.com",
                "path": "@dexenetwork"
            },
            "title": "Hey DeXers, our next DAO Talk is Wednesday, July 5th @ 16:00 UTC.\u00a0\n\nJoining us is @stefdelev, Head of Growth at\u2026",
            "published_at": "2023-06-30T16:00:42Z",
            "slug": "Hey-DeXers-our-next-DAO-Talk-is-Wednesday-July-5th-1600-UTC-Joining-us-is-stefdelev-Head-of-Growth-at",
            "currencies": [
                {
                    "code": "DEXE",
                    "title": "DeXe",
                    "slug": "dexe",
                    "url": "https:\/\/cryptopanic.com\/news\/dexe\/"
                }
            ],
            "id": 18692905,
            "url": "https:\/\/cryptopanic.com\/news\/18692905\/Hey-DeXers-our-next-DAO-Talk-is-Wednesday-July-5th-1600-UTC-Joining-us-is-stefdelev-Head-of-Growth-at",
            "created_at": "2023-06-30T16:00:42Z",
            "votes": {
                "negative": 0,
                "positive": 0,
                "important": 0,
                "liked": 0,
                "disliked": 0,
                "lol": 0,
                "toxic": 0,
                "saved": 0,
                "comments": 0
            }
        },
        {
            "kind": "news",
            "domain": "@DexeNetwork",
            "source": {
                "title": "DeXe Twitter",
                "region": "en",
                "domain": "twitter.com",
                "path": "@dexenetwork"
            },
            "title": "DeFining news: June 30th, 2023 \n\nWhat\u2019s new in #DeFi world this week? @LidoFinance is getting too powerful.\u2026",
            "published_at": "2023-06-30T12:40:29Z",
            "slug": "DeFining-news-June-30th-2023-Whats-new-in-DeFi-world-this-week-LidoFinance-is-getting-too-powerful",
            "currencies": [
                {
                    "code": "DEXE",
                    "title": "DeXe",
                    "slug": "dexe",
                    "url": "https:\/\/cryptopanic.com\/news\/dexe\/"
                }
            ],
            "id": 18692907,
            "url": "https:\/\/cryptopanic.com\/news\/18692907\/DeFining-news-June-30th-2023-Whats-new-in-DeFi-world-this-week-LidoFinance-is-getting-too-powerful",
            "created_at": "2023-06-30T12:40:29Z",
            "votes": {
                "negative": 0,
                "positive": 0,
                "important": 0,
                "liked": 0,
                "disliked": 0,
                "lol": 0,
                "toxic": 0,
                "saved": 0,
                "comments": 0
            }
        },
        {
            "kind": "news",
            "domain": "@DexeNetwork",
            "source": {
                "title": "DeXe Twitter",
                "region": "en",
                "domain": "twitter.com",
                "path": "@dexenetwork"
            },
            "title": "Proposal Alert \n\n There is a new proposal in our discussion forum\n\nIt recommends partnering up with DAOist for up\u2026",
            "published_at": "2023-06-29T16:30:19Z",
            "slug": "Proposal-Alert-There-is-a-new-proposal-in-our-discussion-forum-It-recommends-partnering-up-with-DAOist-for-up",
            "currencies": [
                {
                    "code": "DEXE",
                    "title": "DeXe",
                    "slug": "dexe",
                    "url": "https:\/\/cryptopanic.com\/news\/dexe\/"
                }
            ],
            "id": 18684977,
            "url": "https:\/\/cryptopanic.com\/news\/18684977\/Proposal-Alert-There-is-a-new-proposal-in-our-discussion-forum-It-recommends-partnering-up-with-DAOist-for-up",
            "created_at": "2023-06-29T16:30:19Z",
            "votes": {
                "negative": 0,
                "positive": 0,
                "important": 0,
                "liked": 0,
                "disliked": 0,
                "lol": 0,
                "toxic": 0,
                "saved": 0,
                "comments": 0
            }
        },
        {
            "kind": "news",
            "domain": "@DexeNetwork",
            "source": {
                "title": "DeXe Twitter",
                "region": "en",
                "domain": "twitter.com",
                "path": "@dexenetwork"
            },
            "title": "Hey DeXers - take a look at this Top 15 DAOs by # of holders. Anybody missing? Any names surprise you?\n\nRemember\u2026",
            "published_at": "2023-06-29T14:40:11Z",
            "slug": "Hey-DeXers-take-a-look-at-this-Top-15-DAOs-by-of-holders-Anybody-missing-Any-names-surprise-you-Remember",
            "currencies": [
                {
                    "code": "DEXE",
                    "title": "DeXe",
                    "slug": "dexe",
                    "url": "https:\/\/cryptopanic.com\/news\/dexe\/"
                }
            ],
            "id": 18684978,
            "url": "https:\/\/cryptopanic.com\/news\/18684978\/Hey-DeXers-take-a-look-at-this-Top-15-DAOs-by-of-holders-Anybody-missing-Any-names-surprise-you-Remember",
            "created_at": "2023-06-29T14:40:11Z",
            "votes": {
                "negative": 0,
                "positive": 0,
                "important": 0,
                "liked": 0,
                "disliked": 0,
                "lol": 0,
                "toxic": 0,
                "saved": 0,
                "comments": 0
            }
        },
        {
            "kind": "news",
            "domain": "@DexeNetwork",
            "source": {
                "title": "DeXe Twitter",
                "region": "en",
                "domain": "twitter.com",
                "path": "@dexenetwork"
            },
            "title": "Check out this graph of #DAO activity. When seen over the years, really gives you a whole new perspective. Though\u2026",
            "published_at": "2023-06-28T13:52:21Z",
            "slug": "Check-out-this-graph-of-DAO-activity-When-seen-over-the-years-really-gives-you-a-whole-new-perspective-Though",
            "currencies": [
                {
                    "code": "DEXE",
                    "title": "DeXe",
                    "slug": "dexe",
                    "url": "https:\/\/cryptopanic.com\/news\/dexe\/"
                }
            ],
            "id": 18676924,
            "url": "https:\/\/cryptopanic.com\/news\/18676924\/Check-out-this-graph-of-DAO-activity-When-seen-over-the-years-really-gives-you-a-whole-new-perspective-Though",
            "created_at": "2023-06-28T13:52:21Z",
            "votes": {
                "negative": 0,
                "positive": 0,
                "important": 0,
                "liked": 0,
                "disliked": 0,
                "lol": 0,
                "toxic": 0,
                "saved": 0,
                "comments": 0
            }
        }
    ]
}
