{
    "count": 200,
    "next": "https:\/\/cryptopanic.com\/api\/v1\/posts\/?auth_token=01c356e89ffc1b8eba2127c81fc8c66ee0eace75&kind=news&currencies=FLUX&page=2",
    "previous": null,
    "results": [
        {
            "kind": "news",
            "domain": "@RunOnFlux",
            "source": {
                "title": "Flux Twitter",
                "region": "en",
                "domain": "twitter.com",
                "path": "@runonflux"
            },
            "title": " FluxOS v4.3.0 has been released! This release introduces support for both @MetaMask and @WalletConnect! \n\nNow you\u2026",
            "published_at": "2023-07-11T22:28:17Z",
            "slug": "FluxOS-v430-has-been-released-This-release-introduces-support-for-both-MetaMask-and-WalletConnect-Now-you",
            "currencies": [
                {
                    "code": "FLUX",
                    "title": "Flux",
                    "slug": "zelcash",
                    "url": "https:\/\/cryptopanic.com\/news\/zelcash\/"
                }
            ],
            "id": 18764308,
            "url": "https:\/\/cryptopanic.com\/news\/18764308\/FluxOS-v430-has-been-released-This-release-introduces-support-for-both-MetaMask-and-WalletConnect-Now-you",
            "created_at": "2023-07-11T22:28:17Z",
            "votes": {
                "negative": 0,
                "positive": 0,
                "important": 0,
                "liked": 0,
                "disliked": 0,
                "lol": 0,
                "toxic": 0,
                "saved": 0,
                "comments": 0
            }
        },
        {
            "kind": "news",
            "domain": "@RunOnFlux",
            "source": {
                "title": "Flux Twitter",
                "region": "en",
                "domain": "twitter.com",
                "path": "@runonflux"
            },
            "title": "RT @CypherPunk2023: Explore the details of our event by delving into the @blocktides article! $Flux @RunOnFlux #web3event \n\nCheck it out be\u2026",
            "published_at": "2023-07-11T22:17:29Z",
            "slug": "RT-CypherPunk2023-Explore-the-details-of-our-event-by-delving-into-the-blocktides-article-Flux-RunOnFlux-web3event-Check-it-out-be",
            "currencies": [
                {
                    "code": "FLUX",
                    "title": "Flux",
                    "slug": "zelcash",
                    "url": "https:\/\/cryptopanic.com\/news\/zelcash\/"
                }
            ],
            "id": 18764309,
            "url": "https:\/\/cryptopanic.com\/news\/18764309\/RT-CypherPunk2023-Explore-the-details-of-our-event-by-delving-into-the-blocktides-article-Flux-RunOnFlux-web3event-Check-it-out-be",
            "created_at": "2023-07-11T22:17:29Z",
            "votes": {
                "negative": 0,
                "positive": 0,
                "important": 0,
                "liked": 0,
                "disliked": 0,
                "lol": 0,
                "toxic": 0,
                "saved": 0,
                "comments": 0
            }
        },
        {
            "kind": "news",
            "domain": "@RunOnFlux",
            "source": {
                "title": "Flux Twitter",
                "region": "en",
                "domain": "twitter.com",
                "path": "@runonflux"
            },
            "title": " FluxOS v4.3.0 has been released! This release introduces support for both @MetaMask and @WalletConnect!\n\nNow you\u2026",
            "published_at": "2023-07-11T15:37:37Z",
            "slug": "FluxOS-v430-has-been-released-This-release-introduces-support-for-both-MetaMask-and-WalletConnect-Now-you",
            "currencies": [
                {
                    "code": "FLUX",
                    "title": "Flux",
                    "slug": "zelcash",
                    "url": "https:\/\/cryptopanic.com\/news\/zelcash\/"
                }
            ],
            "id": 18764310,
            "url": "https:\/\/cryptopanic.com\/news\/18764310\/FluxOS-v430-has-been-released-This-release-introduces-support-for-both-MetaMask-and-WalletConnect-Now-you",
            "created_at": "2023-07-11T15:37:37Z",
            "votes": {
                "negative": 0,
                "positive": 0,
                "important": 0,
                "liked": 0,
                "disliked": 0,
                "lol": 0,
                "toxic": 0,
                "saved": 0,
                "comments": 0
            }
        },
        {
            "kind": "news",
            "domain": "@RunOnFlux",
            "source": {
                "title": "Flux Twitter",
                "region": "en",
                "domain": "twitter.com",
                "path": "@runonflux"
            },
            "title": "Don't miss this one!",
            "published_at": "2023-07-11T14:20:25Z",
            "slug": "Dont-miss-this-one",
            "currencies": [
                {
                    "code": "FLUX",
                    "title": "Flux",
                    "slug": "zelcash",
                    "url": "https:\/\/cryptopanic.com\/news\/zelcash\/"
                }
            ],
            "id": 18764311,
            "url": "https:\/\/cryptopanic.com\/news\/18764311\/Dont-miss-this-one",
            "created_at": "2023-07-11T14:20:25Z",
            "votes": {
                "negative": 0,
                "positive": 0,
                "important": 0,
                "liked": 0,
                "disliked": 0,
                "lol": 0,
                "toxic": 0,
                "saved": 0,
                "comments": 0
            }
        },
        {
            "kind": "news",
            "domain": "@RunOnFlux",
            "source": {
                "title": "Flux Twitter",
                "region": "en",
                "domain": "twitter.com",
                "path": "@runonflux"
            },
            "title": "RT @LizaFlux: Want to learn more about interchain operability on #Flux? Grab a beer, wine, or a soda and curl up with an overview about ju\u2026",
            "published_at": "2023-07-11T12:40:13Z",
            "slug": "RT-LizaFlux-Want-to-learn-more-about-interchain-operability-on-Flux-Grab-a-beer-wine-or-a-soda-and-curl-up-with-an-overview-about-ju",
            "currencies": [
                {
                    "code": "FLUX",
                    "title": "Flux",
                    "slug": "zelcash",
                    "url": "https:\/\/cryptopanic.com\/news\/zelcash\/"
                }
            ],
            "id": 18764312,
            "url": "https:\/\/cryptopanic.com\/news\/18764312\/RT-LizaFlux-Want-to-learn-more-about-interchain-operability-on-Flux-Grab-a-beer-wine-or-a-soda-and-curl-up-with-an-overview-about-ju",
            "created_at": "2023-07-11T12:40:13Z",
            "votes": {
                "negative": 0,
                "positive": 0,
                "important": 0,
                "liked": 0,
                "disliked": 0,
                "lol": 0,
                "toxic": 0,
                "saved": 0,
                "comments": 0
            }
        },
        {
            "kind": "news",
            "domain": "@RunOnFlux",
            "source": {
                "title": "Flux Twitter",
                "region": "en",
                "domain": "twitter.com",
                "path": "@runonflux"
            },
            "title": "RT @Smr91Edgar: #FluxCloud promotes interoperability and seamless integration with existing #blockchain networks, enabling developers to le\u2026",
            "published_at": "2023-07-11T12:39:55Z",
            "slug": "RT-Smr91Edgar-FluxCloud-promotes-interoperability-and-seamless-integration-with-existing-blockchain-networks-enabling-developers-to-le",
            "currencies": [
                {
                    "code": "FLUX",
                    "title": "Flux",
                    "slug": "zelcash",
                    "url": "https:\/\/cryptopanic.com\/news\/zelcash\/"
                }
            ],
            "id": 18764313,
            "url": "https:\/\/cryptopanic.com\/news\/18764313\/RT-Smr91Edgar-FluxCloud-promotes-interoperability-and-seamless-integration-with-existing-blockchain-networks-enabling-developers-to-le",
            "created_at": "2023-07-11T12:39:55Z",
            "votes": {
                "negative": 0,
                "positive": 0,
                "important": 0,
                "liked": 0,
                "disliked": 0,
                "lol": 0,
                "toxic": 0,
                "saved": 0,
                "comments": 0
            }
        },
        {
            "kind": "news",
            "domain": "@RunOnFlux",
            "source": {
                "title": "Flux Twitter",
                "region": "en",
                "domain": "twitter.com",
                "path": "@runonflux"
            },
            "title": "RT @giottus: Trade Smarter, Trade Freely: \n$FLUX- Zero Fees Exclusively on #Giottus! @RunOnFlux \n\n#Flux #FluxNodes #FluxOS #AMM",
            "published_at": "2023-07-11T12:39:49Z",
            "slug": "RT-giottus-Trade-Smarter-Trade-Freely-FLUX-Zero-Fees-Exclusively-on-Giottus-RunOnFlux-Flux-FluxNodes-FluxOS-AMM",
            "currencies": [
                {
                    "code": "FLUX",
                    "title": "Flux",
                    "slug": "zelcash",
                    "url": "https:\/\/cryptopanic.com\/news\/zelcash\/"
                }
            ],
            "id": 18764314,
            "url": "https:\/\/cryptopanic.com\/news\/18764314\/RT-giottus-Trade-Smarter-Trade-Freely-FLUX-Zero-Fees-Exclusively-on-Giottus-RunOnFlux-Flux-FluxNodes-FluxOS-AMM",
            "created_at": "2023-07-11T12:39:49Z",
            "votes": {
                "negative": 0,
                "positive": 0,
                "important": 0,
                "liked": 0,
                "disliked": 0,
                "lol": 0,
                "toxic": 0,
                "saved": 0,
                "comments": 0
            }
        },
        {
            "kind": "news",
            "domain": "@RunOnFlux",
            "source": {
                "title": "Flux Twitter",
                "region": "en",
                "domain": "twitter.com",
                "path": "@runonflux"
            },
            "title": "RT @RunOnFlux:  We have officially launched on @zealy_io, giving our community an incredible chance to earn rewards for their invaluable s\u2026",
            "published_at": "2023-07-10T23:57:52Z",
            "slug": "RT-RunOnFlux-We-have-officially-launched-on-zealy_io-giving-our-community-an-incredible-chance-to-earn-rewards-for-their-invaluable-s",
            "currencies": [
                {
                    "code": "FLUX",
                    "title": "Flux",
                    "slug": "zelcash",
                    "url": "https:\/\/cryptopanic.com\/news\/zelcash\/"
                }
            ],
            "id": 18756202,
            "url": "https:\/\/cryptopanic.com\/news\/18756202\/RT-RunOnFlux-We-have-officially-launched-on-zealy_io-giving-our-community-an-incredible-chance-to-earn-rewards-for-their-invaluable-s",
            "created_at": "2023-07-10T23:57:52Z",
            "votes": {
                "negative": 0,
                "positive": 0,
                "important": 0,
                "liked": 0,
                "disliked": 0,
                "lol": 0,
                "toxic": 0,
                "saved": 0,
                "comments": 0
            }
        },
        {
            "kind": "news",
            "domain": "@RunOnFlux",
            "source": {
                "title": "Flux Twitter",
                "region": "en",
                "domain": "twitter.com",
                "path": "@runonflux"
            },
            "title": "RT @CypherPunk2023:  For our upcoming #Cypherpunk2023 (un)conference, we have secured discounted rates at 3 fantastic hotels for your stay\u2026",
            "published_at": "2023-07-10T23:55:36Z",
            "slug": "RT-CypherPunk2023-For-our-upcoming-Cypherpunk2023-unconference-we-have-secured-discounted-rates-at-3-fantastic-hotels-for-your-stay",
            "currencies": [
                {
                    "code": "FLUX",
                    "title": "Flux",
                    "slug": "zelcash",
                    "url": "https:\/\/cryptopanic.com\/news\/zelcash\/"
                }
            ],
            "id": 18756203,
            "url": "https:\/\/cryptopanic.com\/news\/18756203\/RT-CypherPunk2023-For-our-upcoming-Cypherpunk2023-unconference-we-have-secured-discounted-rates-at-3-fantastic-hotels-for-your-stay",
            "created_at": "2023-07-10T23:55:36Z",
            "votes": {
                "negative": 0,
                "positive": 0,
                "important": 0,
                "liked": 0,
                "disliked": 0,
                "lol": 0,
                "toxic": 0,
                "saved": 0,
                "comments": 0
            }
        },
        {
            "kind": "news",
            "domain": "@RunOnFlux",
            "source": {
                "title": "Flux Twitter",
                "region": "en",
                "domain": "twitter.com",
                "path": "@runonflux"
            },
            "title": "RT @cryptoiz_IDN: Get ready guys 30 minutes to the start of the #AMA with @RunOnFlux ",
            "published_at": "2023-07-10T15:53:01Z",
            "slug": "RT-cryptoiz_IDN-Get-ready-guys-30-minutes-to-the-start-of-the-AMA-with-RunOnFlux",
            "currencies": [
                {
                    "code": "FLUX",
                    "title": "Flux",
                    "slug": "zelcash",
                    "url": "https:\/\/cryptopanic.com\/news\/zelcash\/"
                }
            ],
            "id": 18756204,
            "url": "https:\/\/cryptopanic.com\/news\/18756204\/RT-cryptoiz_IDN-Get-ready-guys-30-minutes-to-the-start-of-the-AMA-with-RunOnFlux",
            "created_at": "2023-07-10T15:53:01Z",
            "votes": {
                "negative": 0,
                "positive": 0,
                "important": 0,
                "liked": 0,
                "disliked": 0,
                "lol": 0,
                "toxic": 0,
                "saved": 0,
                "comments": 0
            }
        },
        {
            "kind": "news",
            "domain": "@RunOnFlux",
            "source": {
                "title": "Flux Twitter",
                "region": "en",
                "domain": "twitter.com",
                "path": "@runonflux"
            },
            "title": "This is why POW &gt; POS, decentralization is key.",
            "published_at": "2023-07-10T13:20:41Z",
            "slug": "This-is-why-POW-gt-POS-decentralization-is-key",
            "currencies": [
                {
                    "code": "FLUX",
                    "title": "Flux",
                    "slug": "zelcash",
                    "url": "https:\/\/cryptopanic.com\/news\/zelcash\/"
                }
            ],
            "id": 18756205,
            "url": "https:\/\/cryptopanic.com\/news\/18756205\/This-is-why-POW-gt-POS-decentralization-is-key",
            "created_at": "2023-07-10T13:20:41Z",
            "votes": {
                "negative": 0,
                "positive": 0,
                "important": 0,
                "liked": 0,
                "disliked": 0,
                "lol": 0,
                "toxic": 0,
                "saved": 0,
                "comments": 0
            }
        },
        {
            "kind": "news",
            "domain": "@RunOnFlux",
            "source": {
                "title": "Flux Twitter",
                "region": "en",
                "domain": "twitter.com",
                "path": "@runonflux"
            },
            "title": "RT @tsncrypto: Redefining possibilities in disease research! \ud83e\uddec $FLUX is supercharging @foldingathome's mission to combat global diseases. C\u2026",
            "published_at": "2023-07-10T12:34:02Z",
            "slug": "RT-tsncrypto-Redefining-possibilities-in-disease-research-FLUX-is-supercharging-foldingathomes-mission-to-combat-global-diseases-C",
            "currencies": [
                {
                    "code": "FLUX",
                    "title": "Flux",
                    "slug": "zelcash",
                    "url": "https:\/\/cryptopanic.com\/news\/zelcash\/"
                }
            ],
            "id": 18756206,
            "url": "https:\/\/cryptopanic.com\/news\/18756206\/RT-tsncrypto-Redefining-possibilities-in-disease-research-FLUX-is-supercharging-foldingathomes-mission-to-combat-global-diseases-C",
            "created_at": "2023-07-10T12:34:02Z",
            "votes": {
                "negative": 0,
                "positive": 0,
                "important": 0,
                "liked": 0,
                "disliked": 0,
                "lol": 0,
                "toxic": 0,
                "saved": 0,
                "comments": 0
            }
        },
        {
            "kind": "news",
            "domain": "@RunOnFlux",
            "source": {
                "title": "Flux Twitter",
                "region": "en",
                "domain": "twitter.com",
                "path": "@runonflux"
            },
            "title": "RT @Antreas_4: 1\/4:\rWeb 3.0, once just an idea, has emerged as a promising ecosystem. $Flux pioneers this frontier, offering an environment\u2026",
            "published_at": "2023-07-10T11:47:48Z",
            "slug": "RT-Antreas_4-14-Web-30-once-just-an-idea-has-emerged-as-a-promising-ecosystem-Flux-pioneers-this-frontier-offering-an-environment",
            "currencies": [
                {
                    "code": "FLUX",
                    "title": "Flux",
                    "slug": "zelcash",
                    "url": "https:\/\/cryptopanic.com\/news\/zelcash\/"
                }
            ],
            "id": 18756207,
            "url": "https:\/\/cryptopanic.com\/news\/18756207\/RT-Antreas_4-14-Web-30-once-just-an-idea-has-emerged-as-a-promising-ecosystem-Flux-pioneers-this-frontier-offering-an-environment",
            "created_at": "2023-07-10T11:47:48Z",
            "votes": {
                "negative": 0,
                "positive": 0,
                "important": 0,
                "liked": 0,
                "disliked": 0,
                "lol": 0,
                "toxic": 0,
                "saved": 0,
                "comments": 0
            }
        },
        {
            "kind": "news",
            "domain": "@RunOnFlux",
            "source": {
                "title": "Flux Twitter",
                "region": "en",
                "domain": "twitter.com",
                "path": "@runonflux"
            },
            "title": "RT @Smr91Edgar: \ud83e\udd14Worried about data ownership? Take control with #FluxDrive!\n\nSecure your data on the decentralized $Flux Cloud, ensuring\u2026",
            "published_at": "2023-07-10T11:47:31Z",
            "slug": "RT-Smr91Edgar-Worried-about-data-ownership-Take-control-with-FluxDrive-Secure-your-data-on-the-decentralized-Flux-Cloud-ensuring",
            "currencies": [
                {
                    "code": "FLUX",
                    "title": "Flux",
                    "slug": "zelcash",
                    "url": "https:\/\/cryptopanic.com\/news\/zelcash\/"
                }
            ],
            "id": 18756208,
            "url": "https:\/\/cryptopanic.com\/news\/18756208\/RT-Smr91Edgar-Worried-about-data-ownership-Take-control-with-FluxDrive-Secure-your-data-on-the-decentralized-Flux-Cloud-ensuring",
            "created_at": "2023-07-10T11:47:31Z",
            "votes": {
                "negative": 0,
                "positive": 0,
                "important": 0,
                "liked": 0,
                "disliked": 0,
                "lol": 0,
                "toxic": 0,
                "saved": 0,
                "comments": 0
            }
        },
        {
            "kind": "news",
            "domain": "@RunOnFlux",
            "source": {
                "title": "Flux Twitter",
                "region": "en",
                "domain": "twitter.com",
                "path": "@runonflux"
            },
            "title": "RT @DrSpriggan: Where do you host your @streamr nodes to earn $DATA? How about moving it to the decentralized #Flux network? \n\n",
            "published_at": "2023-07-10T11:47:24Z",
            "slug": "RT-DrSpriggan-Where-do-you-host-your-streamr-nodes-to-earn-DATA-How-about-moving-it-to-the-decentralized-Flux-network",
            "currencies": [
                {
                    "code": "FLUX",
                    "title": "Flux",
                    "slug": "zelcash",
                    "url": "https:\/\/cryptopanic.com\/news\/zelcash\/"
                }
            ],
            "id": 18756209,
            "url": "https:\/\/cryptopanic.com\/news\/18756209\/RT-DrSpriggan-Where-do-you-host-your-streamr-nodes-to-earn-DATA-How-about-moving-it-to-the-decentralized-Flux-network",
            "created_at": "2023-07-10T11:47:24Z",
            "votes": {
                "negative": 0,
                "positive": 0,
                "important": 0,
                "liked": 0,
                "disliked": 0,
                "lol": 0,
                "toxic": 0,
                "saved": 0,
                "comments": 0
            }
        },
        {
            "kind": "news",
            "domain": "@RunOnFlux",
            "source": {
                "title": "Flux Twitter",
                "region": "en",
                "domain": "twitter.com",
                "path": "@runonflux"
            },
            "title": "RT @runonflux_labs: Do it! Join the movement! $Flux #Flux",
            "published_at": "2023-07-09T13:39:07Z",
            "slug": "RT-runonflux_labs-Do-it-Join-the-movement-Flux-Flux",
            "currencies": [
                {
                    "code": "FLUX",
                    "title": "Flux",
                    "slug": "zelcash",
                    "url": "https:\/\/cryptopanic.com\/news\/zelcash\/"
                }
            ],
            "id": 18749722,
            "url": "https:\/\/cryptopanic.com\/news\/18749722\/RT-runonflux_labs-Do-it-Join-the-movement-Flux-Flux",
            "created_at": "2023-07-09T13:39:07Z",
            "votes": {
                "negative": 0,
                "positive": 0,
                "important": 0,
                "liked": 0,
                "disliked": 0,
                "lol": 0,
                "toxic": 0,
                "saved": 0,
                "comments": 0
            }
        },
        {
            "kind": "news",
            "domain": "@RunOnFlux",
            "source": {
                "title": "Flux Twitter",
                "region": "en",
                "domain": "twitter.com",
                "path": "@runonflux"
            },
            "title": "RT @ProtectYourBag: Introducing the Octoserver Flux edition. Giving you the most bang for you buck in the new #PoUW landscape led by #Flux\u2026",
            "published_at": "2023-07-09T13:26:50Z",
            "slug": "RT-ProtectYourBag-Introducing-the-Octoserver-Flux-edition-Giving-you-the-most-bang-for-you-buck-in-the-new-PoUW-landscape-led-by-Flux",
            "currencies": [
                {
                    "code": "FLUX",
                    "title": "Flux",
                    "slug": "zelcash",
                    "url": "https:\/\/cryptopanic.com\/news\/zelcash\/"
                }
            ],
            "id": 18749723,
            "url": "https:\/\/cryptopanic.com\/news\/18749723\/RT-ProtectYourBag-Introducing-the-Octoserver-Flux-edition-Giving-you-the-most-bang-for-you-buck-in-the-new-PoUW-landscape-led-by-Flux",
            "created_at": "2023-07-09T13:26:50Z",
            "votes": {
                "negative": 0,
                "positive": 0,
                "important": 0,
                "liked": 0,
                "disliked": 0,
                "lol": 0,
                "toxic": 0,
                "saved": 0,
                "comments": 0
            }
        },
        {
            "kind": "news",
            "domain": "@RunOnFlux",
            "source": {
                "title": "Flux Twitter",
                "region": "en",
                "domain": "twitter.com",
                "path": "@runonflux"
            },
            "title": "RT @AchmadMaulanaN1: @RunOnFlux The Next Generation Of The Internet\n#FutureisFlux $FLUX",
            "published_at": "2023-07-09T13:02:33Z",
            "slug": "RT-AchmadMaulanaN1-RunOnFlux-The-Next-Generation-Of-The-Internet-FutureisFlux-FLUX",
            "currencies": [
                {
                    "code": "FLUX",
                    "title": "Flux",
                    "slug": "zelcash",
                    "url": "https:\/\/cryptopanic.com\/news\/zelcash\/"
                }
            ],
            "id": 18749724,
            "url": "https:\/\/cryptopanic.com\/news\/18749724\/RT-AchmadMaulanaN1-RunOnFlux-The-Next-Generation-Of-The-Internet-FutureisFlux-FLUX",
            "created_at": "2023-07-09T13:02:33Z",
            "votes": {
                "negative": 0,
                "positive": 0,
                "important": 0,
                "liked": 0,
                "disliked": 0,
                "lol": 0,
                "toxic": 0,
                "saved": 0,
                "comments": 0
            }
        },
        {
            "kind": "news",
            "domain": "@RunOnFlux",
            "source": {
                "title": "Flux Twitter",
                "region": "en",
                "domain": "twitter.com",
                "path": "@runonflux"
            },
            "title": "I'm on Threads as @runonflux. Install the app to follow my threads and replies. if anyone w\u2026",
            "published_at": "2023-07-09T12:58:58Z",
            "slug": "Im-on-Threads-as-runonflux-Install-the-app-to-follow-my-threads-and-replies-if-anyone-w",
            "currencies": [
                {
                    "code": "FLUX",
                    "title": "Flux",
                    "slug": "zelcash",
                    "url": "https:\/\/cryptopanic.com\/news\/zelcash\/"
                }
            ],
            "id": 18749725,
            "url": "https:\/\/cryptopanic.com\/news\/18749725\/Im-on-Threads-as-runonflux-Install-the-app-to-follow-my-threads-and-replies-if-anyone-w",
            "created_at": "2023-07-09T12:58:58Z",
            "votes": {
                "negative": 0,
                "positive": 0,
                "important": 0,
                "liked": 0,
                "disliked": 0,
                "lol": 0,
                "toxic": 0,
                "saved": 0,
                "comments": 0
            }
        },
        {
            "kind": "news",
            "domain": "@RunOnFlux",
            "source": {
                "title": "Flux Twitter",
                "region": "en",
                "domain": "twitter.com",
                "path": "@runonflux"
            },
            "title": "I\u2019m less than 2 weeks, the game is about the change. #miningdisrupt #PoUW",
            "published_at": "2023-07-09T01:15:08Z",
            "slug": "Im-less-than-2-weeks-the-game-is-about-the-change-miningdisrupt-PoUW",
            "currencies": [
                {
                    "code": "FLUX",
                    "title": "Flux",
                    "slug": "zelcash",
                    "url": "https:\/\/cryptopanic.com\/news\/zelcash\/"
                }
            ],
            "id": 18745543,
            "url": "https:\/\/cryptopanic.com\/news\/18745543\/Im-less-than-2-weeks-the-game-is-about-the-change-miningdisrupt-PoUW",
            "created_at": "2023-07-09T01:15:08Z",
            "votes": {
                "negative": 0,
                "positive": 0,
                "important": 0,
                "liked": 0,
                "disliked": 0,
                "lol": 0,
                "toxic": 0,
                "saved": 0,
                "comments": 0
            }
        }
    ]
}
