{
    "count": 200,
    "next": "https:\/\/cryptopanic.com\/api\/v1\/posts\/?auth_token=01c356e89ffc1b8eba2127c81fc8c66ee0eace75&kind=news&currencies=TROY&page=2",
    "previous": null,
    "results": [
        {
            "kind": "news",
            "domain": "@TROY_DAO",
            "source": {
                "title": "TROY Twitter",
                "region": "en",
                "domain": "twitter.com",
                "path": "@troy_dao"
            },
            "title": "RT @HiBlockTalks: Top Gainers of the Day! \n\n$TROY +46.20%\n$LEASH +45.1%\n$IGU +33.8%\n$OM +17.5%\n$HIFI +14.30%\n\n@TROY_DAO @Shibtoken @iguvers\u2026",
            "published_at": "2023-07-12T05:49:31Z",
            "slug": "RT-HiBlockTalks-Top-Gainers-of-the-Day-TROY-4620-LEASH-451-IGU-338-OM-175-HIFI-1430-TROY_DAO-Shibtoken-iguvers",
            "currencies": [
                {
                    "code": "TROY",
                    "title": "TROY",
                    "slug": "troy",
                    "url": "https:\/\/cryptopanic.com\/news\/troy\/"
                }
            ],
            "id": 18767488,
            "url": "https:\/\/cryptopanic.com\/news\/18767488\/RT-HiBlockTalks-Top-Gainers-of-the-Day-TROY-4620-LEASH-451-IGU-338-OM-175-HIFI-1430-TROY_DAO-Shibtoken-iguvers",
            "created_at": "2023-07-12T05:49:31Z",
            "votes": {
                "negative": 0,
                "positive": 0,
                "important": 0,
                "liked": 0,
                "disliked": 0,
                "lol": 0,
                "toxic": 0,
                "saved": 0,
                "comments": 0
            }
        },
        {
            "kind": "news",
            "domain": "@TROY_DAO",
            "source": {
                "title": "TROY Twitter",
                "region": "en",
                "domain": "twitter.com",
                "path": "@troy_dao"
            },
            "title": "A rapid-fire gaming question round! \n\nExcited about blockchain and gaming?\n\n\u23f0 How often do you immerse yourself\u2026",
            "published_at": "2023-07-11T09:07:53Z",
            "slug": "A-rapid-fire-gaming-question-round-Excited-about-blockchain-and-gaming-How-often-do-you-immerse-yourself",
            "currencies": [
                {
                    "code": "TROY",
                    "title": "TROY",
                    "slug": "troy",
                    "url": "https:\/\/cryptopanic.com\/news\/troy\/"
                }
            ],
            "id": 18759215,
            "url": "https:\/\/cryptopanic.com\/news\/18759215\/A-rapid-fire-gaming-question-round-Excited-about-blockchain-and-gaming-How-often-do-you-immerse-yourself",
            "created_at": "2023-07-11T09:07:53Z",
            "votes": {
                "negative": 0,
                "positive": 0,
                "important": 0,
                "liked": 0,
                "disliked": 0,
                "lol": 0,
                "toxic": 0,
                "saved": 0,
                "comments": 0
            }
        },
        {
            "kind": "news",
            "domain": "@TROY_DAO",
            "source": {
                "title": "TROY Twitter",
                "region": "en",
                "domain": "twitter.com",
                "path": "@troy_dao"
            },
            "title": "RT @CryptoDiffer: WEEKLY GAINERS LIST\n9 July 2023\n\n7 Days Price Change:\n$XVG +156.9%\n$TROY +95.7%\n$KEKE +78.8%\n$CRPT +49.1%\n$OM +28.9%\n$FIR\u2026",
            "published_at": "2023-07-10T04:33:58Z",
            "slug": "RT-CryptoDiffer-WEEKLY-GAINERS-LIST-9-July-2023-7-Days-Price-Change-XVG-1569-TROY-957-KEKE-788-CRPT-491-OM-289-FIR",
            "currencies": [
                {
                    "code": "TROY",
                    "title": "TROY",
                    "slug": "troy",
                    "url": "https:\/\/cryptopanic.com\/news\/troy\/"
                }
            ],
            "id": 18751636,
            "url": "https:\/\/cryptopanic.com\/news\/18751636\/RT-CryptoDiffer-WEEKLY-GAINERS-LIST-9-July-2023-7-Days-Price-Change-XVG-1569-TROY-957-KEKE-788-CRPT-491-OM-289-FIR",
            "created_at": "2023-07-10T04:33:58Z",
            "votes": {
                "negative": 0,
                "positive": 0,
                "important": 0,
                "liked": 0,
                "disliked": 0,
                "lol": 0,
                "toxic": 0,
                "saved": 0,
                "comments": 0
            }
        },
        {
            "kind": "news",
            "domain": "@TROY_DAO",
            "source": {
                "title": "TROY Twitter",
                "region": "en",
                "domain": "twitter.com",
                "path": "@troy_dao"
            },
            "title": "RT @Crypto_Dep: \ufe0fTOP GAINERS OF THE DAY! \n9 July 2023\n$TROY $ASTRA $POND $OM $LTO $BEL $WAN $HIFI $WING #BABYDOGE",
            "published_at": "2023-07-10T04:33:50Z",
            "slug": "RT-Crypto_Dep-TOP-GAINERS-OF-THE-DAY-9-July-2023-TROY-ASTRA-POND-OM-LTO-BEL-WAN-HIFI-WING-BABYDOGE",
            "currencies": [
                {
                    "code": "TROY",
                    "title": "TROY",
                    "slug": "troy",
                    "url": "https:\/\/cryptopanic.com\/news\/troy\/"
                }
            ],
            "id": 18751637,
            "url": "https:\/\/cryptopanic.com\/news\/18751637\/RT-Crypto_Dep-TOP-GAINERS-OF-THE-DAY-9-July-2023-TROY-ASTRA-POND-OM-LTO-BEL-WAN-HIFI-WING-BABYDOGE",
            "created_at": "2023-07-10T04:33:50Z",
            "votes": {
                "negative": 0,
                "positive": 0,
                "important": 0,
                "liked": 0,
                "disliked": 0,
                "lol": 0,
                "toxic": 0,
                "saved": 0,
                "comments": 0
            }
        },
        {
            "kind": "news",
            "domain": "@TROY_DAO",
            "source": {
                "title": "TROY Twitter",
                "region": "en",
                "domain": "twitter.com",
                "path": "@troy_dao"
            },
            "title": "RT @ixfiexchange:  Top 10 gainers in the last 24 hours on #IXFI\n\n$TROY | $OOKI | $FUN | $QI | $OXT | $DGB | $SCRT | $MBL | $EPX | $PERL\n\n\u2026",
            "published_at": "2023-07-07T03:36:03Z",
            "slug": "RT-ixfiexchange-Top-10-gainers-in-the-last-24-hours-on-IXFI-TROY-OOKI-FUN-QI-OXT-DGB-SCRT-MBL-EPX-PERL",
            "currencies": [
                {
                    "code": "TROY",
                    "title": "TROY",
                    "slug": "troy",
                    "url": "https:\/\/cryptopanic.com\/news\/troy\/"
                }
            ],
            "id": 18735645,
            "url": "https:\/\/cryptopanic.com\/news\/18735645\/RT-ixfiexchange-Top-10-gainers-in-the-last-24-hours-on-IXFI-TROY-OOKI-FUN-QI-OXT-DGB-SCRT-MBL-EPX-PERL",
            "created_at": "2023-07-07T03:36:03Z",
            "votes": {
                "negative": 0,
                "positive": 0,
                "important": 0,
                "liked": 0,
                "disliked": 0,
                "lol": 0,
                "toxic": 0,
                "saved": 0,
                "comments": 0
            }
        },
        {
            "kind": "news",
            "domain": "@TROY_DAO",
            "source": {
                "title": "TROY Twitter",
                "region": "en",
                "domain": "twitter.com",
                "path": "@troy_dao"
            },
            "title": "RT @Crypto_Dep: \ufe0fTOP GAINERS OF THE DAY! \n4 July 2023\n$TROY $OOKI $LAI $LBR $QI $SCRT $DGB $TENET $VIDT $NAKA",
            "published_at": "2023-07-06T10:32:39Z",
            "slug": "RT-Crypto_Dep-TOP-GAINERS-OF-THE-DAY-4-July-2023-TROY-OOKI-LAI-LBR-QI-SCRT-DGB-TENET-VIDT-NAKA",
            "currencies": [
                {
                    "code": "TROY",
                    "title": "TROY",
                    "slug": "troy",
                    "url": "https:\/\/cryptopanic.com\/news\/troy\/"
                }
            ],
            "id": 18735646,
            "url": "https:\/\/cryptopanic.com\/news\/18735646\/RT-Crypto_Dep-TOP-GAINERS-OF-THE-DAY-4-July-2023-TROY-OOKI-LAI-LBR-QI-SCRT-DGB-TENET-VIDT-NAKA",
            "created_at": "2023-07-06T10:32:39Z",
            "votes": {
                "negative": 0,
                "positive": 0,
                "important": 0,
                "liked": 0,
                "disliked": 0,
                "lol": 0,
                "toxic": 0,
                "saved": 0,
                "comments": 0
            }
        },
        {
            "kind": "news",
            "domain": "@TROY_DAO",
            "source": {
                "title": "TROY Twitter",
                "region": "en",
                "domain": "twitter.com",
                "path": "@troy_dao"
            },
            "title": "RT @CryptoDiffer: DAILY GAINERS LIST\n4 July 2023\n\n24 Hours Price Change:\n$TROY +123.1%\n$OOKI +52.8%\n$KEKE +37.8%\n$NCG +35.9%\n$PERL +25.2%\n$\u2026",
            "published_at": "2023-07-05T08:19:00Z",
            "slug": "RT-CryptoDiffer-DAILY-GAINERS-LIST-4-July-2023-24-Hours-Price-Change-TROY-1231-OOKI-528-KEKE-378-NCG-359-PERL-252",
            "currencies": [
                {
                    "code": "TROY",
                    "title": "TROY",
                    "slug": "troy",
                    "url": "https:\/\/cryptopanic.com\/news\/troy\/"
                }
            ],
            "id": 18719028,
            "url": "https:\/\/cryptopanic.com\/news\/18719028\/RT-CryptoDiffer-DAILY-GAINERS-LIST-4-July-2023-24-Hours-Price-Change-TROY-1231-OOKI-528-KEKE-378-NCG-359-PERL-252",
            "created_at": "2023-07-05T08:19:00Z",
            "votes": {
                "negative": 0,
                "positive": 0,
                "important": 0,
                "liked": 0,
                "disliked": 0,
                "lol": 0,
                "toxic": 0,
                "saved": 0,
                "comments": 0
            }
        },
        {
            "kind": "news",
            "domain": "@TROY_DAO",
            "source": {
                "title": "TROY Twitter",
                "region": "en",
                "domain": "twitter.com",
                "path": "@troy_dao"
            },
            "title": "RT @Cryptolaxy: Top-9 PJTs with Trading Volume exceeding their Market Cap\n\nThe infographic shows the percentage of Trading Volume over the\u2026",
            "published_at": "2023-07-05T05:46:24Z",
            "slug": "RT-Cryptolaxy-Top-9-PJTs-with-Trading-Volume-exceeding-their-Market-Cap-The-infographic-shows-the-percentage-of-Trading-Volume-over-the",
            "currencies": [
                {
                    "code": "TROY",
                    "title": "TROY",
                    "slug": "troy",
                    "url": "https:\/\/cryptopanic.com\/news\/troy\/"
                }
            ],
            "id": 18719029,
            "url": "https:\/\/cryptopanic.com\/news\/18719029\/RT-Cryptolaxy-Top-9-PJTs-with-Trading-Volume-exceeding-their-Market-Cap-The-infographic-shows-the-percentage-of-Trading-Volume-over-the",
            "created_at": "2023-07-05T05:46:24Z",
            "votes": {
                "negative": 0,
                "positive": 0,
                "important": 0,
                "liked": 0,
                "disliked": 0,
                "lol": 0,
                "toxic": 0,
                "saved": 0,
                "comments": 0
            }
        },
        {
            "kind": "news",
            "domain": "@TROY_DAO",
            "source": {
                "title": "TROY Twitter",
                "region": "en",
                "domain": "twitter.com",
                "path": "@troy_dao"
            },
            "title": "RT @CryptoCrunchApp: \ud835\udc74.\ud835\udc6a\ud835\udc82\ud835\udc91: $10 \ud835\udc74\ud835\udc8a\ud835\udc8d\ud835\udc8d\ud835\udc8a\ud835\udc90\ud835\udc8f-$100 \ud835\udc74\ud835\udc8a\ud835\udc8d\ud835\udc8d\ud835\udc8a\ud835\udc90\ud835\udc8f\n1\ufe0f\u20e3 $RGT (@RariCapital)\n2\ufe0f\u20e3 $TROY (@TROY_DAO)\n3\ufe0f\u20e3 $OOKI (@OokiTrade)\n4\ufe0f\u20e3 $WNCG (@NineC\u2026",
            "published_at": "2023-07-04T10:40:00Z",
            "slug": "RT-CryptoCrunchApp-MCap-10-Million-100-Million-1-RGT-RariCapital-2-TROY-TROY_DAO-3-OOKI-OokiTrade-4-WNCG-NineC",
            "currencies": [
                {
                    "code": "TROY",
                    "title": "TROY",
                    "slug": "troy",
                    "url": "https:\/\/cryptopanic.com\/news\/troy\/"
                }
            ],
            "id": 18719030,
            "url": "https:\/\/cryptopanic.com\/news\/18719030\/RT-CryptoCrunchApp-MCap-10-Million-100-Million-1-RGT-RariCapital-2-TROY-TROY_DAO-3-OOKI-OokiTrade-4-WNCG-NineC",
            "created_at": "2023-07-04T10:40:00Z",
            "votes": {
                "negative": 0,
                "positive": 0,
                "important": 0,
                "liked": 0,
                "disliked": 0,
                "lol": 0,
                "toxic": 0,
                "saved": 0,
                "comments": 0
            }
        },
        {
            "kind": "news",
            "domain": "@TROY_DAO",
            "source": {
                "title": "TROY Twitter",
                "region": "en",
                "domain": "twitter.com",
                "path": "@troy_dao"
            },
            "title": "Rise and shine, TROY Warriors! \n\nWhat's your gaming goal for the day? \n\n\u2935\ufe0f\u2935\ufe0fShare it with us! \u2026",
            "published_at": "2023-07-04T03:05:25Z",
            "slug": "Rise-and-shine-TROY-Warriors-Whats-your-gaming-goal-for-the-day-Share-it-with-us",
            "currencies": [
                {
                    "code": "TROY",
                    "title": "TROY",
                    "slug": "troy",
                    "url": "https:\/\/cryptopanic.com\/news\/troy\/"
                }
            ],
            "id": 18711980,
            "url": "https:\/\/cryptopanic.com\/news\/18711980\/Rise-and-shine-TROY-Warriors-Whats-your-gaming-goal-for-the-day-Share-it-with-us",
            "created_at": "2023-07-04T03:05:25Z",
            "votes": {
                "negative": 0,
                "positive": 0,
                "important": 0,
                "liked": 0,
                "disliked": 0,
                "lol": 0,
                "toxic": 0,
                "saved": 0,
                "comments": 0
            }
        },
        {
            "kind": "news",
            "domain": "@TROY_DAO",
            "source": {
                "title": "TROY Twitter",
                "region": "en",
                "domain": "twitter.com",
                "path": "@troy_dao"
            },
            "title": "Welcome to our monthly report, where we bring you the latest updates and news from TROY. \n\nWe\u2019re excited to sha\u2026",
            "published_at": "2023-06-30T10:26:32Z",
            "slug": "Welcome-to-our-monthly-report-where-we-bring-you-the-latest-updates-and-news-from-TROY-Were-excited-to-sha",
            "currencies": [
                {
                    "code": "TROY",
                    "title": "TROY",
                    "slug": "troy",
                    "url": "https:\/\/cryptopanic.com\/news\/troy\/"
                }
            ],
            "id": 18695943,
            "url": "https:\/\/cryptopanic.com\/news\/18695943\/Welcome-to-our-monthly-report-where-we-bring-you-the-latest-updates-and-news-from-TROY-Were-excited-to-sha",
            "created_at": "2023-06-30T10:26:32Z",
            "votes": {
                "negative": 0,
                "positive": 0,
                "important": 0,
                "liked": 0,
                "disliked": 0,
                "lol": 0,
                "toxic": 0,
                "saved": 0,
                "comments": 0
            }
        },
        {
            "kind": "news",
            "domain": "@TROY_DAO",
            "source": {
                "title": "TROY Twitter",
                "region": "en",
                "domain": "twitter.com",
                "path": "@troy_dao"
            },
            "title": "#EidMubarak everyone from @TROY_DAO!\n\nWish you good health, happiness and prosperity.",
            "published_at": "2023-06-29T10:36:09Z",
            "slug": "EidMubarak-everyone-from-TROY_DAO-Wish-you-good-health-happiness-and-prosperity",
            "currencies": [
                {
                    "code": "TROY",
                    "title": "TROY",
                    "slug": "troy",
                    "url": "https:\/\/cryptopanic.com\/news\/troy\/"
                }
            ],
            "id": 18688651,
            "url": "https:\/\/cryptopanic.com\/news\/18688651\/EidMubarak-everyone-from-TROY_DAO-Wish-you-good-health-happiness-and-prosperity",
            "created_at": "2023-06-29T10:36:09Z",
            "votes": {
                "negative": 0,
                "positive": 0,
                "important": 0,
                "liked": 0,
                "disliked": 0,
                "lol": 0,
                "toxic": 0,
                "saved": 0,
                "comments": 0
            }
        },
        {
            "kind": "news",
            "domain": "@TROY_DAO",
            "source": {
                "title": "TROY Twitter",
                "region": "en",
                "domain": "twitter.com",
                "path": "@troy_dao"
            },
            "title": "Power up your gaming skills with #TROYWAR community!\n\nShare your game tip or strategy with $TROY community and h\u2026",
            "published_at": "2023-06-27T10:26:54Z",
            "slug": "Power-up-your-gaming-skills-with-TROYWAR-community-Share-your-game-tip-or-strategy-with-TROY-community-and-h",
            "currencies": [
                {
                    "code": "TROY",
                    "title": "TROY",
                    "slug": "troy",
                    "url": "https:\/\/cryptopanic.com\/news\/troy\/"
                }
            ],
            "id": 18672515,
            "url": "https:\/\/cryptopanic.com\/news\/18672515\/Power-up-your-gaming-skills-with-TROYWAR-community-Share-your-game-tip-or-strategy-with-TROY-community-and-h",
            "created_at": "2023-06-27T10:26:54Z",
            "votes": {
                "negative": 0,
                "positive": 0,
                "important": 0,
                "liked": 0,
                "disliked": 0,
                "lol": 0,
                "toxic": 0,
                "saved": 0,
                "comments": 0
            }
        },
        {
            "kind": "news",
            "domain": "@TROY_DAO",
            "source": {
                "title": "TROY Twitter",
                "region": "en",
                "domain": "twitter.com",
                "path": "@troy_dao"
            },
            "title": "\ufe0f Dive into the real-time idle game world of #TROYWAR &amp; develop powerful combat strategies with talent, equipment\u2026",
            "published_at": "2023-06-25T07:22:30Z",
            "slug": "Dive-into-the-real-time-idle-game-world-of-TROYWAR-amp-develop-powerful-combat-strategies-with-talent-equipment",
            "currencies": [
                {
                    "code": "TROY",
                    "title": "TROY",
                    "slug": "troy",
                    "url": "https:\/\/cryptopanic.com\/news\/troy\/"
                }
            ],
            "id": 18651735,
            "url": "https:\/\/cryptopanic.com\/news\/18651735\/Dive-into-the-real-time-idle-game-world-of-TROYWAR-amp-develop-powerful-combat-strategies-with-talent-equipment",
            "created_at": "2023-06-25T07:22:30Z",
            "votes": {
                "negative": 0,
                "positive": 0,
                "important": 0,
                "liked": 0,
                "disliked": 0,
                "lol": 0,
                "toxic": 0,
                "saved": 0,
                "comments": 0
            }
        },
        {
            "kind": "news",
            "domain": "@TROY_DAO",
            "source": {
                "title": "TROY Twitter",
                "region": "en",
                "domain": "twitter.com",
                "path": "@troy_dao"
            },
            "title": "Hey fam! \n\nThank you all for participating in our brilliant campaigns! All rewards have been distributed! \n\n Jo\u2026",
            "published_at": "2023-06-21T04:00:39Z",
            "slug": "Hey-fam-Thank-you-all-for-participating-in-our-brilliant-campaigns-All-rewards-have-been-distributed-Jo",
            "currencies": [
                {
                    "code": "TROY",
                    "title": "TROY",
                    "slug": "troy",
                    "url": "https:\/\/cryptopanic.com\/news\/troy\/"
                }
            ],
            "id": 18623456,
            "url": "https:\/\/cryptopanic.com\/news\/18623456\/Hey-fam-Thank-you-all-for-participating-in-our-brilliant-campaigns-All-rewards-have-been-distributed-Jo",
            "created_at": "2023-06-21T04:00:39Z",
            "votes": {
                "negative": 0,
                "positive": 0,
                "important": 0,
                "liked": 0,
                "disliked": 0,
                "lol": 0,
                "toxic": 0,
                "saved": 0,
                "comments": 0
            }
        },
        {
            "kind": "news",
            "domain": "@TROY_DAO",
            "source": {
                "title": "TROY Twitter",
                "region": "en",
                "domain": "twitter.com",
                "path": "@troy_dao"
            },
            "title": "We are thrilled to announce the successful completion of our campaign with @SaladVentures.\n\nWe had an impressive tu\u2026",
            "published_at": "2023-06-19T08:12:03Z",
            "slug": "We-are-thrilled-to-announce-the-successful-completion-of-our-campaign-with-SaladVentures-We-had-an-impressive-tu",
            "currencies": [
                {
                    "code": "TROY",
                    "title": "TROY",
                    "slug": "troy",
                    "url": "https:\/\/cryptopanic.com\/news\/troy\/"
                }
            ],
            "id": 18607896,
            "url": "https:\/\/cryptopanic.com\/news\/18607896\/We-are-thrilled-to-announce-the-successful-completion-of-our-campaign-with-SaladVentures-We-had-an-impressive-tu",
            "created_at": "2023-06-19T08:12:03Z",
            "votes": {
                "negative": 0,
                "positive": 0,
                "important": 0,
                "liked": 0,
                "disliked": 0,
                "lol": 0,
                "toxic": 0,
                "saved": 0,
                "comments": 0
            }
        },
        {
            "kind": "news",
            "domain": "@TROY_DAO",
            "source": {
                "title": "TROY Twitter",
                "region": "en",
                "domain": "twitter.com",
                "path": "@troy_dao"
            },
            "title": "RT @binance: Increasing the scalability of blockchains often leads to a trade-off of decentralisation or security. \n\nThis is what we call t\u2026",
            "published_at": "2023-06-19T02:36:22Z",
            "slug": "RT-binance-Increasing-the-scalability-of-blockchains-often-leads-to-a-trade-off-of-decentralisation-or-security-This-is-what-we-call-t",
            "currencies": [
                {
                    "code": "TROY",
                    "title": "TROY",
                    "slug": "troy",
                    "url": "https:\/\/cryptopanic.com\/news\/troy\/"
                }
            ],
            "id": 18607897,
            "url": "https:\/\/cryptopanic.com\/news\/18607897\/RT-binance-Increasing-the-scalability-of-blockchains-often-leads-to-a-trade-off-of-decentralisation-or-security-This-is-what-we-call-t",
            "created_at": "2023-06-19T02:36:22Z",
            "votes": {
                "negative": 0,
                "positive": 0,
                "important": 0,
                "liked": 0,
                "disliked": 0,
                "lol": 0,
                "toxic": 0,
                "saved": 0,
                "comments": 0
            }
        },
        {
            "kind": "news",
            "domain": "@TROY_DAO",
            "source": {
                "title": "TROY Twitter",
                "region": "en",
                "domain": "twitter.com",
                "path": "@troy_dao"
            },
            "title": "\ud83e\udee3\ud83e\udee3Share your favorite in-game screenshot with us &amp; Let's appreciate the amazing TROY WAR world together! \n\n\ud83e\udde1Like\n\u2026",
            "published_at": "2023-06-15T07:58:31Z",
            "slug": "Share-your-favorite-in-game-screenshot-with-us-amp-Lets-appreciate-the-amazing-TROY-WAR-world-together-Like",
            "currencies": [
                {
                    "code": "TROY",
                    "title": "TROY",
                    "slug": "troy",
                    "url": "https:\/\/cryptopanic.com\/news\/troy\/"
                }
            ],
            "id": 18582226,
            "url": "https:\/\/cryptopanic.com\/news\/18582226\/Share-your-favorite-in-game-screenshot-with-us-amp-Lets-appreciate-the-amazing-TROY-WAR-world-together-Like",
            "created_at": "2023-06-15T07:58:31Z",
            "votes": {
                "negative": 0,
                "positive": 0,
                "important": 0,
                "liked": 0,
                "disliked": 0,
                "lol": 0,
                "toxic": 0,
                "saved": 0,
                "comments": 0
            }
        },
        {
            "kind": "news",
            "domain": "@TROY_DAO",
            "source": {
                "title": "TROY Twitter",
                "region": "en",
                "domain": "twitter.com",
                "path": "@troy_dao"
            },
            "title": "3 key points that make TROY WAR stand out:\n\nSimple to play: 15 minutes to understand the whole concept\n\nSimple t\u2026",
            "published_at": "2023-06-13T09:47:36Z",
            "slug": "3-key-points-that-make-TROY-WAR-stand-out-Simple-to-play-15-minutes-to-understand-the-whole-concept-Simple-t",
            "currencies": [
                {
                    "code": "TROY",
                    "title": "TROY",
                    "slug": "troy",
                    "url": "https:\/\/cryptopanic.com\/news\/troy\/"
                }
            ],
            "id": 18582227,
            "url": "https:\/\/cryptopanic.com\/news\/18582227\/3-key-points-that-make-TROY-WAR-stand-out-Simple-to-play-15-minutes-to-understand-the-whole-concept-Simple-t",
            "created_at": "2023-06-13T09:47:36Z",
            "votes": {
                "negative": 0,
                "positive": 0,
                "important": 0,
                "liked": 0,
                "disliked": 0,
                "lol": 0,
                "toxic": 0,
                "saved": 0,
                "comments": 0
            }
        },
        {
            "kind": "news",
            "domain": "@TROY_DAO",
            "source": {
                "title": "TROY Twitter",
                "region": "en",
                "domain": "twitter.com",
                "path": "@troy_dao"
            },
            "title": "The updated Ecosystem Roadmap of $TROY is here!!\n\nBIG things are happening with exciting new features, innovati\u2026",
            "published_at": "2023-06-12T02:44:31Z",
            "slug": "The-updated-Ecosystem-Roadmap-of-TROY-is-here-BIG-things-are-happening-with-exciting-new-features-innovati",
            "currencies": [
                {
                    "code": "TROY",
                    "title": "TROY",
                    "slug": "troy",
                    "url": "https:\/\/cryptopanic.com\/news\/troy\/"
                }
            ],
            "id": 18582228,
            "url": "https:\/\/cryptopanic.com\/news\/18582228\/The-updated-Ecosystem-Roadmap-of-TROY-is-here-BIG-things-are-happening-with-exciting-new-features-innovati",
            "created_at": "2023-06-12T02:44:31Z",
            "votes": {
                "negative": 0,
                "positive": 0,
                "important": 0,
                "liked": 0,
                "disliked": 0,
                "lol": 0,
                "toxic": 0,
                "saved": 0,
                "comments": 0
            }
        }
    ]
}
