{
    "count": 200,
    "next": "https:\/\/cryptopanic.com\/api\/v1\/posts\/?auth_token=01c356e89ffc1b8eba2127c81fc8c66ee0eace75&kind=news&currencies=AMB&page=2",
    "previous": null,
    "results": [
        {
            "kind": "news",
            "domain": "@Amb_Ecosystem",
            "source": {
                "title": "Ambrosus Twitter",
                "region": "en",
                "domain": "twitter.com",
                "path": "@amb_ecosystem"
            },
            "title": "RT @panliang8: @HolidayKuyik There is a rumor $AMB is getting delisted from binance. Team and insiders are dumping their tokens",
            "published_at": "2023-07-10T13:25:33Z",
            "slug": "RT-panliang8-HolidayKuyik-There-is-a-rumor-AMB-is-getting-delisted-from-binance-Team-and-insiders-are-dumping-their-tokens",
            "currencies": [
                {
                    "code": "AMB",
                    "title": "AirDAO",
                    "slug": "amber",
                    "url": "https:\/\/cryptopanic.com\/news\/amber\/"
                }
            ],
            "id": 18754351,
            "url": "https:\/\/cryptopanic.com\/news\/18754351\/RT-panliang8-HolidayKuyik-There-is-a-rumor-AMB-is-getting-delisted-from-binance-Team-and-insiders-are-dumping-their-tokens",
            "created_at": "2023-07-10T13:25:33Z",
            "votes": {
                "negative": 0,
                "positive": 0,
                "important": 0,
                "liked": 0,
                "disliked": 0,
                "lol": 0,
                "toxic": 0,
                "saved": 0,
                "comments": 0
            }
        },
        {
            "kind": "news",
            "domain": "@Amb_Ecosystem",
            "source": {
                "title": "Ambrosus Twitter",
                "region": "en",
                "domain": "twitter.com",
                "path": "@amb_ecosystem"
            },
            "title": "RT @qqquint: &gt;tweets this garbage while dumping non stop on their own investors\nkekek\n@airdao_io $AMB",
            "published_at": "2023-07-07T16:00:47Z",
            "slug": "RT-qqquint-gttweets-this-garbage-while-dumping-non-stop-on-their-own-investors-kekek-airdao_io-AMB",
            "currencies": [
                {
                    "code": "AMB",
                    "title": "AirDAO",
                    "slug": "amber",
                    "url": "https:\/\/cryptopanic.com\/news\/amber\/"
                }
            ],
            "id": 18738628,
            "url": "https:\/\/cryptopanic.com\/news\/18738628\/RT-qqquint-gttweets-this-garbage-while-dumping-non-stop-on-their-own-investors-kekek-airdao_io-AMB",
            "created_at": "2023-07-07T16:00:47Z",
            "votes": {
                "negative": 0,
                "positive": 0,
                "important": 0,
                "liked": 0,
                "disliked": 0,
                "lol": 0,
                "toxic": 0,
                "saved": 0,
                "comments": 0
            }
        },
        {
            "kind": "news",
            "domain": "@airdao_io",
            "source": {
                "title": "AirDAO Twitter",
                "region": "en",
                "domain": "twitter.com",
                "path": "@airdao_io"
            },
            "title": "RT @airdaocouncil: A brief update from the AirDAO Council on the current status of the transition, workshops, and more.\n\nRead here: https:\/\u2026",
            "published_at": "2023-06-30T16:33:48Z",
            "slug": "RT-airdaocouncil-A-brief-update-from-the-AirDAO-Council-on-the-current-status-of-the-transition-workshops-and-more-Read-here-https",
            "currencies": [
                {
                    "code": "AMB",
                    "title": "AirDAO",
                    "slug": "amber",
                    "url": "https:\/\/cryptopanic.com\/news\/amber\/"
                }
            ],
            "id": 18691670,
            "url": "https:\/\/cryptopanic.com\/news\/18691670\/RT-airdaocouncil-A-brief-update-from-the-AirDAO-Council-on-the-current-status-of-the-transition-workshops-and-more-Read-here-https",
            "created_at": "2023-06-30T16:33:48Z",
            "votes": {
                "negative": 0,
                "positive": 0,
                "important": 0,
                "liked": 0,
                "disliked": 0,
                "lol": 0,
                "toxic": 0,
                "saved": 0,
                "comments": 0
            }
        },
        {
            "kind": "news",
            "domain": "@airdao_io",
            "source": {
                "title": "AirDAO Twitter",
                "region": "en",
                "domain": "twitter.com",
                "path": "@airdao_io"
            },
            "title": "Join the #AirDAO team at 2 PM UTC today for our Community Town Hall.\n\nThe @AirDAOCouncil will share their latest ne\u2026",
            "published_at": "2023-06-30T12:30:10Z",
            "slug": "Join-the-AirDAO-team-at-2-PM-UTC-today-for-our-Community-Town-Hall-The-AirDAOCouncil-will-share-their-latest-ne",
            "currencies": [
                {
                    "code": "AMB",
                    "title": "AirDAO",
                    "slug": "amber",
                    "url": "https:\/\/cryptopanic.com\/news\/amber\/"
                }
            ],
            "id": 18691671,
            "url": "https:\/\/cryptopanic.com\/news\/18691671\/Join-the-AirDAO-team-at-2-PM-UTC-today-for-our-Community-Town-Hall-The-AirDAOCouncil-will-share-their-latest-ne",
            "created_at": "2023-06-30T12:30:10Z",
            "votes": {
                "negative": 0,
                "positive": 0,
                "important": 0,
                "liked": 0,
                "disliked": 0,
                "lol": 0,
                "toxic": 0,
                "saved": 0,
                "comments": 0
            }
        },
        {
            "kind": "news",
            "domain": "@airdao_io",
            "source": {
                "title": "AirDAO Twitter",
                "region": "en",
                "domain": "twitter.com",
                "path": "@airdao_io"
            },
            "title": "Join the #AirDAO team at 2 PM UTC tomorrow \u2014 Friday, June 30th \u2014 for our Community Town Hall.\n\nThe @AirDAOCouncil w\u2026",
            "published_at": "2023-06-29T12:30:10Z",
            "slug": "Join-the-AirDAO-team-at-2-PM-UTC-tomorrow-Friday-June-30th-for-our-Community-Town-Hall-The-AirDAOCouncil-w",
            "currencies": [
                {
                    "code": "AMB",
                    "title": "AirDAO",
                    "slug": "amber",
                    "url": "https:\/\/cryptopanic.com\/news\/amber\/"
                }
            ],
            "id": 18683628,
            "url": "https:\/\/cryptopanic.com\/news\/18683628\/Join-the-AirDAO-team-at-2-PM-UTC-tomorrow-Friday-June-30th-for-our-Community-Town-Hall-The-AirDAOCouncil-w",
            "created_at": "2023-06-29T12:30:10Z",
            "votes": {
                "negative": 0,
                "positive": 0,
                "important": 0,
                "liked": 0,
                "disliked": 0,
                "lol": 0,
                "toxic": 0,
                "saved": 0,
                "comments": 0
            }
        },
        {
            "kind": "news",
            "domain": "@airdao_io",
            "source": {
                "title": "AirDAO Twitter",
                "region": "en",
                "domain": "twitter.com",
                "path": "@airdao_io"
            },
            "title": "Join @BinanceLATAM and @AirDAOLATAM for an AMA today at 7 PM UTC.\n\nThere are $500 in $AMB prizes for participants t\u2026",
            "published_at": "2023-06-28T09:00:53Z",
            "slug": "Join-BinanceLATAM-and-AirDAOLATAM-for-an-AMA-today-at-7-PM-UTC-There-are-500-in-AMB-prizes-for-participants-t",
            "currencies": [
                {
                    "code": "AMB",
                    "title": "AirDAO",
                    "slug": "amber",
                    "url": "https:\/\/cryptopanic.com\/news\/amber\/"
                }
            ],
            "id": 18675568,
            "url": "https:\/\/cryptopanic.com\/news\/18675568\/Join-BinanceLATAM-and-AirDAOLATAM-for-an-AMA-today-at-7-PM-UTC-There-are-500-in-AMB-prizes-for-participants-t",
            "created_at": "2023-06-28T09:00:53Z",
            "votes": {
                "negative": 0,
                "positive": 0,
                "important": 0,
                "liked": 0,
                "disliked": 0,
                "lol": 0,
                "toxic": 0,
                "saved": 0,
                "comments": 0
            }
        },
        {
            "kind": "news",
            "domain": "@airdao_io",
            "source": {
                "title": "AirDAO Twitter",
                "region": "en",
                "domain": "twitter.com",
                "path": "@airdao_io"
            },
            "title": "RT @airdao_io: The @AirDAOCouncil has created a proposal on our DAO structure and voting system and is now inviting the #AirDAO community t\u2026",
            "published_at": "2023-06-24T11:33:19Z",
            "slug": "RT-airdao_io-The-AirDAOCouncil-has-created-a-proposal-on-our-DAO-structure-and-voting-system-and-is-now-inviting-the-AirDAO-community-t",
            "currencies": [
                {
                    "code": "AMB",
                    "title": "AirDAO",
                    "slug": "amber",
                    "url": "https:\/\/cryptopanic.com\/news\/amber\/"
                }
            ],
            "id": 18649082,
            "url": "https:\/\/cryptopanic.com\/news\/18649082\/RT-airdao_io-The-AirDAOCouncil-has-created-a-proposal-on-our-DAO-structure-and-voting-system-and-is-now-inviting-the-AirDAO-community-t",
            "created_at": "2023-06-24T11:33:19Z",
            "votes": {
                "negative": 0,
                "positive": 0,
                "important": 0,
                "liked": 0,
                "disliked": 0,
                "lol": 0,
                "toxic": 0,
                "saved": 0,
                "comments": 0
            }
        },
        {
            "kind": "news",
            "domain": "@airdao_io",
            "source": {
                "title": "AirDAO Twitter",
                "region": "en",
                "domain": "twitter.com",
                "path": "@airdao_io"
            },
            "title": "The @AirDAOCouncil has created a proposal on our DAO structure and voting system and is now inviting the #AirDAO co\u2026",
            "published_at": "2023-06-23T18:42:17Z",
            "slug": "The-AirDAOCouncil-has-created-a-proposal-on-our-DAO-structure-and-voting-system-and-is-now-inviting-the-AirDAO-co",
            "currencies": [
                {
                    "code": "AMB",
                    "title": "AirDAO",
                    "slug": "amber",
                    "url": "https:\/\/cryptopanic.com\/news\/amber\/"
                }
            ],
            "id": 18642758,
            "url": "https:\/\/cryptopanic.com\/news\/18642758\/The-AirDAOCouncil-has-created-a-proposal-on-our-DAO-structure-and-voting-system-and-is-now-inviting-the-AirDAO-co",
            "created_at": "2023-06-23T18:42:17Z",
            "votes": {
                "negative": 0,
                "positive": 0,
                "important": 0,
                "liked": 0,
                "disliked": 0,
                "lol": 0,
                "toxic": 0,
                "saved": 0,
                "comments": 0
            }
        },
        {
            "kind": "news",
            "domain": "@airdao_io",
            "source": {
                "title": "AirDAO Twitter",
                "region": "en",
                "domain": "twitter.com",
                "path": "@airdao_io"
            },
            "title": "Join the #AirDAO team at 2 PM UTC today for our Community Town Hall.\n\nThe @AirDAOCouncil will join to share their l\u2026",
            "published_at": "2023-06-23T12:02:07Z",
            "slug": "Join-the-AirDAO-team-at-2-PM-UTC-today-for-our-Community-Town-Hall-The-AirDAOCouncil-will-join-to-share-their-l",
            "currencies": [
                {
                    "code": "AMB",
                    "title": "AirDAO",
                    "slug": "amber",
                    "url": "https:\/\/cryptopanic.com\/news\/amber\/"
                }
            ],
            "id": 18642759,
            "url": "https:\/\/cryptopanic.com\/news\/18642759\/Join-the-AirDAO-team-at-2-PM-UTC-today-for-our-Community-Town-Hall-The-AirDAOCouncil-will-join-to-share-their-l",
            "created_at": "2023-06-23T12:02:07Z",
            "votes": {
                "negative": 0,
                "positive": 0,
                "important": 0,
                "liked": 0,
                "disliked": 0,
                "lol": 0,
                "toxic": 0,
                "saved": 0,
                "comments": 0
            }
        },
        {
            "kind": "news",
            "domain": "@airdao_io",
            "source": {
                "title": "AirDAO Twitter",
                "region": "en",
                "domain": "twitter.com",
                "path": "@airdao_io"
            },
            "title": "Join the #AirDAO team at 2 PM UTC tomorrow \u2014 Friday, June 23rd \u2014 for our Community Town Hall.\n\nThe @AirDAOCouncil w\u2026",
            "published_at": "2023-06-22T16:03:31Z",
            "slug": "Join-the-AirDAO-team-at-2-PM-UTC-tomorrow-Friday-June-23rd-for-our-Community-Town-Hall-The-AirDAOCouncil-w",
            "currencies": [
                {
                    "code": "AMB",
                    "title": "AirDAO",
                    "slug": "amber",
                    "url": "https:\/\/cryptopanic.com\/news\/amber\/"
                }
            ],
            "id": 18634909,
            "url": "https:\/\/cryptopanic.com\/news\/18634909\/Join-the-AirDAO-team-at-2-PM-UTC-tomorrow-Friday-June-23rd-for-our-Community-Town-Hall-The-AirDAOCouncil-w",
            "created_at": "2023-06-22T16:03:31Z",
            "votes": {
                "negative": 0,
                "positive": 0,
                "important": 0,
                "liked": 0,
                "disliked": 0,
                "lol": 0,
                "toxic": 0,
                "saved": 0,
                "comments": 0
            }
        },
        {
            "kind": "news",
            "domain": "@airdao_io",
            "source": {
                "title": "AirDAO Twitter",
                "region": "en",
                "domain": "twitter.com",
                "path": "@airdao_io"
            },
            "title": "Join the #AirDAO team at 2 PM UTC today for our Community Town Hall.\n\nThe @AirDAOCouncil will join to share their l\u2026",
            "published_at": "2023-06-16T12:02:08Z",
            "slug": "Join-the-AirDAO-team-at-2-PM-UTC-today-for-our-Community-Town-Hall-The-AirDAOCouncil-will-join-to-share-their-l",
            "currencies": [
                {
                    "code": "AMB",
                    "title": "AirDAO",
                    "slug": "amber",
                    "url": "https:\/\/cryptopanic.com\/news\/amber\/"
                }
            ],
            "id": 18594082,
            "url": "https:\/\/cryptopanic.com\/news\/18594082\/Join-the-AirDAO-team-at-2-PM-UTC-today-for-our-Community-Town-Hall-The-AirDAOCouncil-will-join-to-share-their-l",
            "created_at": "2023-06-16T12:02:08Z",
            "votes": {
                "negative": 0,
                "positive": 0,
                "important": 0,
                "liked": 0,
                "disliked": 0,
                "lol": 0,
                "toxic": 0,
                "saved": 0,
                "comments": 0
            }
        },
        {
            "kind": "news",
            "domain": "@airdao_io",
            "source": {
                "title": "AirDAO Twitter",
                "region": "en",
                "domain": "twitter.com",
                "path": "@airdao_io"
            },
            "title": "Join the #AirDAO team at 2 PM UTC tomorrow \u2014 Friday, June 16th \u2014 for our Community Town Hall.\n\nThe @AirDAOCouncil w\u2026",
            "published_at": "2023-06-15T15:02:58Z",
            "slug": "Join-the-AirDAO-team-at-2-PM-UTC-tomorrow-Friday-June-16th-for-our-Community-Town-Hall-The-AirDAOCouncil-w",
            "currencies": [
                {
                    "code": "AMB",
                    "title": "AirDAO",
                    "slug": "amber",
                    "url": "https:\/\/cryptopanic.com\/news\/amber\/"
                }
            ],
            "id": 18585018,
            "url": "https:\/\/cryptopanic.com\/news\/18585018\/Join-the-AirDAO-team-at-2-PM-UTC-tomorrow-Friday-June-16th-for-our-Community-Town-Hall-The-AirDAOCouncil-w",
            "created_at": "2023-06-15T15:02:58Z",
            "votes": {
                "negative": 0,
                "positive": 0,
                "important": 0,
                "liked": 0,
                "disliked": 0,
                "lol": 0,
                "toxic": 0,
                "saved": 0,
                "comments": 0
            }
        },
        {
            "kind": "news",
            "domain": "@airdao_io",
            "source": {
                "title": "AirDAO Twitter",
                "region": "en",
                "domain": "twitter.com",
                "path": "@airdao_io"
            },
            "title": "Want to learn more about our new community-led governance? \n\nJoin @AirDAOTurkiye and @AirDAOCouncil member Seth Duo\u2026",
            "published_at": "2023-06-15T14:30:12Z",
            "slug": "Want-to-learn-more-about-our-new-community-led-governance-Join-AirDAOTurkiye-and-AirDAOCouncil-member-Seth-Duo",
            "currencies": [
                {
                    "code": "AMB",
                    "title": "AirDAO",
                    "slug": "amber",
                    "url": "https:\/\/cryptopanic.com\/news\/amber\/"
                }
            ],
            "id": 18585019,
            "url": "https:\/\/cryptopanic.com\/news\/18585019\/Want-to-learn-more-about-our-new-community-led-governance-Join-AirDAOTurkiye-and-AirDAOCouncil-member-Seth-Duo",
            "created_at": "2023-06-15T14:30:12Z",
            "votes": {
                "negative": 0,
                "positive": 0,
                "important": 0,
                "liked": 0,
                "disliked": 0,
                "lol": 0,
                "toxic": 0,
                "saved": 0,
                "comments": 0
            }
        },
        {
            "kind": "news",
            "domain": "@airdao_io",
            "source": {
                "title": "AirDAO Twitter",
                "region": "en",
                "domain": "twitter.com",
                "path": "@airdao_io"
            },
            "title": "Join AirDAO Council members Seth and Sophie at 7 PM UTC today for an AirSpace AMA.\n\nThey will discuss the\u2026",
            "published_at": "2023-06-10T12:01:06Z",
            "slug": "Join-AirDAO-Council-members-Seth-and-Sophie-at-7-PM-UTC-today-for-an-AirSpace-AMA-They-will-discuss-the",
            "currencies": [
                {
                    "code": "AMB",
                    "title": "AirDAO",
                    "slug": "amber",
                    "url": "https:\/\/cryptopanic.com\/news\/amber\/"
                }
            ],
            "id": 18550156,
            "url": "https:\/\/cryptopanic.com\/news\/18550156\/Join-AirDAO-Council-members-Seth-and-Sophie-at-7-PM-UTC-today-for-an-AirSpace-AMA-They-will-discuss-the",
            "created_at": "2023-06-10T12:01:06Z",
            "votes": {
                "negative": 0,
                "positive": 0,
                "important": 0,
                "liked": 0,
                "disliked": 0,
                "lol": 0,
                "toxic": 0,
                "saved": 0,
                "comments": 0
            }
        },
        {
            "kind": "news",
            "domain": "@airdao_io",
            "source": {
                "title": "AirDAO Twitter",
                "region": "en",
                "domain": "twitter.com",
                "path": "@airdao_io"
            },
            "title": "Join the #AirDAO team at 2 PM UTC today for our Community Town Hall.\n\nThe AirDAO Council will join the team to shar\u2026",
            "published_at": "2023-06-09T12:01:58Z",
            "slug": "Join-the-AirDAO-team-at-2-PM-UTC-today-for-our-Community-Town-Hall-The-AirDAO-Council-will-join-the-team-to-shar",
            "currencies": [
                {
                    "code": "AMB",
                    "title": "AirDAO",
                    "slug": "amber",
                    "url": "https:\/\/cryptopanic.com\/news\/amber\/"
                }
            ],
            "id": 18543540,
            "url": "https:\/\/cryptopanic.com\/news\/18543540\/Join-the-AirDAO-team-at-2-PM-UTC-today-for-our-Community-Town-Hall-The-AirDAO-Council-will-join-the-team-to-shar",
            "created_at": "2023-06-09T12:01:58Z",
            "votes": {
                "negative": 0,
                "positive": 0,
                "important": 0,
                "liked": 0,
                "disliked": 0,
                "lol": 0,
                "toxic": 0,
                "saved": 0,
                "comments": 0
            }
        },
        {
            "kind": "news",
            "domain": "@airdao_io",
            "source": {
                "title": "AirDAO Twitter",
                "region": "en",
                "domain": "twitter.com",
                "path": "@airdao_io"
            },
            "title": "Join AirDAO Council members Seth and Sophie tomorrow for an AirSpace about the Council and our transition to FlatDA\u2026",
            "published_at": "2023-06-09T11:09:11Z",
            "slug": "Join-AirDAO-Council-members-Seth-and-Sophie-tomorrow-for-an-AirSpace-about-the-Council-and-our-transition-to-FlatDA",
            "currencies": [
                {
                    "code": "AMB",
                    "title": "AirDAO",
                    "slug": "amber",
                    "url": "https:\/\/cryptopanic.com\/news\/amber\/"
                }
            ],
            "id": 18543541,
            "url": "https:\/\/cryptopanic.com\/news\/18543541\/Join-AirDAO-Council-members-Seth-and-Sophie-tomorrow-for-an-AirSpace-about-the-Council-and-our-transition-to-FlatDA",
            "created_at": "2023-06-09T11:09:11Z",
            "votes": {
                "negative": 0,
                "positive": 0,
                "important": 0,
                "liked": 0,
                "disliked": 0,
                "lol": 0,
                "toxic": 0,
                "saved": 0,
                "comments": 0
            }
        },
        {
            "kind": "news",
            "domain": "@airdao_io",
            "source": {
                "title": "AirDAO Twitter",
                "region": "en",
                "domain": "twitter.com",
                "path": "@airdao_io"
            },
            "title": "The #AirDAO Council will join Crypto Miami for an AMA at 3 PM UTC today. \n\nTake part and learn about the Council, o\u2026",
            "published_at": "2023-06-08T14:03:07Z",
            "slug": "The-AirDAO-Council-will-join-Crypto-Miami-for-an-AMA-at-3-PM-UTC-today-Take-part-and-learn-about-the-Council-o",
            "currencies": [
                {
                    "code": "AMB",
                    "title": "AirDAO",
                    "slug": "amber",
                    "url": "https:\/\/cryptopanic.com\/news\/amber\/"
                }
            ],
            "id": 18535020,
            "url": "https:\/\/cryptopanic.com\/news\/18535020\/The-AirDAO-Council-will-join-Crypto-Miami-for-an-AMA-at-3-PM-UTC-today-Take-part-and-learn-about-the-Council-o",
            "created_at": "2023-06-08T14:03:07Z",
            "votes": {
                "negative": 0,
                "positive": 0,
                "important": 0,
                "liked": 0,
                "disliked": 0,
                "lol": 0,
                "toxic": 0,
                "saved": 0,
                "comments": 0
            }
        },
        {
            "kind": "news",
            "domain": "@airdao_io",
            "source": {
                "title": "AirDAO Twitter",
                "region": "en",
                "domain": "twitter.com",
                "path": "@airdao_io"
            },
            "title": "Join the AirDAO team at 2 PM UTC tomorrow \u2014 Friday, June 9th \u2014 for our Town Hall.\n\nThe AirDAO Council will join the\u2026",
            "published_at": "2023-06-08T12:01:33Z",
            "slug": "Join-the-AirDAO-team-at-2-PM-UTC-tomorrow-Friday-June-9th-for-our-Town-Hall-The-AirDAO-Council-will-join-the",
            "currencies": [
                {
                    "code": "AMB",
                    "title": "AirDAO",
                    "slug": "amber",
                    "url": "https:\/\/cryptopanic.com\/news\/amber\/"
                }
            ],
            "id": 18535021,
            "url": "https:\/\/cryptopanic.com\/news\/18535021\/Join-the-AirDAO-team-at-2-PM-UTC-tomorrow-Friday-June-9th-for-our-Town-Hall-The-AirDAO-Council-will-join-the",
            "created_at": "2023-06-08T12:01:33Z",
            "votes": {
                "negative": 0,
                "positive": 0,
                "important": 0,
                "liked": 0,
                "disliked": 0,
                "lol": 0,
                "toxic": 0,
                "saved": 0,
                "comments": 0
            }
        },
        {
            "kind": "news",
            "domain": "@airdao_io",
            "source": {
                "title": "AirDAO Twitter",
                "region": "en",
                "domain": "twitter.com",
                "path": "@airdao_io"
            },
            "title": "RT @DwfLabs: 1\/12\n@airdao_io Breezes Through Council Elections As Part Of Decentralization Transition",
            "published_at": "2023-06-08T07:39:23Z",
            "slug": "RT-DwfLabs-112-airdao_io-Breezes-Through-Council-Elections-As-Part-Of-Decentralization-Transition",
            "currencies": [
                {
                    "code": "AMB",
                    "title": "AirDAO",
                    "slug": "amber",
                    "url": "https:\/\/cryptopanic.com\/news\/amber\/"
                }
            ],
            "id": 18535022,
            "url": "https:\/\/cryptopanic.com\/news\/18535022\/RT-DwfLabs-112-airdao_io-Breezes-Through-Council-Elections-As-Part-Of-Decentralization-Transition",
            "created_at": "2023-06-08T07:39:23Z",
            "votes": {
                "negative": 0,
                "positive": 0,
                "important": 0,
                "liked": 0,
                "disliked": 0,
                "lol": 0,
                "toxic": 0,
                "saved": 0,
                "comments": 0
            }
        },
        {
            "kind": "news",
            "domain": "@airdao_io",
            "source": {
                "title": "AirDAO Twitter",
                "region": "en",
                "domain": "twitter.com",
                "path": "@airdao_io"
            },
            "title": "The AirDAO Council and operations team members will participate in a series of AMAs to educate the community on our\u2026",
            "published_at": "2023-06-06T15:05:16Z",
            "slug": "The-AirDAO-Council-and-operations-team-members-will-participate-in-a-series-of-AMAs-to-educate-the-community-on-our",
            "currencies": [
                {
                    "code": "AMB",
                    "title": "AirDAO",
                    "slug": "amber",
                    "url": "https:\/\/cryptopanic.com\/news\/amber\/"
                }
            ],
            "id": 18517781,
            "url": "https:\/\/cryptopanic.com\/news\/18517781\/The-AirDAO-Council-and-operations-team-members-will-participate-in-a-series-of-AMAs-to-educate-the-community-on-our",
            "created_at": "2023-06-06T15:05:16Z",
            "votes": {
                "negative": 0,
                "positive": 0,
                "important": 0,
                "liked": 0,
                "disliked": 0,
                "lol": 0,
                "toxic": 0,
                "saved": 0,
                "comments": 0
            }
        }
    ]
}
