{
    "count": 200,
    "next": "https:\/\/cryptopanic.com\/api\/v1\/posts\/?auth_token=01c356e89ffc1b8eba2127c81fc8c66ee0eace75&kind=news&currencies=LAZIO&page=2",
    "previous": null,
    "results": [
        {
            "kind": "news",
            "domain": "@OfficialSSLazio",
            "source": {
                "title": "Lazio Fan Token Twitter",
                "region": "en",
                "domain": "twitter.com",
                "path": "@officialsslazio"
            },
            "title": " Home and Away Kits 23\/24 our \ud835\udc01\ud835\udc00\ud835\udc02\ud835\udc0a\ud835\udc12\ud835\udc13\ud835\udc00\ud835\udc06\ud835\udc04\n\n \ud83c\uddee\ud83c\uddf9 50 Buy now \ufe0f",
            "published_at": "2023-07-08T18:00:00Z",
            "slug": "Home-and-Away-Kits-2324-our-BACKSTAGE-50-Buy-now",
            "currencies": [
                {
                    "code": "LAZIO",
                    "title": "Lazio Fan Token",
                    "slug": "lazio-fan-token",
                    "url": "https:\/\/cryptopanic.com\/news\/lazio-fan-token\/"
                }
            ],
            "id": 18746028,
            "url": "https:\/\/cryptopanic.com\/news\/18746028\/Home-and-Away-Kits-2324-our-BACKSTAGE-50-Buy-now",
            "created_at": "2023-07-08T18:00:00Z",
            "votes": {
                "negative": 0,
                "positive": 0,
                "important": 0,
                "liked": 0,
                "disliked": 0,
                "lol": 0,
                "toxic": 0,
                "saved": 0,
                "comments": 0
            }
        },
        {
            "kind": "news",
            "domain": "@OfficialSSLazio",
            "source": {
                "title": "Lazio Fan Token Twitter",
                "region": "en",
                "domain": "twitter.com",
                "path": "@officialsslazio"
            },
            "title": "\ud835\udfcf\ud835\udfd7\ud835\udfd5\ud835\udfd1\/\ud835\udfd5\ud835\udfd2  \ud835\udfd0\ud835\udfce\ud835\udfd0\ud835\udfd1\/\ud835\udfd0\ud835\udfd2\n\nOur new Away all-navy Kit! A brave jersey to remember 50th \nScudetto's anniversary through tric\u2026",
            "published_at": "2023-07-07T15:00:04Z",
            "slug": "197374-202324-Our-new-Away-all-navy-Kit-A-brave-jersey-to-remember-50th-Scudettos-anniversary-through-tric",
            "currencies": [
                {
                    "code": "LAZIO",
                    "title": "Lazio Fan Token",
                    "slug": "lazio-fan-token",
                    "url": "https:\/\/cryptopanic.com\/news\/lazio-fan-token\/"
                }
            ],
            "id": 18740995,
            "url": "https:\/\/cryptopanic.com\/news\/18740995\/197374-202324-Our-new-Away-all-navy-Kit-A-brave-jersey-to-remember-50th-Scudettos-anniversary-through-tric",
            "created_at": "2023-07-07T15:00:04Z",
            "votes": {
                "negative": 0,
                "positive": 0,
                "important": 0,
                "liked": 0,
                "disliked": 0,
                "lol": 0,
                "toxic": 0,
                "saved": 0,
                "comments": 0
            }
        },
        {
            "kind": "news",
            "domain": "@OfficialSSLazio",
            "source": {
                "title": "Lazio Fan Token Twitter",
                "region": "en",
                "domain": "twitter.com",
                "path": "@officialsslazio"
            },
            "title": "\ud835\udfcf\ud835\udfd7\ud835\udfd5\ud835\udfd1\/\ud835\udfd5\ud835\udfd2  \ud835\udfd0\ud835\udfce\ud835\udfd0\ud835\udfd1\/\ud835\udfd0\ud835\udfd2\n\n 23-24 Home Kit\n\n\ud83c\uddee\ud83c\uddf9 5\u20e30\u20e3 Buy now \ufe0f \n\n#MizunoFootball #ReachBeyond",
            "published_at": "2023-07-07T13:08:15Z",
            "slug": "197374-202324-23-24-Home-Kit-50-Buy-now-MizunoFootball-ReachBeyond",
            "currencies": [
                {
                    "code": "LAZIO",
                    "title": "Lazio Fan Token",
                    "slug": "lazio-fan-token",
                    "url": "https:\/\/cryptopanic.com\/news\/lazio-fan-token\/"
                }
            ],
            "id": 18740996,
            "url": "https:\/\/cryptopanic.com\/news\/18740996\/197374-202324-23-24-Home-Kit-50-Buy-now-MizunoFootball-ReachBeyond",
            "created_at": "2023-07-07T13:08:15Z",
            "votes": {
                "negative": 0,
                "positive": 0,
                "important": 0,
                "liked": 0,
                "disliked": 0,
                "lol": 0,
                "toxic": 0,
                "saved": 0,
                "comments": 0
            }
        },
        {
            "kind": "news",
            "domain": "@OfficialSSLazio",
            "source": {
                "title": "Lazio Fan Token Twitter",
                "region": "en",
                "domain": "twitter.com",
                "path": "@officialsslazio"
            },
            "title": "\ud835\udfcf\ud835\udfd7\ud835\udfd5\ud835\udfd1\/\ud835\udfd5\ud835\udfd2  \ud835\udfd0\ud835\udfce\ud835\udfd0\ud835\udfd1\/\ud835\udfd0\ud835\udfd2\n\nOur new Home Kit inspired by 73-74\u2019s Jersey!\n\n\ud83c\uddee\ud83c\uddf9 5\u20e30\u20e3 Available now \ufe0f",
            "published_at": "2023-07-07T11:00:01Z",
            "slug": "197374-202324-Our-new-Home-Kit-inspired-by-73-74s-Jersey-50-Available-now",
            "currencies": [
                {
                    "code": "LAZIO",
                    "title": "Lazio Fan Token",
                    "slug": "lazio-fan-token",
                    "url": "https:\/\/cryptopanic.com\/news\/lazio-fan-token\/"
                }
            ],
            "id": 18740997,
            "url": "https:\/\/cryptopanic.com\/news\/18740997\/197374-202324-Our-new-Home-Kit-inspired-by-73-74s-Jersey-50-Available-now",
            "created_at": "2023-07-07T11:00:01Z",
            "votes": {
                "negative": 0,
                "positive": 0,
                "important": 0,
                "liked": 0,
                "disliked": 0,
                "lol": 0,
                "toxic": 0,
                "saved": 0,
                "comments": 0
            }
        },
        {
            "kind": "news",
            "domain": "@OfficialSSLazio",
            "source": {
                "title": "Lazio Fan Token Twitter",
                "region": "en",
                "domain": "twitter.com",
                "path": "@officialsslazio"
            },
            "title": "\ud835\udfcf\ud835\udfd7\ud835\udfd5\ud835\udfd1\/\ud835\udfd5\ud835\udfd2  \ud835\udfd0\ud835\udfce\ud835\udfd0\ud835\udfd1\/\ud835\udfd0\ud835\udfd2\n\nIntroducing our new 23-24 Home &amp; Away Kits\ncelebrating the 50th Scudetto's anniversary!\n\n\ud83c\uddee\ud83c\uddf9 5\u20e3\u2026",
            "published_at": "2023-07-07T10:00:01Z",
            "slug": "197374-202324-Introducing-our-new-23-24-Home-amp-Away-Kits-celebrating-the-50th-Scudettos-anniversary-5",
            "currencies": [
                {
                    "code": "LAZIO",
                    "title": "Lazio Fan Token",
                    "slug": "lazio-fan-token",
                    "url": "https:\/\/cryptopanic.com\/news\/lazio-fan-token\/"
                }
            ],
            "id": 18740998,
            "url": "https:\/\/cryptopanic.com\/news\/18740998\/197374-202324-Introducing-our-new-23-24-Home-amp-Away-Kits-celebrating-the-50th-Scudettos-anniversary-5",
            "created_at": "2023-07-07T10:00:01Z",
            "votes": {
                "negative": 0,
                "positive": 0,
                "important": 0,
                "liked": 0,
                "disliked": 0,
                "lol": 0,
                "toxic": 0,
                "saved": 0,
                "comments": 0
            }
        },
        {
            "kind": "news",
            "domain": "@OfficialSSLazio",
            "source": {
                "title": "Lazio Fan Token Twitter",
                "region": "en",
                "domain": "twitter.com",
                "path": "@officialsslazio"
            },
            "title": " Our new Home &amp; Away Kits \n1973\/74  2023\/24\n Friday, July 7th at 12pm",
            "published_at": "2023-07-05T15:00:01Z",
            "slug": "Our-new-Home-amp-Away-Kits-197374-202324-Friday-July-7th-at-12pm",
            "currencies": [
                {
                    "code": "LAZIO",
                    "title": "Lazio Fan Token",
                    "slug": "lazio-fan-token",
                    "url": "https:\/\/cryptopanic.com\/news\/lazio-fan-token\/"
                }
            ],
            "id": 18724986,
            "url": "https:\/\/cryptopanic.com\/news\/18724986\/Our-new-Home-amp-Away-Kits-197374-202324-Friday-July-7th-at-12pm",
            "created_at": "2023-07-05T15:00:01Z",
            "votes": {
                "negative": 0,
                "positive": 0,
                "important": 0,
                "liked": 0,
                "disliked": 0,
                "lol": 0,
                "toxic": 0,
                "saved": 0,
                "comments": 0
            }
        },
        {
            "kind": "news",
            "domain": "@OfficialSSLazio",
            "source": {
                "title": "Lazio Fan Token Twitter",
                "region": "en",
                "domain": "twitter.com",
                "path": "@officialsslazio"
            },
            "title": "Facendo zapping\u2026  \n\n@russellcrowe | @altrogiornorai1",
            "published_at": "2023-06-15T17:47:32Z",
            "slug": "Facendo-zapping-russellcrowe-altrogiornorai1",
            "currencies": [
                {
                    "code": "LAZIO",
                    "title": "Lazio Fan Token",
                    "slug": "lazio-fan-token",
                    "url": "https:\/\/cryptopanic.com\/news\/lazio-fan-token\/"
                }
            ],
            "id": 18588101,
            "url": "https:\/\/cryptopanic.com\/news\/18588101\/Facendo-zapping-russellcrowe-altrogiornorai1",
            "created_at": "2023-06-15T17:47:32Z",
            "votes": {
                "negative": 0,
                "positive": 0,
                "important": 0,
                "liked": 0,
                "disliked": 0,
                "lol": 0,
                "toxic": 0,
                "saved": 0,
                "comments": 0
            }
        },
        {
            "kind": "news",
            "domain": "@OfficialSSLazio",
            "source": {
                "title": "Lazio Fan Token Twitter",
                "region": "en",
                "domain": "twitter.com",
                "path": "@officialsslazio"
            },
            "title": "\ufe0f Gimme five!\n\n#EmpoliLazio | #CMonEagles \ud83e\udd85",
            "published_at": "2023-06-03T21:43:43Z",
            "slug": "Gimme-five-EmpoliLazio-CMonEagles",
            "currencies": [
                {
                    "code": "LAZIO",
                    "title": "Lazio Fan Token",
                    "slug": "lazio-fan-token",
                    "url": "https:\/\/cryptopanic.com\/news\/lazio-fan-token\/"
                }
            ],
            "id": 18499564,
            "url": "https:\/\/cryptopanic.com\/news\/18499564\/Gimme-five-EmpoliLazio-CMonEagles",
            "created_at": "2023-06-03T21:43:43Z",
            "votes": {
                "negative": 0,
                "positive": 0,
                "important": 0,
                "liked": 0,
                "disliked": 0,
                "lol": 0,
                "toxic": 0,
                "saved": 0,
                "comments": 0
            }
        },
        {
            "kind": "news",
            "domain": "@OfficialSSLazio",
            "source": {
                "title": "Lazio Fan Token Twitter",
                "region": "en",
                "domain": "twitter.com",
                "path": "@officialsslazio"
            },
            "title": "\ud83e\udd29 \ud835\udddc\ud835\ude03\ud835\uddee\ud835\uddfb \ud835\udde3\ud835\uddff\ud835\uddfc\ud835\ude03\ud835\uddf2\ud835\uddf1\ud835\uddf2\ud835\uddf9\nThe Superhero with the Golden Glove\n\n#CMonEagles \ud83e\udd85",
            "published_at": "2023-06-02T12:07:52Z",
            "slug": "Ivan-Provedel-The-Superhero-with-the-Golden-Glove-CMonEagles",
            "currencies": [
                {
                    "code": "LAZIO",
                    "title": "Lazio Fan Token",
                    "slug": "lazio-fan-token",
                    "url": "https:\/\/cryptopanic.com\/news\/lazio-fan-token\/"
                }
            ],
            "id": 18493645,
            "url": "https:\/\/cryptopanic.com\/news\/18493645\/Ivan-Provedel-The-Superhero-with-the-Golden-Glove-CMonEagles",
            "created_at": "2023-06-02T12:07:52Z",
            "votes": {
                "negative": 0,
                "positive": 0,
                "important": 0,
                "liked": 0,
                "disliked": 0,
                "lol": 0,
                "toxic": 0,
                "saved": 0,
                "comments": 0
            }
        },
        {
            "kind": "news",
            "domain": "@OfficialSSLazio",
            "source": {
                "title": "Lazio Fan Token Twitter",
                "region": "en",
                "domain": "twitter.com",
                "path": "@officialsslazio"
            },
            "title": "\ud83e\udd29 \ud835\uddd4\ud835\ude00 \ud835\udddc\ud835\ude01 \ud835\uddea\ud835\uddee\ud835\ude00 \n\n#CMonEagles \ud83e\udd85",
            "published_at": "2023-05-29T15:01:42Z",
            "slug": "As-It-Was-CMonEagles",
            "currencies": [
                {
                    "code": "LAZIO",
                    "title": "Lazio Fan Token",
                    "slug": "lazio-fan-token",
                    "url": "https:\/\/cryptopanic.com\/news\/lazio-fan-token\/"
                }
            ],
            "id": 18459787,
            "url": "https:\/\/cryptopanic.com\/news\/18459787\/As-It-Was-CMonEagles",
            "created_at": "2023-05-29T15:01:42Z",
            "votes": {
                "negative": 0,
                "positive": 0,
                "important": 0,
                "liked": 0,
                "disliked": 0,
                "lol": 0,
                "toxic": 0,
                "saved": 0,
                "comments": 0
            }
        },
        {
            "kind": "news",
            "domain": "@OfficialSSLazio",
            "source": {
                "title": "Lazio Fan Token Twitter",
                "region": "en",
                "domain": "twitter.com",
                "path": "@officialsslazio"
            },
            "title": "RT @FelipaoCaicedo: Il big boss \ud83e\udd79",
            "published_at": "2023-05-29T05:54:05Z",
            "slug": "RT-FelipaoCaicedo-Il-big-boss",
            "currencies": [
                {
                    "code": "LAZIO",
                    "title": "Lazio Fan Token",
                    "slug": "lazio-fan-token",
                    "url": "https:\/\/cryptopanic.com\/news\/lazio-fan-token\/"
                }
            ],
            "id": 18453198,
            "url": "https:\/\/cryptopanic.com\/news\/18453198\/RT-FelipaoCaicedo-Il-big-boss",
            "created_at": "2023-05-29T05:54:05Z",
            "votes": {
                "negative": 0,
                "positive": 0,
                "important": 0,
                "liked": 0,
                "disliked": 0,
                "lol": 0,
                "toxic": 0,
                "saved": 0,
                "comments": 0
            }
        },
        {
            "kind": "news",
            "domain": "@OfficialSSLazio",
            "source": {
                "title": "Lazio Fan Token Twitter",
                "region": "en",
                "domain": "twitter.com",
                "path": "@officialsslazio"
            },
            "title": " Gli highlights di #LazioCremonese\n\ufe0f",
            "published_at": "2023-05-29T05:53:51Z",
            "slug": "Gli-highlights-di-LazioCremonese",
            "currencies": [
                {
                    "code": "LAZIO",
                    "title": "Lazio Fan Token",
                    "slug": "lazio-fan-token",
                    "url": "https:\/\/cryptopanic.com\/news\/lazio-fan-token\/"
                }
            ],
            "id": 18453199,
            "url": "https:\/\/cryptopanic.com\/news\/18453199\/Gli-highlights-di-LazioCremonese",
            "created_at": "2023-05-29T05:53:51Z",
            "votes": {
                "negative": 0,
                "positive": 0,
                "important": 0,
                "liked": 0,
                "disliked": 0,
                "lol": 0,
                "toxic": 0,
                "saved": 0,
                "comments": 0
            }
        },
        {
            "kind": "news",
            "domain": "@OfficialSSLazio",
            "source": {
                "title": "Lazio Fan Token Twitter",
                "region": "en",
                "domain": "twitter.com",
                "path": "@officialsslazio"
            },
            "title": "\ud83e\ude75 This is US \n\n#CMonEagles \ud83e\udd85",
            "published_at": "2023-05-28T20:00:53Z",
            "slug": "This-is-US-CMonEagles",
            "currencies": [
                {
                    "code": "LAZIO",
                    "title": "Lazio Fan Token",
                    "slug": "lazio-fan-token",
                    "url": "https:\/\/cryptopanic.com\/news\/lazio-fan-token\/"
                }
            ],
            "id": 18453200,
            "url": "https:\/\/cryptopanic.com\/news\/18453200\/This-is-US-CMonEagles",
            "created_at": "2023-05-28T20:00:53Z",
            "votes": {
                "negative": 0,
                "positive": 0,
                "important": 0,
                "liked": 0,
                "disliked": 0,
                "lol": 0,
                "toxic": 0,
                "saved": 0,
                "comments": 0
            }
        },
        {
            "kind": "news",
            "domain": "@OfficialSSLazio",
            "source": {
                "title": "Lazio Fan Token Twitter",
                "region": "en",
                "domain": "twitter.com",
                "path": "@officialsslazio"
            },
            "title": " Suit up, it's Champions League time!\n\n#CMonEagles \ud83e\udd85",
            "published_at": "2023-05-28T19:11:53Z",
            "slug": "Suit-up-its-Champions-League-time-CMonEagles",
            "currencies": [
                {
                    "code": "LAZIO",
                    "title": "Lazio Fan Token",
                    "slug": "lazio-fan-token",
                    "url": "https:\/\/cryptopanic.com\/news\/lazio-fan-token\/"
                }
            ],
            "id": 18453201,
            "url": "https:\/\/cryptopanic.com\/news\/18453201\/Suit-up-its-Champions-League-time-CMonEagles",
            "created_at": "2023-05-28T19:11:53Z",
            "votes": {
                "negative": 0,
                "positive": 0,
                "important": 0,
                "liked": 0,
                "disliked": 0,
                "lol": 0,
                "toxic": 0,
                "saved": 0,
                "comments": 0
            }
        },
        {
            "kind": "news",
            "domain": "@OfficialSSLazio",
            "source": {
                "title": "Lazio Fan Token Twitter",
                "region": "en",
                "domain": "twitter.com",
                "path": "@officialsslazio"
            },
            "title": " \ud835\udde7 \ud835\udddb \ud835\uddd8 \ud835\udde0 \ud835\udde2 \ud835\udde9 \ud835\udddc \ud835\uddd8 \n\ud835\udc7a\ud835\udc91\ud835\udc86\ud835\udc84\ud835\udc8a\ud835\udc82\ud835\udc8d \ud835\udc6c\ud835\udc85\ud835\udc8a\ud835\udc95\ud835\udc8a\ud835\udc90\ud835\udc8f\nRoma VS Lazio\n\n\ufe0f",
            "published_at": "2023-05-26T08:00:38Z",
            "slug": "T-H-E-M-O-V-I-E-Special-Edition-Roma-VS-Lazio",
            "currencies": [
                {
                    "code": "LAZIO",
                    "title": "Lazio Fan Token",
                    "slug": "lazio-fan-token",
                    "url": "https:\/\/cryptopanic.com\/news\/lazio-fan-token\/"
                }
            ],
            "id": 18434145,
            "url": "https:\/\/cryptopanic.com\/news\/18434145\/T-H-E-M-O-V-I-E-Special-Edition-Roma-VS-Lazio",
            "created_at": "2023-05-26T08:00:38Z",
            "votes": {
                "negative": 0,
                "positive": 0,
                "important": 0,
                "liked": 0,
                "disliked": 0,
                "lol": 0,
                "toxic": 0,
                "saved": 0,
                "comments": 0
            }
        },
        {
            "kind": "news",
            "domain": "@OfficialSSLazio",
            "source": {
                "title": "Lazio Fan Token Twitter",
                "region": "en",
                "domain": "twitter.com",
                "path": "@officialsslazio"
            },
            "title": "\ud83e\udd29 Oh the beauty\n\n#CMonEagles \ud83e\udd85",
            "published_at": "2023-05-22T20:41:55Z",
            "slug": "Oh-the-beauty-CMonEagles",
            "currencies": [
                {
                    "code": "LAZIO",
                    "title": "Lazio Fan Token",
                    "slug": "lazio-fan-token",
                    "url": "https:\/\/cryptopanic.com\/news\/lazio-fan-token\/"
                }
            ],
            "id": 18406099,
            "url": "https:\/\/cryptopanic.com\/news\/18406099\/Oh-the-beauty-CMonEagles",
            "created_at": "2023-05-22T20:41:55Z",
            "votes": {
                "negative": 0,
                "positive": 0,
                "important": 0,
                "liked": 0,
                "disliked": 0,
                "lol": 0,
                "toxic": 0,
                "saved": 0,
                "comments": 0
            }
        },
        {
            "kind": "news",
            "domain": "@OfficialSSLazio",
            "source": {
                "title": "Lazio Fan Token Twitter",
                "region": "en",
                "domain": "twitter.com",
                "path": "@officialsslazio"
            },
            "title": "\ufe0f 20 CLEAN SHEET\n\n#UdineseLazio | #CMonEagles \ud83e\udd85",
            "published_at": "2023-05-21T22:09:26Z",
            "slug": "20-CLEAN-SHEET-UdineseLazio-CMonEagles",
            "currencies": [
                {
                    "code": "LAZIO",
                    "title": "Lazio Fan Token",
                    "slug": "lazio-fan-token",
                    "url": "https:\/\/cryptopanic.com\/news\/lazio-fan-token\/"
                }
            ],
            "id": 18398199,
            "url": "https:\/\/cryptopanic.com\/news\/18398199\/20-CLEAN-SHEET-UdineseLazio-CMonEagles",
            "created_at": "2023-05-21T22:09:26Z",
            "votes": {
                "negative": 0,
                "positive": 0,
                "important": 0,
                "liked": 0,
                "disliked": 0,
                "lol": 0,
                "toxic": 0,
                "saved": 0,
                "comments": 0
            }
        },
        {
            "kind": "news",
            "domain": "@OfficialSSLazio",
            "source": {
                "title": "Lazio Fan Token Twitter",
                "region": "en",
                "domain": "twitter.com",
                "path": "@officialsslazio"
            },
            "title": " Gli highlights di #GenoaLazio\n\ufe0f \n\n#SupercoppaPrimavera2 | #TuttiPer1 ",
            "published_at": "2023-05-18T15:03:57Z",
            "slug": "Gli-highlights-di-GenoaLazio-SupercoppaPrimavera2-TuttiPer1",
            "currencies": [
                {
                    "code": "LAZIO",
                    "title": "Lazio Fan Token",
                    "slug": "lazio-fan-token",
                    "url": "https:\/\/cryptopanic.com\/news\/lazio-fan-token\/"
                }
            ],
            "id": 18378542,
            "url": "https:\/\/cryptopanic.com\/news\/18378542\/Gli-highlights-di-GenoaLazio-SupercoppaPrimavera2-TuttiPer1",
            "created_at": "2023-05-18T15:03:57Z",
            "votes": {
                "negative": 0,
                "positive": 0,
                "important": 0,
                "liked": 0,
                "disliked": 0,
                "lol": 0,
                "toxic": 0,
                "saved": 0,
                "comments": 0
            }
        },
        {
            "kind": "news",
            "domain": "@OfficialSSLazio",
            "source": {
                "title": "Lazio Fan Token Twitter",
                "region": "en",
                "domain": "twitter.com",
                "path": "@officialsslazio"
            },
            "title": "82' | Oudin lascia il posto a Helgason \n\n#LazioLecce 1-2",
            "published_at": "2023-05-12T20:29:09Z",
            "slug": "82-Oudin-lascia-il-posto-a-Helgason-LazioLecce-1-2",
            "currencies": [
                {
                    "code": "LAZIO",
                    "title": "Lazio Fan Token",
                    "slug": "lazio-fan-token",
                    "url": "https:\/\/cryptopanic.com\/news\/lazio-fan-token\/"
                }
            ],
            "id": 18332032,
            "url": "https:\/\/cryptopanic.com\/news\/18332032\/82-Oudin-lascia-il-posto-a-Helgason-LazioLecce-1-2",
            "created_at": "2023-05-12T20:29:09Z",
            "votes": {
                "negative": 0,
                "positive": 0,
                "important": 0,
                "liked": 0,
                "disliked": 0,
                "lol": 0,
                "toxic": 0,
                "saved": 0,
                "comments": 0
            }
        },
        {
            "kind": "news",
            "domain": "@OfficialSSLazio",
            "source": {
                "title": "Lazio Fan Token Twitter",
                "region": "en",
                "domain": "twitter.com",
                "path": "@officialsslazio"
            },
            "title": "65' | \ufe0f Giallo per Oudin \n\n#LazioLecce 1-2",
            "published_at": "2023-05-12T20:10:50Z",
            "slug": "65-Giallo-per-Oudin-LazioLecce-1-2",
            "currencies": [
                {
                    "code": "LAZIO",
                    "title": "Lazio Fan Token",
                    "slug": "lazio-fan-token",
                    "url": "https:\/\/cryptopanic.com\/news\/lazio-fan-token\/"
                }
            ],
            "id": 18332033,
            "url": "https:\/\/cryptopanic.com\/news\/18332033\/65-Giallo-per-Oudin-LazioLecce-1-2",
            "created_at": "2023-05-12T20:10:50Z",
            "votes": {
                "negative": 0,
                "positive": 0,
                "important": 0,
                "liked": 0,
                "disliked": 0,
                "lol": 0,
                "toxic": 0,
                "saved": 0,
                "comments": 0
            }
        }
    ]
}
